0 0 0
0 0 0
0 0 0
0 0 0
0 0 0
0 0 0
0 0 0
0 0 0
0 0 0
0 0 0
0 0 0
0 0 0
0 0 0
0 0 0
0 0 0
0 0 0
0 0 0
0 0 0
0 0 0
0 0 0
0 0 0
0 0 0
0 0 0
0 0 0
0 0 0
0 0 0
0 0 0
0 0 0
0.361394 -0.1374884 0.1581372
0.3780471 -0.1029005 0.1929556
0.3483914 -0.1107472 0.1631803
0.3340611 -0.06740271 0.1671271
0.3365105 -0.04424247 0.1912754
0.3387487 -0.04084696 0.2093636
0.3571739 -0.1165596 0.168912
0.3716945 -0.05724195 0.1953005
0.3711004 -0.02131496 0.2113915
0.3532258 -0.01856232 0.2290675
0.3408666 -0.03025315 0.232234
0.3623498 -0.122864 0.1726144
0.3874339 -0.06985122 0.2064819
0.3983816 -0.02914522 0.2303897
0.3828848 -0.01729192 0.2514298
0.3667675 -0.02144001 0.2576045
0.3690374 -0.1310566 0.1781696
0.3948185 -0.08552538 0.2194065
0.4091374 -0.05123979 0.2428355
0.4035882 -0.03664155 0.261808
0.3938455 -0.02928612 0.2759969
0.3716335 -0.1387219 0.1835658
0.3982551 -0.1080143 0.2283731
0.41578 -0.09303766 0.2466694
0.4172159 -0.08741376 0.2649274
0.413485 -0.08187415 0.278368
