0 0 0
0 0 0
0 0 0
0 0 0
0 0 0
0 0 0
0 0 0
0 0 0
0 0 0
0 0 0
0 0 0
0 0 0
0 0 0
0 0 0
0 0 0
0 0 0
0 0 0
0 0 0
0 0 0
0 0 0
0 0 0
0 0 0
0 0 0
0 0 0
0 0 0
0 0 0
0 0 0
0 0 0
0.3580969 -0.1385149 0.1578867
0.3767599 -0.1074531 0.1943978
0.3471055 -0.1115458 0.1636446
0.3350427 -0.06809866 0.168639
0.3388016 -0.04825059 0.194709
0.3407698 -0.0460183 0.2131064
0.3552612 -0.1181679 0.1693339
0.3739614 -0.06159947 0.1991487
0.3752114 -0.02843745 0.2181322
0.3558385 -0.03002478 0.2343047
0.34388 -0.04251467 0.2340926
0.3598642 -0.1249959 0.1728248
0.3879504 -0.07641844 0.2099607
0.3972413 -0.04017478 0.2400862
0.3793604 -0.03162162 0.260976
0.3627942 -0.0359257 0.2654415
0.3658041 -0.133903 0.1781039
0.3935354 -0.0935552 0.2222124
0.4055865 -0.06436887 0.2514761
0.3951058 -0.05414602 0.2711392
0.3817817 -0.0503127 0.2837898
0.367696 -0.1420113 0.1831327
0.3958056 -0.1162807 0.2297335
0.4133572 -0.1053075 0.2491069
0.4117082 -0.101891 0.2682728
0.4039951 -0.09786949 0.280664
