0 0 0
0.2029253 -0.140968 0.2927289
0.2441394 -0.1148237 0.3075163
0.2116211 -0.1194584 0.2799167
0.2312967 -0.08775641 0.2535392
0.2607484 -0.0753271 0.2406454
0.2791892 -0.07450072 0.2368709
0.2166578 -0.1248833 0.2884369
0.2567925 -0.07094922 0.3004928
0.2860617 -0.04311594 0.3097514
0.308866 -0.0420902 0.2974629
0.3175866 -0.04850799 0.2851936
0.2193536 -0.1308909 0.2934959
0.264681 -0.08728353 0.3152093
0.306211 -0.06827273 0.3169244
0.3220002 -0.07533036 0.293461
0.3179933 -0.08397702 0.278503
0.2235531 -0.1389768 0.3000793
0.273303 -0.1067299 0.3209157
0.3124454 -0.09573843 0.3180417
0.3226038 -0.1008374 0.2963778
0.3201738 -0.107457 0.2785264
0.2271564 -0.1475397 0.3029652
0.2786535 -0.1281715 0.3234839
0.3054697 -0.1234828 0.3214112
0.3189383 -0.1258815 0.3074453
0.32283 -0.1258307 0.2927153
0 0 0
0.310386 -0.1808708 0.1014287
0.342538 -0.16518 0.1385949
0.3062975 -0.1560388 0.1177925
0.3040416 -0.1152325 0.1408425
0.308204 -0.092714 0.1632033
0.3069424 -0.07308041 0.1708048
0.3142783 -0.164832 0.1186301
0.3507539 -0.1237899 0.1570269
0.3797309 -0.1089514 0.1861413
0.3826701 -0.1083592 0.2120436
0.3781857 -0.1113767 0.2270307
0.3182836 -0.1727308 0.1184601
0.3634661 -0.1439133 0.1579039
0.3907437 -0.1347704 0.1953665
0.3862233 -0.1363979 0.2235481
0.3756648 -0.1392998 0.2370237
0.3236432 -0.1833388 0.1189406
0.3671344 -0.1651918 0.1624422
0.3874255 -0.1604949 0.1979526
0.3782542 -0.1621335 0.2205385
0.3662113 -0.1643486 0.2346277
0.3252233 -0.1928194 0.1205493
0.3635832 -0.1873679 0.1643125
0.3702722 -0.1877818 0.1910893
0.3622503 -0.1899063 0.2086655
0.3511634 -0.1879766 0.2188138
