0 0 0
0.2693634 -0.3184484 0.3228564
0.318303 -0.3156668 0.3400199
0.2882003 -0.3059479 0.3121645
0.3274625 -0.3051685 0.2869464
0.3594258 -0.3199536 0.2768309
0.3753796 -0.3302257 0.2745216
0.2893381 -0.3119111 0.3205989
0.3512395 -0.2840923 0.334038
0.3901044 -0.2777046 0.3483759
0.4113586 -0.2893544 0.3391202
0.417106 -0.2995815 0.3277719
0.2887789 -0.3179381 0.3251195
0.3496583 -0.3015709 0.3507125
0.3924448 -0.3012384 0.3697672
0.4165607 -0.3135014 0.3601332
0.422431 -0.3221819 0.3460309
0.2884786 -0.3264975 0.3311016
0.3480419 -0.3220957 0.3586737
0.3852707 -0.322986 0.3773316
0.4072035 -0.3324896 0.371675
0.419127 -0.3415031 0.3599734
0.287203 -0.3356909 0.334056
0.341042 -0.3434253 0.3588814
0.3688358 -0.3494793 0.3657467
0.3852727 -0.3588549 0.3601433
0.3952238 -0.3630884 0.3495198
0 0 0
0.2791194 -0.2990438 -0.02176265
0.2908455 -0.3003055 0.03183481
0.2683374 -0.2811216 -0.0003590763
0.2467284 -0.2543027 0.02935021
0.2328847 -0.2497956 0.05874967
0.2235837 -0.2472809 0.0761001
0.2752874 -0.2901745 0.001476506
0.2870871 -0.269446 0.06461625
0.2822431 -0.2748296 0.1061575
0.2652164 -0.285996 0.1222917
0.2528045 -0.293936 0.127604
0.2794126 -0.2976392 0.0008320315
0.2978604 -0.2899005 0.06212192
0.2832122 -0.3056384 0.1063729
0.261757 -0.3163707 0.1212636
0.2459292 -0.3221504 0.1247544
0.2845032 -0.3080382 0.0003052823
0.2995577 -0.3115117 0.05846379
0.2839879 -0.3299399 0.09565925
0.2646969 -0.3386825 0.1077587
0.2487458 -0.3447953 0.1143502
0.2857915 -0.3176114 -0.0012496
0.2984307 -0.3323999 0.05225936
0.2856719 -0.344824 0.07501214
0.2719007 -0.352584 0.08505847
0.2589267 -0.3553937 0.09197946
