0 0 0
0.2574137 -0.1132538 0.3148321
0.2871725 -0.08810209 0.3454311
0.2657689 -0.09185363 0.3091541
0.3014114 -0.06288913 0.2949342
0.3306941 -0.04815691 0.2802406
0.3443245 -0.0377982 0.2696396
0.2681772 -0.09753422 0.3177071
0.2960649 -0.04266172 0.3491321
0.3141692 -0.01716016 0.37165
0.3351804 -0.02166935 0.3592151
0.3337396 -0.03220008 0.3450465
0.2700214 -0.1036185 0.3219797
0.300955 -0.0603996 0.3640853
0.3300492 -0.03868869 0.3877421
0.3496948 -0.04339549 0.3670033
0.3407157 -0.05049663 0.3527945
0.2732051 -0.1118013 0.3278687
0.3096635 -0.07946772 0.3712878
0.3358161 -0.06339832 0.3934229
0.3526333 -0.06485343 0.3764085
0.3478312 -0.07008406 0.3576378
0.2768253 -0.1204414 0.3304919
0.3162793 -0.1017794 0.3698638
0.3382117 -0.09658634 0.3787602
0.3481442 -0.09646956 0.3623155
0.3415343 -0.0928879 0.3480695
0 0 0
0 0 0
0 0 0
0 0 0
0 0 0
0 0 0
0 0 0
0 0 0
0 0 0
0 0 0
0 0 0
0 0 0
0 0 0
0 0 0
0 0 0
0 0 0
0 0 0
0 0 0
0 0 0
0 0 0
0 0 0
0 0 0
0 0 0
0 0 0
0 0 0
0 0 0
0 0 0
