0 0 0
0 0 0
0 0 0
0 0 0
0 0 0
0 0 0
0 0 0
0 0 0
0 0 0
0 0 0
0 0 0
0 0 0
0 0 0
0 0 0
0 0 0
0 0 0
0 0 0
0 0 0
0 0 0
0 0 0
0 0 0
0 0 0
0 0 0
0 0 0
0 0 0
0 0 0
0 0 0
0 0 0
0.3577939 -0.1562716 0.1550778
0.3763905 -0.1311521 0.1958573
0.3514265 -0.132986 0.1633192
0.3292489 -0.1028513 0.1920523
0.3138312 -0.09061944 0.2225841
0.306228 -0.085487 0.2396749
0.3581964 -0.1392421 0.1684389
0.3790317 -0.08716571 0.2051046
0.351173 -0.08676498 0.2332315
0.3315811 -0.1003971 0.2233109
0.326577 -0.1081534 0.2096933
0.361154 -0.1455134 0.1717289
0.3871951 -0.1072033 0.2117522
0.3547631 -0.1058019 0.2445635
0.3289419 -0.112662 0.2322071
0.3210381 -0.1162759 0.2169925
0.3649025 -0.1540184 0.1767214
0.3868033 -0.1265931 0.2211038
0.36122 -0.122838 0.2562878
0.3367777 -0.1235056 0.255185
0.320134 -0.1246806 0.2462321
0.3654216 -0.1627699 0.180953
0.3824322 -0.1461286 0.2295989
0.3584241 -0.1415486 0.2500635
0.3393572 -0.1409165 0.2534745
0.3249675 -0.1379018 0.2498372
