0 0 0
0 0 0
0 0 0
0 0 0
0 0 0
0 0 0
0 0 0
0 0 0
0 0 0
0 0 0
0 0 0
0 0 0
0 0 0
0 0 0
0 0 0
0 0 0
0 0 0
0 0 0
0 0 0
0 0 0
0 0 0
0 0 0
0 0 0
0 0 0
0 0 0
0 0 0
0 0 0
0 0 0
0.3549549 -0.2114567 0.1542715
0.3817736 -0.1940064 0.1923833
0.3498784 -0.190674 0.1666945
0.333684 -0.1657004 0.2028736
0.3245227 -0.1583871 0.2365774
0.3192011 -0.1542446 0.2550626
0.3576412 -0.1975501 0.1691343
0.3879004 -0.1515793 0.2101014
0.4002472 -0.1397172 0.2445561
0.3817334 -0.1493218 0.259762
0.3673056 -0.1573571 0.2588876
0.3612852 -0.2042705 0.1704412
0.3992867 -0.1722218 0.2128319
0.4108021 -0.1702622 0.2558136
0.3869412 -0.1761757 0.2717412
0.3698983 -0.1787435 0.2676094
0.3661458 -0.213434 0.1728141
0.3987155 -0.1937979 0.21674
0.3882008 -0.1995376 0.2571223
0.3651199 -0.2009657 0.2647984
0.3465833 -0.2015494 0.2657179
0.3676319 -0.2227578 0.1751587
0.3938258 -0.215222 0.2189233
0.369951 -0.2199131 0.2400702
0.3536767 -0.2208959 0.2475279
0.3399179 -0.2191522 0.2530595
