0 0 0
0 0 0
0 0 0
0 0 0
0 0 0
0 0 0
0 0 0
0 0 0
0 0 0
0 0 0
0 0 0
0 0 0
0 0 0
0 0 0
0 0 0
0 0 0
0 0 0
0 0 0
0 0 0
0 0 0
0 0 0
0 0 0
0 0 0
0 0 0
0 0 0
0 0 0
0 0 0
0 0 0
0.3892557 -0.2089896 0.09983718
0.4175228 -0.1698534 0.1144046
0.378824 -0.1860938 0.1120342
0.3666236 -0.1465286 0.1346057
0.3719429 -0.1207206 0.1555914
0.3724682 -0.105289 0.1683862
0.3897564 -0.1894904 0.1101914
0.407241 -0.1253284 0.1208265
0.4248184 -0.08951364 0.1344916
0.4301363 -0.08126738 0.1585311
0.4285333 -0.08510337 0.1743802
0.3968519 -0.1941895 0.1095124
0.4279685 -0.1359889 0.1192233
0.4503995 -0.1002593 0.1419481
0.4522461 -0.0938381 0.169854
0.4460219 -0.09870271 0.1855022
0.4065824 -0.2002137 0.1092043
0.4439873 -0.149942 0.1245989
0.4661691 -0.1209835 0.1458811
0.4668142 -0.115908 0.1698688
0.4606627 -0.1185774 0.1876777
0.413425 -0.2067523 0.1114211
0.4553119 -0.1683951 0.13029
0.4722328 -0.1513424 0.145375
0.4749954 -0.1478543 0.1646468
0.468238 -0.1468201 0.1783592
