0 0 0
0.1904975 -0.1467604 0.2837747
0.2328905 -0.1210157 0.2962065
0.2001875 -0.1277847 0.2713025
0.2332107 -0.1090751 0.2434588
0.267097 -0.1062592 0.2301957
0.2855774 -0.1059398 0.2243479
0.2045515 -0.1321551 0.2796745
0.2462615 -0.07779388 0.2869883
0.2771465 -0.0492018 0.2956052
0.3004395 -0.04540462 0.2852391
0.3086291 -0.05230024 0.2722654
0.207232 -0.1375716 0.2842565
0.2544957 -0.09363547 0.3023237
0.2967908 -0.07480594 0.3040733
0.3149608 -0.08063818 0.2824188
0.3115679 -0.08926356 0.2672118
0.2114455 -0.1449933 0.2902786
0.26338 -0.1124608 0.309611
0.3017243 -0.09890272 0.3128797
0.3170902 -0.1027002 0.2942663
0.3173661 -0.1095485 0.276098
0.2149574 -0.1535306 0.2933476
0.2677991 -0.1341199 0.3123325
0.2951009 -0.1278739 0.3135051
0.3101675 -0.1304303 0.3008841
0.313369 -0.1306932 0.2857983
0 0 0
0.3171835 -0.1335509 0.1342046
0.3396246 -0.1139349 0.1774401
0.3115681 -0.1103114 0.1453619
0.2935493 -0.07822968 0.1749222
0.2811727 -0.06375099 0.2029882
0.2717855 -0.04932276 0.2145204
0.3183351 -0.1177949 0.1495226
0.3446613 -0.07072274 0.1919163
0.356692 -0.04904286 0.2242643
0.3422668 -0.0475552 0.2456199
0.3272699 -0.05249026 0.2508228
0.321348 -0.1247688 0.1518436
0.355683 -0.09027366 0.1990767
0.3723936 -0.07019879 0.2390076
0.359217 -0.06493331 0.2639655
0.3432961 -0.06569734 0.2713089
0.3251709 -0.1342181 0.155537
0.3582715 -0.1101665 0.2072795
0.3776028 -0.09405605 0.2417488
0.3714552 -0.08793519 0.2647299
0.3596135 -0.08537728 0.2792063
0.3255222 -0.1434239 0.1586791
0.3549194 -0.1319498 0.2108077
0.369971 -0.1234971 0.2354392
0.366879 -0.1214195 0.2547033
0.3584657 -0.1172926 0.2665998
