0, 0, 0
0, 0, 0
0, 0, 0
0, 0, 0
0, 0, 0
0, 0, 0
0, 0, 0
0, 0, 0
0, 0, 0
0, 0, 0
0, 0, 0
0, 0, 0
0, 0, 0
0, 0, 0
0, 0, 0
0, 0, 0
0, 0, 0
0, 0, 0
0, 0, 0
0, 0, 0
0, 0, 0
0, 0, 0
0, 0, 0
0, 0, 0
0, 0, 0
0, 0, 0
0, 0, 0
0, 0, 0
0.07947028, -0.06782061, 0.2907057
0.06369045, -0.03655968, 0.324947
0.06055769, -0.04949206, 0.2857421
0.03122519, -0.01827583, 0.2766058
0.007466195, 0.002117455, 0.2747155
-0.004890806, 0.01559037, 0.2677562
0.06536594, -0.05226623, 0.2953041
0.04398828, 0.001643079, 0.3218137
0.0275187, 0.03132982, 0.3484124
0.01176407, 0.04209822, 0.3637269
-0.0003948434, 0.04473358, 0.3725683
0.06906141, -0.05650477, 0.3014329
0.05417508, -0.008192373, 0.3391898
0.03140366, 0.0177892, 0.3733242
0.01321491, 0.02618596, 0.3905369
-0.001639836, 0.02655467, 0.3980804
0.07346961, -0.06207333, 0.3099375
0.05776141, -0.02227672, 0.3535292
0.04094492, 0.0001853003, 0.3844736
0.02389653, 0.005870217, 0.399034
0.00826292, 0.006939498, 0.4078263
0.07515015, -0.06882915, 0.3158545
0.06053849, -0.04028135, 0.3628639
0.04801552, -0.02619435, 0.3849777
0.03490987, -0.02363163, 0.3978479
0.02183915, -0.02216371, 0.4034453
