0, 0, 0
0, 0, 0
0, 0, 0
0, 0, 0
0, 0, 0
0, 0, 0
0, 0, 0
0, 0, 0
0, 0, 0
0, 0, 0
0, 0, 0
0, 0, 0
0, 0, 0
0, 0, 0
0, 0, 0
0, 0, 0
0, 0, 0
0, 0, 0
0, 0, 0
0, 0, 0
0, 0, 0
0, 0, 0
0, 0, 0
0, 0, 0
0, 0, 0
0, 0, 0
0, 0, 0
0, 0, 0
0.0755353, -0.08712015, 0.3107675
0.05637986, -0.04839584, 0.3343146
0.04954707, -0.08308981, 0.3145094
0.006799708, -0.07368378, 0.3271113
-0.02280532, -0.06852882, 0.3403608
-0.04140823, -0.06793348, 0.3448049
0.05808601, -0.07757223, 0.3182985
0.01740986, -0.03030289, 0.3317626
-0.009756924, -0.001122285, 0.347565
-0.02561795, 0.01093878, 0.3618429
-0.03486756, 0.0148061, 0.373311
0.06514606, -0.07563782, 0.3214623
0.03596835, -0.02211643, 0.3405232
0.009548889, 0.01472069, 0.3618099
-0.004699034, 0.0315549, 0.3759927
-0.01435537, 0.03880066, 0.387284
0.07428032, -0.0729432, 0.326263
0.0518905, -0.02098075, 0.3526046
0.03337217, 0.01514664, 0.367991
0.02307427, 0.03281135, 0.3788453
0.01510993, 0.0455569, 0.3879909
0.08166268, -0.07345093, 0.3316136
0.06914116, -0.02618293, 0.3630337
0.05943189, 0.002728697, 0.3739606
0.05569714, 0.01754766, 0.384435
0.05003482, 0.02755712, 0.3927884
