0, 0, 0
0, 0, 0
0, 0, 0
0, 0, 0
0, 0, 0
0, 0, 0
0, 0, 0
0, 0, 0
0, 0, 0
0, 0, 0
0, 0, 0
0, 0, 0
0, 0, 0
0, 0, 0
0, 0, 0
0, 0, 0
0, 0, 0
0, 0, 0
0, 0, 0
0, 0, 0
0, 0, 0
0, 0, 0
0, 0, 0
0, 0, 0
0, 0, 0
0, 0, 0
0, 0, 0
0, 0, 0
0.103169, -0.06416057, 0.3170219
0.07726933, -0.0474938, 0.3542694
0.1039644, -0.03886587, 0.3243989
0.1033783, 0.003207518, 0.337402
0.09477313, 0.0336684, 0.3463158
0.08791073, 0.0503671, 0.3501856
0.09765325, -0.04711236, 0.3279141
0.08219679, -0.01273221, 0.3791855
0.05733687, 0.009003031, 0.4021977
0.03754392, 0.02279122, 0.3993594
0.02687464, 0.02948031, 0.3900052
0.0931109, -0.05387896, 0.3282439
0.06970587, -0.0308922, 0.3812662
0.03664952, -0.007229052, 0.4036115
0.0166356, 0.009346142, 0.3974542
0.009472965, 0.01802852, 0.3848376
0.08651043, -0.06254957, 0.3287915
0.05521729, -0.04444676, 0.3765216
0.02556412, -0.0260021, 0.3972541
0.009100926, -0.01096616, 0.3914163
0.00103603, 0.000120738, 0.3791069
0.08032403, -0.06882228, 0.3263623
0.042921, -0.05766813, 0.366742
0.0222837, -0.04526895, 0.3785784
0.009105277, -0.03354681, 0.3728939
0.00532903, -0.02245796, 0.3643287
