0, 0, 0
0, 0, 0
0, 0, 0
0, 0, 0
0, 0, 0
0, 0, 0
0, 0, 0
0, 0, 0
0, 0, 0
0, 0, 0
0, 0, 0
0, 0, 0
0, 0, 0
0, 0, 0
0, 0, 0
0, 0, 0
0, 0, 0
0, 0, 0
0, 0, 0
0, 0, 0
0, 0, 0
0, 0, 0
0, 0, 0
0, 0, 0
0, 0, 0
0, 0, 0
0, 0, 0
0, 0, 0
0.07904803, -0.06903828, 0.2907948
0.0632682, -0.03777736, 0.3250362
0.06013543, -0.05070974, 0.2858313
0.03080292, -0.01949351, 0.276695
0.007043918, 0.0008997699, 0.2748047
-0.00531309, 0.01437268, 0.2678453
0.06494369, -0.0534839, 0.2953933
0.04356603, 0.0004253844, 0.3219029
0.02709645, 0.03011212, 0.3485016
0.01134182, 0.0408805, 0.3638161
-0.0008171037, 0.04351586, 0.3726574
0.06863917, -0.05772245, 0.301522
0.05375284, -0.009410069, 0.339279
0.03098142, 0.01657149, 0.3734133
0.01279267, 0.02496824, 0.3906261
-0.002062085, 0.02533696, 0.3981695
0.07304737, -0.06329101, 0.3100267
0.05733917, -0.02349441, 0.3536183
0.04052269, -0.001032409, 0.3845627
0.0234743, 0.004652507, 0.3991232
0.007840679, 0.005721783, 0.4079154
0.07472791, -0.07004682, 0.3159437
0.06011627, -0.04149904, 0.362953
0.04759328, -0.02741205, 0.3850669
0.03448765, -0.02484933, 0.3979371
0.02141691, -0.02338141, 0.4035345
