0, 0, 0
0, 0, 0
0, 0, 0
0, 0, 0
0, 0, 0
0, 0, 0
0, 0, 0
0, 0, 0
0, 0, 0
0, 0, 0
0, 0, 0
0, 0, 0
0, 0, 0
0, 0, 0
0, 0, 0
0, 0, 0
0, 0, 0
0, 0, 0
0, 0, 0
0, 0, 0
0, 0, 0
0, 0, 0
0, 0, 0
0, 0, 0
0, 0, 0
0, 0, 0
0, 0, 0
0, 0, 0
0.08146273, -0.06239003, 0.2927666
0.050914, -0.04364159, 0.3259647
0.08008395, -0.03685636, 0.2975257
0.07699931, 0.006259865, 0.3040469
0.06726094, 0.03713439, 0.3069202
0.06175508, 0.05504498, 0.3075718
0.07375383, -0.04485468, 0.3014006
0.05157719, -0.006260403, 0.3475128
0.02656072, 0.01533276, 0.3759242
0.008903891, 0.02875123, 0.3863324
-0.00360918, 0.03695111, 0.3889742
0.06948094, -0.05177137, 0.3021496
0.03983087, -0.02499464, 0.35093
0.003723506, -0.00302498, 0.3763963
-0.01768729, 0.00973838, 0.3853273
-0.03145562, 0.0190383, 0.3841235
0.06327434, -0.06067822, 0.3031305
0.02658749, -0.03998544, 0.3465148
-0.005815087, -0.02323566, 0.3683673
-0.02554997, -0.01202154, 0.3733194
-0.04061445, -0.00224923, 0.3720835
0.0577158, -0.06756792, 0.3008846
0.01624885, -0.05494557, 0.3369282
-0.007873068, -0.04365126, 0.3497147
-0.02521612, -0.03679833, 0.3521373
-0.03637824, -0.02801569, 0.3505734
