0, 0, 0
0, 0, 0
0, 0, 0
0, 0, 0
0, 0, 0
0, 0, 0
0, 0, 0
0, 0, 0
0, 0, 0
0, 0, 0
0, 0, 0
0, 0, 0
0, 0, 0
0, 0, 0
0, 0, 0
0, 0, 0
0, 0, 0
0, 0, 0
0, 0, 0
0, 0, 0
0, 0, 0
0, 0, 0
0, 0, 0
0, 0, 0
0, 0, 0
0, 0, 0
0, 0, 0
0, 0, 0
0.09756699, -0.06662447, 0.3140038
0.07010896, -0.04780678, 0.3494201
0.09915898, -0.04075417, 0.3211834
0.1027041, 0.000818046, 0.3345032
0.09718854, 0.03164725, 0.3438362
0.09192115, 0.04893373, 0.3477245
0.09217133, -0.04869342, 0.3244217
0.07509065, -0.01281142, 0.3739319
0.05029465, 0.01013878, 0.3965163
0.03117341, 0.02499129, 0.3942678
0.0206631, 0.03255369, 0.3854895
0.08727612, -0.05537755, 0.3245977
0.06172524, -0.03036916, 0.3755981
0.0284269, -0.004795121, 0.3956638
0.00933137, 0.01249986, 0.3887286
0.002684815, 0.02150852, 0.3760937
0.08023201, -0.06390075, 0.3248924
0.04700229, -0.04335567, 0.3702374
0.01710733, -0.02295591, 0.3888288
0.001688868, -0.007309125, 0.3818491
-0.005505403, 0.003939971, 0.3692149
0.07394098, -0.06997082, 0.3222191
0.03470624, -0.05600927, 0.3597808
0.0140126, -0.04124771, 0.3690752
0.002250708, -0.02893961, 0.3619089
-0.0004879435, -0.01796407, 0.3528812
