111439483073
0.999328, 0.03594437, 0.007436089, 0
-0.0308547, 0.9323497, -0.360242, 0
-0.01988187, 0.3597696, 0.9328313, 0
-0.01486588, 0.07278943, -0.1471674, 1
686.3386, 0, 442.8135, 0
0, 687.5867, 238.9119, 0
0, 0, 1, 0
0, 0, 0, 1
