111443539006
0.9993083, 0.03548589, 0.01127026, 0
-0.02920976, 0.9348971, -0.3537169, 0
-0.02308863, 0.3531421, 0.9352866, 0
-0.01371372, 0.07438356, -0.1456436, 1
686.3386, 0, 442.8135, 0
0, 687.5867, 238.9119, 0
0, 0, 1, 0
0, 0, 0, 1
