111437455107
0.9993398, 0.03567186, 0.007147677, 0
-0.03070298, 0.9323266, -0.3603139, 0
-0.01951718, 0.3598558, 0.9328057, 0
-0.01481724, 0.07273793, -0.1473655, 1
686.3386, 0, 442.8135, 0
0, 687.5867, 238.9119, 0
0, 0, 1, 0
0, 0, 0, 1
