111433737169
0.99941, 0.03128242, 0.01427767, 0
-0.02433839, 0.9368235, -0.3489566, 0
-0.02429175, 0.3484026, 0.9370317, 0
-0.01195467, 0.075683, -0.1458823, 1
686.3386, 0, 442.8135, 0
0, 687.5867, 238.9119, 0
0, 0, 1, 0
0, 0, 0, 1
