111441511039
0.9993532, 0.03467509, 0.009720221, 0
-0.02895552, 0.9341925, -0.3555952, 0
-0.02141082, 0.355083, 0.9345912, 0
-0.01400661, 0.07395512, -0.1462421, 1
686.3386, 0, 442.8135, 0
0, 687.5867, 238.9119, 0
0, 0, 1, 0
0, 0, 0, 1
