36886605319
0.8055118, 0.01097751, 0.5924818, 0
0.2549132, 0.8961743, -0.3631728, 0
-0.5349527, 0.44357, 0.7190802, 0
-0.01566567, 0.06753211, 0.1780457, 1
686.1174, 0, 442.8088, 0
0, 687.3669, 238.9073, 0
0, 0, 1, 0
0, 0, 0, 1
