36887957300
0.8036679, 0.01021889, 0.5949928, 0
0.2564626, 0.8962862, -0.3618022, 0
-0.5369804, 0.4433611, 0.717696, 0
-0.01474655, 0.06745303, 0.1785892, 1
686.1174, 0, 442.8088, 0
0, 687.3669, 238.9073, 0
0, 0, 1, 0
0, 0, 0, 1
