36887281309
0.8038412, 0.01046333, 0.5947546, 0
0.2563187, 0.8961693, -0.3621941, 0
-0.5367899, 0.4435921, 0.7176958, 0
-0.01495348, 0.06746583, 0.1784445, 1
686.1174, 0, 442.8088, 0
0, 687.3669, 238.9073, 0
0, 0, 1, 0
0, 0, 0, 1
