36886267323
0.8061266, 0.01200059, 0.5916244, 0
0.2540636, 0.8959372, -0.3643512, 0
-0.5344297, 0.4440222, 0.7191898, 0
-0.01600675, 0.06744353, 0.1778513, 1
686.1174, 0, 442.8088, 0
0, 687.3669, 238.9073, 0
0, 0, 1, 0
0, 0, 0, 1
