36895731194
0.8039542, 0.02306923, 0.5942479, 0
0.1605794, 0.9537109, -0.2542703, 0
-0.5726058, 0.2998447, 0.7630347, 0
-0.01745972, 0.09706899, 0.1806746, 1
686.1174, 0, 442.8088, 0
0, 687.3669, 238.9073, 0
0, 0, 1, 0
0, 0, 0, 1
