36882549373
0.8118334, 0.017865, 0.5836186, 0
0.2482142, 0.8941636, -0.3726445, 0
-0.5285071, 0.447387, 0.7214767, 0
-0.01918355, 0.06698012, 0.1757533, 1
683.9058, 0, 442.7615, 0
0, 685.1699, 238.8613, 0
0, 0, 1, 0
0, 0, 0, 1
