36881197392
0.8105706, 0.01757881, 0.5853801, 0
0.2495356, 0.8939089, -0.3723732, 0
-0.5298216, 0.4479073, 0.7201888, 0
-0.01936242, 0.06698872, 0.1763381, 1
683.9058, 0, 442.7615, 0
0, 685.1699, 238.8613, 0
0, 0, 1, 0
0, 0, 0, 1
