36890999259
0.8056372, 0.01428601, 0.5922422, 0
0.2468497, 0.9006934, -0.3575199, 0
-0.5385351, 0.4342248, 0.7221044, 0
-0.01555161, 0.06926734, 0.1782082, 1
686.1174, 0, 442.8088, 0
0, 687.3669, 238.9073, 0
0, 0, 1, 0
0, 0, 0, 1
