-2.235654715386530544e-01 0.000000000000000000e+00 0.000000000000000000e+00
0.000000000000000000e+00 3.186705146154514973e-02 0.000000000000000000e+00
0.000000000000000000e+00 0.000000000000000000e+00 1.000000000000000000e+00
