0, 0, 0
0, 0, 0
0, 0, 0
0, 0, 0
0, 0, 0
0, 0, 0
0, 0, 0
0, 0, 0
0, 0, 0
0, 0, 0
0, 0, 0
0, 0, 0
0, 0, 0
0, 0, 0
0, 0, 0
0, 0, 0
0, 0, 0
0, 0, 0
0, 0, 0
0, 0, 0
0, 0, 0
0, 0, 0
0, 0, 0
0, 0, 0
0, 0, 0
0, 0, 0
0, 0, 0
0, 0, 0
0.06776036, -0.1322223, 0.153363
0.07620563, -0.08837314, 0.1753145
0.04884157, -0.1166193, 0.1616084
0.0219742, -0.0886664, 0.1892233
0.009089045, -0.07023048, 0.2165747
0.001741086, -0.06095866, 0.231968
0.05968942, -0.1158206, 0.1627418
0.05028438, -0.05132616, 0.1791906
0.04679925, -0.02113561, 0.2072414
0.04109812, -0.02061306, 0.2322196
0.03664485, -0.02856655, 0.2456519
0.06729846, -0.1176391, 0.1642334
0.07280803, -0.05415465, 0.1832234
0.07381777, -0.01624627, 0.2119396
0.06505927, -0.0141121, 0.238783
0.05659241, -0.0233281, 0.2511637
0.07755232, -0.1198037, 0.1669142
0.09039606, -0.06166322, 0.1923385
0.09475574, -0.02589434, 0.2144872
0.08805779, -0.01981287, 0.2370181
0.07927752, -0.02331015, 0.2535498
0.08518749, -0.1240155, 0.170935
0.1055688, -0.07579952, 0.2003396
0.113344, -0.05195169, 0.2154625
0.1131265, -0.04510948, 0.2337802
0.1063671, -0.04347467, 0.2471938
