0, 0, 0
-0.6207051, -0.4022967, 0.1575912
-0.5909971, -0.4130447, 0.194861
-0.6128875, -0.38816, 0.1726125
-0.5736879, -0.3677687, 0.1844192
-0.5371011, -0.3699525, 0.1884421
-0.5178785, -0.3707585, 0.1913151
-0.6104898, -0.3974678, 0.1726773
-0.5833998, -0.3927142, 0.2344969
-0.5451763, -0.3842548, 0.244391
-0.5273344, -0.373615, 0.2295997
-0.5196577, -0.3672113, 0.2174637
-0.6081013, -0.4036107, 0.1699023
-0.5785638, -0.4123702, 0.2250325
-0.5373312, -0.4005556, 0.2353549
-0.5388497, -0.384752, 0.2103928
-0.5539777, -0.3828157, 0.2008398
-0.6042505, -0.4120187, 0.1662262
-0.5707154, -0.4245736, 0.2095445
-0.5342104, -0.4078231, 0.2084533
-0.5437962, -0.3936432, 0.1913422
-0.5609756, -0.3899228, 0.1828691
-0.6002808, -0.4184671, 0.1603223
-0.560814, -0.4347357, 0.1934169
-0.5386946, -0.4190738, 0.1895231
-0.5461226, -0.4048837, 0.177758
-0.5599931, -0.3983334, 0.1748183
0, 0, 0
-0.3277874, -0.3358791, 0.1250463
-0.3239776, -0.3184831, 0.1702628
-0.3453176, -0.3216557, 0.136356
-0.3755619, -0.3079533, 0.1709176
-0.3937397, -0.3063179, 0.2015419
-0.4054509, -0.3048202, 0.2172179
-0.3361344, -0.3256874, 0.1401191
-0.3426339, -0.2827202, 0.1903552
-0.3637267, -0.286547, 0.2268024
-0.3811026, -0.3005968, 0.2392986
-0.3915915, -0.3116056, 0.2432139
-0.3304919, -0.330762, 0.1418879
-0.3265151, -0.2977054, 0.1944426
-0.3556045, -0.3084891, 0.2300403
-0.377179, -0.3263936, 0.2242664
-0.3866965, -0.3360173, 0.2132947
-0.3231151, -0.337746, 0.1449697
-0.3184324, -0.3166044, 0.198338
-0.3444209, -0.3260548, 0.2287157
-0.3607559, -0.3368509, 0.2145014
-0.3652647, -0.3406844, 0.1960372
-0.3187845, -0.346044, 0.1471009
-0.3127018, -0.3364566, 0.2024359
-0.3320877, -0.341136, 0.2212968
-0.347581, -0.3483734, 0.2114788
-0.3542737, -0.3477205, 0.1974952
