0, 0, 0
0, 0, 0
0, 0, 0
0, 0, 0
0, 0, 0
0, 0, 0
0, 0, 0
0, 0, 0
0, 0, 0
0, 0, 0
0, 0, 0
0, 0, 0
0, 0, 0
0, 0, 0
0, 0, 0
0, 0, 0
0, 0, 0
0, 0, 0
0, 0, 0
0, 0, 0
0, 0, 0
0, 0, 0
0, 0, 0
0, 0, 0
0, 0, 0
0, 0, 0
0, 0, 0
0, 0, 0
-0.3078817, -0.2140134, 0.5027508
-0.3168739, -0.2120159, 0.5533515
-0.3262857, -0.1945007, 0.5184804
-0.3482198, -0.1667478, 0.549265
-0.3582749, -0.1654294, 0.5821089
-0.3658639, -0.1664417, 0.5998695
-0.3199601, -0.2039092, 0.5216314
-0.3302307, -0.1787393, 0.5802305
-0.3558793, -0.1870749, 0.6057829
-0.368527, -0.1962568, 0.5862646
-0.3639709, -0.1951667, 0.5696176
-0.3162987, -0.2116676, 0.5222142
-0.3212268, -0.199295, 0.5818068
-0.3565071, -0.2111263, 0.6028507
-0.3645206, -0.2113773, 0.5738423
-0.354225, -0.2056343, 0.5602807
-0.3119549, -0.2222679, 0.5234687
-0.3204577, -0.2202485, 0.5795219
-0.3544267, -0.2305017, 0.594181
-0.3581001, -0.2254781, 0.5707324
-0.3482066, -0.218367, 0.5554323
-0.3110646, -0.2318425, 0.523196
-0.3219451, -0.2414296, 0.576472
-0.3447445, -0.2463225, 0.5837381
-0.3512774, -0.2404671, 0.5658751
-0.3449099, -0.2306117, 0.5552071
