0, 0, 0
-0.263119, -0.3735005, 0.05319098
-0.2513865, -0.392478, 0.09840205
-0.253581, -0.3607781, 0.07223736
-0.2204883, -0.3449786, 0.09881174
-0.1894945, -0.3512534, 0.1160612
-0.1757308, -0.3619207, 0.1221534
-0.2551179, -0.3712166, 0.07239538
-0.2471746, -0.3737554, 0.1391488
-0.2175151, -0.3852568, 0.1596532
-0.2020083, -0.3799597, 0.1406418
-0.2054268, -0.3724998, 0.1255769
-0.2552711, -0.3785904, 0.07014626
-0.2490769, -0.3938876, 0.12942
-0.2070947, -0.4007777, 0.1398546
-0.2011062, -0.3836696, 0.1164126
-0.213493, -0.3748181, 0.106859
-0.2549566, -0.3887516, 0.06728335
-0.2434895, -0.4095966, 0.1167996
-0.2012875, -0.4103337, 0.1223559
-0.191804, -0.3944588, 0.1068009
-0.1967542, -0.3809814, 0.09371511
-0.2527214, -0.3967783, 0.06249429
-0.2345494, -0.4239439, 0.1037835
-0.2056189, -0.4157639, 0.1034649
-0.2005696, -0.4017602, 0.09080187
-0.2043262, -0.3893344, 0.08275121
0, 0, 0
0.06240342, -0.5204511, 0.3556773
0.06696075, -0.5315468, 0.4048787
0.04655448, -0.5096385, 0.3776376
0.02585399, -0.498495, 0.4181677
0.02165948, -0.5089478, 0.4502051
0.01684022, -0.5132455, 0.4689347
0.05462746, -0.5177785, 0.3771512
0.05642319, -0.5082471, 0.4421118
0.04019567, -0.5215219, 0.4774147
0.01979158, -0.5357604, 0.4834716
0.006628322, -0.5443839, 0.4812917
0.05921175, -0.5244641, 0.3750897
0.06891611, -0.5268008, 0.4382571
0.05075917, -0.5444944, 0.4771719
0.02431903, -0.5553805, 0.4753242
0.01003208, -0.5580305, 0.4655768
0.06500221, -0.5338388, 0.3728475
0.07213154, -0.5466475, 0.4312776
0.05129255, -0.5646567, 0.4617368
0.02849713, -0.5681057, 0.4543589
0.01447925, -0.5661874, 0.4415369
0.06709547, -0.5427467, 0.3699197
0.07305127, -0.5660371, 0.4217502
0.05656245, -0.5778762, 0.4390823
0.03766864, -0.5796087, 0.4348707
0.02527067, -0.5740681, 0.4279133
