0, 0, 0
-0.6974918, -0.3714752, 0.1524768
-0.6664805, -0.378028, 0.1890809
-0.6954859, -0.360284, 0.1702636
-0.6617185, -0.3325215, 0.187525
-0.6272386, -0.3180608, 0.1924712
-0.6114337, -0.306886, 0.1971722
-0.6900073, -0.3673951, 0.1688489
-0.6682544, -0.3659061, 0.2318623
-0.6449555, -0.3297954, 0.2280426
-0.6382868, -0.3107432, 0.2129233
-0.6338357, -0.2999395, 0.2029885
-0.6853581, -0.3710009, 0.1651418
-0.6565335, -0.3792576, 0.2184252
-0.6297053, -0.3442444, 0.2247564
-0.642621, -0.3331531, 0.2006098
-0.6518921, -0.3296942, 0.1865372
-0.6784779, -0.3757847, 0.1602423
-0.64455, -0.3837112, 0.201765
-0.622363, -0.3490658, 0.2028974
-0.6384422, -0.3396126, 0.1874943
-0.6532558, -0.3374156, 0.1762261
-0.6722001, -0.3785899, 0.1535469
-0.6302741, -0.3847439, 0.1857259
-0.6180327, -0.3590924, 0.1856437
-0.6303239, -0.3467, 0.1762885
-0.6449405, -0.3436552, 0.1725519
0, 0, 0
-0.3666969, -0.1678472, 0.4813958
-0.3758397, -0.1315281, 0.514668
-0.3882518, -0.1633274, 0.4933405
-0.4151594, -0.1587324, 0.5312174
-0.417826, -0.1500232, 0.5655794
-0.4218015, -0.1459634, 0.5844674
-0.3792535, -0.1583178, 0.4946873
-0.4138262, -0.1107803, 0.5263358
-0.4265629, -0.112711, 0.5662372
-0.4283465, -0.1281231, 0.5865797
-0.4275102, -0.1403557, 0.5963672
-0.3718927, -0.1571483, 0.4960917
-0.3918959, -0.1073888, 0.5296535
-0.4056022, -0.1063228, 0.5754672
-0.4100176, -0.1293164, 0.5914266
-0.4112806, -0.1463184, 0.5946687
-0.3619611, -0.1555312, 0.4986472
-0.3726899, -0.1123792, 0.5365708
-0.3843448, -0.1155606, 0.5765628
-0.3896758, -0.1389231, 0.5800002
-0.3919235, -0.1567644, 0.5735388
-0.3529918, -0.1570255, 0.5017276
-0.3544552, -0.1192484, 0.5444645
-0.364803, -0.1222332, 0.5706875
-0.3713484, -0.1398603, 0.5758889
-0.3779713, -0.1528888, 0.5712877
