0, 0, 0
0, 0, 0
0, 0, 0
0, 0, 0
0, 0, 0
0, 0, 0
0, 0, 0
0, 0, 0
0, 0, 0
0, 0, 0
0, 0, 0
0, 0, 0
0, 0, 0
0, 0, 0
0, 0, 0
0, 0, 0
0, 0, 0
0, 0, 0
0, 0, 0
0, 0, 0
0, 0, 0
0, 0, 0
0, 0, 0
0, 0, 0
0, 0, 0
0, 0, 0
0, 0, 0
0, 0, 0
-0.3910912, -0.2620047, 0.3013475
-0.3911647, -0.229339, 0.338062
-0.4120183, -0.2501289, 0.3103966
-0.4438671, -0.2339708, 0.3417352
-0.4580913, -0.2259241, 0.3729373
-0.4685408, -0.2215227, 0.3890955
-0.4018014, -0.2498182, 0.3138453
-0.4194385, -0.1957944, 0.3482212
-0.4377404, -0.1910438, 0.3861686
-0.4495108, -0.2022663, 0.4059026
-0.4559448, -0.2121171, 0.4161507
-0.394693, -0.2521032, 0.3162566
-0.3991382, -0.2028383, 0.3546058
-0.420726, -0.205044, 0.3961067
-0.4356717, -0.2291286, 0.4005206
-0.4422068, -0.2445139, 0.3956746
-0.3852607, -0.255151, 0.3202191
-0.3851634, -0.2160455, 0.3630087
-0.4045899, -0.2200617, 0.398323
-0.4168094, -0.239389, 0.3903152
-0.4206567, -0.2508526, 0.3752713
-0.378389, -0.2605674, 0.3241713
-0.3727398, -0.2302839, 0.3722933
-0.3866665, -0.2311018, 0.3945937
-0.3995234, -0.2455065, 0.3902383
-0.406533, -0.2516427, 0.3777587
