0, 0, 0
0, 0, 0
0, 0, 0
0, 0, 0
0, 0, 0
0, 0, 0
0, 0, 0
0, 0, 0
0, 0, 0
0, 0, 0
0, 0, 0
0, 0, 0
0, 0, 0
0, 0, 0
0, 0, 0
0, 0, 0
0, 0, 0
0, 0, 0
0, 0, 0
0, 0, 0
0, 0, 0
0, 0, 0
0, 0, 0
0, 0, 0
0, 0, 0
0, 0, 0
0, 0, 0
0, 0, 0
0.07872563, -0.3221398, 0.02097803
0.07424247, -0.2934305, 0.06069021
0.05954383, -0.3078086, 0.02567266
0.02210706, -0.2943265, 0.04887223
0.005341018, -0.2921354, 0.0803017
-0.002245985, -0.2919767, 0.09791231
0.06786054, -0.3094411, 0.03185084
0.05044596, -0.2559032, 0.06829852
0.02812443, -0.252752, 0.1020517
0.01158522, -0.2702647, 0.1106172
0.003956304, -0.2844492, 0.1085498
0.07330129, -0.3131358, 0.03577437
0.0669125, -0.2674023, 0.07840683
0.03797901, -0.2699438, 0.1138811
0.01931097, -0.2913989, 0.1081888
0.0151249, -0.302518, 0.09512551
0.08035479, -0.3181607, 0.04166235
0.07568634, -0.2839447, 0.08797456
0.04827185, -0.2885973, 0.1172746
0.03494246, -0.3036987, 0.1039271
0.03424127, -0.3108905, 0.08579524
0.08491715, -0.3251463, 0.04641068
0.08206269, -0.301755, 0.09728677
0.06020448, -0.3049229, 0.1140435
0.04645217, -0.3157949, 0.1051376
0.04112618, -0.3192365, 0.09100053
