0, 0, 0
-0.5669628, -0.4223837, 0.1435122
-0.5213911, -0.4119064, 0.1647847
-0.5579966, -0.4018661, 0.1496707
-0.5298988, -0.3698055, 0.1355495
-0.496685, -0.3635856, 0.1220367
-0.4786328, -0.3613541, 0.1156792
-0.5524998, -0.4098678, 0.1509399
-0.5077345, -0.3774179, 0.1887789
-0.4861858, -0.3601698, 0.1585252
-0.4958372, -0.3586404, 0.1349626
-0.5088831, -0.3613515, 0.1254293
-0.5492933, -0.4161367, 0.1492024
-0.5006377, -0.3981447, 0.183947
-0.4650152, -0.3756209, 0.1611396
-0.4678452, -0.3641271, 0.1352303
-0.4802736, -0.3609597, 0.1231328
-0.5444911, -0.4245634, 0.1465649
-0.4937495, -0.4134275, 0.1716169
-0.4610687, -0.3921374, 0.1540431
-0.4672382, -0.3805067, 0.1337484
-0.4818508, -0.3758071, 0.1220112
-0.5412223, -0.432001, 0.1414372
-0.4879089, -0.4260752, 0.1564326
-0.4713542, -0.4037341, 0.1413011
-0.4774852, -0.3938979, 0.1257422
-0.4890316, -0.3875557, 0.118067
0, 0, 0
-0.3015453, -0.336913, 0.1127043
-0.2981972, -0.3190007, 0.1578315
-0.3190885, -0.322468, 0.1236405
-0.3497207, -0.308451, 0.1576861
-0.3681953, -0.3066639, 0.1881956
-0.3798527, -0.3052461, 0.2038748
-0.3099948, -0.3264938, 0.1275729
-0.3168574, -0.2828761, 0.1773223
-0.3379529, -0.2863524, 0.2137342
-0.3554777, -0.3002869, 0.226145
-0.3660549, -0.3112303, 0.2300086
-0.3044212, -0.3315746, 0.12948
-0.300784, -0.2977438, 0.1821374
-0.3277641, -0.3056253, 0.219698
-0.3499537, -0.3233517, 0.2156983
-0.359858, -0.3331122, 0.2051457
-0.2971442, -0.3385612, 0.1327437
-0.2929, -0.3167498, 0.1862382
-0.3182745, -0.3251829, 0.2172085
-0.3350883, -0.3361651, 0.2037151
-0.3401149, -0.3404391, 0.185483
-0.2928935, -0.3468614, 0.1350233
-0.2874396, -0.3366931, 0.1902761
-0.3072492, -0.3411705, 0.2090288
-0.3229299, -0.3485144, 0.1996565
-0.3299978, -0.3482289, 0.1858752
