0, 0, 0
-0.6883719, -0.370746, 0.1519012
-0.6548339, -0.372913, 0.1899915
-0.6857564, -0.3593419, 0.1703254
-0.6529101, -0.3295784, 0.1861377
-0.6184144, -0.3148854, 0.1904354
-0.6033447, -0.3024788, 0.1952281
-0.6798117, -0.3658387, 0.1691434
-0.6582816, -0.3601267, 0.2321078
-0.6366899, -0.323491, 0.2286142
-0.6325228, -0.3043851, 0.2126166
-0.6300429, -0.2937047, 0.2018248
-0.6747751, -0.3689894, 0.1655905
-0.6455156, -0.3726205, 0.218687
-0.6214176, -0.3312829, 0.2194769
-0.6277391, -0.3115676, 0.2003292
-0.6340638, -0.3020745, 0.1874704
-0.6674749, -0.3730589, 0.1608089
-0.6324596, -0.3762122, 0.2029226
-0.6121729, -0.3403053, 0.2052394
-0.6281894, -0.3311382, 0.1895083
-0.6442016, -0.3335472, 0.1791368
-0.6609938, -0.3753952, 0.1541414
-0.6170248, -0.3767001, 0.1888345
-0.6044092, -0.3522796, 0.1960104
-0.6144626, -0.338975, 0.1853639
-0.6285951, -0.3367169, 0.1793206
0, 0, 0
-0.3693522, -0.1545834, 0.4846928
-0.3775216, -0.1180062, 0.5184969
-0.3907374, -0.149475, 0.4967778
-0.4168561, -0.1437963, 0.5352162
-0.4186055, -0.134649, 0.5693234
-0.4240716, -0.1304769, 0.588077
-0.3816025, -0.1447921, 0.4980949
-0.41491, -0.09641161, 0.5301838
-0.430431, -0.09295932, 0.5698908
-0.4354698, -0.1037229, 0.5927299
-0.4358113, -0.1164728, 0.6026006
-0.3742326, -0.143892, 0.4995174
-0.3934151, -0.09305072, 0.5339568
-0.4141257, -0.08544767, 0.5788698
-0.4225565, -0.1012542, 0.600593
-0.4251625, -0.1174054, 0.606765
-0.3642857, -0.1426413, 0.5021034
-0.3747457, -0.09713127, 0.5415307
-0.3923831, -0.08821289, 0.5803707
-0.4007035, -0.1061158, 0.5943903
-0.4042778, -0.1250136, 0.5957503
-0.3553795, -0.1444558, 0.5051945
-0.3559692, -0.1042799, 0.548798
-0.3672298, -0.09731583, 0.5751477
-0.3746146, -0.1110166, 0.5868962
-0.3822085, -0.124406, 0.5866702
