0, 0, 0
0, 0, 0
0, 0, 0
0, 0, 0
0, 0, 0
0, 0, 0
0, 0, 0
0, 0, 0
0, 0, 0
0, 0, 0
0, 0, 0
0, 0, 0
0, 0, 0
0, 0, 0
0, 0, 0
0, 0, 0
0, 0, 0
0, 0, 0
0, 0, 0
0, 0, 0
0, 0, 0
0, 0, 0
0, 0, 0
0, 0, 0
0, 0, 0
0, 0, 0
0, 0, 0
0, 0, 0
-0.3005695, -0.1860736, 0.4212991
-0.3182967, -0.1770662, 0.4686913
-0.319901, -0.1644086, 0.4308926
-0.3479028, -0.1342729, 0.4541357
-0.3664956, -0.1287125, 0.4833513
-0.3777249, -0.1296173, 0.4986883
-0.3149119, -0.1733624, 0.436303
-0.3338347, -0.1400478, 0.4886141
-0.3646011, -0.144316, 0.5088146
-0.3719214, -0.1545944, 0.4877505
-0.3608948, -0.1536571, 0.4739228
-0.3120526, -0.1809743, 0.4385316
-0.3265599, -0.1606276, 0.4937552
-0.366771, -0.1688205, 0.5057154
-0.3650926, -0.1712236, 0.4756628
-0.3502535, -0.1668489, 0.4664263
-0.3088642, -0.1913275, 0.4418807
-0.3266475, -0.1816323, 0.4934548
-0.3644944, -0.1888595, 0.49788
-0.359934, -0.1857433, 0.4742731
-0.3447115, -0.1804281, 0.4631059
-0.3086092, -0.2008903, 0.4429064
-0.3296484, -0.2029187, 0.4922179
-0.3549535, -0.2057122, 0.4902141
-0.3527393, -0.2007553, 0.4709782
-0.34121, -0.1924478, 0.4638437
