0, 0, 0
-0.264301, -0.3691581, 0.0765672
-0.2437507, -0.3840138, 0.121098
-0.2569348, -0.3550193, 0.09585802
-0.2226025, -0.337139, 0.1205894
-0.1890774, -0.343349, 0.135115
-0.1742768, -0.3534585, 0.1395262
-0.2559515, -0.3650967, 0.09574344
-0.2424059, -0.365404, 0.16203
-0.2101625, -0.3709397, 0.1829369
-0.1923514, -0.3617905, 0.1675318
-0.192466, -0.3539771, 0.1525541
-0.2541023, -0.3718178, 0.09331859
-0.2383414, -0.3861258, 0.1532535
-0.2013207, -0.3915553, 0.1727659
-0.1947481, -0.37279, 0.1511825
-0.2098978, -0.3671922, 0.1427107
-0.2509748, -0.3810343, 0.09014174
-0.2287366, -0.3994092, 0.1398512
-0.1898555, -0.3958623, 0.1498046
-0.1847836, -0.3775593, 0.1352176
-0.1970555, -0.3666528, 0.1240764
-0.246813, -0.3879746, 0.08492425
-0.2179596, -0.4095051, 0.1246466
-0.191608, -0.3955314, 0.1254323
-0.1896341, -0.3799347, 0.1137768
-0.198693, -0.3690773, 0.1073051
0, 0, 0
0.05813022, -0.4995553, 0.3471788
0.06398793, -0.5091059, 0.3964961
0.04509057, -0.4842775, 0.3696651
0.03280869, -0.4597765, 0.4062937
0.03107746, -0.4643088, 0.4393196
0.02806875, -0.4706317, 0.4571017
0.05173451, -0.4940862, 0.3693097
0.05914992, -0.4831525, 0.4332591
0.05105794, -0.4931301, 0.4686439
0.02959355, -0.5028378, 0.4611304
0.02411019, -0.5011629, 0.4445795
0.05537627, -0.5017969, 0.3671467
0.06866524, -0.5036002, 0.4292875
0.05408798, -0.5197027, 0.4661879
0.02892339, -0.5215057, 0.4511171
0.0285479, -0.5138389, 0.43471
0.05986901, -0.512395, 0.3648303
0.06864128, -0.5239191, 0.423032
0.04852836, -0.5390149, 0.4529064
0.02789423, -0.5361298, 0.4407437
0.02232314, -0.5277996, 0.4238758
0.06054921, -0.5216216, 0.3622333
0.06596839, -0.5433218, 0.4142565
0.04809409, -0.551814, 0.431082
0.03007249, -0.5483298, 0.4240481
0.0222985, -0.5386711, 0.4147958
