0, 0, 0
0, 0, 0
0, 0, 0
0, 0, 0
0, 0, 0
0, 0, 0
0, 0, 0
0, 0, 0
0, 0, 0
0, 0, 0
0, 0, 0
0, 0, 0
0, 0, 0
0, 0, 0
0, 0, 0
0, 0, 0
0, 0, 0
0, 0, 0
0, 0, 0
0, 0, 0
0, 0, 0
0, 0, 0
0, 0, 0
0, 0, 0
0, 0, 0
0, 0, 0
0, 0, 0
0, 0, 0
0.07083316, -0.5028726, 0.3297274
0.07741507, -0.515956, 0.3792078
0.05628274, -0.4941425, 0.3518849
0.03330915, -0.4943134, 0.3941405
0.0221967, -0.505973, 0.4244585
0.01171675, -0.5051018, 0.4420391
0.06429604, -0.501552, 0.3511396
0.06811711, -0.49404, 0.417693
0.06965419, -0.5009558, 0.4606759
0.0577145, -0.5128407, 0.480041
0.04452126, -0.5219547, 0.4837641
0.06858401, -0.5078521, 0.3490175
0.08188671, -0.5123319, 0.4140868
0.08384077, -0.5245546, 0.4620307
0.07031432, -0.5372231, 0.4831041
0.05489841, -0.5445768, 0.4871606
0.07403408, -0.5168177, 0.34661
0.08629255, -0.5321989, 0.4076775
0.08467604, -0.5462763, 0.4472234
0.0663041, -0.5570742, 0.4588199
0.04796587, -0.5627269, 0.4586805
0.07610624, -0.5255784, 0.3432337
0.08732204, -0.5505933, 0.3965464
0.08419431, -0.5611391, 0.4234822
0.06880129, -0.5699564, 0.4316883
0.05351147, -0.5702044, 0.4322088
