0, 0, 0
0, 0, 0
0, 0, 0
0, 0, 0
0, 0, 0
0, 0, 0
0, 0, 0
0, 0, 0
0, 0, 0
0, 0, 0
0, 0, 0
0, 0, 0
0, 0, 0
0, 0, 0
0, 0, 0
0, 0, 0
0, 0, 0
0, 0, 0
0, 0, 0
0, 0, 0
0, 0, 0
0, 0, 0
0, 0, 0
0, 0, 0
0, 0, 0
0, 0, 0
0, 0, 0
0, 0, 0
-0.3145235, -0.2342481, 0.4126212
-0.298104, -0.2171266, 0.4567298
-0.3275661, -0.21435, 0.4277282
-0.3436037, -0.1839259, 0.4600645
-0.347369, -0.1711705, 0.4911759
-0.3526199, -0.1611645, 0.5076985
-0.3185313, -0.2210681, 0.4297401
-0.3044938, -0.1777422, 0.4783792
-0.2875963, -0.1626107, 0.5153313
-0.2931933, -0.1662586, 0.5400621
-0.3031471, -0.1735473, 0.5507906
-0.3133878, -0.227617, 0.4303403
-0.2888421, -0.1945309, 0.4820842
-0.2770705, -0.1825735, 0.5261558
-0.2905568, -0.1878477, 0.5504622
-0.3054289, -0.1945574, 0.5569867
-0.3066272, -0.2364715, 0.4319195
-0.2823531, -0.2140674, 0.4867525
-0.2751235, -0.2043179, 0.527238
-0.2880504, -0.2072679, 0.5475546
-0.3029262, -0.2120737, 0.5581477
-0.3036733, -0.2454705, 0.4335359
-0.2803935, -0.2353865, 0.4876129
-0.2784688, -0.2296689, 0.5166833
-0.2878825, -0.2324179, 0.5333076
-0.3001237, -0.2329683, 0.5420579
