0, 0, 0
0, 0, 0
0, 0, 0
0, 0, 0
0, 0, 0
0, 0, 0
0, 0, 0
0, 0, 0
0, 0, 0
0, 0, 0
0, 0, 0
0, 0, 0
0, 0, 0
0, 0, 0
0, 0, 0
0, 0, 0
0, 0, 0
0, 0, 0
0, 0, 0
0, 0, 0
0, 0, 0
0, 0, 0
0, 0, 0
0, 0, 0
0, 0, 0
0, 0, 0
0, 0, 0
0, 0, 0
0.07902171, -0.3031176, 0.01223297
0.07350428, -0.2710744, 0.0491918
0.0615772, -0.286722, 0.01345308
0.02320036, -0.2688792, 0.03114058
0.003512732, -0.2637916, 0.06081481
-0.004342946, -0.2628205, 0.07806514
0.06875809, -0.2886747, 0.02072058
0.05354016, -0.2307312, 0.0514225
0.02962167, -0.2206104, 0.08263364
0.01000655, -0.2343974, 0.09153891
0.0002782785, -0.247295, 0.09070525
0.07315915, -0.2925979, 0.02552108
0.06728472, -0.2428433, 0.06455261
0.0360792, -0.2364269, 0.09792601
0.01369688, -0.2544303, 0.09535898
0.007060751, -0.2666307, 0.08450599
0.07875378, -0.297856, 0.03255744
0.07301138, -0.2587263, 0.07695863
0.04539259, -0.2522328, 0.1058509
0.02799657, -0.2664844, 0.0970511
0.02414279, -0.2772789, 0.08125971
0.08187941, -0.3049116, 0.03826727
0.07621866, -0.2765621, 0.08752583
0.05333198, -0.2727536, 0.1035437
0.03759659, -0.282346, 0.09691383
0.0312573, -0.2873348, 0.08370747
