0, 0, 0
0, 0, 0
0, 0, 0
0, 0, 0
0, 0, 0
0, 0, 0
0, 0, 0
0, 0, 0
0, 0, 0
0, 0, 0
0, 0, 0
0, 0, 0
0, 0, 0
0, 0, 0
0, 0, 0
0, 0, 0
0, 0, 0
0, 0, 0
0, 0, 0
0, 0, 0
0, 0, 0
0, 0, 0
0, 0, 0
0, 0, 0
0, 0, 0
0, 0, 0
0, 0, 0
0, 0, 0
-0.3696825, -0.1584124, 0.4811329
-0.3758059, -0.1218605, 0.5156537
-0.3908124, -0.1527437, 0.4940622
-0.4161011, -0.1460003, 0.5331706
-0.418262, -0.1374157, 0.567407
-0.4241081, -0.1335626, 0.5861281
-0.3814309, -0.1483639, 0.4951239
-0.4123071, -0.09939937, 0.5286849
-0.4261079, -0.09707633, 0.5692939
-0.4308791, -0.1070306, 0.5925273
-0.4319787, -0.1172785, 0.6044571
-0.3739655, -0.1476849, 0.4963134
-0.3902851, -0.09624373, 0.5320404
-0.405062, -0.08407088, 0.5786338
-0.412903, -0.09321459, 0.603859
-0.4171448, -0.1056838, 0.6151673
-0.3638703, -0.1467447, 0.4985923
-0.3711296, -0.1005077, 0.5391611
-0.3825767, -0.08592069, 0.5795849
-0.3907217, -0.09448776, 0.6008204
-0.3970267, -0.1073342, 0.6131225
-0.3549334, -0.1488498, 0.501404
-0.3523966, -0.1087999, 0.5450991
-0.3598948, -0.0987499, 0.5729626
-0.365192, -0.1046816, 0.5906674
-0.3730972, -0.113566, 0.5999694
