0, 0, 0
0, 0, 0
0, 0, 0
0, 0, 0
0, 0, 0
0, 0, 0
0, 0, 0
0, 0, 0
0, 0, 0
0, 0, 0
0, 0, 0
0, 0, 0
0, 0, 0
0, 0, 0
0, 0, 0
0, 0, 0
0, 0, 0
0, 0, 0
0, 0, 0
0, 0, 0
0, 0, 0
0, 0, 0
0, 0, 0
0, 0, 0
0, 0, 0
0, 0, 0
0, 0, 0
0, 0, 0
-0.3678483, -0.1667878, 0.4813272
-0.3769442, -0.1315784, 0.515711
-0.3893181, -0.1628179, 0.4935832
-0.4159116, -0.1594981, 0.5318107
-0.4181743, -0.1517065, 0.566486
-0.4215182, -0.1481136, 0.5855358
-0.3803405, -0.1577826, 0.4949906
-0.4149871, -0.1114519, 0.5283513
-0.4277947, -0.1135491, 0.5681403
-0.429477, -0.1291909, 0.5883282
-0.4285147, -0.1416618, 0.5978374
-0.3729726, -0.1566003, 0.4963585
-0.3930544, -0.1080228, 0.5315682
-0.4065277, -0.1084127, 0.5773824
-0.4105268, -0.1321858, 0.5923368
-0.4115092, -0.149356, 0.594713
-0.3630278, -0.1549832, 0.4988669
-0.3737608, -0.1130885, 0.5381455
-0.3852257, -0.1176721, 0.5779405
-0.3901592, -0.1412798, 0.5800502
-0.3920923, -0.1587598, 0.5725682
-0.35402, -0.1564979, 0.5018215
-0.3554062, -0.1200224, 0.545698
-0.3655995, -0.1238827, 0.5718721
-0.3719411, -0.1417499, 0.5764766
-0.3784481, -0.1546891, 0.5714819
