0, 0, 0
0, 0, 0
0, 0, 0
0, 0, 0
0, 0, 0
0, 0, 0
0, 0, 0
0, 0, 0
0, 0, 0
0, 0, 0
0, 0, 0
0, 0, 0
0, 0, 0
0, 0, 0
0, 0, 0
0, 0, 0
0, 0, 0
0, 0, 0
0, 0, 0
0, 0, 0
0, 0, 0
0, 0, 0
0, 0, 0
0, 0, 0
0, 0, 0
0, 0, 0
0, 0, 0
0, 0, 0
0.07229986, -0.4876064, 0.3012734
0.08108404, -0.4963181, 0.3511296
0.05776174, -0.4786707, 0.3222491
0.03347065, -0.4787095, 0.3634119
0.02135492, -0.4899824, 0.3938203
0.01049601, -0.4908416, 0.4109029
0.06626775, -0.4853565, 0.322179
0.07047685, -0.4726572, 0.3881438
0.07123633, -0.4789141, 0.4316726
0.06206274, -0.4899922, 0.4530675
0.05293217, -0.499162, 0.4622172
0.0709974, -0.4913954, 0.3205417
0.08568265, -0.4898673, 0.3854381
0.08748153, -0.4998493, 0.4337639
0.07487691, -0.5124632, 0.4553419
0.06136223, -0.5211342, 0.4620433
0.077107, -0.4999911, 0.3188085
0.09225392, -0.5093769, 0.3808149
0.09472901, -0.518636, 0.4219679
0.07920889, -0.5298574, 0.4368834
0.0624914, -0.5380098, 0.4409121
0.07989358, -0.5087599, 0.3160329
0.09445208, -0.528401, 0.3710682
0.09306802, -0.5360475, 0.3996713
0.07928132, -0.5454043, 0.4098395
0.06433157, -0.5475644, 0.4118919
