0, 0, 0
-0.6224235, -0.3859342, 0.1353715
-0.5927326, -0.3966723, 0.1726578
-0.6146165, -0.3717944, 0.1503953
-0.5754271, -0.351394, 0.1622201
-0.538842, -0.35357, 0.1662622
-0.5196208, -0.3543719, 0.1691452
-0.612217, -0.3811017, 0.1504623
-0.58516, -0.376336, 0.2122955
-0.5469433, -0.367868, 0.2222084
-0.5290958, -0.3572262, 0.2074252
-0.5214141, -0.3508222, 0.1952925
-0.6098258, -0.3872444, 0.1476892
-0.5803152, -0.3959921, 0.2028357
-0.5390903, -0.3841682, 0.2131781
-0.5405989, -0.3683676, 0.1882135
-0.5557224, -0.3664353, 0.1786526
-0.6059714, -0.395652, 0.144016
-0.5724563, -0.4081956, 0.1873531
-0.5359541, -0.3914379, 0.1862789
-0.5455339, -0.3772618, 0.1691613
-0.5627096, -0.3735457, 0.1606789
-0.6019974, -0.4021002, 0.1381149
-0.5625445, -0.4183575, 0.1712316
-0.5404263, -0.4026915, 0.1673477
-0.5478509, -0.3885042, 0.1555772
-0.5617213, -0.381957, 0.1526296
0, 0, 0
-0.3504408, -0.3344846, 0.1453443
-0.3467285, -0.3164622, 0.190312
-0.3681648, -0.3202896, 0.1565641
-0.3984761, -0.30618, 0.1909464
-0.4167911, -0.3040029, 0.2214042
-0.4286711, -0.3021913, 0.2369381
-0.3589039, -0.3241799, 0.1603482
-0.3657477, -0.2806445, 0.2100275
-0.3866023, -0.2837863, 0.2465358
-0.403789, -0.2979222, 0.2591843
-0.4141174, -0.30904, 0.263223
-0.3531764, -0.3291681, 0.1621597
-0.3494284, -0.2953853, 0.2142439
-0.3778642, -0.305817, 0.249924
-0.3987564, -0.3242497, 0.2427514
-0.4072962, -0.3337293, 0.2308467
-0.3456844, -0.3360272, 0.1653001
-0.3411516, -0.3142417, 0.2180987
-0.3674565, -0.3244396, 0.2478095
-0.3829465, -0.3351996, 0.2326437
-0.3866115, -0.3386848, 0.213928
-0.341243, -0.3442417, 0.1675248
-0.335215, -0.333989, 0.2225179
-0.354765, -0.3391214, 0.2408542
-0.3697613, -0.3464168, 0.230258
-0.3759386, -0.3456789, 0.2160461
