0, 0, 0
0, 0, 0
0, 0, 0
0, 0, 0
0, 0, 0
0, 0, 0
0, 0, 0
0, 0, 0
0, 0, 0
0, 0, 0
0, 0, 0
0, 0, 0
0, 0, 0
0, 0, 0
0, 0, 0
0, 0, 0
0, 0, 0
0, 0, 0
0, 0, 0
0, 0, 0
0, 0, 0
0, 0, 0
0, 0, 0
0, 0, 0
0, 0, 0
0, 0, 0
0, 0, 0
0, 0, 0
0.07059748, -0.1277323, 0.1680663
0.07870015, -0.08409473, 0.1906619
0.05115247, -0.1127066, 0.1776253
0.02328217, -0.08511245, 0.2047339
0.008516433, -0.06682667, 0.2308191
-0.0004095743, -0.05765514, 0.2455321
0.06217935, -0.1116673, 0.1783348
0.05183177, -0.04795745, 0.1966387
0.04911932, -0.01700747, 0.2239871
0.04475467, -0.0161803, 0.2492159
0.04120168, -0.02427684, 0.2628804
0.07004001, -0.1133203, 0.1793699
0.07465193, -0.05005817, 0.1994972
0.07621075, -0.01192602, 0.2281634
0.069167, -0.009228732, 0.2554216
0.06173927, -0.018174, 0.2686267
0.08063129, -0.1152669, 0.1814429
0.09300047, -0.05719575, 0.2075414
0.09792803, -0.0216671, 0.2295712
0.09240761, -0.01628225, 0.252589
0.08466061, -0.02053441, 0.2694762
0.08858798, -0.1193125, 0.1849833
0.1088657, -0.07117326, 0.2144986
0.1166403, -0.04772728, 0.2297815
0.1166622, -0.04194327, 0.248477
0.1099589, -0.04158808, 0.2620481
