144980545778
0.996821, -0.04207638, 0.06768096, 0
0.06695566, 0.9027536, -0.4249174, 0
-0.04322058, 0.4280974, 0.9026997, 0
-0.4494441, 0.07155299, -0.1882391, 1
689.8444, 0, 442.8453, 0
0, 691.0899, 238.9867, 0
0, 0, 1, 0
0, 0, 0, 1
