144948774236
0.9818841, 0.03411508, 0.1863949, 0
0.06410709, 0.8658527, -0.496177, 0
-0.1783184, 0.4991367, 0.8479797, 0
-0.07411116, 0.0653125, -0.0297761, 1
687.6602, 0, 442.8347, 0
0, 688.903, 238.9398, 0
0, 0, 1, 0
0, 0, 0, 1
