144981221768
0.9962752, -0.0409438, 0.07590593, 0
0.07003, 0.8977472, -0.4349112, 0
-0.05033785, 0.4386062, 0.8972696, 0
-0.455408, 0.07026899, -0.201421, 1
689.8444, 0, 442.8453, 0
0, 691.0899, 238.9867, 0
0, 0, 1, 0
0, 0, 0, 1
