144972095900
0.9859365, -0.02648529, 0.1650176, 0
0.110171, 0.8454611, -0.5225513, 0
-0.1256766, 0.5333817, 0.8364883, 0
-0.2838923, 0.0514828, -0.09961724, 1
683.021, 0, 442.7425, 0
0, 684.2911, 238.8428, 0
0, 0, 1, 0
0, 0, 0, 1
