144961618051
0.9927645, 0.0003906786, 0.120092, 0
0.08732817, 0.6840986, -0.7241449, 0
-0.08243877, 0.7293915, 0.6791145, 0
-0.07973737, -0.006875873, -0.2121978, 1
683.021, 0, 442.7425, 0
0, 684.2911, 238.8428, 0
0, 0, 1, 0
0, 0, 0, 1
