145013331302
0.8492002, 0.01600474, 0.5278307, 0
0.2476473, 0.8707418, -0.4248307, 0
-0.4664034, 0.4914815, 0.7354696, 0
-0.4864388, 0.07957053, -0.1887119, 1
691.1549, 0, 442.8516, 0
0, 692.402, 239.015, 0
0, 0, 1, 0
0, 0, 0, 1
