144956886119
0.9863636, 0.04677552, 0.1578064, 0
0.07260472, 0.7367938, -0.67221, 0
-0.1477145, 0.6744993, 0.7233498, 0
-0.09064382, 0.01333225, -0.08923793, 1
687.6602, 0, 442.8347, 0
0, 688.903, 238.9398, 0
0, 0, 1, 0
0, 0, 0, 1
