145022433769
0.9035558, 0.006943256, 0.4284172, 0
0.1260692, 0.9513018, -0.2813058, 0
-0.4095072, 0.3081854, 0.8586781, 0
-0.1229132, 0.110714, -0.008884668, 1
683.021, 0, 442.7425, 0
0, 684.2911, 238.8428, 0
0, 0, 1, 0
0, 0, 0, 1
