145000149492
0.9689329, -0.02337524, 0.246221, 0
0.1419019, 0.8679113, -0.4760211, 0
-0.2025711, 0.4961711, 0.8442636, 0
-0.5595171, 0.07536662, -0.2209506, 1
689.8444, 0, 442.8453, 0
0, 691.0899, 238.9867, 0
0, 0, 1, 0
0, 0, 0, 1
