145012317317
0.8825357, 0.00783357, 0.4701825, 0
0.2240054, 0.8721274, -0.434991, 0
-0.4134666, 0.4892181, 0.7679281, 0
-0.5149472, 0.07969761, -0.2046382, 1
691.1549, 0, 442.8516, 0
0, 692.402, 239.015, 0
0, 0, 1, 0
0, 0, 0, 1
