145015021278
0.8211158, 0.007433623, 0.570715, 0
0.2666478, 0.8790922, -0.3950907, 0
-0.5046481, 0.4765948, 0.7198544, 0
-0.4303753, 0.08252883, -0.1561894, 1
687.0021, 0, 442.8277, 0
0, 688.2457, 238.9257, 0
0, 0, 1, 0
0, 0, 0, 1
