144957900105
0.9876463, 0.04331806, 0.1506039, 0
0.07274671, 0.7244779, -0.6854501, 0
-0.1388023, 0.6879371, 0.7123768, 0
-0.08782071, 0.007336974, -0.1183221, 1
687.6602, 0, 442.8347, 0
0, 688.903, 238.9398, 0
0, 0, 1, 0
0, 0, 0, 1
