144999473504
0.9693782, -0.02329335, 0.2444704, 0
0.1403792, 0.8693721, -0.4738011, 0
-0.2014995, 0.4936104, 0.8460196, 0
-0.5587536, 0.07569253, -0.2197084, 1
689.8444, 0, 442.8453, 0
0, 691.0899, 238.9867, 0
0, 0, 1, 0
0, 0, 0, 1
