145008261376
0.9591938, -0.0215497, 0.2819316, 0
0.15687, 0.8701254, -0.4671991, 0
-0.2352481, 0.4923605, 0.8379985, 0
-0.5634781, 0.07706523, -0.2257884, 1
691.1549, 0, 442.8516, 0
0, 692.402, 239.015, 0
0, 0, 1, 0
0, 0, 0, 1
