145014345287
0.8281415, 0.01263294, 0.5603791, 0
0.2619815, 0.8751036, -0.4068913, 0
-0.4955301, 0.483772, 0.7213992, 0
-0.4543365, 0.08165514, -0.169656, 1
687.0021, 0, 442.8277, 0
0, 688.2457, 238.9257, 0
0, 0, 1, 0
0, 0, 0, 1
