144992375606
0.9639168, -0.03240091, 0.2642287, 0
0.1543926, 0.8766235, -0.4557363, 0
-0.2168632, 0.4800861, 0.8499939, 0
-0.5235164, 0.07626605, -0.2352941, 1
689.8444, 0, 442.8453, 0
0, 691.0899, 238.9867, 0
0, 0, 1, 0
0, 0, 0, 1
