144960942061
0.9912221, 0.01064301, 0.1317908, 0
0.08806993, 0.6903064, -0.7181391, 0
-0.09861988, 0.7234408, 0.6833094, 0
-0.07866737, -0.004095912, -0.1996334, 1
685.4539, 0, 442.7946, 0
0, 686.7078, 238.8935, 0
0, 0, 1, 0
0, 0, 0, 1
