144995417562
0.9625727, -0.0266344, 0.2697172, 0
0.1566798, 0.8667052, -0.473577, 0
-0.221152, 0.4981107, 0.8384389, 0
-0.54123, 0.07370174, -0.2212105, 1
689.8444, 0, 442.8453, 0
0, 691.0899, 238.9867, 0
0, 0, 1, 0
0, 0, 0, 1
