144945774403
0.9751237, 0.04492372, 0.2170676, 0
0.052277, 0.9050207, -0.4221451, 0
-0.2154156, 0.422991, 0.8801588, 0
-0.06564289, 0.08314312, -0.02026129, 1
687.6602, 0, 442.8347, 0
0, 688.903, 238.9398, 0
0, 0, 1, 0
0, 0, 0, 1
