144997445533
0.9663992, -0.02442899, 0.2558876, 0
0.1472136, 0.8686514, -0.4730483, 0
-0.2107213, 0.4948229, 0.8430594, 0
-0.5514648, 0.07520115, -0.2175686, 1
689.8444, 0, 442.8453, 0
0, 691.0899, 238.9867, 0
0, 0, 1, 0
0, 0, 0, 1
