145003191449
0.9658886, -0.02314475, 0.2579257, 0
0.1479017, 0.8668758, -0.4760813, 0
-0.2125712, 0.4979884, 0.8407276, 0
-0.5632821, 0.07508242, -0.2249589, 1
688.3155, 0, 442.8379, 0
0, 689.559, 238.9539, 0
0, 0, 1, 0
0, 0, 0, 1
