144954520154
0.9828843, 0.04306352, 0.1791305, 0
0.08310056, 0.764142, -0.6396741, 0
-0.1644286, 0.6436106, 0.7474845, 0
-0.0869301, 0.02444518, -0.04601622, 1
687.6602, 0, 442.8347, 0
0, 688.903, 238.9398, 0
0, 0, 1, 0
0, 0, 0, 1
