144963984017
0.9944382, -0.0166145, 0.1040216, 0
0.08714248, 0.6845496, -0.7237408, 0
-0.05918419, 0.7287787, 0.6821893, 0
-0.08510429, -0.005175948, -0.2340703, 1
683.021, 0, 442.7425, 0
0, 684.2911, 238.8428, 0
0, 0, 1, 0
0, 0, 0, 1
