144953506168
0.9820576, 0.03651622, 0.1850218, 0
0.08603434, 0.7862914, -0.6118388, 0
-0.1678238, 0.6167778, 0.7690412, 0
-0.0826056, 0.0318073, -0.03674579, 1
687.6602, 0, 442.8347, 0
0, 688.903, 238.9398, 0
0, 0, 1, 0
0, 0, 0, 1
