145022100454
0.8966998, 0.01161125, 0.44249, 0
0.1260597, 0.9515616, -0.2804291, 0
-0.4243126, 0.3072406, 0.8518007, 0
-0.1273709, 0.1104032, -0.01210904, 1
683.021, 0, 442.7425, 0
0, 684.2911, 238.8428, 0
0, 0, 1, 0
0, 0, 0, 1
