144958576095
0.9888796, 0.03485724, 0.144587, 0
0.07674965, 0.7131104, -0.6968398, 0
-0.1273972, 0.7001866, 0.7025046, 0
-0.08564842, 0.003321052, -0.1382663, 1
687.6602, 0, 442.8347, 0
0, 688.903, 238.9398, 0
0, 0, 1, 0
0, 0, 0, 1
