144947440975
0.978565, 0.03987065, 0.2020491, 0
0.06089965, 0.8811835, -0.4688382, 0
-0.1967359, 0.4710928, 0.859867, 0
-0.07001317, 0.07240558, -0.02584648, 1
687.6602, 0, 442.8347, 0
0, 688.903, 238.9398, 0
0, 0, 1, 0
0, 0, 0, 1
