144948107606
0.9801432, 0.0363557, 0.1949402, 0
0.06410185, 0.8721846, -0.484961, 0
-0.1876555, 0.4878265, 0.8525345, 0
-0.07229781, 0.06844437, -0.02796078, 1
687.6602, 0, 442.8347, 0
0, 688.903, 238.9398, 0
0, 0, 1, 0
0, 0, 0, 1
