145001163479
0.9684178, -0.02412197, 0.2481697, 0
0.143854, 0.8670071, -0.4770811, 0
-0.2036569, 0.4977134, 0.8430943, 0
-0.5607046, 0.07517016, -0.2227023, 1
689.8444, 0, 442.8453, 0
0, 691.0899, 238.9867, 0
0, 0, 1, 0
0, 0, 0, 1
