1206084010
0.9855218, 0.01944508, -0.1684382, 0
-0.08406188, 0.918754, -0.3857786, 0
0.1472518, 0.3943524, 0.9070869, 0
0.005582988, 0.09879398, -0.1210032, 1
691.5917, 0, 442.8537, 0
0, 692.8394, 239.0243, 0
0, 0, 1, 0
0, 0, 0, 1
