1215083583
0.9958383, 0.06121422, -0.06753737, 0
-0.08026624, 0.9400319, -0.3315081, 0
0.04319426, 0.3355495, 0.9410335, 0
0.008682705, 0.1075479, -0.1363214, 1
687.0021, 0, 442.8277, 0
0, 688.2457, 238.9257, 0
0, 0, 1, 0
0, 0, 0, 1
