1193751261
0.9823682, 0.01898852, -0.1859958, 0
-0.09310906, 0.9123739, -0.3986281, 0
0.162128, 0.4089174, 0.8980559, 0
0.003662154, 0.09622836, -0.1185019, 1
687.6602, 0, 442.8347, 0
0, 688.903, 238.9398, 0
0, 0, 1, 0
0, 0, 0, 1
