1211083772
0.9959931, 0.05892427, -0.06729433, 0
-0.07762141, 0.9432343, -0.3229306, 0
0.04444569, 0.3268601, 0.944029, 0
0.01356737, 0.110769, -0.1265077, 1
687.0021, 0, 442.8277, 0
0, 688.2457, 238.9257, 0
0, 0, 1, 0
0, 0, 0, 1
