1209417185
0.9944221, 0.05083546, -0.09242502, 0
-0.07980293, 0.9355533, -0.3440506, 0
0.06897837, 0.3495076, 0.9343925, 0
0.01327639, 0.105724, -0.1256415, 1
687.0021, 0, 442.8277, 0
0, 688.2457, 238.9257, 0
0, 0, 1, 0
0, 0, 0, 1
