1215750217
0.9954658, 0.05908842, -0.07456577, 0
-0.08097093, 0.9376821, -0.3379305, 0
0.04995093, 0.3424358, 0.9382145, 0
0.008451626, 0.1059505, -0.138769, 1
687.0021, 0, 442.8277, 0
0, 688.2457, 238.9257, 0
0, 0, 1, 0
0, 0, 0, 1
