1207083963
0.9853501, 0.01998736, -0.1693756, 0
-0.08490993, 0.918772, -0.385549, 0
0.1479112, 0.3942824, 0.9070097, 0
0.005187541, 0.09876376, -0.1223232, 1
691.5917, 0, 442.8537, 0
0, 692.8394, 239.0243, 0
0, 0, 1, 0
0, 0, 0, 1
