1195417849
0.9833738, 0.0187948, -0.1806248, 0
-0.08922114, 0.9163111, -0.3904015, 0
0.1581709, 0.4000261, 0.9027539, 0
0.003724381, 0.09807241, -0.1167621, 1
690.718, 0, 442.8495, 0
0, 691.9646, 239.0056, 0
0, 0, 1, 0
0, 0, 0, 1
