0 0 0
-0.1407761 -0.9152682 0.5783473
-0.1435068 -0.9524184 0.6106825
-0.1252635 -0.9200045 0.5979812
-0.09825093 -0.9460263 0.6224567
-0.09045915 -0.9786789 0.6314424
-0.08707847 -0.996384 0.6348461
-0.1332026 -0.9252617 0.5947813
-0.1302467 -0.9565547 0.6509713
-0.131751 -0.9951349 0.6751945
-0.1321293 -1.015448 0.6882213
-0.1342016 -1.027893 0.6959071
-0.1375856 -0.92906 0.5904268
-0.1443109 -0.9682152 0.6394898
-0.1380129 -1.001472 0.6663162
-0.1154268 -1.008914 0.6568373
-0.1144051 -0.9939379 0.6471303
-0.1432055 -0.9348312 0.5846074
-0.1494099 -0.9795072 0.6238267
-0.1369658 -1.008638 0.6429302
-0.1184208 -1.005184 0.6316751
-0.1201209 -0.9876103 0.6232423
-0.146026 -0.9397331 0.5774006
-0.1538369 -0.9885676 0.6061643
-0.1479984 -1.008553 0.6202148
-0.1323257 -1.0064 0.6143481
-0.129012 -0.9913296 0.6119844
0 0 0
0.1551065 -0.8869343 0.5806422
0.1406408 -0.9255805 0.6067725
0.1416752 -0.8872153 0.6007239
0.1048602 -0.8985367 0.6231818
0.07880184 -0.9195478 0.6291215
0.06310123 -0.9283264 0.6354523
0.1451122 -0.8951648 0.5960789
0.1301172 -0.9290009 0.6475739
0.09023283 -0.9359838 0.6519383
0.06764634 -0.9326163 0.6439815
0.05490823 -0.9290842 0.6366818
0.1463315 -0.8998517 0.5907778
0.1347155 -0.9422766 0.6314904
0.09462698 -0.9547752 0.6429423
0.08290511 -0.9353474 0.6272092
0.09270504 -0.9231349 0.6196225
0.1474559 -0.906503 0.5836523
0.1321664 -0.9506971 0.6134455
0.09647253 -0.9617706 0.6216049
0.09092784 -0.9419359 0.6121438
0.1032103 -0.9280908 0.6070498
0.1467306 -0.9107409 0.5755888
0.1284004 -0.9583971 0.594883
0.1067547 -0.9670009 0.6003816
0.09984443 -0.9507975 0.5965596
0.10802 -0.9378939 0.5981684
