0 0 0
-0.1133746 -0.8433744 0.3962301
-0.1112409 -0.8684925 0.4379634
-0.09921816 -0.8394452 0.4159448
-0.06946319 -0.852766 0.4469415
-0.05690229 -0.8767785 0.4650424
-0.04418273 -0.8803361 0.4801433
-0.1056851 -0.8467774 0.4146459
-0.1005404 -0.856685 0.4779198
-0.08646806 -0.8720505 0.5150321
-0.07351027 -0.8829516 0.5325035
-0.06441555 -0.8906171 0.541643
-0.1088151 -0.8525863 0.4117545
-0.1105284 -0.8739842 0.4699044
-0.08909855 -0.8943851 0.5038351
-0.06297944 -0.9002131 0.4987045
-0.0512372 -0.8973293 0.4867162
-0.1126477 -0.8608595 0.4081128
-0.1113369 -0.8894314 0.456975
-0.08184242 -0.9056773 0.4774574
-0.06499545 -0.8995924 0.4631884
-0.06239152 -0.8891506 0.4477538
-0.1138889 -0.8682427 0.402883
-0.1107957 -0.9047872 0.4435183
-0.08967221 -0.9150354 0.4561105
-0.07534201 -0.9081702 0.4467652
-0.07351115 -0.89536 0.439127
0 0 0
0.1624964 -0.8301152 0.4435109
0.1513212 -0.8624055 0.4777368
0.1474432 -0.8274404 0.4617107
0.1102167 -0.8393261 0.4843907
0.08445442 -0.8582621 0.4947574
0.06763724 -0.8618305 0.5039974
0.1524167 -0.8356143 0.4595862
0.1373233 -0.8569133 0.5172918
0.09812718 -0.8667246 0.5199015
0.0767797 -0.8682115 0.5086704
0.06503392 -0.8682702 0.4991757
0.1547874 -0.841235 0.4557971
0.1452712 -0.8730052 0.5057088
0.1061995 -0.888027 0.517707
0.09363481 -0.8754529 0.4964956
0.1020312 -0.8642959 0.4861661
0.1575219 -0.8491982 0.4507981
0.1457009 -0.8860997 0.4904949
0.1112138 -0.9002215 0.4993083
0.1037807 -0.8846927 0.4845253
0.1140699 -0.8707582 0.4763141
0.1581806 -0.8554302 0.4441597
0.1448698 -0.8988115 0.4744862
0.1241669 -0.909018 0.4807772
0.1154838 -0.895633 0.4723285
0.1215271 -0.8816008 0.470838
