0 0 0
0.1913321 -0.8720433 0.5533413
0.2047468 -0.8996728 0.5896503
0.2074542 -0.8645792 0.5722042
0.2378388 -0.8610855 0.6048131
0.2599725 -0.8726209 0.6254641
0.2737112 -0.8750783 0.6385937
0.2029398 -0.8741048 0.5699999
0.2187408 -0.8899367 0.6292957
0.2431879 -0.9071345 0.6562458
0.2659715 -0.9152197 0.6588707
0.2805699 -0.9179783 0.6545337
0.2004258 -0.8805802 0.5662589
0.2119603 -0.9087216 0.6200786
0.2433949 -0.9321507 0.6460441
0.2686222 -0.9389706 0.6480991
0.28493 -0.9410473 0.6460608
0.1976173 -0.8895618 0.5615196
0.2124492 -0.9240605 0.6068338
0.2414847 -0.9458413 0.6282748
0.263678 -0.9507831 0.6305189
0.2810415 -0.9538875 0.6309976
0.1974527 -0.8964379 0.555528
0.213471 -0.9366145 0.5904759
0.2337135 -0.951714 0.6027171
0.2502939 -0.9580581 0.6045252
0.2643704 -0.9595255 0.6061158
0 0 0
0.3955826 -0.9045621 0.6861752
0.4115647 -0.9374053 0.7166728
0.4064003 -0.9006 0.7071884
0.4112345 -0.9054313 0.7515034
0.405701 -0.9241956 0.7800589
0.4025243 -0.9338642 0.7955772
0.4039221 -0.9093566 0.7031199
0.4427212 -0.9363238 0.7461046
0.4368029 -0.9531409 0.7806966
0.4182083 -0.9489753 0.7956461
0.4050497 -0.9419435 0.8000246
0.3998159 -0.9146384 0.7002244
0.4306878 -0.9520897 0.7368128
0.4219354 -0.9694231 0.7757978
0.4026663 -0.9554254 0.7892977
0.3926479 -0.9418378 0.7897608
0.3941339 -0.9220138 0.6968961
0.4136365 -0.9619082 0.7321963
0.4035293 -0.9755071 0.768095
0.3898157 -0.9618546 0.7804717
0.380309 -0.9464976 0.783658
0.3867585 -0.9268449 0.6945529
0.3953725 -0.968412 0.7282926
0.3885891 -0.9715515 0.7556018
0.3789807 -0.9628566 0.7681734
0.3737073 -0.9518523 0.7757197
