0 0 0
-0.1449824 -0.9194939 0.5824353
-0.1477131 -0.9566441 0.6147704
-0.1294698 -0.9242302 0.6020691
-0.1024573 -0.9502519 0.6265446
-0.09466549 -0.9829046 0.6355302
-0.09128484 -1.00061 0.638934
-0.1374089 -0.9294873 0.5988693
-0.1344531 -0.9607803 0.6550592
-0.1359573 -0.9993606 0.6792825
-0.1363356 -1.019674 0.6923092
-0.138408 -1.032119 0.699995
-0.1417919 -0.9332857 0.5945147
-0.1485173 -0.9724408 0.6435777
-0.1422192 -1.005698 0.6704041
-0.1196332 -1.013139 0.6609253
-0.1186115 -0.9981635 0.6512182
-0.1474118 -0.9390568 0.5886953
-0.1536163 -0.9837328 0.6279147
-0.1411722 -1.012863 0.6470181
-0.1226272 -1.00941 0.635763
-0.1243273 -0.9918359 0.6273302
-0.1502323 -0.9439586 0.5814885
-0.1580433 -0.9927932 0.6102522
-0.1522047 -1.012779 0.6243026
-0.1365321 -1.010625 0.618436
-0.1332184 -0.9955552 0.6160724
0 0 0
0.1585104 -0.8903166 0.5759127
0.1440447 -0.9289629 0.6020431
0.1450792 -0.8905975 0.5959944
0.1082641 -0.901919 0.6184523
0.08220581 -0.9229301 0.624392
0.0665052 -0.9317087 0.6307228
0.1485162 -0.8985471 0.5913494
0.1335212 -0.9323832 0.6428444
0.0936368 -0.9393661 0.6472088
0.07105031 -0.9359986 0.6392519
0.05831221 -0.9324666 0.6319523
0.1497354 -0.903234 0.5860482
0.1381195 -0.9456589 0.6267609
0.09803095 -0.9581575 0.6382128
0.0863091 -0.9387298 0.6224797
0.09610901 -0.9265172 0.614893
0.1508598 -0.9098853 0.5789227
0.1355703 -0.9540794 0.608716
0.09987651 -0.9651529 0.6168754
0.0943318 -0.9453182 0.6074142
0.1066143 -0.9314731 0.6023203
0.1501345 -0.9141232 0.5708593
0.1318043 -0.9617794 0.5901535
0.1101587 -0.9703832 0.5956521
0.1032484 -0.9541798 0.59183
0.1114239 -0.9412762 0.5934389
