0 0 0
-0.04116575 -0.7467212 0.4637175
-0.02428089 -0.7501739 0.5101528
-0.02405387 -0.7333063 0.4743864
0.01473551 -0.725052 0.4933034
0.03653553 -0.7387938 0.5148281
0.04998992 -0.7446011 0.5266767
-0.02867972 -0.7411022 0.4786379
-0.006069585 -0.7206225 0.5349098
0.02535509 -0.7158278 0.5599433
0.04902508 -0.719718 0.5640766
0.06281881 -0.7249358 0.5584874
-0.03119291 -0.747928 0.4796867
-0.01386073 -0.7404559 0.5382186
0.02526317 -0.7427043 0.5615453
0.04859797 -0.7480449 0.5488392
0.05616995 -0.7502773 0.5338904
-0.03406162 -0.7572885 0.481314
-0.01566713 -0.7602674 0.5380776
0.01262696 -0.7627683 0.5675211
0.03523361 -0.7653943 0.5641717
0.04977396 -0.7664358 0.5528626
-0.03502351 -0.7663001 0.4803184
-0.01959952 -0.779639 0.5347412
-0.01293589 -0.7804286 0.5636814
0.002315099 -0.7854522 0.5734085
0.01689231 -0.7851514 0.5733142
0 0 0
0.2909542 -0.7991222 0.4703585
0.2712669 -0.812194 0.5140458
0.2871416 -0.7845145 0.4891246
0.2627347 -0.7590126 0.5149209
0.2344317 -0.7486839 0.5307782
0.2188147 -0.7435088 0.5392453
0.284445 -0.794216 0.4889486
0.2744434 -0.794451 0.5529671
0.2568543 -0.789194 0.5873213
0.2353299 -0.7797533 0.5923876
0.2234866 -0.7722042 0.5843054
0.2816961 -0.8006157 0.4865998
0.2675486 -0.8138879 0.5467297
0.2431996 -0.810071 0.5845497
0.2211813 -0.79449 0.5822756
0.2162116 -0.7844544 0.5692124
0.2774488 -0.8091919 0.4836127
0.2558323 -0.8267113 0.5366071
0.232697 -0.82414 0.5664784
0.2201054 -0.8078865 0.5567735
0.2230664 -0.7980335 0.5406992
0.2724995 -0.8151079 0.4786956
0.2442984 -0.8373516 0.5216746
0.2261419 -0.8367485 0.5374878
0.2175789 -0.8220374 0.5309159
0.2235732 -0.8101781 0.5236684
