0 0 0
-0.3057144 -0.9580336 0.6385249
-0.3243067 -0.9736158 0.6794865
-0.3016477 -0.9450834 0.6610404
-0.2977628 -0.9246216 0.6986824
-0.2966427 -0.9289513 0.7304808
-0.2943052 -0.9373109 0.7461768
-0.3064084 -0.9548341 0.6588475
-0.3328514 -0.9530472 0.7167483
-0.3450833 -0.9616321 0.7528489
-0.3310319 -0.9721367 0.7694362
-0.3162039 -0.9772521 0.7723144
-0.3082293 -0.9621982 0.6555479
-0.3402892 -0.9733065 0.7095926
-0.3578143 -0.9883869 0.748991
-0.3480755 -0.9995479 0.7712278
-0.3339048 -1.003752 0.7794224
-0.3104838 -0.9722744 0.651759
-0.3388427 -0.9927502 0.7030908
-0.3558099 -1.007524 0.7367624
-0.3509556 -1.017517 0.7569613
-0.3421985 -1.024527 0.7710706
-0.3092665 -0.9806679 0.6483916
-0.3318956 -1.009396 0.6918188
-0.341954 -1.02357 0.7134666
-0.3392965 -1.03471 0.7277367
-0.333859 -1.040271 0.7397029
0 0 0
0.2309848 -0.9640281 0.6561815
0.2419974 -0.9704366 0.7014292
0.2195077 -0.9510031 0.6746772
0.2009211 -0.9358108 0.7115334
0.1939015 -0.9424874 0.7430215
0.1898478 -0.9492204 0.7595088
0.2265884 -0.9591678 0.6747398
0.237577 -0.9443641 0.7359931
0.2494988 -0.9384765 0.7750027
0.241072 -0.9446099 0.7968672
0.2287896 -0.9516433 0.804243
0.2303247 -0.9659772 0.6731113
0.2497977 -0.9629235 0.734142
0.2593126 -0.9641076 0.7797681
0.2474299 -0.9717097 0.8024142
0.2326583 -0.9771564 0.808641
0.2350692 -0.9753331 0.6715723
0.2532594 -0.9827424 0.7306505
0.261769 -0.9869534 0.7702575
0.251512 -0.9939503 0.7897112
0.237835 -0.9997933 0.8002617
0.2362632 -0.9841124 0.669402
0.2528751 -1.002015 0.7211246
0.259939 -1.009541 0.7474846
0.2536109 -1.018761 0.7625437
0.2428388 -1.022139 0.7715387
