0 0 0
0 0 0
0 0 0
0 0 0
0 0 0
0 0 0
0 0 0
0 0 0
0 0 0
0 0 0
0 0 0
0 0 0
0 0 0
0 0 0
0 0 0
0 0 0
0 0 0
0 0 0
0 0 0
0 0 0
0 0 0
0 0 0
0 0 0
0 0 0
0 0 0
0 0 0
0 0 0
0 0 0
0.2658992 -0.9379516 0.3526658
0.2760634 -0.9605936 0.3934829
0.255492 -0.9331813 0.3735055
0.2316596 -0.9402813 0.4091767
0.2258128 -0.965499 0.4296134
0.2214241 -0.9787398 0.4422353
0.2622279 -0.9404855 0.3713252
0.2719645 -0.9484854 0.4346519
0.2682821 -0.9667154 0.4685741
0.2496984 -0.9804326 0.4732988
0.2363919 -0.9822885 0.4633214
0.2654842 -0.9462181 0.3679044
0.2838419 -0.9652211 0.4262432
0.2895276 -0.9845247 0.4674269
0.2717874 -0.99877 0.4809608
0.2553227 -0.9998579 0.4756177
0.2696105 -0.954373 0.3637055
0.2860202 -0.9823669 0.4158305
0.287378 -1.001332 0.4496512
0.2672276 -1.010077 0.4556321
0.2498186 -1.007983 0.4482573
0.2706178 -0.9618338 0.3585496
0.2840565 -0.9971455 0.4013381
0.2804925 -1.011735 0.4244715
0.263679 -1.017761 0.4289952
0.2498861 -1.012546 0.427084
