0 0 0
-0.3220877 -0.9640223 0.5978431
-0.3370245 -0.9759036 0.6417642
-0.3149896 -0.9518787 0.6197959
-0.3046008 -0.9426194 0.6628501
-0.3007313 -0.9502298 0.6950093
-0.2968868 -0.9521585 0.7134163
-0.3208394 -0.9606228 0.6179573
-0.3403927 -0.9524361 0.6780623
-0.3425063 -0.9559114 0.7164277
-0.3248284 -0.9645215 0.7294545
-0.3096216 -0.9683582 0.72363
-0.3232157 -0.9675776 0.615417
-0.3503674 -0.9721262 0.6736367
-0.3694584 -0.9760823 0.7148752
-0.3572217 -0.9837528 0.7372616
-0.3402408 -0.9860854 0.7392144
-0.3261694 -0.9771783 0.6126395
-0.3502757 -0.992057 0.6684315
-0.3639362 -0.9998246 0.7039958
-0.3498007 -1.006607 0.7207465
-0.3316054 -1.008841 0.7245879
-0.3257365 -0.985823 0.6097501
-0.3449891 -1.010278 0.6574452
-0.3523058 -1.021202 0.6809523
-0.3416139 -1.029185 0.6939909
-0.3281526 -1.028036 0.6997374
0 0 0
0.2426117 -0.9729946 0.6295556
0.2543443 -0.9805976 0.6747979
0.2302352 -0.9624242 0.6501797
0.2149394 -0.9550475 0.6921886
0.2128259 -0.963286 0.723484
0.2077888 -0.9615414 0.7422652
0.2381387 -0.9696288 0.6490554
0.2482059 -0.9565172 0.7103823
0.2551854 -0.9553865 0.7494671
0.241937 -0.966563 0.765426
0.2277736 -0.9747587 0.7617764
0.2423187 -0.9758794 0.646921
0.2615387 -0.9738619 0.7074981
0.2671921 -0.9772654 0.7521454
0.2480895 -0.9883584 0.7668859
0.2328238 -0.9919033 0.7593222
0.2476982 -0.984586 0.6447259
0.2661308 -0.9932457 0.702918
0.2702329 -1.00028 0.7411366
0.2522884 -1.009173 0.7519963
0.2343151 -1.012142 0.7465571
0.2495697 -0.9931348 0.6421413
0.2671399 -1.012072 0.6930164
0.2703539 -1.020252 0.7181065
0.2561052 -1.028098 0.7265943
0.2413852 -1.025926 0.7252356
