0 0 0
-0.2910747 -0.9310741 0.392747
-0.3085069 -0.9595403 0.4260553
-0.2949713 -0.9250341 0.4148118
-0.2897932 -0.931474 0.4585478
-0.2844216 -0.955793 0.4819563
-0.2816391 -0.9671436 0.4967974
-0.2960957 -0.9338168 0.4104648
-0.3310542 -0.9511344 0.4619965
-0.3577121 -0.9693861 0.4884453
-0.3548664 -0.9802071 0.5098546
-0.3434384 -0.9832173 0.5207407
-0.2943777 -0.9398056 0.4068072
-0.3266819 -0.9698204 0.4514421
-0.3296382 -0.9911907 0.4893573
-0.3061814 -0.9884213 0.5032206
-0.2917143 -0.9795042 0.5015278
-0.2918935 -0.948238 0.4024349
-0.3157348 -0.9846227 0.4437758
-0.3168584 -1.00247 0.4766106
-0.2970519 -0.9936915 0.4837659
-0.2853812 -0.9803404 0.4769979
-0.2869033 -0.9548056 0.3985402
-0.3030469 -0.996784 0.4344469
-0.307562 -1.009936 0.4569355
-0.2934495 -1.005646 0.4677125
-0.285316 -0.993033 0.4685554
0 0 0
0.2483568 -0.9421972 0.3983549
0.262289 -0.9627602 0.4389251
0.2394658 -0.9369094 0.4198112
0.2197244 -0.9441801 0.4581894
0.2173014 -0.9690466 0.4801041
0.2148477 -0.9819925 0.4935229
0.2462348 -0.9440345 0.417258
0.2611491 -0.949039 0.4798306
0.2596321 -0.9662963 0.5139902
0.2410966 -0.9796199 0.5187546
0.2281474 -0.9802827 0.5078269
0.2493346 -0.9497982 0.4137821
0.2731997 -0.9658298 0.4713487
0.2867927 -0.9813371 0.512114
0.2722707 -0.9956868 0.5288597
0.2553495 -0.9978164 0.525479
0.2532993 -0.9579931 0.4095656
0.2749326 -0.9835128 0.4614462
0.2815894 -1.000594 0.4951777
0.2626405 -1.010105 0.5035503
0.244395 -1.00953 0.4983508
0.2540677 -0.9656503 0.4046646
0.271646 -0.9988702 0.4474459
0.2701571 -1.012865 0.4706397
0.25384 -1.019158 0.4765987
0.2396989 -1.014805 0.4760098
