0 0 0
-0.06729893 -0.8872207 0.3757574
-0.07961584 -0.8844412 0.4194371
-0.05908915 -0.8713118 0.3894261
-0.03669995 -0.856836 0.4251654
-0.02165347 -0.8577134 0.4546327
-0.01101178 -0.8521472 0.4698289
-0.06527947 -0.8790118 0.3914785
-0.07959367 -0.8515204 0.4476006
-0.07507952 -0.8480198 0.4883761
-0.06182563 -0.8519919 0.5082161
-0.05216904 -0.8559853 0.5190442
-0.06797048 -0.8858891 0.3916571
-0.08704528 -0.8716623 0.4465101
-0.06247465 -0.8750466 0.4814815
-0.04026297 -0.8801333 0.465113
-0.0387998 -0.8794535 0.4479649
-0.07138555 -0.8952444 0.392548
-0.0857812 -0.8917147 0.4442618
-0.05791657 -0.8968846 0.4698425
-0.04486071 -0.8944783 0.4511588
-0.04743482 -0.8899464 0.432991
-0.07167463 -0.9043596 0.392402
-0.08263043 -0.9118783 0.4435826
-0.0644972 -0.9141828 0.4595602
-0.05144879 -0.9095396 0.4468601
-0.05181183 -0.9013071 0.4342661
0 0 0
0.1626126 -0.8678269 0.4038787
0.1581399 -0.8624026 0.450605
0.1451016 -0.8550323 0.4136264
0.1091987 -0.8441999 0.437121
0.08557456 -0.8471557 0.4599575
0.07049352 -0.8464428 0.4714778
0.1523629 -0.8608131 0.4182691
0.1392913 -0.8313081 0.4741051
0.13862 -0.8105134 0.5128233
0.1314719 -0.8046601 0.5354489
0.1246062 -0.8039359 0.5489494
0.1569915 -0.8666209 0.4198972
0.152362 -0.8475329 0.4793261
0.1295654 -0.8452432 0.5177183
0.1067333 -0.8581764 0.5139372
0.1049758 -0.86204 0.4968804
0.1628277 -0.8745974 0.4225784
0.1581299 -0.8667944 0.4805364
0.1344767 -0.8700546 0.5106013
0.1176723 -0.8781663 0.4980247
0.1185758 -0.8781295 0.4787542
0.1659263 -0.8831524 0.4232256
0.1639895 -0.8862837 0.4800822
0.1524516 -0.8872069 0.5031363
0.1360391 -0.8927333 0.4983358
0.1293318 -0.8894534 0.4850814
