0 0 0
0.1304262 -0.8767325 0.3745852
0.15849 -0.9065188 0.3994116
0.1534645 -0.8707093 0.3838968
0.195981 -0.8720689 0.3966593
0.2209124 -0.8927019 0.4022866
0.2368384 -0.9023122 0.4057385
0.1481125 -0.8798498 0.3836944
0.1895006 -0.8987269 0.4279107
0.2241522 -0.9162477 0.4350685
0.2439139 -0.9226537 0.4225245
0.2533557 -0.9242257 0.4104709
0.1440893 -0.8859761 0.3812626
0.179164 -0.9167901 0.4227983
0.2190994 -0.9356535 0.4358604
0.2400769 -0.9353741 0.4197611
0.238573 -0.9256717 0.4053471
0.139303 -0.8945485 0.3779586
0.17321 -0.9316111 0.4108995
0.2069907 -0.9492548 0.4207833
0.2219175 -0.9439162 0.404831
0.2180692 -0.930526 0.3914996
0.1362009 -0.9010687 0.3723817
0.1653494 -0.9444622 0.3973127
0.1842134 -0.9600705 0.4100575
0.1989457 -0.9591038 0.4003
0.2024697 -0.9464135 0.3925802
0 0 0
0.4007297 -0.9233852 0.7279193
0.4211345 -0.9605889 0.7509502
0.4131636 -0.9233606 0.7480716
0.4195151 -0.9384403 0.790118
0.4159866 -0.9630598 0.8144
0.4155237 -0.9741493 0.8297336
0.410912 -0.9311778 0.7428215
0.4549733 -0.9625276 0.7771695
0.4543152 -0.9833374 0.8098354
0.4376067 -0.9831013 0.8273694
0.4247279 -0.9785928 0.8346544
0.4068315 -0.9360568 0.7395946
0.4429473 -0.9774345 0.7664446
0.4413116 -1.002451 0.8027041
0.4237371 -0.994935 0.8220639
0.4125238 -0.9838384 0.8279755
0.4012195 -0.9429726 0.7357405
0.4258424 -0.987429 0.7616119
0.4205361 -1.007719 0.7941265
0.4073737 -0.9951689 0.808155
0.3982848 -0.9796513 0.8122403
0.3938543 -0.9477387 0.7332456
0.4076419 -0.994756 0.7574992
0.4044591 -1.007039 0.7816393
0.3957002 -1.003323 0.797431
0.3911426 -0.9937503 0.807305
