0 0 0
0 0 0
0 0 0
0 0 0
0 0 0
0 0 0
0 0 0
0 0 0
0 0 0
0 0 0
0 0 0
0 0 0
0 0 0
0 0 0
0 0 0
0 0 0
0 0 0
0 0 0
0 0 0
0 0 0
0 0 0
0 0 0
0 0 0
0 0 0
0 0 0
0 0 0
0 0 0
0 0 0
0.4029119 -0.9143193 0.7310897
0.4125989 -0.9520225 0.7643353
0.4091377 -0.9124544 0.7586377
0.4183525 -0.9132839 0.8017939
0.4181314 -0.9313561 0.8280261
0.4187053 -0.9392169 0.8453795
0.4075122 -0.9215255 0.7526061
0.4346046 -0.9515325 0.8010176
0.4378512 -0.9727843 0.8372897
0.4325898 -0.9832008 0.8584456
0.4283596 -0.9901022 0.8709524
0.4046108 -0.9271042 0.7474775
0.4272716 -0.9683517 0.7880633
0.4234345 -0.9995299 0.824746
0.4140838 -1.01215 0.8453112
0.4062702 -1.018871 0.8581644
0.4003826 -0.9347307 0.7411435
0.4136083 -0.980149 0.7780812
0.4095635 -1.010051 0.8070552
0.399708 -1.02078 0.824688
0.3916046 -1.028811 0.8380232
0.3942443 -0.9395437 0.7364019
0.3990461 -0.9874295 0.7668767
0.3994102 -1.008969 0.7863287
0.3930076 -1.020016 0.7988982
0.3878731 -1.026101 0.8106824
