0 0 0
-0.15049 -0.9279621 0.5996723
-0.1532207 -0.9651123 0.6320076
-0.1349774 -0.9326984 0.6193061
-0.1079648 -0.9587201 0.6437817
-0.1001731 -0.9913727 0.6527673
-0.09679239 -1.009078 0.6561711
-0.1429164 -0.9379555 0.6161063
-0.1399607 -0.9692485 0.6722963
-0.1414649 -1.007829 0.6965195
-0.1418432 -1.028142 0.7095463
-0.1439155 -1.040587 0.717232
-0.1472995 -0.9417539 0.6117518
-0.1540248 -0.980909 0.6608148
-0.1477268 -1.014166 0.6876411
-0.1251407 -1.021608 0.6781623
-0.124119 -1.006632 0.6684553
-0.1529194 -0.947525 0.6059324
-0.1591238 -0.992201 0.6451517
-0.1466798 -1.021331 0.6642552
-0.1281347 -1.017878 0.6530001
-0.1298348 -1.000304 0.6445673
-0.1557399 -0.9524269 0.5987256
-0.1635508 -1.001261 0.6274893
-0.1577123 -1.021247 0.6415397
-0.1420396 -1.019094 0.6356731
-0.138726 -1.004023 0.6333094
0 0 0
0.1360706 -0.9055438 0.5618371
0.1286197 -0.9403688 0.5965073
0.1189539 -0.9045777 0.5825295
0.08854138 -0.9167755 0.6123381
0.07863265 -0.9471022 0.6237677
0.07411539 -0.9644221 0.6272078
0.1253641 -0.9121755 0.5792558
0.1146443 -0.937945 0.6369995
0.1131574 -0.9610965 0.676115
0.1121364 -0.9737243 0.6971391
0.1103623 -0.982592 0.7090591
0.12881 -0.9173232 0.5749612
0.1258111 -0.9545481 0.6269547
0.1218705 -0.9837399 0.661433
0.09985741 -0.9969825 0.6655127
0.08745221 -0.9904522 0.6549116
0.1329519 -0.9247778 0.5692993
0.1280319 -0.9682822 0.6127521
0.1166576 -0.9928356 0.6390204
0.09487312 -0.994283 0.6338682
0.08716179 -0.9818481 0.6212423
0.1343188 -0.9306691 0.5624193
0.1306589 -0.9784768 0.5950841
0.1277845 -0.9973612 0.6148252
0.110715 -1.001413 0.6138359
0.1006201 -0.9906613 0.6097177
