0 0 0
-0.1637856 -0.915637 0.5822254
-0.1665163 -0.9527872 0.6145607
-0.148273 -0.9203733 0.6018593
-0.1212605 -0.946395 0.6263348
-0.1134687 -0.9790476 0.6353205
-0.1100881 -0.9967527 0.6387243
-0.1562121 -0.9256304 0.5986595
-0.1532563 -0.9569234 0.6548494
-0.1547605 -0.9955037 0.6790727
-0.1551389 -1.015817 0.6920995
-0.1572112 -1.028262 0.6997852
-0.1605951 -0.9294288 0.5943049
-0.1673205 -0.9685839 0.6433679
-0.1610225 -1.001841 0.6701943
-0.1384364 -1.009282 0.6607155
-0.1374147 -0.9943066 0.6510084
-0.166215 -0.9351999 0.5884855
-0.1724195 -0.9798759 0.627705
-0.1599754 -1.009006 0.6468083
-0.1414304 -1.005553 0.6355532
-0.1431305 -0.987979 0.6271204
-0.1690355 -0.9401017 0.5812787
-0.1768465 -0.9889363 0.6100424
-0.1710079 -1.008922 0.6240928
-0.1553353 -1.006768 0.6182263
-0.1520216 -0.9916983 0.6158625
0 0 0
0.1461893 -0.8938102 0.5459325
0.1384432 -0.9313179 0.5753853
0.1319107 -0.8938246 0.5679634
0.1037011 -0.9066414 0.5998935
0.08891341 -0.935344 0.6108138
0.08156555 -0.9517524 0.6133161
0.1369283 -0.9015613 0.5629905
0.1297129 -0.9338598 0.6175029
0.1242621 -0.9695174 0.6430736
0.1147234 -0.9889042 0.6538978
0.1086894 -1.001314 0.6594927
0.1392299 -0.9064091 0.5576401
0.1359473 -0.948086 0.6023931
0.1098155 -0.9775618 0.6200569
0.08576687 -0.9700545 0.6098512
0.08477377 -0.9550693 0.6010216
0.1418079 -0.9134028 0.5505987
0.1341816 -0.9577996 0.5847113
0.1038322 -0.9775838 0.5946954
0.09150968 -0.9610077 0.5851512
0.09705723 -0.9440525 0.5783381
0.1416691 -0.9184061 0.5429471
0.1314211 -0.9664375 0.566447
0.111448 -0.9780871 0.5726471
0.1001336 -0.9643772 0.5678895
0.1029637 -0.9494884 0.5675719
