0 0 0
-0.3036438 -0.9340578 0.3901909
-0.321076 -0.9625241 0.4234992
-0.3075404 -0.9280179 0.4122557
-0.3023623 -0.9344578 0.4559917
-0.2969907 -0.9587768 0.4794003
-0.2942082 -0.9701273 0.4942414
-0.3086648 -0.9368005 0.4079087
-0.3436233 -0.9541182 0.4594404
-0.3702812 -0.9723698 0.4858893
-0.3674355 -0.9831908 0.5072985
-0.3560075 -0.9862011 0.5181847
-0.3069468 -0.9427894 0.4042511
-0.339251 -0.9728041 0.448886
-0.3422073 -0.9941744 0.4868013
-0.3187505 -0.991405 0.5006645
-0.3042834 -0.9824879 0.4989717
-0.3044626 -0.9512218 0.3998789
-0.3283039 -0.9876064 0.4412197
-0.3294275 -1.005454 0.4740545
-0.309621 -0.9966753 0.4812098
-0.2979503 -0.9833241 0.4744418
-0.2994724 -0.9577894 0.3959841
-0.3156161 -0.9997678 0.4318908
-0.3201311 -1.01292 0.4543794
-0.3060186 -1.00863 0.4651564
-0.2978851 -0.9960167 0.4659993
0 0 0
0.2451098 -0.9427357 0.4138508
0.2591651 -0.9617996 0.455074
0.2361836 -0.937172 0.4352142
0.2175405 -0.945837 0.4743142
0.2162316 -0.9702902 0.4969624
0.2133866 -0.9815575 0.5120768
0.2430644 -0.9440942 0.4327787
0.2578777 -0.9467495 0.4955227
0.2579711 -0.9626728 0.5306256
0.2401571 -0.9762642 0.5369314
0.2268405 -0.9777434 0.5264781
0.2461775 -0.949875 0.429495
0.2700931 -0.9636847 0.4876236
0.2841125 -0.9773417 0.5287327
0.2692882 -0.9911712 0.5455437
0.2524859 -0.9929616 0.541245
0.2501724 -0.9580972 0.4255557
0.272035 -0.9816546 0.4783561
0.2792084 -0.9972069 0.5127825
0.2605397 -1.006636 0.5216841
0.2424028 -1.005888 0.515856
0.2510174 -0.9659055 0.420913
0.2688353 -0.997513 0.4648608
0.2674629 -1.010561 0.4886134
0.2508864 -1.01624 0.4942029
0.2370666 -1.010949 0.4924805
