0 0 0
-0.05589336 -0.7674482 0.4345298
-0.04111544 -0.7607141 0.4809373
-0.03814572 -0.7537031 0.442631
0.0004205419 -0.7460467 0.4627513
0.01874305 -0.7567751 0.4891326
0.03080306 -0.7606355 0.5031779
-0.04370873 -0.7596267 0.4482666
-0.02138228 -0.7271691 0.4988949
0.003753076 -0.7064604 0.5269649
0.0209096 -0.69789 0.5422849
0.03349691 -0.6952932 0.5502879
-0.04684312 -0.7657063 0.4507659
-0.03077549 -0.7448132 0.5064403
0.008078774 -0.7400975 0.5314812
0.03232881 -0.7491212 0.5242736
0.04367881 -0.7561527 0.5141967
-0.05057701 -0.7740314 0.454422
-0.03397134 -0.7640277 0.5100515
-0.002769885 -0.7606758 0.5356666
0.01748113 -0.7665251 0.5265349
0.02808953 -0.7717326 0.5124234
-0.0523347 -0.78289 0.4556318
-0.03916478 -0.7839827 0.5118625
-0.029603 -0.780637 0.5380175
-0.01282089 -0.7852666 0.5446025
0.001320406 -0.7859915 0.5409321
0 0 0
0.2446066 -0.79633 0.4587378
0.2209866 -0.8065964 0.5017665
0.2372561 -0.7807383 0.4771718
0.2064353 -0.7603275 0.5017378
0.1762557 -0.7607647 0.5172086
0.1600571 -0.7580374 0.5266126
0.2357403 -0.7905478 0.4771816
0.2198188 -0.786321 0.5392219
0.1896136 -0.783548 0.5693146
0.1688544 -0.7799215 0.5813071
0.1552929 -0.7780041 0.5872912
0.2336349 -0.7970993 0.4750221
0.2143633 -0.8058028 0.5316246
0.1770281 -0.7974629 0.5502376
0.1698975 -0.7825115 0.5281256
0.1822716 -0.7795406 0.5161761
0.2301739 -0.8059143 0.4722142
0.2046155 -0.8187332 0.5195976
0.1702422 -0.8081509 0.5304506
0.1729536 -0.7944431 0.5125911
0.1892454 -0.7919772 0.5027318
0.225928 -0.8123758 0.4673015
0.1939448 -0.830485 0.5068519
0.1720348 -0.8229237 0.5137614
0.17268 -0.8089847 0.502063
0.1855613 -0.8023115 0.4972515
