0 0 0
-0.3192471 -0.9657701 0.6118857
-0.3352907 -0.9763384 0.6554954
-0.3121693 -0.9530995 0.6335833
-0.3024435 -0.9412295 0.6759753
-0.2987904 -0.9466642 0.7087215
-0.2953923 -0.9496788 0.726778
-0.3182018 -0.9618533 0.6318804
-0.3387085 -0.9521359 0.6913499
-0.3415286 -0.9554541 0.7285897
-0.3223421 -0.9649574 0.7379854
-0.3085693 -0.9680234 0.7286909
-0.3207611 -0.9688555 0.6293943
-0.3489422 -0.9718434 0.6869646
-0.3667876 -0.9771468 0.727964
-0.3526642 -0.9857728 0.7488599
-0.3354871 -0.9877963 0.7486678
-0.3239799 -0.9784963 0.6267084
-0.3494014 -0.9919396 0.6820365
-0.3634812 -1.000431 0.7169845
-0.3494071 -1.007904 0.7334939
-0.3312875 -1.010577 0.7373484
-0.3237441 -0.9872055 0.6239978
-0.3439382 -1.010314 0.6715153
-0.3496855 -1.021779 0.6949102
-0.3392429 -1.030051 0.7080185
-0.3260961 -1.029586 0.7143845
0 0 0
0.240879 -0.9727412 0.6442084
0.2536455 -0.9762564 0.6896106
0.2269937 -0.9627513 0.6642791
0.2103055 -0.9534986 0.7051778
0.2084089 -0.9587681 0.736878
0.2028949 -0.9560807 0.7553905
0.2358638 -0.9689471 0.663541
0.2440492 -0.9515241 0.7239707
0.2488043 -0.9468576 0.7628018
0.2363804 -0.9588749 0.7787704
0.2236815 -0.9691257 0.7748258
0.2409562 -0.9746916 0.6616635
0.2597595 -0.9668888 0.7218939
0.2654774 -0.9668447 0.7668309
0.2482894 -0.9795409 0.7826251
0.2335746 -0.9858803 0.7758906
0.2475989 -0.982698 0.6598347
0.2670987 -0.9856418 0.7182398
0.2720081 -0.9900811 0.7567657
0.2554453 -1.000857 0.7680829
0.2381075 -1.006526 0.7626761
0.2506781 -0.9910096 0.6576691
0.2709305 -1.004558 0.7093319
0.2755724 -1.01059 0.7347311
0.2625325 -1.019923 0.7436377
0.2476605 -1.019978 0.7421982
