0 0 0
-0.3086991 -0.9460623 0.4144573
-0.3285156 -0.9649084 0.4531678
-0.3051924 -0.9382422 0.4369323
-0.2959328 -0.9422026 0.480328
-0.2964744 -0.9644268 0.5057763
-0.2957503 -0.9750764 0.5213107
-0.3104249 -0.9462121 0.433457
-0.3378142 -0.948039 0.4917685
-0.3458878 -0.9600716 0.5275689
-0.3295381 -0.9709593 0.5406963
-0.3135094 -0.9731304 0.536604
-0.311989 -0.9525346 0.4299414
-0.3462156 -0.9666634 0.4830488
-0.3707988 -0.976162 0.5198514
-0.3592515 -0.9863381 0.5415131
-0.3419284 -0.987218 0.5424723
-0.3139526 -0.9614207 0.425785
-0.3441865 -0.9847763 0.4754366
-0.3601773 -0.9942901 0.5081393
-0.3416899 -0.9992958 0.5204158
-0.3231526 -0.9968933 0.5167729
-0.3127426 -0.969476 0.4216798
-0.3355878 -1.000921 0.4643757
-0.3392096 -1.009603 0.4903816
-0.3228352 -1.010984 0.4985332
-0.3101074 -1.003268 0.497015
0 0 0
0.2447953 -0.9498498 0.4426295
0.2577693 -0.9666359 0.4852071
0.2349306 -0.9434721 0.4641572
0.2180243 -0.9507764 0.5051554
0.2163948 -0.9719228 0.5307267
0.2119427 -0.9787416 0.5483516
0.2420656 -0.9503434 0.4618808
0.2552509 -0.9494904 0.5248246
0.259349 -0.9616362 0.5617756
0.2434423 -0.9756538 0.5719137
0.2290506 -0.980113 0.5644606
0.2453893 -0.9562156 0.4588423
0.2676682 -0.9667075 0.5181242
0.2802075 -0.9779202 0.5601982
0.2643344 -0.9911301 0.5769084
0.2476668 -0.9939746 0.5730312
0.2496513 -0.9645441 0.4552808
0.2699485 -0.985145 0.5097685
0.2753386 -0.9992865 0.5450791
0.2561435 -1.008304 0.5534306
0.2381337 -1.008378 0.5474305
0.2507157 -0.972569 0.4510725
0.2675833 -1.001694 0.4970821
0.2659765 -1.013626 0.5214291
0.2494566 -1.019403 0.5270414
0.2355905 -1.014413 0.5247757
