0 0 0
0 0 0
0 0 0
0 0 0
0 0 0
0 0 0
0 0 0
0 0 0
0 0 0
0 0 0
0 0 0
0 0 0
0 0 0
0 0 0
0 0 0
0 0 0
0 0 0
0 0 0
0 0 0
0 0 0
0 0 0
0 0 0
0 0 0
0 0 0
0 0 0
0 0 0
0 0 0
0 0 0
0.2635908 -0.9393482 0.3584725
0.2739513 -0.9617806 0.3992889
0.2536433 -0.9341111 0.379449
0.2304721 -0.9402289 0.4157166
0.2250545 -0.965403 0.4363331
0.2210606 -0.9787688 0.448906
0.2601763 -0.9415897 0.3772008
0.27087 -0.9491842 0.4404196
0.2673156 -0.9670868 0.4744684
0.2484318 -0.9802807 0.4794416
0.2349821 -0.981778 0.4695839
0.2632392 -0.9474299 0.3737705
0.2823789 -0.9663209 0.4320098
0.2900433 -0.9852161 0.4729217
0.2728199 -0.9992316 0.4872176
0.2562217 -0.999871 0.4821016
0.2671021 -0.9557202 0.3695738
0.284045 -0.9836612 0.4217724
0.2869282 -1.002147 0.455427
0.2668266 -1.010615 0.4618819
0.249353 -1.008157 0.4547198
0.2678389 -0.9632564 0.3644826
0.2811566 -0.9984452 0.4073645
0.2775072 -1.012636 0.430441
0.2603026 -1.017518 0.4345658
0.2470925 -1.01103 0.4320523
