0 0 0
-0.06231449 -0.781523 0.4236418
-0.04753656 -0.7747889 0.4700493
-0.04456684 -0.7677779 0.431743
-0.006000577 -0.7601215 0.4518633
0.01232193 -0.7708501 0.4782446
0.02438194 -0.7747104 0.49229
-0.05012986 -0.7737015 0.4373786
-0.0278034 -0.7412438 0.4880069
-0.002668045 -0.7205352 0.5160769
0.01448849 -0.7119649 0.5313969
0.0270758 -0.709368 0.5393999
-0.05326425 -0.7797811 0.4398779
-0.03719661 -0.758888 0.4955523
0.001657657 -0.7541723 0.5205932
0.02590769 -0.7631961 0.5133856
0.03725769 -0.7702276 0.5033087
-0.05699814 -0.7881062 0.443534
-0.04039246 -0.7781025 0.4991636
-0.009191005 -0.7747507 0.5247787
0.01106001 -0.7806 0.5156469
0.02166841 -0.7858075 0.5015354
-0.05875583 -0.7969648 0.4447438
-0.0455859 -0.7980575 0.5009745
-0.03602413 -0.7947118 0.5271295
-0.01924201 -0.7993414 0.5337145
-0.005100716 -0.8000664 0.5300441
0 0 0
0.2132209 -0.7869961 0.4445581
0.206553 -0.7857563 0.4926887
0.2007836 -0.7709578 0.457225
0.1674991 -0.7599421 0.4847479
0.1463852 -0.768447 0.5105031
0.1338388 -0.7710305 0.5242816
0.2053494 -0.7788516 0.4608652
0.1985403 -0.7530137 0.5193642
0.1779367 -0.7446756 0.555777
0.1627075 -0.7423432 0.5743343
0.1537554 -0.7419178 0.5861567
0.2071258 -0.7857501 0.4618055
0.2045903 -0.7737891 0.5219725
0.1753166 -0.7741967 0.5547927
0.1501202 -0.7776875 0.544462
0.1416723 -0.7785608 0.5297552
0.2090703 -0.7952139 0.4634637
0.2026879 -0.7937652 0.520238
0.1735579 -0.7951984 0.5452825
0.1568011 -0.793951 0.5296861
0.1540513 -0.7913507 0.5113101
0.2087391 -0.8043247 0.4629459
0.1998776 -0.8136351 0.516756
0.1816414 -0.8146785 0.5335596
0.1663247 -0.8117886 0.523664
0.1635068 -0.804185 0.511062
