0 0 0
-0.1382946 -0.8860616 0.5408567
-0.1410253 -0.9232118 0.5731918
-0.122782 -0.8907979 0.5604905
-0.09576947 -0.9168196 0.5849661
-0.0879777 -0.9494723 0.5939517
-0.08459704 -0.9671774 0.5973555
-0.1307211 -0.896055 0.5572907
-0.1277653 -0.927348 0.6134807
-0.1292695 -0.9659284 0.6377039
-0.1296478 -0.9862415 0.6507307
-0.1317202 -0.9986863 0.6584164
-0.1351041 -0.8998534 0.5529362
-0.1418295 -0.9390085 0.6019992
-0.1355314 -0.9722657 0.6288255
-0.1129454 -0.9797071 0.6193467
-0.1119237 -0.9647312 0.6096397
-0.140724 -0.9056246 0.5471168
-0.1469285 -0.9503006 0.5863361
-0.1344844 -0.9794309 0.6054396
-0.1159394 -0.9759775 0.5941845
-0.1176395 -0.9584036 0.5857517
-0.1435445 -0.9105264 0.53991
-0.1513555 -0.959361 0.5686737
-0.1455169 -0.9793467 0.5827241
-0.1298443 -0.9771929 0.5768575
-0.1265306 -0.9621229 0.5744938
0 0 0
0.1419988 -0.8910778 0.5861217
0.1275331 -0.9297241 0.6122522
0.1285675 -0.8913587 0.6062034
0.09175248 -0.9026802 0.6286614
0.06569413 -0.9236913 0.6346011
0.04999353 -0.9324698 0.6409319
0.1320045 -0.8993083 0.6015585
0.1170095 -0.9331443 0.6530535
0.07712513 -0.9401273 0.6574178
0.05453863 -0.9367597 0.649461
0.04180053 -0.9332277 0.6421614
0.1332237 -0.9039952 0.5962573
0.1216078 -0.94642 0.63697
0.08151929 -0.9589187 0.6484219
0.06979743 -0.9394909 0.6326888
0.07959735 -0.9272784 0.6251021
0.1343482 -0.9106465 0.5891318
0.1190587 -0.9548405 0.618925
0.08336484 -0.9659141 0.6270844
0.07782014 -0.9460794 0.6176233
0.09010264 -0.9322342 0.6125294
0.1336228 -0.9148844 0.5810683
0.1152927 -0.9625406 0.6003626
0.09364703 -0.9711444 0.6058612
0.08673673 -0.954941 0.6020392
0.09491228 -0.9420373 0.6036479
