0 0 0
-0.3120746 -0.8901751 0.4607579
-0.3291893 -0.9171275 0.496015
-0.2999926 -0.8941654 0.4823667
-0.2829224 -0.916223 0.5189835
-0.271525 -0.9376583 0.5416926
-0.2612675 -0.9454867 0.5559919
-0.3089468 -0.8980308 0.4785686
-0.3210332 -0.9166068 0.5384821
-0.3222032 -0.9363444 0.5735179
-0.3123542 -0.9558029 0.5840719
-0.3013505 -0.9671754 0.5818859
-0.3140197 -0.9013028 0.4739507
-0.3366089 -0.9265015 0.5272147
-0.3363145 -0.955635 0.5646343
-0.3220776 -0.9761012 0.5741113
-0.3083417 -0.9857262 0.5724715
-0.3207544 -0.9063553 0.4680719
-0.3451676 -0.9389851 0.5138721
-0.3512641 -0.963872 0.5450727
-0.3372975 -0.9810174 0.5513663
-0.3209517 -0.9894016 0.548493
-0.3241332 -0.9116747 0.4614637
-0.35029 -0.9493243 0.4956349
-0.3587204 -0.9675847 0.5131833
-0.349241 -0.9830593 0.5170641
-0.3352839 -0.987662 0.5179564
0 0 0
0.2306437 -0.9289088 0.4692367
0.2462749 -0.9590257 0.5016556
0.2207275 -0.9312084 0.4904074
0.2008596 -0.9517745 0.523673
0.1980677 -0.9819735 0.538201
0.1963947 -0.9987983 0.54579
0.2283697 -0.9364524 0.4861853
0.2426281 -0.9590511 0.5447266
0.2448021 -0.9855129 0.5747648
0.2321841 -1.004961 0.5818136
0.2193782 -1.013892 0.5788983
0.2322441 -0.9404458 0.4812544
0.2550561 -0.9709223 0.531053
0.253453 -1.005598 0.5609434
0.2338588 -1.023419 0.5653508
0.2177991 -1.026514 0.5607492
0.2373101 -0.9464148 0.4749322
0.2590482 -0.9840071 0.5162925
0.2579823 -1.014438 0.5414109
0.2381498 -1.025865 0.5434274
0.22024 -1.027688 0.5392857
0.2391257 -0.9520109 0.46796
0.2599313 -0.9947487 0.4987797
0.2597427 -1.016256 0.515083
0.2460469 -1.028144 0.5188397
0.2317344 -1.029985 0.5207483
