2662151803
0.9987791, 0.03033349, 0.03904539, 0
0.02192575, 0.4360823, -0.8996419, 0
-0.04431614, 0.8993977, 0.4348851, 0
0.02560842, -0.5653734, -0.5840349, 1
686.3386, 0, 442.8135, 0
0, 687.5867, 238.9119, 0
0, 0, 1, 0
0, 0, 0, 1
