2653485622
0.9904442, 0.1261771, 0.05570816, 0
-0.01367509, 0.4917371, -0.8706393, 0
-0.1372483, 0.8615561, 0.4887637, 0
0.01696002, -0.5522277, -0.572854, 1
686.3386, 0, 442.8135, 0
0, 687.5867, 238.9119, 0
0, 0, 1, 0
0, 0, 0, 1
