2664485006
0.9992194, 0.01499978, 0.03661427, 0
0.02597427, 0.4493981, -0.8929565, 0
-0.02984852, 0.893208, 0.4486577, 0
0.01687682, -0.5331699, -0.5679016, 1
686.3386, 0, 442.8135, 0
0, 687.5867, 238.9119, 0
0, 0, 1, 0
0, 0, 0, 1
