2651485734
0.9950975, 0.08737147, 0.04638644, 0
-0.006350756, 0.5243798, -0.8514636, 0
-0.09871748, 0.8469927, 0.5223638, 0
-0.01405931, -0.4623255, -0.5387678, 1
686.3386, 0, 442.8135, 0
0, 687.5867, 238.9119, 0
0, 0, 1, 0
0, 0, 0, 1
