2715026110
0.9996057, -0.0260925, 0.0105696, 0
0.02156869, 0.4685451, -0.8831785, 0
0.01809186, 0.8830562, 0.4689228, 0
0.01799452, -0.4986745, -0.5444646, 1
687.8787, 0, 442.8357, 0
0, 689.1216, 238.9445, 0
0, 0, 1, 0
0, 0, 0, 1
