2697360435
0.9981918, -0.02733418, 0.05357707, 0
0.05985841, 0.5385648, -0.8404573, 0
-0.005881637, 0.8421427, 0.5392268, 0
0.07208669, -0.4616432, -0.519074, 1
687.0021, 0, 442.8277, 0
0, 688.2457, 238.9257, 0
0, 0, 1, 0
0, 0, 0, 1
