2709026447
0.9994674, -0.01267955, 0.03013866, 0
0.03217632, 0.545234, -0.837668, 0
-0.005811244, 0.8381898, 0.5453514, 0
0.03590798, -0.4642215, -0.5213361, 1
686.3386, 0, 442.8135, 0
0, 687.5867, 238.9119, 0
0, 0, 1, 0
0, 0, 0, 1
