2649485846
0.9982784, 0.05785474, 0.00979431, 0
-0.02596527, 0.585225, -0.8104569, 0
-0.05262068, 0.8088058, 0.5857196, 0
-0.04889631, -0.3073872, -0.4958797, 1
686.3386, 0, 442.8135, 0
0, 687.5867, 238.9119, 0
0, 0, 1, 0
0, 0, 0, 1
