2666484894
0.9991989, 0.01276693, 0.03799531, 0
0.02764869, 0.4667709, -0.8839483, 0
-0.02902049, 0.8842885, 0.466044, 0
0.0145731, -0.4992713, -0.5498629, 1
688.0971, 0, 442.8368, 0
0, 689.3403, 238.9492, 0
0, 0, 1, 0
0, 0, 0, 1
