2675827064
0.9440579, 0.1786992, 0.2771708, 0
0.1820174, 0.4185092, -0.8897872, 0
-0.2750034, 0.8904601, 0.3625713, 0
0.1621145, -0.4756066, -0.5354857, 1
687.6602, 0, 442.8347, 0
0, 688.903, 238.9398, 0
0, 0, 1, 0
0, 0, 0, 1
