2721692402
0.999648, -0.01999936, 0.01754658, 0
0.02449185, 0.4341725, -0.9004984, 0
0.01039097, 0.9006095, 0.4345098, 0
0.01075494, -0.5119743, -0.5585008, 1
687.8787, 0, 442.8357, 0
0, 689.1216, 238.9445, 0
0, 0, 1, 0
0, 0, 0, 1
