2713026222
0.99962, -0.0269472, 0.006195769, 0
0.01850936, 0.4857046, -0.8739288, 0
0.0205403, 0.8737097, 0.4860186, 0
0.02219856, -0.4917834, -0.5403605, 1
687.8787, 0, 442.8357, 0
0, 689.1216, 238.9445, 0
0, 0, 1, 0
0, 0, 0, 1
