2678193026
0.9318447, 0.1759033, 0.3173765, 0
0.2358211, 0.3711846, -0.8981168, 0
-0.275786, 0.9117481, 0.3044054, 0
0.2229952, -0.5202464, -0.5627284, 1
685.4539, 0, 442.7946, 0
0, 686.7078, 238.8935, 0
0, 0, 1, 0
0, 0, 0, 1
