2710359705
0.9996884, -0.01832116, 0.01707004, 0
0.02410486, 0.5194844, -0.8541417, 0
0.006781042, 0.8542854, 0.5197641, 0
0.02982473, -0.4750946, -0.5286651, 1
687.8787, 0, 442.8357, 0
0, 689.1216, 238.9445, 0
0, 0, 1, 0
0, 0, 0, 1
