2716359368
0.9997536, -0.01483294, 0.01661983, 0
0.02165169, 0.471613, -0.8815418, 0
0.005237758, 0.8816826, 0.4718177, 0
0.01688397, -0.4984756, -0.5484066, 1
687.8787, 0, 442.8357, 0
0, 689.1216, 238.9445, 0
0, 0, 1, 0
0, 0, 0, 1
