2658152028
0.9943424, 0.08867082, 0.05852945, 0
0.01328361, 0.44281, -0.8965199, 0
-0.1054123, 0.8922229, 0.4391268, 0
0.0415386, -0.5829813, -0.603477, 1
686.3386, 0, 442.8135, 0
0, 687.5867, 238.9119, 0
0, 0, 1, 0
0, 0, 0, 1
