2703360098
0.9994168, -0.01487523, 0.0307892, 0
0.03380173, 0.565773, -0.8238701, 0
-0.005164266, 0.8244289, 0.5659457, 0
0.03196394, -0.4628676, -0.5023026, 1
686.3386, 0, 442.8135, 0
0, 687.5867, 238.9119, 0
0, 0, 1, 0
0, 0, 0, 1
