2663151747
0.9990422, 0.02130544, 0.0382859, 0
0.0250496, 0.4391788, -0.8980531, 0
-0.03594783, 0.8981495, 0.4382242, 0
0.02123749, -0.5534797, -0.5776796, 1
686.3386, 0, 442.8135, 0
0, 687.5867, 238.9119, 0
0, 0, 1, 0
0, 0, 0, 1
