2660485230
0.9982389, 0.03937158, 0.04443194, 0
0.02277946, 0.4371229, -0.8991158, 0
-0.05482161, 0.898542, 0.4354559, 0
0.03281856, -0.5764219, -0.5935435, 1
686.3386, 0, 442.8135, 0
0, 687.5867, 238.9119, 0
0, 0, 1, 0
0, 0, 0, 1
