2644152811
0.9995781, 0.006223202, -0.02839528, 0
-0.02083182, 0.8346502, -0.550389, 0
0.02027488, 0.5507478, 0.8344266, 0
-0.07167739, 0.00404954, -0.3345833, 1
687.6602, 0, 442.8347, 0
0, 688.903, 238.9398, 0
0, 0, 1, 0
0, 0, 0, 1
