2658818657
0.9957196, 0.07486305, 0.05424881, 0
0.01573771, 0.4409648, -0.8973892, 0
-0.09110275, 0.8943989, 0.4378989, 0
0.03979683, -0.5816866, -0.6013041, 1
686.3386, 0, 442.8135, 0
0, 687.5867, 238.9119, 0
0, 0, 1, 0
0, 0, 0, 1
