2679207009
0.9396127, 0.1589683, 0.3030867, 0
0.2276222, 0.3710598, -0.9002815, 0
-0.2555786, 0.9149035, 0.3124681, 0
0.2372763, -0.5325969, -0.5784392, 1
687.0021, 0, 442.8277, 0
0, 688.2457, 238.9257, 0
0, 0, 1, 0
0, 0, 0, 1
