2704026728
0.9994029, -0.0220581, 0.0266688, 0
0.03446966, 0.5654332, -0.8240756, 0
0.003098041, 0.824501, 0.5658553, 0
0.03151011, -0.4572779, -0.5026474, 1
686.3386, 0, 442.8135, 0
0, 687.5867, 238.9119, 0
0, 0, 1, 0
0, 0, 0, 1
