2682586954
0.9545329, 0.09319592, 0.2831716, 0
0.2302202, 0.373022, -0.8988081, 0
-0.189394, 0.9231321, 0.3346066, 0
0.2659496, -0.5433495, -0.6064191, 1
685.4539, 0, 442.7946, 0
0, 686.7078, 238.8935, 0
0, 0, 1, 0
0, 0, 0, 1
