2682248960
0.953572, 0.1021503, 0.2833202, 0
0.2285676, 0.3671219, -0.9016554, 0
-0.1961167, 0.9245493, 0.3267294, 0
0.2640257, -0.5439545, -0.6046953, 1
685.4539, 0, 442.7946, 0
0, 686.7078, 238.8935, 0
0, 0, 1, 0
0, 0, 0, 1
