2653152307
0.9909303, 0.1221251, 0.05609359, 0
-0.01169994, 0.4941995, -0.8692721, 0
-0.1338812, 0.8607301, 0.4911461, 0
0.01259708, -0.5414096, -0.5673847, 1
686.3386, 0, 442.8135, 0
0, 687.5867, 238.9119, 0
0, 0, 1, 0
0, 0, 0, 1
