2669484726
0.9990554, 0.008537412, 0.04266092, 0
0.03292316, 0.4926543, -0.8696047, 0
-0.0284411, 0.8701858, 0.4919079, 0
0.02262497, -0.4569582, -0.5291767, 1
685.4539, 0, 442.7946, 0
0, 686.7078, 238.8935, 0
0, 0, 1, 0
0, 0, 0, 1
