2685628906
0.966728, 0.07011583, 0.2460199, 0
0.1932491, 0.429986, -0.8819137, 0
-0.1676195, 0.9001122, 0.4021301, 0
0.2732817, -0.5236638, -0.6157055, 1
685.4539, 0, 442.7946, 0
0, 686.7078, 238.8935, 0
0, 0, 1, 0
0, 0, 0, 1
