2686304894
0.9695269, 0.06284133, 0.2367968, 0
0.1872422, 0.4332521, -0.8816106, 0
-0.1579925, 0.8990825, 0.4082834, 0
0.2742397, -0.5193094, -0.6163669, 1
685.4539, 0, 442.7946, 0
0, 686.7078, 238.8935, 0
0, 0, 1, 0
0, 0, 0, 1
