2661818489
0.9986594, 0.03108031, 0.04144858, 0
0.02374062, 0.4365612, -0.8993636, 0
-0.04604739, 0.8991399, 0.4352381, 0
0.02721465, -0.5683278, -0.5860901, 1
686.3386, 0, 442.8135, 0
0, 687.5867, 238.9119, 0
0, 0, 1, 0
0, 0, 0, 1
