2.207785508623549902e+02 0.000000000000000000e+00 2.576920490787169911e+02
0.000000000000000000e+00 2.211125527981510004e+02 2.552157344718249874e+02
0.000000000000000000e+00 0.000000000000000000e+00 1.000000000000000000e+00
