ply
format ascii 1.0
comment Generated by Floating Hands
element vertex 1975
property double x
property double y
property double z
property uchar red
property uchar green
property uchar blue
end_header
0.09636393 0.04220377 0.4486058 0 0 0
0.1029623 0.04141407 0.4604385 0 0 0
0.1362546 0.03997754 0.4647744 0 0 0
0.1007993 0.04068592 0.4454923 0 0 0
0.1264955 0.0384925 0.470789 0 0 0
0.09125789 0.04000056 0.4434248 0 0 0
0.09986423 0.03867805 0.4311993 0 0 0
0.1247246 0.03688108 0.4461594 0 0 0
0.137775 0.03597894 0.4566796 0 0 0
0.09350198 0.03747827 0.4366709 0 0 0
0.09470483 0.03741418 0.436407 0 0 0
0.09666835 0.03741668 0.4339189 0 0 0
0.1054912 0.03693815 0.4338338 0 0 0
0.1249235 0.03407676 0.4709695 0 0 0
0.1253098 0.03560972 0.443804 0 0 0
0.09130649 0.03553728 0.4513205 0 0 0
0.102767 0.0360678 0.4282606 0 0 0
0.1244758 0.03385821 0.4502162 0 0 0
0.09353265 0.03477826 0.437508 0 0 0
0.09573263 0.03472145 0.4359996 0 0 0
0.1076351 0.0345461 0.4279338 0 0 0
0.1090687 0.03444022 0.4285805 0 0 0
0.1231397 0.03247955 0.4505104 0 0 0
0.1245057 0.03273024 0.4459381 0 0 0
0.101429 0.03353155 0.4284057 0 0 0
0.1256744 0.03133328 0.4454743 0 0 0
0.1266221 0.03139679 0.4441382 0 0 0
0.1318127 0.0319052 0.4351296 0 0 0
0.03040938 0.03599358 0.4898953 0 0 0
0.09893908 0.0319997 0.4340355 0 0 0
0.1172871 0.03098645 0.4353838 0 0 0
0.1234902 0.03020773 0.4429006 0 0 0
0.1471426 0.02802096 0.4634806 0 0 0
0.03569625 0.03402011 0.4846463 0 0 0
0.06554118 0.03208553 0.4551702 0 0 0
0.06985603 0.03078547 0.4686839 0 0 0
0.09862511 0.03077344 0.4329771 0 0 0
0.09936157 0.03088572 0.4307524 0 0 0
0.1003156 0.03091825 0.4294959 0 0 0
0.1079137 0.03118462 0.4203175 0 0 0
0.1283534 0.02912644 0.4370866 0 0 0
0.03548922 0.03269076 0.4825592 0 0 0
0.05714669 0.03283283 0.4369843 0 0 0
0.06115634 0.03355232 0.4194447 0 0 0
0.06509591 0.03290754 0.4229428 0 0 0
0.06795258 0.03237654 0.4265634 0 0 0
0.09687337 0.02886929 0.4424701 0 0 0
0.09745053 0.02906606 0.4392743 0 0 0
0.1078355 0.02992071 0.4202262 0 0 0
0.1190241 0.02879414 0.4283999 0 0 0
0.1291863 0.02786109 0.4356462 0 0 0
0.03376764 0.0320008 0.4745354 0 0 0
0.05708835 0.0330847 0.4148217 0 0 0
0.05910681 0.03302069 0.4125715 0 0 0
0.0722902 0.03140346 0.4167083 0 0 0
0.09734403 0.02585522 0.4636585 0 0 0
0.0229167 0.03276336 0.4666773 0 0 0
0.02685562 0.03215185 0.466632 0 0 0
0.02817862 0.03187962 0.4676044 0 0 0
0.05512734 0.03178393 0.4189522 0 0 0
0.05900112 0.03182908 0.4124823 0 0 0
0.06197372 0.03176539 0.4090837 0 0 0
0.06391642 0.03173668 0.4068027 0 0 0
0.06939218 0.03126379 0.4059715 0 0 0
0.1071528 0.02758669 0.418108 0 0 0
0.1120001 0.02738856 0.4177722 0 0 0
0.1381592 0.02502671 0.4344325 0 0 0
0.01882607 0.0320093 0.4665774 0 0 0
0.048328 0.02709438 0.4744946 0 0 0
0.05264373 0.02989778 0.4311202 0 0 0
0.06463982 0.03065082 0.4045783 0 0 0
0.07602686 0.02949523 0.4057274 0 0 0
0.07893841 0.02896093 0.4092329 0 0 0
0.08078393 0.02850335 0.4129317 0 0 0
0.09938675 0.02507234 0.4374235 0 0 0
0.1027891 0.02591654 0.4253147 0 0 0
0.1037145 0.0259751 0.424049 0 0 0
0.1122284 0.02641119 0.4144665 0 0 0
0.1202105 0.02593739 0.4161848 0 0 0
0.1258094 0.02522903 0.421692 0 0 0
0.04451411 0.02749677 0.4576689 0 0 0
0.04624166 0.02832741 0.4445608 0 0 0
0.05142094 0.02868196 0.4321242 0 0 0
0.06780664 0.02920515 0.4039846 0 0 0
0.07848177 0.02849519 0.4010945 0 0 0
0.07956083 0.02842562 0.4008823 0 0 0
0.1000753 0.02124879 0.4646819 0 0 0
0.1003362 0.02426266 0.43092 0 0 0
0.1010593 0.02442 0.4286935 0 0 0
0.1186325 0.02519835 0.4113327 0 0 0
0.01339245 0.03043345 0.4623101 0 0 0
0.02773046 0.02770248 0.4672772 0 0 0
0.04540295 0.02803786 0.4335201 0 0 0
0.05665196 0.028293 0.4144358 0 0 0
0.06566708 0.02812858 0.4052026 0 0 0
0.07034194 0.02818625 0.3994208 0 0 0
0.07909488 0.02747428 0.3988249 0 0 0
0.09986897 0.02211448 0.4400954 0 0 0
0.1004753 0.0228608 0.4317691 0 0 0
0.116543 0.02429011 0.4087263 0 0 0
0.1176569 0.02428369 0.4083745 0 0 0
0.003027606 0.02921024 0.4808125 0 0 0
0.006331562 0.02957915 0.4699749 0 0 0
0.02755556 0.0265788 0.4641691 0 0 0
0.03322285 0.0286421 0.4311188 0 0 0
0.0390634 0.02801398 0.4288388 0 0 0
0.05263004 0.02572351 0.4347615 0 0 0
0.05536012 0.02622996 0.4254746 0 0 0
0.05968936 0.02695977 0.4119376 0 0 0
0.06350658 0.02705484 0.4064023 0 0 0
0.06556511 0.02696304 0.4050956 0 0 0
0.0691713 0.02712511 0.399494 0 0 0
0.0754305 0.02675199 0.3973818 0 0 0
0.08328909 0.0260667 0.3978341 0 0 0
0.08990171 0.02414101 0.4126655 0 0 0
0.0925439 0.02331621 0.4192005 0 0 0
0.1041226 0.02234469 0.4214706 0 0 0
0.1047778 0.02253148 0.4192408 0 0 0
0.1108049 0.02227559 0.4186049 0 0 0
0.1153523 0.02307232 0.4089552 0 0 0
0.1164681 0.02306381 0.4086074 0 0 0
0.1332133 0.02119546 0.4208265 0 0 0
0.1358767 0.02111877 0.4209291 0 0 0
0.009403997 0.02880327 0.4570016 0 0 0
0.02973988 0.02659423 0.4450643 0 0 0
0.03522781 0.02773569 0.4239378 0 0 0
0.03880009 0.02706576 0.4257419 0 0 0
0.04124143 0.02656033 0.4275843 0 0 0
0.04241706 0.02640905 0.4275049 0 0 0
0.0459434 0.02596811 0.4272408 0 0 0
0.05113765 0.02479349 0.4327762 0 0 0
0.05259303 0.02434718 0.4356331 0 0 0
0.05695296 0.02537584 0.4191592 0 0 0
0.06058014 0.02576967 0.4106922 0 0 0
0.06144875 0.02587704 0.4085701 0 0 0
0.09118324 0.02327318 0.4081553 0 0 0
0.09820835 0.02129522 0.4228216 0 0 0
0.1021907 0.02093133 0.4238753 0 0 0
0.1138959 0.0215225 0.4123694 0 0 0
0.125931 0.02161765 0.4074324 0 0 0
0.1311465 0.02059925 0.4150791 0 0 0
0.1429292 0.01911375 0.4255757 0 0 0
0.1469704 0.01822162 0.4325409 0 0 0
0.03163645 0.02690901 0.4249624 0 0 0
0.04346668 0.02502101 0.4273014 0 0 0
0.04706558 0.02448038 0.4280156 0 0 0
0.04965927 0.02388116 0.4307822 0 0 0
0.0511777 0.02331596 0.4346347 0 0 0
0.05924494 0.02381722 0.4197499 0 0 0
0.06439686 0.0246195 0.4060153 0 0 0
0.07417303 0.02454385 0.3973539 0 0 0
0.07631009 0.02439596 0.3969534 0 0 0
0.082103 0.02435175 0.3927415 0 0 0
0.08483326 0.02388525 0.3951968 0 0 0
0.08803681 0.02318897 0.3995655 0 0 0
0.103447 0.02006035 0.4192924 0 0 0
0.1160186 0.02073389 0.4074079 0 0 0
0.1193525 0.02072196 0.406343 0 0 0
0.1392235 0.0186001 0.419377 0 0 0
0.141091 0.01838957 0.4207965 0 0 0
0.1536883 0.01551029 0.4425472 205 205 205
0.008151017 0.02698587 0.4497468 0 0 0
0.01187853 0.02622608 0.4508459 0 0 0
0.01436762 0.02569721 0.4518873 0 0 0
0.02323212 0.02444331 0.4499132 0 0 0
0.04083103 0.02440564 0.424362 0 0 0
0.05615485 0.01984649 0.4499708 0 0 0
0.06358112 0.02320515 0.4090081 0 0 0
0.06525414 0.02347164 0.4047474 0 0 0
0.0779791 0.02335577 0.3944669 0 0 0
0.1079769 0.01868005 0.4179078 0 0 0
0.1208666 0.01975379 0.4035973 0 0 0
0.1252587 0.0197864 0.4020989 0 0 0
0.1359125 0.01802247 0.4140866 0 0 0
0.1392536 0.01770601 0.4160165 0 0 0
0.005598356 0.0263165 0.4475358 0 0 0
0.02312831 0.02405093 0.4408266 0 0 0
0.02785199 0.02518959 0.4228362 0 0 0
0.04569995 0.02202707 0.4288484 0 0 0
0.04829068 0.0213993 0.4316206 0 0 0
0.06125474 0.01508742 0.4762301 205 205 205
0.06336889 0.02117564 0.4169172 0 0 0
0.06386259 0.02166846 0.4118344 0 0 0
0.06907741 0.02230558 0.4009877 0 0 0
0.07076576 0.02250191 0.3976829 0 0 0
0.07380869 0.02238738 0.3961327 0 0 0
0.08132064 0.02246967 0.389583 0 0 0
0.09079403 0.02143267 0.3925045 0 0 0
0.0961272 0.02017063 0.400375 0 0 0
0.1277116 0.01847848 0.4021218 0 0 0
0.1388297 0.01655341 0.4149435 0 0 0
0.1403326 0.01645687 0.4154341 0 0 0
0.002879817 0.02537961 0.4482845 0 0 0
0.004253765 0.02534031 0.446355 0 0 0
0.005497499 0.02511029 0.4464072 0 0 0
0.0067417 0.0248825 0.4464548 0 0 0
0.01532258 0.02283595 0.451631 0 0 0
0.04052409 0.02207216 0.4231093 0 0 0
0.04179665 0.021691 0.4250137 0 0 0
0.0658645 0.0204025 0.410389 0 0 0
0.07066574 0.02136377 0.3975548 0 0 0
0.07281013 0.02120317 0.3971767 0 0 0
0.07998916 0.02154277 0.3887051 0 0 0
0.08102968 0.02148331 0.3884847 0 0 0
0.1118544 0.01635051 0.4144022 0 0 0
0.1222757 0.01761027 0.400701 0 0 0
0.1266345 0.01766101 0.3991802 0 0 0
-0.006190176 0.02398928 0.4635696 0 0 0
-0.00252419 0.02474012 0.4508466 0 0 0
0.006638098 0.0236854 0.4453215 0 0 0
0.007879655 0.02346019 0.4453641 0 0 0
0.03793827 0.02151462 0.4201422 0 0 0
0.04711422 0.01854602 0.4354053 0 0 0
0.06712148 0.01793603 0.4200749 0 0 0
0.08613402 0.02010518 0.3871954 0 0 0
0.08694889 0.02019161 0.3859867 0 0 0
0.1016368 0.01752867 0.399621 0 0 0
0.1098034 0.01553589 0.4117298 205 205 205
0.1214237 0.01626682 0.4018646 0 0 0
0.1222004 0.01640996 0.4005554 0 0 0
0.1399435 0.01491438 0.4077886 205 205 205
0.001585278 0.02341951 0.4439693 0 0 0
0.02166388 0.02268402 0.4205474 0 0 0
0.04159175 0.01911478 0.4257235 0 0 0
0.07014149 0.01367299 0.4425103 205 205 205
0.07016347 0.01850493 0.4023633 0 0 0
0.07722915 0.01910599 0.3919987 0 0 0
0.07809561 0.01917583 0.3908145 0 0 0
0.08000026 0.01918634 0.3894105 0 0 0
0.08272092 0.01928734 0.3867977 0 0 0
0.08846819 0.01927346 0.3834287 0 0 0
0.0920187 0.01887891 0.3845846 0 0 0
0.1167337 0.01463965 0.406346 205 205 205
0.1584158 0.009176299 0.4364801 205 205 205
-0.004754571 0.02333738 0.4434515 0 0 0
-0.0008150722 0.02292517 0.440713 0 0 0
0.006376167 0.02120749 0.4440342 0 0 0
0.01133542 0.02031958 0.4441747 0 0 0
0.0261063 0.02160352 0.4133842 0 0 0
0.02724188 0.02131137 0.4143488 0 0 0
0.02838511 0.02102017 0.4153091 0 0 0
0.07184136 0.01382472 0.4290302 205 205 205
0.07107599 0.01551342 0.4161081 205 205 205
0.07267465 0.01765498 0.3977415 0 0 0
0.07885937 0.01813567 0.3894884 0 0 0
0.0873556 0.01821953 0.3835377 0 0 0
0.1060802 0.0149458 0.3990537 205 205 205
0.1185756 0.01356402 0.4045332 205 205 205
0.1209516 0.01400479 0.400621 205 205 205
0.1239058 0.01417772 0.3985633 205 205 205
0.1249935 0.01419183 0.3981821 205 205 205
0.1314574 0.01386559 0.3989966 205 205 205
0.002701937 0.02094601 0.440753 0 0 0
0.02259601 0.02107982 0.4123078 0 0 0
0.03056076 0.01925054 0.4170698 0 0 0
0.04633723 0.01316429 0.4479031 205 205 205
0.0733719 0.01204288 0.4316084 205 205 205
0.07215244 0.01511705 0.4087249 205 205 205
0.08806488 0.0172264 0.3821839 0 0 0
0.09112784 0.01710952 0.3814203 0 0 0
0.1008717 0.01600149 0.3849343 0 0 0
0.1035412 0.01509766 0.3903417 0 0 0
0.1126365 0.01252988 0.405179 205 205 205
0.1208724 0.01280737 0.4004616 205 205 205
0.1227393 0.01297257 0.3987815 205 205 205
0.1434687 0.01114547 0.4068869 205 205 205
0.1479948 0.01036111 0.4114566 205 205 205
-0.004724732 0.02121546 0.4391836 0 0 0
0.01301943 0.01995053 0.4240434 0 0 0
0.01559678 0.02053024 0.4161383 0 0 0
0.07820695 0.005977696 0.4637124 205 205 205
0.07517364 0.01559258 0.3939236 0 0 0
0.08430591 0.01602017 0.3849352 0 0 0
0.1086033 0.01285198 0.3958822 205 205 205
0.1240776 0.01164099 0.3991733 205 205 205
0.1378416 0.01067907 0.4025302 205 205 205
0.14452 0.009941638 0.4062611 205 205 205
0.01053666 0.01915082 0.4238399 0 0 0
0.03029127 0.01687316 0.4167622 0 0 0
0.03145794 0.01657234 0.4177071 0 0 0
0.07434094 0.01243763 0.4089865 205 205 205
0.07683744 0.01463053 0.3914111 205 205 205
0.08338859 0.01482019 0.3859836 0 0 0
0.08788715 0.01504477 0.3818858 0 0 0
0.09401318 0.01482895 0.3803243 0 0 0
0.1011957 0.01406418 0.3824303 205 205 205
0.1244315 0.01077126 0.3967596 205 205 205
0.004800268 0.01691456 0.4383883 0 0 0
0.007837254 0.01785636 0.4275776 0 0 0
0.009269497 0.01827822 0.422659 0 0 0
0.01314945 0.01895111 0.4128267 0 0 0
0.0255618 0.01705203 0.4117899 0 0 0
0.03887945 0.01229688 0.4320151 205 205 205
0.04037243 0.01128335 0.437868 205 205 205
0.08296011 0.0006630049 0.4775085 205 205 205
0.07798218 0.01329162 0.3920111 205 205 205
0.07885293 0.01338288 0.390825 205 205 205
0.08076805 0.01341638 0.3894139 205 205 205
0.0954491 0.01400149 0.3777118 205 205 205
0.1074 0.01225635 0.3845133 205 205 205
0.1118509 0.01096856 0.3913968 205 205 205
0.1185938 0.00969382 0.3975129 205 205 205
0.1262427 0.01027869 0.3917165 205 205 205
0.1395381 0.008466644 0.4003921 205 205 205
-0.001468819 0.01681526 0.4379267 0 0 0
0.009371568 0.01773001 0.417544 0 0 0
0.01308415 0.01805149 0.4106861 0 0 0
0.03360006 0.01328803 0.421231 205 205 205
0.07671389 0.009594487 0.4101797 205 205 205
0.07682942 0.0113524 0.3980961 205 205 205
0.0793235 0.01178737 0.3935686 205 205 205
0.08256914 0.01235091 0.3878292 205 205 205
0.08690429 0.01274818 0.3827797 205 205 205
0.09738293 0.01287353 0.3769918 205 205 205
0.1042763 0.01228931 0.3780563 205 205 205
0.1332749 0.008957122 0.3909773 205 205 205
0.1424185 0.007011537 0.4011516 205 205 205
0.1538374 0.0048547 0.4124391 205 205 205
0.0008842892 0.01521132 0.4368908 205 205 205
0.003718155 0.01554104 0.431067 205 205 205
0.01302018 0.01716843 0.4085431 0 0 0
0.01859038 0.01622151 0.408581 0 0 0
0.03354691 0.01163978 0.4240234 205 205 205
0.04229829 0.00167725 0.4839189 205 205 205
0.07853962 0.009486299 0.4015901 205 205 205
0.1213688 0.00752337 0.395122 205 205 205
0.1246808 0.008087839 0.3908224 205 205 205
0.1386297 0.006903396 0.395016 205 205 205
0.1452034 0.006651496 0.395515 205 205 205
-0.02485972 0.01236898 0.480427 205 205 205
-0.006582852 0.01540041 0.4362734 205 205 205
0.01956571 0.01488821 0.4084082 205 205 205
0.08530155 0.01015107 0.3858188 205 205 205
0.09417748 0.01078944 0.3774964 205 205 205
0.1055532 0.01043554 0.3752132 205 205 205
0.1100837 0.009571726 0.3789417 205 205 205
0.111411 0.009402005 0.3795455 205 205 205
0.1239286 0.00726676 0.3887869 205 205 205
0.1249883 0.007287893 0.3884038 205 205 205
0.136695 0.006556334 0.3902636 205 205 205
0.1435725 0.006120749 0.3917021 205 205 205
-0.02250512 0.01333834 0.4615452 205 205 205
-0.009076518 0.01478057 0.4349229 205 205 205
-3.494501E-05 0.0140363 0.4285639 205 205 205
0.00567409 0.01523824 0.4139564 205 205 205
0.008167238 0.01538675 0.4100799 205 205 205
0.01166376 0.01521356 0.4071969 205 205 205
0.02501199 0.01224504 0.4121032 205 205 205
0.08143575 0.007144007 0.3995901 205 205 205
0.08624784 0.009002177 0.3854003 205 205 205
0.09408859 0.009711728 0.3773247 205 205 205
0.09813456 0.009617331 0.3762023 205 205 205
0.1130603 0.008482515 0.3777568 205 205 205
0.1150311 0.007965046 0.3802091 205 205 205
0.1190341 0.006937026 0.3850803 205 205 205
0.1252815 0.00650683 0.3859847 205 205 205
0.1347616 0.006249547 0.3855129 205 205 205
0.1358115 0.006292693 0.3850909 205 205 205
0.1467165 0.005104276 0.3901354 205 205 205
-0.002746186 0.01300027 0.4302187 205 205 205
0.003182632 0.01435681 0.4146727 205 205 205
0.01151952 0.01407182 0.4070218 205 205 205
0.01596569 0.01330035 0.4070735 205 205 205
0.01707797 0.01311268 0.4070764 205 205 205
0.01926626 0.01243874 0.4090462 205 205 205
0.02038686 0.01225605 0.4090368 205 205 205
0.023743 0.01141084 0.4109603 205 205 205
0.02960524 0.008347064 0.4246137 205 205 205
0.03084537 0.007699716 0.427527 205 205 205
0.08384602 0.007344702 0.3897921 205 205 205
0.08615062 0.007901946 0.3852216 205 205 205
0.08985174 0.008087082 0.3822952 205 205 205
0.09374705 0.008813503 0.3761976 205 205 205
0.1007961 0.008670235 0.3742022 205 205 205
0.1070995 0.008446892 0.3732898 205 205 205
0.1110955 0.008457796 0.3719811 205 205 205
0.1259066 0.005566042 0.3844861 205 205 205
0.136029 0.005538015 0.3826562 205 205 205
0.1429296 0.004503777 0.3872461 205 205 205
-0.005207386 0.01239389 0.428892 205 205 205
-0.0009651607 0.01283691 0.4212219 205 205 205
0.0045768 0.01385703 0.408618 205 205 205
0.009152525 0.01332989 0.4067925 205 205 205
0.01576243 0.01184956 0.408868 205 205 205
0.01798072 0.0113174 0.4098568 205 205 205
0.0202151 0.01079111 0.4108291 205 205 205
0.02246548 0.01027085 0.411785 205 205 205
0.09055317 0.00714034 0.3808976 205 205 205
0.103142 0.007933639 0.3712332 205 205 205
0.1268593 0.005030778 0.3807553 205 205 205
0.1366137 0.004620817 0.3811281 205 205 205
-0.03026939 0.008744383 0.4730566 205 205 205
-0.01994375 0.01245297 0.4383583 205 205 205
-0.009264256 0.01147467 0.4313925 205 205 205
-0.003450698 0.01210644 0.4208942 205 205 205
-0.0006224673 0.01253464 0.4151187 205 205 205
0.007894947 0.01239389 0.4065781 205 205 205
0.02458842 0.008100396 0.4154933 205 205 205
0.02947627 0.004097053 0.4350674 205 205 205
0.09682985 -0.01136694 0.4780765 205 205 205
0.0906945 0.005868143 0.3816656 205 205 205
0.09532795 0.006806531 0.3743342 205 205 205
0.1093154 0.006677487 0.3700819 205 205 205
0.1239981 0.004805452 0.3763582 205 205 205
0.1730815 -0.007452435 0.4325764 205 205 205
-0.007715673 0.01073537 0.4263642 205 205 205
-0.004774098 0.01115013 0.4206246 205 205 205
0.004483921 0.01203388 0.4052893 205 205 205
0.01428215 0.00942236 0.4104572 205 205 205
0.02104641 0.008128635 0.4114196 205 205 205
0.02329531 0.007102477 0.415323 205 205 205
0.08628091 0.002442266 0.3966578 205 205 205
0.09002847 0.004436949 0.3836443 205 205 205
0.09217764 0.005090455 0.379039 205 205 205
0.09295492 0.005249681 0.3778185 205 205 205
0.1012594 0.005637341 0.3724092 205 205 205
0.1072459 0.005606737 0.3705437 205 205 205
0.1092328 0.005612686 0.3698936 205 205 205
0.1297296 0.00348869 0.3760295 205 205 205
0.1504491 0.0001790857 0.3896933 205 205 205
-0.02289494 0.01035042 0.4386552 205 205 205
-0.01585874 0.01000362 0.4324317 205 205 205
-0.005899404 0.01050437 0.4183802 205 205 205
0.02200968 0.006278164 0.4141589 205 205 205
0.02812464 -0.001338626 0.4524159 205 205 205
0.1028848 0.004749408 0.3706717 205 205 205
0.116072 0.004634558 0.3673151 205 205 205
0.1247331 0.003851406 0.3693224 205 205 205
0.1334591 0.002118636 0.3764146 205 205 205
0.1369078 0.00207438 0.3760512 205 205 205
0.1407627 0.001858815 0.3765432 205 205 205
0.1529366 -0.001058434 0.3894007 205 205 205
-0.02085559 0.009847145 0.4317273 205 205 205
-0.003940944 0.01066517 0.4084276 205 205 205
0.01185986 0.008013706 0.4070812 205 205 205
0.08801966 0.001189399 0.3897478 205 205 205
0.09301171 0.002899856 0.378377 205 205 205
0.1117207 0.003709523 0.3675763 205 205 205
0.1136914 0.00373615 0.3668934 205 205 205
0.1431393 0.0006591679 0.3763335 205 205 205
-0.02788152 0.00780128 0.4436429 205 205 205
-0.005115564 0.00991391 0.4071699 205 205 205
-0.0003936088 0.00950335 0.4044957 205 205 205
0.005142778 0.008433316 0.4047443 205 205 205
0.01506851 0.00629071 0.4069069 205 205 205
0.02397773 0.001076095 0.4274678 205 205 205
0.09786312 -0.01239812 0.450595 205 205 205
0.1059921 0.002417789 0.3702746 205 205 205
0.1155762 0.002713966 0.3659964 205 205 205
0.1191476 0.003010239 0.3636456 205 205 205
0.1210927 0.003069479 0.36291 205 205 205
0.141444 0.0003251376 0.3725484 205 205 205
-0.03602447 0.003679734 0.4672867 205 205 205
-0.01944711 0.007737584 0.4275117 205 205 205
-0.01693177 0.007361362 0.4267758 205 205 205
-0.002664989 0.008986467 0.4031835 205 205 205
0.0181728 0.003688583 0.411608 205 205 205
0.02266487 0.001132874 0.421372 205 205 205
0.1003123 -0.01504748 0.4557689 205 205 205
0.09195494 -0.0002189826 0.3832528 205 205 205
0.09740944 0.001033868 0.3746762 205 205 205
0.09916465 0.001205746 0.3731518 205 205 205
0.103906 0.001362412 0.3706997 205 205 205
0.1122172 0.001814465 0.3659086 205 205 205
0.1171167 0.00190742 0.3641638 205 205 205
0.127951 0.001632017 0.3631274 205 205 205
0.1450374 -0.001466959 0.3749878 205 205 205
-0.01920355 0.007004465 0.4243585 205 205 205
-0.005123998 0.00814816 0.403815 205 205 205
0.006015228 0.006145246 0.4033853 205 205 205
0.007121549 0.005939451 0.4034183 205 205 205
0.09806158 0.0001575886 0.373236 205 205 205
0.1157201 0.001043813 0.3633941 205 205 205
0.1176677 0.001091274 0.3626815 205 205 205
0.118292 0.00132758 0.3614062 205 205 205
0.1211895 0.001419743 0.3603055 205 205 205
0.1290545 0.001081246 0.3603183 205 205 205
0.1307928 0.0007148145 0.3617133 205 205 205
0.1390761 -0.001343847 0.3698761 205 205 205
0.1463991 -0.002730419 0.3751892 205 205 205
0.1552067 -0.004681512 0.3829823 205 205 205
-0.03620991 0.002676163 0.4578501 205 205 205
-0.02158989 0.00650556 0.422902 205 205 205
-0.01128341 0.007521429 0.4070909 205 205 205
-0.009931245 0.00761859 0.4052282 205 205 205
0.001521607 0.006044885 0.4020198 205 205 205
0.01024505 0.004028137 0.4042612 205 205 205
0.01234407 0.003081641 0.4072371 205 205 205
0.09494675 -0.007232226 0.4051946 205 205 205
0.1077209 -0.0007584586 0.3690052 205 205 205
0.1166121 2.084946E-05 0.3628286 205 205 205
0.1253299 0.0003181593 0.3594833 205 205 205
0.1266679 0.0001490189 0.3599966 205 205 205
0.1459074 -0.00365072 0.3740742 205 205 205
0.1492145 -0.004130878 0.3757893 205 205 205
0.1534143 -0.005017076 0.3792285 205 205 205
-0.02727548 0.005601427 0.4269782 205 205 205
-0.02278803 0.005748429 0.4215657 205 205 205
-0.01842751 0.005946482 0.416099 205 205 205
-0.01095823 0.007075819 0.4029633 205 205 205
0.007928991 0.003490395 0.4030156 205 205 205
0.100166 -0.002215186 0.3731534 205 205 205
0.1056339 -0.001819092 0.3694324 205 205 205
0.106633 -0.001818531 0.3691121 205 205 205
0.148294 -0.004840377 0.3737912 205 205 205
-0.02546445 0.004942871 0.4220277 205 205 205
-0.02089973 0.005306234 0.4156222 205 205 205
0.001216355 0.003814032 0.4015836 205 205 205
0.004385819 0.002803384 0.4036761 205 205 205
0.01415326 -0.0003580945 0.4107238 205 205 205
0.1072765 -0.02045389 0.4508293 205 205 205
0.09728812 -0.005182526 0.3828554 205 205 205
0.09959628 -0.003709345 0.3751032 205 205 205
0.1035396 -0.002870732 0.3698418 205 205 205
0.1062421 -0.002652992 0.3679634 205 205 205
0.1095868 -0.00218617 0.3648057 205 205 205
0.1199822 -0.001733217 0.3600327 205 205 205
-0.02516038 0.004265132 0.4188748 205 205 205
0.01184934 -0.0005266885 0.4075374 205 205 205
0.01858508 -0.01585872 0.4760874 205 205 205
0.1095385 -0.02168475 0.448916 205 205 205
0.1049979 -0.01632413 0.4259298 205 205 205
0.09981272 -0.006775423 0.3839094 205 205 205
0.1000717 -0.006117606 0.3807954 205 205 205
0.1005773 -0.005682831 0.3786203 205 205 205
0.1007938 -0.005020115 0.3755107 205 205 205
0.1064493 -0.003930083 0.3686665 205 205 205
0.1098114 -0.003455002 0.3655054 205 205 205
0.1163058 -0.002408769 0.3590774 205 205 205
0.1176156 -0.002606699 0.3596305 205 205 205
0.1460315 -0.005988405 0.3689119 205 205 205
-0.03742591 4.222941E-05 0.4448195 205 205 205
-0.02116776 0.004657291 0.4072452 205 205 205
-0.01974766 0.004751158 0.4054265 205 205 205
-0.01819606 0.005029053 0.4026291 205 205 205
-0.002304545 0.002436126 0.3999855 205 205 205
0.0009090787 0.001587952 0.4011298 205 205 205
0.007239968 -0.0006545572 0.4062497 205 205 205
0.01570238 -0.006078768 0.424931 205 205 205
0.109721 -0.004500939 0.3652779 205 205 205
0.1116956 -0.004476584 0.3646035 205 205 205
0.121985 -0.003244422 0.3566566 205 205 205
0.130206 -0.003834036 0.3575132 205 205 205
0.1384099 -0.004830798 0.3603221 205 205 205
0.1420233 -0.005592973 0.3629672 205 205 205
-0.03329986 0.001408933 0.428278 205 205 205
-0.01354351 0.003469488 0.3999173 205 205 205
-0.01231986 0.003413375 0.3990424 205 205 205
0.1025281 -0.009718939 0.3856217 205 205 205
0.1033859 -0.006962134 0.3731859 205 205 205
0.1293482 -0.004413642 0.3554972 205 205 205
0.1456075 -0.007435193 0.3653287 205 205 205
0.1478849 -0.008040723 0.3674898 205 205 205
0.1516287 -0.008784652 0.3700289 205 205 205
0.1545383 -0.009060813 0.3707912 205 205 205
-0.02326019 0.003471129 0.403597 205 205 205
-0.02026931 0.003866875 0.3990056 205 205 205
-0.008101644 0.001363827 0.3991631 205 205 205
-0.005908922 0.0009020242 0.3993166 205 205 205
0.005678194 -0.00311603 0.4076936 205 205 205
0.01333235 -0.02294604 0.4918521 205 205 205
0.1043069 -0.008034862 0.3726312 205 205 205
0.1050346 -0.00780072 0.3713861 205 205 205
0.1095372 -0.006589336 0.364811 205 205 205
0.1111938 -0.006327354 0.3632192 205 205 205
0.1151186 -0.006253148 0.3618338 205 205 205
0.1214551 -0.005062017 0.3552942 205 205 205
0.1315711 -0.005569513 0.3553392 205 205 205
0.1469503 -0.008679274 0.365491 205 205 205
-0.04904209 -0.007811782 0.4721619 205 205 205
-0.01643481 0.002958343 0.3942685 205 205 205
-0.0153586 0.002712907 0.3943772 205 205 205
-0.01360097 0.001648248 0.3974994 205 205 205
-0.01154597 0.0009716537 0.3986642 205 205 205
-0.008146621 0.000459521 0.3979498 205 205 205
-0.007053888 0.0002280158 0.398028 205 205 205
0.003327985 -0.003619371 0.4064007 205 205 205
0.004320357 -0.004246752 0.4083886 205 205 205
0.005457102 -0.004460443 0.4084205 205 205 205
0.01153673 -0.009500754 0.4261036 205 205 205
0.1044529 -0.011972 0.3844864 205 205 205
0.1056567 -0.00862278 0.3698972 205 205 205
0.1087622 -0.007882272 0.3658238 205 205 205
0.1194585 -0.006156672 0.3558015 205 205 205
0.126509 -0.006102785 0.3540362 205 205 205
0.134205 -0.006959573 0.3560401 205 205 205
0.1347591 -0.006658459 0.3547356 205 205 205
0.1365329 -0.007067448 0.3560737 205 205 205
0.1402494 -0.007329967 0.3565252 205 205 205
0.1492976 -0.009841692 0.3651671 205 205 205
-0.008304995 -0.000637056 0.3977067 205 205 205
0.001073442 -0.003898445 0.4041153 205 205 205
0.1169473 -0.02652242 0.4361075 205 205 205
0.1089836 -0.0182137 0.4040898 205 205 205
0.111009 -0.008402868 0.3627379 205 205 205
0.114604 -0.008083076 0.3604418 205 205 205
0.1174537 -0.007242669 0.3562917 205 205 205
0.1190164 -0.006933144 0.3546598 205 205 205
0.125473 -0.007174019 0.354187 205 205 205
0.129103 -0.007507677 0.354782 205 205 205
0.1310131 -0.00739582 0.3539703 205 205 205
0.1342728 -0.007453871 0.3536097 205 205 205
0.1356338 -0.007629459 0.3540675 205 205 205
-0.02461595 0.002193503 0.3948537 205 205 205
-0.02336959 0.002124045 0.3940232 205 205 205
-0.01661093 0.0009943016 0.392818 205 205 205
-0.01460074 0.0003053506 0.3939998 205 205 205
-0.01161512 -0.0008202874 0.3962314 205 205 205
0.004944757 -0.007382896 0.41083 205 205 205
0.005847686 -0.008459294 0.4147559 205 205 205
0.1052445 -0.0132153 0.3796126 205 205 205
0.1118997 -0.009422976 0.3621499 205 205 205
0.1263416 -0.008147388 0.3535513 205 205 205
0.1451244 -0.01041451 0.3590325 205 205 205
-0.02014469 0.0004694761 0.3931933 205 205 205
-0.01784435 0.0001667717 0.3924604 205 205 205
-0.01677133 -8.122393E-05 0.3925718 205 205 205
-0.01381597 -0.00122212 0.394822 205 205 205
0.001646461 -0.007008175 0.406564 205 205 205
0.1070799 -0.01153283 0.3675751 205 205 205
0.1077812 -0.01127453 0.3663276 205 205 205
0.1118054 -0.0104576 0.3618993 205 205 205
0.1147229 -0.009616596 0.357778 205 205 205
0.1197959 -0.008926492 0.3538026 205 205 205
0.1217013 -0.008848181 0.3530557 205 205 205
0.1236014 -0.008761697 0.3522955 205 205 205
0.1502706 -0.01187182 0.3594904 205 205 205
-0.02567397 0.000690476 0.3922877 205 205 205
-0.004501902 -0.005055244 0.3982081 205 205 205
0.002472034 -0.008799644 0.4082813 205 205 205
0.1060846 -0.01540562 0.3787566 205 205 205
0.1235148 -0.009773734 0.3520453 205 205 205
0.1263564 -0.009628085 0.3508803 205 205 205
0.1299735 -0.009970888 0.3514528 205 205 205
0.1559307 -0.01355384 0.3606977 205 205 205
-0.02566261 -0.0001800777 0.391071 205 205 205
-0.01494354 -0.002720018 0.3922768 205 205 205
0.1075825 -0.01336422 0.3658093 205 205 205
0.1161311 -0.01134373 0.3556552 205 205 205
0.1170941 -0.01131333 0.3552953 205 205 205
0.1224768 -0.01082918 0.3521729 205 205 205
-0.03162853 -0.001791827 0.3979071 205 205 205
-0.02335013 -0.001357326 0.3891593 205 205 205
-0.01007763 -0.005645463 0.3953778 205 205 205
-0.008986686 -0.005880792 0.3954582 205 205 205
-0.007895139 -0.006114047 0.3955346 205 205 205
-0.005921192 -0.00701906 0.3976141 205 205 205
-0.004820333 -0.007247603 0.3976792 205 205 205
0.001998625 -0.01153001 0.409672 205 205 205
0.1134726 -0.01270141 0.3573618 205 205 205
0.1141075 -0.01241341 0.3561063 205 205 205
0.1160383 -0.01235852 0.3553964 205 205 205
0.1176137 -0.01203221 0.3537743 205 205 205
-0.02599242 -0.002314561 0.3905533 205 205 205
-0.02474952 -0.002367921 0.3897288 205 205 205
-0.02261624 -0.002888215 0.3899912 205 205 205
-0.01849158 -0.004120445 0.3914342 205 205 205
-0.01011735 -0.00650712 0.3941427 205 205 205
0.001958455 -0.02058945 0.4404909 205 205 205
0.1140128 -0.01342724 0.3558437 205 205 205
0.1159445 -0.01337203 0.3551338 205 205 205
0.1190785 -0.01270347 0.3518836 205 205 205
0.1228774 -0.01253642 0.3503819 205 205 205
0.1413638 -0.0130314 0.3485976 205 205 205
-0.03688674 -0.004780543 0.4045283 205 205 205
-0.02367679 -0.00347616 0.3886355 205 205 205
-0.02048344 -0.004246078 0.3890096 205 205 205
-0.01327213 -0.006419669 0.3916785 205 205 205
-0.01123993 -0.007123326 0.3928219 205 205 205
-0.007453736 -0.009202913 0.397967 205 205 205
0.1121667 -0.02492643 0.394764 205 205 205
0.1189863 -0.01370745 0.3516189 205 205 205
0.125058 -0.0137129 0.3502322 205 205 205
0.1278971 -0.01355244 0.3490475 205 205 205
-0.02846087 -0.003907398 0.3897331 205 205 205
-0.01759342 -0.00628236 0.3900423 205 205 205
-0.01248425 -0.007958163 0.3924609 205 205 205
-0.006617708 -0.01076366 0.3987218 205 205 205
-0.002359591 -0.0121498 0.4008915 205 205 205
0.0007391708 -0.01734987 0.4184847 205 205 205
0.1355823 -0.05005723 0.4747194 205 205 205
0.1092865 -0.0213969 0.3781883 205 205 205
0.1105482 -0.01693117 0.3615621 205 205 205
0.1210125 -0.01403929 0.3484514 205 205 205
0.122325 -0.01426805 0.3489613 205 205 205
0.1259156 -0.01466667 0.3495711 205 205 205
0.1291443 -0.01477187 0.3492551 205 205 205
0.1397272 -0.01550653 0.349804 205 205 205
0.1575816 -0.01748534 0.3538894 205 205 205
-0.02187525 -0.006106798 0.3883471 205 205 205
-0.01668322 -0.007593123 0.3898726 205 205 205
-0.01481145 -0.008544976 0.3919978 205 205 205
-0.008653118 -0.01068346 0.3954003 205 205 205
0.1297071 -0.04456244 0.4509578 205 205 205
0.1086838 -0.01911617 0.3659328 205 205 205
0.1267717 -0.01561668 0.3489028 205 205 205
0.1286621 -0.01550269 0.3481032 205 205 205
0.1438703 -0.01646798 0.3485875 205 205 205
0.1541651 -0.01795912 0.3520684 205 205 205
0.1584828 -0.01778515 0.3509054 205 205 205
-0.01146977 -0.00986706 0.3900601 205 205 205
0.1136243 -0.01746979 0.3547546 205 205 205
0.1155597 -0.01741336 0.3540445 205 205 205
0.1192982 -0.01639071 0.349542 205 205 205
0.1230849 -0.01621308 0.3480327 205 205 205
0.1281796 -0.01622466 0.3469495 205 205 205
0.1579089 -0.01922819 0.3519574 205 205 205
0.1593495 -0.01938547 0.3522852 205 205 205
-0.02664255 -0.007398719 0.3882279 205 205 205
-0.01793182 -0.009230187 0.3882445 205 205 205
-0.01175854 -0.01117024 0.3907373 205 205 205
-0.008978146 -0.01284951 0.3948231 205 205 205
-0.006998478 -0.01380604 0.3968885 205 205 205
-0.005087354 -0.01500685 0.3999037 205 205 205
-0.001996419 -0.01643622 0.4029544 205 205 205
0.1096889 -0.02235025 0.3689877 205 205 205
0.1109339 -0.01883322 0.3564149 205 205 205
0.1119099 -0.0188121 0.3560703 205 205 205
0.1160829 -0.0181029 0.3525083 205 205 205
0.1188439 -0.01710012 0.3483745 205 205 205
0.1286336 -0.01687767 0.3453927 205 205 205
0.1381918 -0.0177296 0.3463704 205 205 205
0.143258 -0.01823672 0.3471605 205 205 205
-0.03146266 -0.007825185 0.3892702 205 205 205
-0.01595401 -0.01078018 0.3881622 205 205 205
-0.01381033 -0.01126723 0.3883512 205 205 205
0.1140566 -0.01916572 0.3529377 205 205 205
0.1276046 -0.01792956 0.3455116 205 205 205
0.1285419 -0.01786922 0.34511 205 205 205
0.1294778 -0.01780685 0.3447052 205 205 205
0.1326854 -0.01789354 0.344338 205 205 205
0.1340313 -0.01810865 0.3447838 205 205 205
0.1520585 -0.01998847 0.3478136 205 205 205
0.1567948 -0.01943284 0.3453415 205 205 205
-0.03270306 -0.008605135 0.3888243 205 205 205
-0.01901747 -0.01060259 0.3856439 205 205 205
-0.01689241 -0.01109938 0.3858539 205 205 205
-0.01490469 -0.01183362 0.3870078 205 205 205
0.1125055 -0.02740624 0.3774463 205 205 205
0.1113724 -0.02144084 0.3576374 205 205 205
0.1201773 -0.01870023 0.3461788 205 205 205
0.1244812 -0.01815961 0.34339 205 205 205
0.1307217 -0.01902277 0.3448794 205 205 205
0.1325942 -0.01888662 0.3440506 205 205 205
0.1353916 -0.01866676 0.3427834 205 205 205
0.145465 -0.01970895 0.3443483 205 205 205
0.1464026 -0.01961268 0.3438839 205 205 205
-0.0328731 -0.009661893 0.3885299 205 205 205
-0.004250323 -0.03277484 0.4482656 205 205 205
0.124503 -0.04163146 0.417355 205 205 205
0.1115891 -0.02275392 0.3582395 205 205 205
0.1183141 -0.02069922 0.3496597 205 205 205
0.1200808 -0.01968323 0.3458907 205 205 205
0.1311614 -0.0196536 0.3433095 205 205 205
0.1398025 -0.02058676 0.3446151 205 205 205
0.1453757 -0.02072022 0.3440509 205 205 205
0.159488 -0.02321756 0.3497204 205 205 205
-0.03411414 -0.01043539 0.3880726 205 205 205
-0.01227899 -0.015165 0.388593 205 205 205
-0.008533376 -0.0174006 0.3936874 205 205 205
-0.007543985 -0.01789434 0.394713 205 205 205
-0.005747577 -0.01940285 0.398673 205 205 205
-0.003983971 -0.02117821 0.4035802 205 205 205
-0.003730393 -0.02772014 0.425761 205 205 205
0.1134718 -0.02865522 0.3733869 205 205 205
0.1160253 -0.02240327 0.3522361 205 205 205
0.1172571 -0.02173092 0.3497319 205 205 205
0.1184548 -0.02105134 0.3472256 205 205 205
0.1301337 -0.02070769 0.3434267 205 205 205
0.1329322 -0.02049972 0.3421836 205 205 205
0.1429639 -0.02162253 0.3438201 205 205 205
0.1485521 -0.02172619 0.3431869 205 205 205
-0.0342851 -0.01148875 0.3877701 205 205 205
-0.02569101 -0.0119347 0.3830849 205 205 205
-0.02286092 -0.01321625 0.3853656 205 205 205
-0.01631576 -0.01447644 0.3850604 205 205 205
-0.01148942 -0.01671929 0.3893246 205 205 205
0.1152928 -0.02374075 0.3531851 205 205 205
0.1213948 -0.02124711 0.3436708 205 205 205
0.1232639 -0.02114469 0.3429055 205 205 205
0.1391888 -0.02229342 0.3431604 205 205 205
0.1456829 -0.02234387 0.342138 205 205 205
-0.03277703 -0.01208633 0.3847776 205 205 205
-0.03171591 -0.01236415 0.3849301 205 205 205
-0.02089571 -0.01477286 0.3852918 205 205 205
-0.01541309 -0.01576248 0.3848489 205 205 205
-0.01273653 -0.01753722 0.3889327 205 205 205
-0.01069245 -0.0182799 0.3900459 205 205 205
0.1387799 -0.05774835 0.4514284 205 205 205
0.1140772 -0.02953428 0.3684282 205 205 205
0.1264972 -0.02158253 0.3401715 205 205 205
0.1332606 -0.02208982 0.3403063 205 205 205
0.1437177 -0.02353894 0.342752 205 205 205
0.1488259 -0.02404793 0.3434086 205 205 205
0.1539894 -0.02451313 0.3439718 205 205 205
0.1568298 -0.02487803 0.3446313 205 205 205
-0.02918337 -0.0131982 0.3820696 205 205 205
-0.02602217 -0.01399983 0.382476 205 205 205
-0.02514377 -0.01451903 0.3835543 205 205 205
-0.02285352 -0.014783 0.3828484 205 205 205
-0.02179571 -0.01503995 0.382965 205 205 205
-0.01755685 -0.01604713 0.3833933 205 205 205
-0.01290091 -0.01859325 0.3886172 205 205 205
-0.009144455 -0.0208927 0.3936932 205 205 205
-0.005075144 -0.02616187 0.4083343 205 205 205
0.1155442 -0.03215816 0.3725786 205 205 205
0.1160555 -0.02571198 0.3522076 205 205 205
0.119685 -0.02360179 0.3447013 205 205 205
0.1245484 -0.02267034 0.3406587 205 205 205
0.1277211 -0.02279779 0.3403369 205 205 205
0.152002 -0.02575836 0.3446349 205 205 205
-0.0261882 -0.0150302 0.3821655 205 205 205
-0.013877 -0.01886568 0.3863073 205 205 205
0.1225913 -0.02374936 0.3411293 205 205 205
0.1263037 -0.02351805 0.3395668 205 205 205
0.1426459 -0.02492302 0.3404405 205 205 205
0.1575927 -0.02681359 0.3434814 205 205 205
-0.03434718 -0.01492031 0.3836857 205 205 205
-0.02529849 -0.01632317 0.3819781 205 205 205
-0.01984701 -0.01734442 0.381608 205 205 205
-0.009477307 -0.02304058 0.3930365 205 205 205
0.1188962 -0.02591678 0.345334 205 205 205
0.1204246 -0.02550578 0.3437081 205 205 205
0.132147 -0.02438892 0.337675 205 205 205
0.1375922 -0.02461659 0.3372414 205 205 205
-0.03536569 -0.01541292 0.3822641 205 205 205
-0.03073807 -0.0160078 0.3809859 205 205 205
-0.02106776 -0.01811766 0.3811809 205 205 205
-0.008537991 -0.02434947 0.3927667 205 205 205
0.1393538 -0.06167486 0.4442686 205 205 205
0.1190157 -0.02620345 0.3428957 205 205 205
0.1253237 -0.02480596 0.3372224 205 205 205
0.1288782 -0.02525141 0.3377424 205 205 205
0.13031 -0.0247902 0.3360688 205 205 205
0.1420133 -0.02658844 0.3389632 205 205 205
0.1590659 -0.0256118 0.3332484 205 205 205
-0.02001524 -0.01912059 0.3800175 205 205 205
-0.01067256 -0.02437445 0.3903921 205 205 205
0.1373334 -0.06107967 0.4384686 205 205 205
0.1173822 -0.02758649 0.3441946 205 205 205
0.1215357 -0.02599344 0.3384598 205 205 205
0.1239169 -0.02549753 0.3364391 205 205 205
0.1302121 -0.02574816 0.335755 205 205 205
0.1387527 -0.02679419 0.3370124 205 205 205
-0.03172223 -0.01724132 0.3783095 205 205 205
-0.03067711 -0.01751514 0.3784538 205 205 205
-0.02648791 -0.01858994 0.3789938 205 205 205
-0.01807062 -0.02064069 0.3798937 205 205 205
-0.01625078 -0.02169776 0.3819774 205 205 205
-0.009621349 -0.02538533 0.3891695 205 205 205
0.1353167 -0.06043781 0.4326781 205 205 205
0.1154505 -0.03581646 0.3656793 205 205 205
0.1145398 -0.03072963 0.3509624 205 205 205
0.1238165 -0.02644799 0.3361238 205 205 205
0.129705 -0.02637759 0.3345853 205 205 205
0.1310287 -0.02663065 0.335025 205 205 205
0.1319427 -0.02655451 0.3346094 205 205 205
0.1355275 -0.02696487 0.3350324 205 205 205
0.1609913 -0.03039646 0.3400936 205 205 205
-0.02420048 -0.01957362 0.3770242 205 205 205
-0.0222814 -0.02036842 0.3781992 205 205 205
-0.02002073 -0.02059344 0.3774699 205 205 205
-0.008575717 -0.02638434 0.3879402 205 205 205
-0.007932536 -0.0277925 0.3917967 205 205 205
0.1144284 -0.03172219 0.3506297 205 205 205
0.1159643 -0.03027652 0.3460299 205 205 205
0.1171693 -0.02952679 0.3435479 205 205 205
0.117759 -0.02914923 0.3423062 205 205 205
0.1367732 -0.0281697 0.335119 205 205 205
0.1385559 -0.02873918 0.3363621 205 205 205
0.1399147 -0.0289769 0.3367575 205 205 205
0.141279 -0.02921175 0.3371464 205 205 205
0.1435769 -0.02934569 0.3370719 205 205 205
0.1486371 -0.03066894 0.3398198 205 205 205
0.1575781 -0.03147797 0.3404797 205 205 205
0.1585216 -0.03135171 0.3399701 205 205 205
0.1622764 -0.03082464 0.3378997 205 205 205
0.1631324 -0.02990831 0.3352419 205 205 205
-0.03583427 -0.01924804 0.3800104 205 205 205
-0.02418798 -0.02029871 0.3757506 205 205 205
-0.008624939 -0.02713878 0.3866453 205 205 205
0.1187757 -0.04406501 0.3816634 205 205 205
0.1136517 -0.03517461 0.3575397 205 205 205
0.1155813 -0.0319666 0.3478139 205 205 205
0.1250534 -0.02788394 0.3338421 205 205 205
0.1304177 -0.02820465 0.3335311 205 205 205
0.1339902 -0.02863604 0.3339668 205 205 205
0.1357544 -0.02921885 0.3352236 205 205 205
0.1476235 -0.03100711 0.337827 205 205 205
0.160796 -0.03243062 0.3394037 205 205 205
0.1664164 -0.03159469 0.3362301 205 205 205
0.1637433 -0.02919488 0.3301274 205 205 205
-0.03347933 -0.02027746 0.378106 205 205 205
0.1132103 -0.03584797 0.3563086 205 205 205
0.1169526 -0.03146122 0.3428863 205 205 205
0.1231237 -0.02895109 0.3342987 205 205 205
0.1267732 -0.02869261 0.3327238 205 205 205
0.1321383 -0.02899763 0.3323734 205 205 205
0.1387866 -0.03101425 0.3365341 205 205 205
0.1429308 -0.03096995 0.3355696 205 205 205
0.1438547 -0.0308695 0.3351113 205 205 205
0.1521828 -0.03299264 0.3393309 205 205 205
0.1559554 -0.03329761 0.3394761 205 205 205
0.1621327 -0.03363977 0.3393371 205 205 205
0.1614476 -0.02808576 0.3245083 205 205 205
-0.02744519 -0.02122754 0.3737709 205 205 205
0.1130484 -0.03792415 0.3589585 205 205 205
0.1131132 -0.03579158 0.3529596 205 205 205
0.1137542 -0.03434484 0.3487322 205 205 205
0.1239347 -0.02983037 0.3335813 205 205 205
0.1270704 -0.02997517 0.333246 205 205 205
0.132037 -0.02994388 0.3320428 205 205 205
0.1409758 -0.03213843 0.3361361 205 205 205
0.1516145 -0.03365771 0.3381624 205 205 205
0.156797 -0.03418021 0.3386194 205 205 205
0.1658657 -0.03489916 0.3389901 205 205 205
-0.03486675 -0.02201789 0.3772705 205 205 205
-0.02553991 -0.02274819 0.3736798 205 205 205
-0.0191487 -0.02397942 0.3733961 205 205 205
-0.01737878 -0.02507065 0.3754684 205 205 205
-0.01067123 -0.02826763 0.3807363 205 205 205
0.1126693 -0.03643953 0.3517299 205 205 205
0.1306105 -0.03062285 0.3312829 205 205 205
0.1332645 -0.03115173 0.3321282 205 205 205
0.1538602 -0.03475586 0.3376416 205 205 205
0.1552749 -0.03497225 0.3379559 205 205 205
0.1657644 -0.03592009 0.3386283 205 205 205
-0.0360846 -0.02274201 0.3767681 205 205 205
-0.01931165 -0.02497223 0.3730517 205 205 205
0.1146793 -0.04569522 0.373424 205 205 205
0.1149736 -0.03368824 0.3404958 205 205 205
0.1170811 -0.03285126 0.3376674 205 205 205
0.1180132 -0.0328033 0.3372972 205 205 205
0.1467594 -0.03460843 0.3356175 205 205 205
0.1532842 -0.03541065 0.3364719 205 205 205
0.1599015 -0.03613982 0.3371749 205 205 205
0.1676418 -0.0336875 0.3294957 205 205 205
-0.02587034 -0.02473422 0.3729877 205 205 205
-0.01755235 -0.02676382 0.3738303 205 205 205
-0.01590446 -0.02817722 0.3768235 205 205 205
-0.01286994 -0.02921095 0.3779999 205 205 205
-0.00825106 -0.03227072 0.38397 205 205 205
-0.007947956 -0.03471775 0.3906175 205 205 205
0.1133111 -0.03507632 0.3417383 205 205 205
0.1175411 -0.03339261 0.3360939 205 205 205
0.1397883 -0.03435136 0.3334358 205 205 205
0.1517637 -0.0353646 0.3336795 205 205 205
0.1564644 -0.03637416 0.3354218 205 205 205
0.1645952 -0.03132855 0.3210404 205 205 205
-0.0303767 -0.02495821 0.3730601 205 205 205
-0.02810813 -0.02519594 0.3723888 205 205 205
-0.02154277 -0.02614376 0.3712125 205 205 205
-0.01860028 -0.02720124 0.3724465 205 205 205
-0.0159224 -0.02887055 0.3755265 205 205 205
0.1122457 -0.03606816 0.3417439 205 205 205
0.1218276 -0.03292493 0.3309188 205 205 205
0.1293878 -0.03351542 0.3306747 205 205 205
0.1433392 -0.03571981 0.3333733 205 205 205
0.1516595 -0.03634388 0.3333199 205 205 205
0.1577794 -0.03758511 0.3353527 205 205 205
0.161572 -0.03787417 0.3354017 205 205 205
0.1707745 -0.03940235 0.3377006 205 205 205
-0.03386441 -0.02542356 0.3732135 205 205 205
-0.00750239 -0.03804613 0.3927249 205 205 205
0.1154593 -0.03536559 0.3361361 205 205 205
0.1217197 -0.03385113 0.3305754 205 205 205
0.1244439 -0.03365786 0.3294088 205 205 205
0.1315155 -0.03465261 0.3303364 205 205 205
0.1341803 -0.03520324 0.3311589 205 205 205
0.1581587 -0.0389309 0.3357838 205 205 205
-0.01309153 -0.03159347 0.3750328 205 205 205
0.1104346 -0.03841001 0.3426043 205 205 205
0.1179585 -0.03500522 0.3317408 205 205 205
0.1372462 -0.03623962 0.3303342 205 205 205
0.1403914 -0.03713073 0.3319193 205 205 205
0.1500519 -0.0380598 0.3322673 205 205 205
0.1523744 -0.0381758 0.3320998 205 205 205
0.1542548 -0.03876372 0.3332134 205 205 205
0.1580514 -0.03992729 0.335409 205 205 205
0.1666238 -0.04035146 0.3348954 205 205 205
0.1713024 -0.03957176 0.3321495 205 205 205
0.1480837 -0.02159467 0.291486 205 205 205
-0.02944574 -0.02757529 0.3702532 205 205 205
-0.02841397 -0.02784327 0.3703808 205 205 205
-0.02700072 -0.02748285 0.368644 205 205 205
-0.01701204 -0.03065437 0.3715437 205 205 205
0.144392 -0.03886904 0.3326419 205 205 205
0.1646302 -0.04165465 0.3355882 205 205 205
0.1705424 -0.03935806 0.3288899 205 205 205
0.1614513 -0.03116373 0.3103437 205 205 205
-0.02981098 -0.02886929 0.3708158 205 205 205
-0.02735677 -0.02877256 0.3692096 205 205 205
-0.02613971 -0.0287182 0.3683997 205 205 205
-0.0251128 -0.02897851 0.3685153 205 205 205
-0.02099727 -0.02999917 0.3689413 205 205 205
-0.01025313 -0.03429563 0.3744869 205 205 205
-0.008494741 -0.03575741 0.3774057 205 205 205
-0.006799367 -0.03755585 0.3812474 205 205 205
0.1083869 -0.04535865 0.3552828 205 205 205
0.1072386 -0.04270571 0.3488203 205 205 205
0.1110399 -0.03796364 0.3356385 205 205 205
0.1177355 -0.03685162 0.331036 205 205 205
0.1241179 -0.03642527 0.3283578 205 205 205
0.1325914 -0.03692145 0.3275996 205 205 205
0.1540385 -0.04072395 0.3324631 205 205 205
0.1573494 -0.04155278 0.3338515 205 205 205
0.1716147 -0.04193472 0.3321544 205 205 205
-0.02527772 -0.02995074 0.3681475 205 205 205
-0.02116129 -0.03097316 0.3685724 205 205 205
-0.01925982 -0.03179975 0.3696939 205 205 205
0.1130227 -0.03801523 0.3324991 205 205 205
0.1152226 -0.03830238 0.3326347 205 205 205
0.1181681 -0.03734054 0.3294562 205 205 205
0.1262186 -0.03757864 0.3280445 205 205 205
0.132903 -0.03822294 0.3280654 205 205 205
0.1338121 -0.0381353 0.3276399 205 205 205
0.1391864 -0.03924942 0.3291816 205 205 205
0.1405436 -0.03952072 0.329551 205 205 205
0.143274 -0.0400545 0.3302701 205 205 205
0.1446472 -0.0403169 0.3306197 205 205 205
0.149726 -0.04096815 0.3311479 205 205 205
-0.03701163 -0.03011198 0.3719971 205 205 205
-0.0357511 -0.03008094 0.371225 205 205 205
-0.02525828 -0.03059553 0.3668485 205 205 205
-0.02132558 -0.03194547 0.3681996 205 205 205
0.1119832 -0.03897792 0.3324926 205 205 205
0.1175089 -0.03869177 0.3303172 205 205 205
0.1261073 -0.03849959 0.3276823 205 205 205
0.1413504 -0.0403648 0.3287262 205 205 205
0.1505416 -0.04181382 0.3302832 205 205 205
0.1552286 -0.04291886 0.3319948 205 205 205
-0.02644689 -0.03130022 0.3663599 205 205 205
-0.01154049 -0.0363612 0.3714173 205 205 205
-0.003939291 -0.04095362 0.3792574 205 205 205
0.13421 -0.08712661 0.4425607 205 205 205
0.1096772 -0.03958958 0.3319694 205 205 205
0.1175715 -0.03878548 0.3278874 205 205 205
0.1448925 -0.04174114 0.3285895 205 205 205
0.1593791 -0.04461087 0.3324505 205 205 205
-0.0306999 -0.0311984 0.3654899 205 205 205
-0.02353778 -0.03304069 0.3663135 205 205 205
-0.006563435 -0.03884001 0.3722275 205 205 205
-0.001665201 -0.04582056 0.3873189 205 205 205
0.1114053 -0.04042461 0.3309049 205 205 205
0.1174571 -0.03969414 0.3275222 205 205 205
0.1316565 -0.04109524 0.327379 205 205 205
0.1334782 -0.04092054 0.3265316 205 205 205
0.139327 -0.04159206 0.3267975 205 205 205
0.1484603 -0.04310356 0.3283954 205 205 205
0.1526415 -0.04386899 0.329329 205 205 205
0.1573541 -0.04498196 0.3309908 205 205 205
-0.003966371 -0.04191557 0.3756658 205 205 205
0.1315924 -0.0886751 0.4393031 205 205 205
0.1116829 -0.05986109 0.3752402 205 205 205
0.1071791 -0.05235109 0.3583407 205 205 205
0.1047087 -0.04640006 0.3446293 205 205 205
0.1051295 -0.04317937 0.3367055 205 205 205
0.1054398 -0.04236515 0.3346467 205 205 205
0.1191581 -0.04048448 0.3264039 205 205 205
0.1226463 -0.04107454 0.3269277 205 205 205
0.1248576 -0.04132564 0.326974 205 205 205
0.1266762 -0.04117786 0.3261729 205 205 205
0.1293059 -0.04179892 0.3270115 205 205 205
0.1423942 -0.04259622 0.3258686 205 205 205
0.1469636 -0.04379278 0.3276837 205 205 205
0.148347 -0.04405743 0.3280069 205 205 205
0.1544103 -0.04546531 0.3300242 205 205 205
0.166705 -0.04629873 0.3295023 205 205 205
-0.03371257 -0.03356877 0.3672138 205 205 205
-0.0291882 -0.03399182 0.3658977 205 205 205
-0.02489386 -0.03470692 0.3654386 205 205 205
-0.02164168 -0.03513049 0.3648235 205 205 205
-0.0206172 -0.03538119 0.3649187 205 205 205
-0.006777517 -0.04045649 0.3705091 205 205 205
-0.004235844 -0.04327613 0.3761891 205 205 205
0.1038995 -0.04777202 0.3454359 205 205 205
0.1043795 -0.04331019 0.3346008 205 205 205
0.1099065 -0.04189111 0.3296579 205 205 205
0.1172256 -0.04150665 0.3267814 205 205 205
0.121237 -0.04165829 0.3261058 205 205 205
0.1341598 -0.04267807 0.3253471 205 205 205
0.1463887 -0.04435512 0.326494 205 205 205
0.1496211 -0.04527435 0.3279301 205 205 205
0.1665907 -0.04728503 0.329096 205 205 205
-0.03119951 -0.03407266 0.364337 205 205 205
-0.03038106 -0.03468301 0.3653831 205 205 205
-0.01975599 -0.03658744 0.3646206 205 205 205
-0.01311176 -0.03969402 0.3688569 205 205 205
0.09449713 -0.06987013 0.3983896 205 205 205
0.1028756 -0.04752473 0.342441 205 205 205
0.1032924 -0.04547828 0.3374634 205 205 205
0.1116248 -0.04271258 0.3285812 205 205 205
0.1143724 -0.042571 0.3275073 205 205 205
0.1282598 -0.04284747 0.3246044 205 205 205
0.1291647 -0.04276567 0.3241933 205 205 205
0.1304826 -0.04307691 0.3245991 205 205 205
0.1327137 -0.0432965 0.3245752 205 205 205
0.1453561 -0.04541463 0.3265716 205 205 205
0.1476535 -0.0455703 0.3264235 205 205 205
0.1546291 -0.04688101 0.3279347 205 205 205
0.1713526 -0.04931033 0.3300989 205 205 205
-0.03758996 -0.03532558 0.3678244 205 205 205
-0.01873227 -0.03743709 0.3633932 205 205 205
0.08030001 -0.08378834 0.4330605 205 205 205
0.08947664 -0.05091648 0.3518721 205 205 205
0.09402186 -0.05338636 0.3562755 205 205 205
0.09660204 -0.05421124 0.3574194 205 205 205
0.1005211 -0.05543144 0.3590924 205 205 205
0.1053286 -0.04303415 0.3285564 205 205 205
0.1105865 -0.04365908 0.3285539 205 205 205
0.1151671 -0.0434222 0.3267641 205 205 205
0.1197156 -0.0431326 0.3248985 205 205 205
0.1281437 -0.04375794 0.3242216 205 205 205
0.1325979 -0.04421307 0.3241898 205 205 205
0.1634786 -0.04878855 0.3278068 205 205 205
0.1712353 -0.05030591 0.3296797 205 205 205
-0.02622835 -0.0369671 0.3632315 205 205 205
-0.01420196 -0.04067614 0.3661418 205 205 205
-0.01316378 -0.04091308 0.366208 205 205 205
-0.001408493 -0.046569 0.3741074 205 205 205
0.06664339 -0.04780933 0.3494792 205 205 205
0.06660938 -0.04305219 0.3382842 205 205 205
0.07687894 -0.04151071 0.3311856 205 205 205
0.1042886 -0.04396005 0.3285073 205 205 205
0.1205036 -0.04396806 0.3241341 205 205 205
0.1227002 -0.04423729 0.3241887 205 205 205
0.1263137 -0.04394025 0.3226001 205 205 205
0.1307385 -0.04441334 0.3225938 205 205 205
0.1474203 -0.04745879 0.3256245 205 205 205
0.1600648 -0.04981765 0.3281978 205 205 205
0.1642912 -0.04960953 0.3268586 205 205 205
-0.0296567 -0.03747358 0.3633998 205 205 205
-0.01510921 -0.04067001 0.3638277 205 205 205
-0.01422298 -0.04127289 0.3648165 205 205 205
-0.010985 -0.04160807 0.3640824 205 205 205
-0.010081 -0.04220597 0.3650577 205 205 205
-0.00395638 -0.04391529 0.3662332 205 205 205
0.06267639 -0.04371201 0.3386885 205 205 205
0.06284383 -0.04172764 0.3340024 205 205 205
0.0822865 -0.04415222 0.3331158 205 205 205
0.09520016 -0.04545663 0.3321285 205 205 205
0.09670419 -0.04627219 0.3335574 205 205 205
0.1029309 -0.04447054 0.3275967 205 205 205
0.1145679 -0.0448124 0.3251573 205 205 205
0.1608785 -0.05064144 0.3272583 205 205 205
0.1670551 -0.05105219 0.3268903 205 205 205
-0.02535173 -0.03876774 0.3616222 205 205 205
-0.00575105 -0.04293816 0.3620723 205 205 205
-0.002973007 -0.04471755 0.364931 205 205 205
0.07035165 -0.03773442 0.3198097 205 205 205
0.0733957 -0.03866063 0.3209317 205 205 205
0.08191115 -0.0429772 0.3280841 205 205 205
0.09422994 -0.04510521 0.3291459 205 205 205
0.0997481 -0.04501648 0.3273149 205 205 205
0.1015792 -0.04497018 0.3266801 205 205 205
0.1055541 -0.04526771 0.3262235 205 205 205
0.1149943 -0.04523896 0.3235687 205 205 205
0.115899 -0.045183 0.3232017 205 205 205
0.1189819 -0.04541489 0.3229121 205 205 205
0.1234832 -0.04507058 0.32098 205 205 205
0.1345308 -0.04626211 0.3209204 205 205 205
0.1669353 -0.05202893 0.3264657 205 205 205
0.1683834 -0.05226203 0.3266788 205 205 205
-0.03679007 -0.03877197 0.3645246 205 205 205
-0.02735943 -0.03882759 0.3600856 205 205 205
-0.02533038 -0.03934897 0.3603033 205 205 205
-0.02058012 -0.04134971 0.3626154 205 205 205
-0.01971722 -0.04196648 0.3636172 205 205 205
-0.01337622 -0.0430485 0.3631453 205 205 205
-0.009245607 -0.04397269 0.3633694 205 205 205
-0.007967182 -0.04344364 0.3615806 205 205 205
0.002797888 -0.0484705 0.3682932 205 205 205
0.05828804 -0.04155811 0.3303829 205 205 205
0.06270044 -0.03696842 0.318369 205 205 205
0.07090358 -0.03817461 0.3183507 205 205 205
0.07415441 -0.03952105 0.3203443 205 205 205
0.0776918 -0.0412713 0.3231736 205 205 205
0.09594803 -0.04596856 0.3281607 205 205 205
0.09932078 -0.04548114 0.3260721 205 205 205
0.1023697 -0.04582758 0.3259711 205 205 205
0.1326092 -0.04735801 0.3213803 205 205 205
0.1559266 -0.05234218 0.3269276 205 205 205
0.1691955 -0.05307424 0.3256979 205 205 205
-0.02975379 -0.03959595 0.3603568 205 205 205
-0.02364302 -0.04116847 0.3610107 205 205 205
-0.02091431 -0.04266723 0.3631165 205 205 205
-0.01750473 -0.04266572 0.3615364 205 205 205
-0.01545305 -0.04314798 0.3616832 205 205 205
0.004825313 -0.04945851 0.3669546 205 205 205
0.0161172 -0.09545881 0.4665046 205 205 205
0.05704555 -0.03415398 0.3117368 205 205 205
0.05773507 -0.03379047 0.3106753 205 205 205
0.0632759 -0.03740897 0.3169325 205 205 205
0.07711978 -0.04127026 0.3210443 205 205 205
0.08713275 -0.0447707 0.3257459 205 205 205
0.08948138 -0.04562099 0.3269287 205 205 205
0.09039665 -0.0456196 0.326647 205 205 205
0.09859114 -0.04551398 0.3239749 205 205 205
0.1091774 -0.04600004 0.3220573 205 205 205
0.1165606 -0.04689959 0.3220494 205 205 205
0.1196439 -0.04713078 0.3217466 205 205 205
0.1285368 -0.0472829 0.3198111 205 205 205
0.1333918 -0.04816778 0.3205522 205 205 205
0.1342929 -0.04807115 0.3201221 205 205 205
0.1460189 -0.05039262 0.3224107 205 205 205
0.1492462 -0.05137687 0.3238086 205 205 205
0.1520331 -0.05193738 0.3243932 205 205 205
0.1581561 -0.0534263 0.3262534 205 205 205
0.1605145 -0.05354026 0.3259849 205 205 205
-0.02566101 -0.04122333 0.3594836 205 205 205
-0.02314096 -0.04310824 0.3625157 205 205 205
-0.02211123 -0.04336324 0.3626091 205 205 205
-0.01766947 -0.04360882 0.3611211 205 205 205
-0.01356276 -0.04456646 0.3613994 205 205 205
0.003991746 -0.04825627 0.3619469 205 205 205
0.01115588 -0.0503925 0.3637044 205 205 205
0.01551838 -0.04910734 0.3590071 205 205 205
0.04575846 -0.1026408 0.4671636 205 205 205
0.07544986 -0.04080467 0.3182735 205 205 205
0.08791625 -0.0456375 0.3250866 205 205 205
0.1267027 -0.04741969 0.3182001 205 205 205
0.1381859 -0.04992078 0.3207966 205 205 205
0.1440663 -0.05155771 0.3229333 205 205 205
0.1505146 -0.05259922 0.3236824 205 205 205
0.156613 -0.05411795 0.3255643 205 205 205
0.1717393 -0.05450989 0.323157 205 205 205
-0.03458368 -0.04110586 0.3608341 205 205 205
-0.0311032 -0.04119995 0.3594079 205 205 205
-0.02499547 -0.04279022 0.3600798 205 205 205
-0.0200501 -0.04443607 0.3614528 205 205 205
0.00707495 -0.04899338 0.3596836 205 205 205
0.01648409 -0.0490036 0.3558068 205 205 205
0.03191435 -0.05378476 0.3602743 205 205 205
0.03406624 -0.05489095 0.3618969 205 205 205
0.03629096 -0.05640864 0.3644104 205 205 205
0.04380402 -0.07212298 0.3964306 205 205 205
0.05470478 -0.03432138 0.3086795 205 205 205
0.0784137 -0.04254943 0.3189434 205 205 205
0.08041421 -0.04301056 0.3193258 205 205 205
0.09834165 -0.04725238 0.3231936 205 205 205
0.1019592 -0.04715046 0.3219278 205 205 205
0.120302 -0.04883683 0.3205649 205 205 205
0.1287778 -0.04855567 0.317789 205 205 205
0.1376248 -0.05041003 0.3195907 205 205 205
0.1394124 -0.05114384 0.3207298 205 205 205
0.1564444 -0.05410182 0.323083 205 205 205
0.165001 -0.05566804 0.3245158 205 205 205
0.170163 -0.05524675 0.3225298 205 205 205
-0.03168708 -0.04287616 0.3607984 205 205 205
-0.02021632 -0.04537823 0.3610289 205 205 205
-0.01784075 -0.04510598 0.3593696 205 205 205
-0.01389175 -0.04645032 0.3605556 205 205 205
-0.01080408 -0.04714855 0.3607256 205 205 205
-0.005533305 -0.04787563 0.3600255 205 205 205
0.0008297155 -0.04834788 0.3583368 205 205 205
0.03042874 -0.04917046 0.348125 205 205 205
0.03343704 -0.04998614 0.3487581 205 205 205
0.04082813 -0.05379699 0.3543286 205 205 205
0.07325231 -0.04025951 0.3133798 205 205 205
0.1009312 -0.04804532 0.3218532 205 205 205
0.1075669 -0.04823271 0.3203804 205 205 205
0.1474906 -0.0538887 0.3222389 205 205 205
0.1591521 -0.05558928 0.3231523 205 205 205
0.1625049 -0.05653301 0.3243865 205 205 205
0.1639415 -0.05679148 0.3246116 205 205 205
-0.03890551 -0.04360564 0.3631715 205 205 205
-0.03764437 -0.04352619 0.3624153 205 205 205
-0.02960606 -0.04398292 0.3597068 205 205 205
-0.02551463 -0.04504212 0.36014 205 205 205
-0.02448976 -0.04530165 0.3602394 205 205 205
-0.02346414 -0.04555904 0.3603352 205 205 205
-0.02021553 -0.04593331 0.3596938 205 205 205
-0.01199848 -0.04785789 0.3602445 205 205 205
0.01730485 -0.04937498 0.3512802 205 205 205
0.03208714 -0.04781088 0.3420939 205 205 205
0.03499233 -0.04818636 0.3418061 205 205 205
0.03971208 -0.0479188 0.3394552 205 205 205
0.04302245 -0.05080466 0.3444996 205 205 205
0.04438369 -0.05304855 0.3488729 205 205 205
0.04889075 -0.06610998 0.375588 205 205 205
0.06220099 -0.09345181 0.4301363 205 205 205
0.05372103 -0.05521609 0.3502079 205 205 205
0.06244383 -0.03976009 0.3137051 205 205 205
0.07099829 -0.04013614 0.3116985 205 205 205
0.07377066 -0.04064882 0.3119135 205 205 205
0.07747638 -0.04289421 0.3155755 205 205 205
0.08483404 -0.04515364 0.3181478 205 205 205
0.09156843 -0.04600295 0.3179361 205 205 205
0.09420616 -0.04728958 0.3199108 205 205 205
0.1040853 -0.04834544 0.3193145 205 205 205
0.111383 -0.04934753 0.3194189 205 205 205
0.1166 -0.04993307 0.3192506 205 205 205
0.1210799 -0.04959537 0.3173509 205 205 205
0.1387232 -0.05253735 0.3191033 205 205 205
0.159026 -0.05653917 0.322713 205 205 205
0.1618776 -0.05707371 0.3231849 205 205 205
-0.02957202 -0.04453756 0.3583753 205 205 205
-0.01319289 -0.0485625 0.3597566 205 205 205
-0.01010247 -0.04925656 0.3599145 205 205 205
-0.005859619 -0.04975099 0.3591663 205 205 205
-0.001441408 -0.0493963 0.3565418 205 205 205
0.01199516 -0.05067519 0.3537605 205 205 205
0.01510919 -0.05036768 0.3518476 205 205 205
0.02021206 -0.04951617 0.34799 205 205 205
0.03185504 -0.04741725 0.3389718 205 205 205
0.03281206 -0.04754315 0.3388801 205 205 205
0.03738844 -0.04642767 0.3347649 205 205 205
0.03832947 -0.04653936 0.3346556 205 205 205
0.04574107 -0.05158343 0.3427825 205 205 205
0.04767362 -0.05643833 0.3525152 205 205 205
0.05197251 -0.03687006 0.3089733 205 205 205
0.05432883 -0.03406058 0.3021326 205 205 205
0.05499175 -0.03367919 0.3010878 205 205 205
0.05594347 -0.03417039 0.3018155 205 205 205
0.06961894 -0.04002108 0.3097929 205 205 205
0.07909338 -0.0437396 0.314714 205 205 205
0.08219474 -0.04465222 0.3156944 205 205 205
0.08332076 -0.04509961 0.3162996 205 205 205
0.08445348 -0.04554507 0.3168998 205 205 205
0.08878108 -0.04686564 0.3183925 205 205 205
0.08994329 -0.04730096 0.3189676 205 205 205
0.09261411 -0.04727112 0.3181079 205 205 205
0.09886819 -0.04982451 0.3216848 205 205 205
0.109458 -0.05031426 0.3197176 205 205 205
0.1181207 -0.05161821 0.320105 205 205 205
0.1243193 -0.05206014 0.3193985 205 205 205
0.1603219 -0.05775921 0.3225079 205 205 205
-0.03402125 -0.04475401 0.3583574 205 205 205
-0.02668275 -0.04626412 0.3582716 205 205 205
-0.02157225 -0.04755056 0.3587463 205 205 205
-0.02054791 -0.04780148 0.3588306 205 205 205
-0.01219059 -0.04933289 0.358471 205 205 205
-0.001503026 -0.04991446 0.3552029 205 205 205
0.003743337 -0.05010141 0.3534351 205 205 205
0.004677569 -0.05070765 0.3543422 205 205 205
0.02883856 -0.04789748 0.3388205 205 205 205
0.05487419 -0.03441867 0.3007409 205 205 205
0.06780393 -0.04074357 0.3098387 205 205 205
0.07139659 -0.04130621 0.309869 205 205 205
0.09103694 -0.04723478 0.3163005 205 205 205
0.09455628 -0.04852606 0.3179713 205 205 205
0.09693488 -0.04937595 0.3190579 205 205 205
0.09903228 -0.04977276 0.3192808 205 205 205
0.1147174 -0.05085867 0.3171634 205 205 205
0.1216062 -0.05221898 0.3181533 205 205 205
0.1335556 -0.05345604 0.3176454 205 205 205
0.1362543 -0.05314808 0.3163396 205 205 205
0.1466494 -0.0562374 0.320165 205 205 205
0.153566 -0.0567301 0.319545 205 205 205
0.162551 -0.05882313 0.3217598 205 205 205
0.1653287 -0.05833828 0.3201521 205 205 205
0.1662506 -0.05817204 0.3196101 205 205 205
0.1700569 -0.05850136 0.3194436 205 205 205
-0.03690226 -0.04626389 0.3603475 205 205 205
-0.03565206 -0.04616709 0.3595859 205 205 205
-0.03236289 -0.04662146 0.3590712 205 205 205
-0.03113175 -0.04651001 0.3582926 205 205 205
-0.02480795 -0.04771469 0.358036 205 205 205
-0.02071447 -0.04873279 0.3583935 205 205 205
-0.01763675 -0.04947401 0.3586243 205 205 205
-0.01676332 -0.05011612 0.359598 205 205 205
-0.01338142 -0.05003044 0.357978 205 205 205
-0.01030158 -0.05072412 0.3581339 205 205 205
-0.004933882 -0.05101988 0.3565113 205 205 205
0.02486374 -0.04864461 0.3396102 205 205 205
0.02676987 -0.04806507 0.3376622 205 205 205
0.04430506 -0.04722353 0.329415 205 205 205
0.05023717 -0.05771935 0.3493926 205 205 205
0.04968307 -0.04342351 0.3195153 205 205 205
0.05314771 -0.03504366 0.3007016 205 205 205
0.05381249 -0.03465704 0.2996626 205 205 205
0.05651414 -0.03570734 0.3009527 205 205 205
0.06395993 -0.04267488 0.3130881 205 205 205
0.07127383 -0.04209375 0.3094952 205 205 205
0.0775103 -0.0444552 0.3124612 205 205 205
0.08914361 -0.04808508 0.3164703 205 205 205
0.09620959 -0.04932957 0.3169687 205 205 205
0.09980232 -0.05059826 0.3185602 205 205 205
0.1103038 -0.05105519 0.3165469 205 205 205
0.1201952 -0.05272513 0.3173142 205 205 205
0.125873 -0.05366567 0.3177564 205 205 205
0.1321037 -0.05400605 0.3168575 205 205 205
0.1352305 -0.05414353 0.3163534 205 205 205
0.150208 -0.05763666 0.3198204 205 205 205
-0.03457812 -0.04699683 0.3583793 205 205 205
-0.02580813 -0.04798789 0.3565989 205 205 205
-0.004984466 -0.05153225 0.3551677 205 205 205
-0.003856954 -0.05133333 0.3542901 205 205 205
-0.002736676 -0.05113073 0.3534089 205 205 205
-0.0006146845 -0.05112963 0.35254 205 205 205
0.01578838 -0.05156342 0.3469052 205 205 205
0.02180906 -0.04993863 0.3411899 205 205 205
0.0303466 -0.04771778 0.3333296 205 205 205
0.03929292 -0.04580202 0.3260472 205 205 205
0.04209629 -0.04654517 0.3265866 205 205 205
0.04517621 -0.0486016 0.3297727 205 205 205
0.04637118 -0.05002397 0.3323122 205 205 205
0.06965186 -0.04327478 0.3104163 205 205 205
0.07629428 -0.04479134 0.3114505 205 205 205
0.07738531 -0.04525855 0.3120759 205 205 205
0.07911125 -0.04528411 0.3115922 205 205 205
0.09078435 -0.04889748 0.3155062 205 205 205
0.1092844 -0.05196152 0.3164856 205 205 205
0.1205796 -0.05307694 0.315701 205 205 205
0.1270513 -0.05490679 0.3177251 205 205 205
0.1319767 -0.0548922 0.3164311 205 205 205
0.1565433 -0.05858391 0.3178999 205 205 205
0.1645579 -0.05980326 0.3185006 205 205 205
-0.03827206 -0.04784727 0.3593188 205 205 205
-0.03496758 -0.04831542 0.3588294 205 205 205
-0.03167757 -0.04875824 0.3583051 205 205 205
-0.02942559 -0.04890783 0.3576374 205 205 205
-0.02514279 -0.04956837 0.3571528 205 205 205
0.006370593 -0.05299532 0.3512141 205 205 205
0.01256694 -0.05280519 0.348385 205 205 205
0.03564984 -0.0475228 0.3287672 205 205 205
0.04991874 -0.04024426 0.3086964 205 205 205
0.06592124 -0.04347406 0.309989 205 205 205
0.07898597 -0.04608567 0.3112037 205 205 205
0.08746736 -0.04884041 0.3142496 205 205 205
0.08861703 -0.04928953 0.3148216 205 205 205
0.1034505 -0.0526217 0.31728 205 205 205
0.1073672 -0.05291085 0.3167624 205 205 205
0.1265188 -0.05534041 0.3164991 205 205 205
0.1305292 -0.05542597 0.3156349 205 205 205
0.14261 -0.05746685 0.3166914 205 205 205
0.1526978 -0.05906893 0.3174486 205 205 205
0.1624895 -0.06004018 0.317092 205 205 205
-0.03616377 -0.04896254 0.3582492 205 205 205
-0.03411175 -0.04952693 0.3585069 205 205 205
-0.02428791 -0.05075132 0.3567995 205 205 205
-0.02224042 -0.05126281 0.3569766 205 205 205
-0.0135895 -0.05198606 0.3548451 205 205 205
-0.005082847 -0.05253058 0.3524795 205 205 205
-0.001842544 -0.05232051 0.3507452 205 205 205
0.01857817 -0.05166066 0.3414064 205 205 205
0.0215226 -0.05124743 0.3394452 205 205 205
0.03190688 -0.0492183 0.3314352 205 205 205
0.06237997 -0.04409186 0.3103835 205 205 205
0.07410134 -0.0458908 0.3102769 205 205 205
0.07495962 -0.0459102 0.3100471 205 205 205
0.07604308 -0.04638615 0.3106739 205 205 205
0.07690373 -0.04640169 0.3104374 205 205 205
0.08821788 -0.04965455 0.313572 205 205 205
0.09025018 -0.05009468 0.3138553 205 205 205
0.1117037 -0.05350928 0.3145938 205 205 205
0.1207093 -0.05526069 0.31566 205 205 205
0.1219951 -0.05563843 0.3160722 205 205 205
0.1295009 -0.05639954 0.315623 205 205 205
0.1415719 -0.0584867 0.3167104 205 205 205
0.1461212 -0.0588862 0.3163809 205 205 205
0.1502617 -0.05982233 0.3172252 205 205 205
0.1539641 -0.06028689 0.3172541 205 205 205
0.1557917 -0.05999388 0.3162438 205 205 205
0.1576909 -0.06072441 0.3172335 205 205 205
0.1661326 -0.06134692 0.3165002 205 205 205
-0.03884755 -0.05010353 0.3593039 205 205 205
-0.033255 -0.05073522 0.3581765 205 205 205
-0.01916701 -0.05252724 0.3558668 205 205 205
-0.01594265 -0.05284356 0.3551753 205 205 205
-0.009286719 -0.05256395 0.3518963 205 205 205
-0.005244774 -0.05343908 0.3520342 205 205 205
-0.002002842 -0.05322311 0.3503026 205 205 205
0.0001034354 -0.05320538 0.3494304 205 205 205
0.004115797 -0.05399436 0.3494437 205 205 205
0.01648168 -0.05221519 0.3410698 205 205 205
0.02140014 -0.05123243 0.3372242 205 205 205
0.0223578 -0.05138 0.3371641 205 205 205
0.02803793 -0.04999709 0.3322585 205 205 205
0.04533655 -0.04940281 0.3248576 205 205 205
0.04643166 -0.05040042 0.3264927 205 205 205
0.04846999 -0.05148414 0.3279763 205 205 205
0.04926607 -0.0435247 0.3116232 205 205 205
0.05385526 -0.03671875 0.2963311 205 205 205
0.05909809 -0.04064322 0.3025074 205 205 205
0.06345172 -0.04583748 0.3115498 205 205 205
0.06413799 -0.04541976 0.310485 205 205 205
0.07332976 -0.04712278 0.3109735 205 205 205
0.09658562 -0.052658 0.3150294 205 205 205
0.1162367 -0.05549182 0.3151444 205 205 205
0.1297844 -0.05773169 0.3159771 205 205 205
0.1575586 -0.06164994 0.3167746 205 205 205
-0.01478843 -0.05316238 0.352991 205 205 205
-0.01377389 -0.05339709 0.3530482 205 205 205
-0.004284199 -0.05413267 0.3507134 205 205 205
0.001949365 -0.0545026 0.3489986 205 205 205
0.01430222 -0.05363873 0.3425111 205 205 205
0.02789299 -0.05083929 0.33184 205 205 205
0.03255472 -0.05102076 0.3305106 205 205 205
0.03535895 -0.05137429 0.3302114 205 205 205
0.07060865 -0.04784025 0.3112444 205 205 205
0.07884242 -0.04894618 0.3108728 205 205 205
0.08193408 -0.04990067 0.3118218 205 205 205
0.09705544 -0.05442178 0.3162786 205 205 205
0.1027377 -0.05470192 0.3151954 205 205 205
0.1057472 -0.05504493 0.3150186 205 205 205
0.1161063 -0.05634973 0.3147152 205 205 205
0.1662624 -0.06260283 0.3142926 205 205 205
-0.02683716 -0.05299048 0.3552456 205 205 205
-0.01612098 -0.05425449 0.3533708 205 205 205
0.02867042 -0.05135797 0.3304453 205 205 205
0.043735 -0.04865539 0.3197493 205 205 205
0.04707307 -0.05214869 0.3255204 205 205 205
0.04789611 -0.05177289 0.3244939 205 205 205
0.04850821 -0.05046986 0.3217037 205 205 205
0.05549818 -0.03919352 0.2970386 205 205 205
0.05660124 -0.04017582 0.2986179 205 205 205
0.06835983 -0.04763536 0.3095514 205 205 205
0.07047977 -0.04863204 0.3108455 205 205 205
0.07200072 -0.04821593 0.3095455 205 205 205
0.07675067 -0.04925039 0.3101029 205 205 205
0.08317816 -0.05164802 0.3128514 205 205 205
0.08545061 -0.05258781 0.3140112 205 205 205
0.08748399 -0.05305011 0.314308 205 205 205
0.1123788 -0.05745281 0.3157524 205 205 205
0.1141795 -0.05733362 0.3150235 205 205 205
0.1375642 -0.06060809 0.3151801 205 205 205
0.1554516 -0.06379709 0.3168691 205 205 205
0.1563721 -0.06364722 0.3163592 205 205 205
0.1591994 -0.06424042 0.3168157 205 205 205
0.1643005 -0.06387421 0.3149052 205 205 205
0.1684747 -0.06362372 0.313454 205 205 205
-0.03273919 -0.05379017 0.3569115 205 205 205
-0.02700581 -0.05390633 0.3547841 205 205 205
-0.02273492 -0.05452568 0.3542576 205 205 205
-0.01950249 -0.05485729 0.3536013 205 205 205
-0.005500352 -0.05528747 0.3488888 205 205 205
-0.00227673 -0.05504887 0.3471652 205 205 205
0.003799729 -0.05580601 0.3463075 205 205 205
0.01802439 -0.05424375 0.3378836 205 205 205
0.02098299 -0.05289888 0.3341514 205 205 205
0.02667059 -0.05284024 0.331962 205 205 205
0.0322662 -0.0526945 0.3296661 205 205 205
0.04826969 -0.05081791 0.3204114 205 205 205
0.04977747 -0.04272041 0.3040237 205 205 205
0.06220151 -0.04814757 0.3105561 205 205 205
0.06461111 -0.04780445 0.3091079 205 205 205
0.06842433 -0.04889017 0.3100135 205 205 205
0.08016796 -0.05196881 0.3123624 205 205 205
0.09145308 -0.05477661 0.3144314 205 205 205
0.09380787 -0.05568932 0.3155102 205 205 205
0.1013113 -0.05739655 0.3166414 205 205 205
0.1058162 -0.05720229 0.3149803 205 205 205
0.1270673 -0.06110378 0.3166805 205 205 205
0.1297994 -0.06082873 0.3154307 205 205 205
0.1320321 -0.06109833 0.3153632 205 205 205
0.1501993 -0.06392357 0.316146 205 205 205
0.16508 -0.06463099 0.3138925 205 205 205
0.167427 -0.06473114 0.31353 205 205 205
-0.03496689 -0.05415177 0.356202 205 205 205
-0.03167251 -0.05457471 0.3556715 205 205 205
-0.02819622 -0.05455491 0.3542193 205 205 205
0.01886204 -0.05480504 0.336502 205 205 205
0.020818 -0.05419961 0.3346091 205 205 205
0.02178452 -0.05389194 0.3336585 205 205 205
0.02368573 -0.05418018 0.3335285 205 205 205
0.03212127 -0.05352869 0.329239 205 205 205
0.03309091 -0.05411106 0.3300282 205 205 205
0.03988082 -0.04988091 0.3194287 205 205 205
0.04063762 -0.04904626 0.3175448 205 205 205
0.04542744 -0.05137309 0.3204229 205 205 205
0.04803181 -0.05115726 0.3191193 205 205 205
0.05540283 -0.04111262 0.2971689 205 205 205
0.06638166 -0.04913243 0.3091668 205 205 205
0.06955037 -0.05065661 0.3111128 205 205 205
0.07410964 -0.05125901 0.3108492 205 205 205
0.08570131 -0.05517274 0.3148576 205 205 205
0.09042902 -0.05561484 0.3142962 205 205 205
0.1020804 -0.05820657 0.3158804 205 205 205
0.1149963 -0.06045895 0.3165605 205 205 205
0.1190027 -0.06066139 0.315848 205 205 205
0.1221089 -0.06090644 0.3154729 205 205 205
0.1273326 -0.06245098 0.3170153 205 205 205
0.1336497 -0.06281118 0.316034 205 205 205
0.1463764 -0.06431422 0.3156199 205 205 205
0.1491428 -0.06497049 0.3161664 205 205 205
-0.03798512 -0.05380141 0.3544618 205 205 205
-0.02427409 -0.05651637 0.3541269 205 205 205
-0.02307083 -0.05634795 0.353325 205 205 205
-0.00694956 -0.05729688 0.3488354 205 205 205
0.004557046 -0.05732141 0.3445017 205 205 205
0.009705384 -0.05689169 0.3417492 205 205 205
0.01377184 -0.05622237 0.3389553 205 205 205
0.01474455 -0.05638814 0.3389164 205 205 205
0.03823641 -0.05281997 0.3236549 205 205 205
0.04421831 -0.05114871 0.3183854 205 205 205
0.04893668 -0.04880558 0.3122853 205 205 205
0.04952415 -0.0442115 0.3032551 205 205 205
0.05461808 -0.04226055 0.2978238 205 205 205
0.05668404 -0.04379331 0.3000939 205 205 205
0.08378015 -0.05599252 0.3149698 205 205 205
0.09530719 -0.05876945 0.3168356 205 205 205
0.1058797 -0.05936616 0.314922 205 205 205
0.1112077 -0.06155522 0.3175755 205 205 205
0.1257518 -0.06397773 0.3181674 205 205 205
0.1294338 -0.06361943 0.3165069 205 205 205
0.1371147 -0.06431393 0.3157969 205 205 205
0.1629722 -0.06681943 0.3140106 205 205 205
0.1648057 -0.06647885 0.3129357 205 205 205
0.1685905 -0.06685957 0.3127404 205 205 205
-0.03815639 -0.05471372 0.3539888 205 205 205
-0.03633717 -0.05570358 0.3551293 205 205 205
-0.03201395 -0.05640667 0.3547255 205 205 205
-0.01561486 -0.05768518 0.3506859 205 205 205
-0.01358412 -0.05815609 0.3507943 205 205 205
0.01454993 -0.05770761 0.3393553 205 205 205
0.02147236 -0.05604096 0.3336695 205 205 205
0.04302607 -0.0509081 0.3163469 205 205 205
0.05138255 -0.04323637 0.2989387 205 205 205
0.08323944 -0.05777423 0.3164866 205 205 205
0.09787419 -0.06100916 0.3182505 205 205 205
0.113252 -0.06278188 0.3172022 205 205 205
0.126932 -0.06524912 0.3180792 205 205 205
0.1283774 -0.06459292 0.3164642 205 205 205
0.1549378 -0.06854682 0.3169618 205 205 205
0.1633404 -0.06820224 0.3142543 205 205 205
-0.04060837 -0.05545763 0.3541158 205 205 205
-0.03856061 -0.05604219 0.3543901 205 205 205
-0.03423613 -0.05676306 0.3540162 205 205 205
-0.01491493 -0.05926041 0.3511555 205 205 205
-0.008409933 -0.05930699 0.348758 205 205 205
-0.007398415 -0.05952706 0.3487892 205 205 205
-0.006386363 -0.05974497 0.348817 205 205 205
-0.00313344 -0.05948775 0.3471054 205 205 205
-0.001021228 -0.05945034 0.3462425 205 205 205
0.0009857888 -0.05985329 0.3462532 205 205 205
0.00615442 -0.05991127 0.3444461 205 205 205
0.01439489 -0.05857063 0.338901 205 205 205
0.01735608 -0.05859533 0.3378777 205 205 205
0.03171262 -0.05649228 0.3288193 205 205 205
0.03461159 -0.05779662 0.3302768 205 205 205
0.03874825 -0.05359964 0.3209291 205 205 205
0.04851533 -0.05364232 0.3177146 205 205 205
0.04898769 -0.05179968 0.3140813 205 205 205
0.05963533 -0.05020066 0.3075864 205 205 205
0.06708864 -0.05437777 0.3130748 205 205 205
0.08359063 -0.05957141 0.3177284 205 205 205
0.0895729 -0.06053302 0.3177333 205 205 205
0.09956608 -0.06179999 0.3171656 205 205 205
0.1017036 -0.06222096 0.3173339 205 205 205
0.1096741 -0.06284322 0.3162218 205 205 205
0.1109318 -0.06327365 0.3166696 205 205 205
0.1153046 -0.06400293 0.3168047 205 205 205
0.1213889 -0.06558128 0.3180596 205 205 205
0.1376997 -0.06704129 0.3163935 205 205 205
-0.03112211 -0.05807727 0.3529954 205 205 205
-0.01948429 -0.06007411 0.3522004 205 205 205
-0.01845956 -0.06032059 0.3522671 205 205 205
-0.01727667 -0.06012363 0.3514467 205 205 205
-0.0162544 -0.06036487 0.3515061 205 205 205
-0.01420802 -0.06084078 0.3516144 205 205 205
-0.008701103 -0.06064759 0.3491695 205 205 205
-0.007685663 -0.06086885 0.3492006 205 205 205
-0.0001797211 -0.06053756 0.3457799 205 205 205
0.007991349 -0.06116121 0.3439419 205 205 205
0.01218676 -0.06002225 0.3402885 205 205 205
0.02308075 -0.058018 0.3326455 205 205 205
0.02403583 -0.05816037 0.3325749 205 205 205
0.02593661 -0.05749462 0.3306611 205 205 205
0.03256889 -0.05839564 0.3300375 205 205 205
0.03631021 -0.05838683 0.3287343 205 205 205
0.04002072 -0.05172479 0.3150118 205 205 205
0.04577278 -0.05467547 0.3185947 205 205 205
0.0527599 -0.04480909 0.297858 205 205 205
0.05864612 -0.05091834 0.3073587 205 205 205
0.0625248 -0.05496434 0.3136653 205 205 205
0.06802362 -0.0556975 0.3132909 205 205 205
0.08669039 -0.06138411 0.3181368 205 205 205
0.1067883 -0.06384405 0.3168175 205 205 205
0.122554 -0.06686323 0.3179825 205 205 205
0.1297066 -0.06827877 0.318642 205 205 205
0.133327 -0.06894937 0.3189019 205 205 205
0.1476548 -0.0698119 0.3167257 205 205 205
-0.03992955 -0.05757131 0.3532875 205 205 205
-0.03582604 -0.05872678 0.3538053 205 205 205
-0.01554962 -0.06195215 0.3519613 205 205 205
-0.0132086 -0.06152977 0.3502977 205 205 205
-0.0004383757 -0.0618784 0.3461904 205 205 205
0.003676188 -0.06221128 0.3452993 205 205 205
0.01292154 -0.0619937 0.3415529 205 205 205
0.01494535 -0.06186276 0.3405867 205 205 205
0.01698521 -0.06125044 0.3387257 205 205 205
0.02195176 -0.0596604 0.3340234 205 205 205
0.03144513 -0.05862981 0.3288097 205 205 205
0.03336756 -0.05935162 0.3294867 205 205 205
0.03852342 -0.05568823 0.3209437 205 205 205
0.04172494 -0.05317859 0.3152169 205 205 205
0.04464431 -0.05490275 0.3174339 205 205 205
0.0619777 -0.05718284 0.3160019 205 205 205
0.0636084 -0.05678635 0.3147506 205 205 205
0.09062196 -0.06466893 0.320979 205 205 205
0.09248425 -0.06464712 0.3203856 205 205 205
0.09775178 -0.06403623 0.3177146 205 205 205
0.09959033 -0.06397961 0.3170756 205 205 205
0.1196198 -0.06796714 0.3186951 205 205 205
0.1335956 -0.07032853 0.3191904 205 205 205
0.1369171 -0.06941723 0.3166491 205 205 205
0.1423867 -0.07088023 0.3178619 205 205 205
0.1484427 -0.07058342 0.31575 205 205 205
-0.04136785 -0.05860966 0.3535321 205 205 205
-0.03702562 -0.0593496 0.3531912 205 205 205
-0.03167176 -0.06032266 0.3528992 205 205 205
-0.0275551 -0.06140618 0.3533009 205 205 205
-0.01249421 -0.06311166 0.3507383 205 205 205
-0.008140504 -0.06311082 0.3491205 205 205 205
-0.00181096 -0.06347973 0.347469 205 205 205
0.0004064502 -0.06296454 0.345715 205 205 205
0.002337731 -0.06382598 0.3465927 205 205 205
0.01166887 -0.06363239 0.3428805 205 205 205
0.01470917 -0.06367495 0.3418777 205 205 205
0.02372917 -0.06031785 0.332547 205 205 205
0.04787608 -0.05937972 0.3226421 205 205 205
0.04989211 -0.05618631 0.3161248 205 205 205
0.05011616 -0.05331364 0.3107853 205 205 205
0.05102351 -0.05001015 0.3044344 205 205 205
0.05233169 -0.04866019 0.301536 205 205 205
0.05316506 -0.04872009 0.3013763 205 205 205
0.05399805 -0.04877811 0.3012138 205 205 205
0.05958667 -0.0564 0.3133817 205 205 205
0.07257469 -0.06284115 0.3210767 205 205 205
0.07350225 -0.06287009 0.3208417 205 205 205
0.110273 -0.06687974 0.3172446 205 205 205
0.1124676 -0.06726209 0.3173178 205 205 205
0.1338621 -0.07171239 0.3194717 205 205 205
0.1431215 -0.0727534 0.3188812 205 205 205
0.1468869 -0.07224063 0.3169738 205 205 205
0.1599908 -0.0723825 0.3138691 205 205 205
0.1664465 -0.07118004 0.3101114 205 205 205
-0.03122557 -0.06238215 0.35426 205 205 205
-0.02169834 -0.06432361 0.3541787 205 205 205
-0.01163657 -0.0642418 0.3502889 205 205 205
0.01039791 -0.06527731 0.3441948 205 205 205
0.01346555 -0.06532843 0.3432024 205 205 205
0.01450991 -0.0650231 0.3422792 205 205 205
0.02549255 -0.06095659 0.3310588 205 205 205
0.03504753 -0.06222748 0.3301094 205 205 205
0.04248806 -0.05581849 0.3159698 205 205 205
0.05062249 -0.0531668 0.3084836 205 205 205
0.05355869 -0.05144288 0.3044046 205 205 205
0.06203081 -0.06271501 0.32215 205 205 205
0.06389129 -0.06281742 0.321746 205 205 205
0.06633151 -0.06195789 0.3194182 205 205 205
0.06760556 -0.06299662 0.3209012 205 205 205
0.07095051 -0.06460617 0.3227728 205 205 205
0.07435841 -0.0661988 0.3246 205 205 205
0.09180288 -0.06735479 0.3214034 205 205 205
0.09433601 -0.06681115 0.3196731 205 205 205
0.1098741 -0.06878573 0.3187305 205 205 205
0.1120819 -0.06917493 0.3188037 205 205 205
0.1181841 -0.07084881 0.3200928 205 205 205
0.1281887 -0.07210954 0.3195862 205 205 205
0.1326319 -0.07379618 0.3213931 205 205 205
0.1392736 -0.07304279 0.3182615 205 205 205
0.160773 -0.07313311 0.3128376 205 205 205
-0.03805605 -0.06247115 0.3548103 205 205 205
-0.03160427 -0.06373551 0.3546317 205 205 205
-0.02932476 -0.06383979 0.3539604 205 205 205
-0.02516758 -0.06490812 0.3543202 205 205 205
0.0007251957 -0.06680702 0.3482588 205 205 205
0.01944008 -0.06478472 0.3380209 205 205 205
0.02534518 -0.06276346 0.3323454 205 205 205
0.02725188 -0.06206346 0.3304325 205 205 205
0.03011892 -0.06245477 0.3301617 205 205 205
0.03107457 -0.06258097 0.330065 205 205 205
0.03397843 -0.0634372 0.3306266 205 205 205
0.03680695 -0.06329345 0.3294182 205 205 205
0.03918696 -0.05967567 0.3221094 205 205 205
0.04152363 -0.0570074 0.3165301 205 205 205
0.05015874 -0.06465667 0.3274654 205 205 205
0.05073044 -0.05884079 0.3168155 205 205 205
0.0783125 -0.07013972 0.3284213 205 205 205
0.07970861 -0.07116764 0.329837 205 205 205
0.08480259 -0.07174396 0.3293194 205 205 205
0.08890297 -0.07024872 0.325407 205 205 205
0.09380848 -0.06868271 0.3211463 205 205 205
0.1085124 -0.07075137 0.3205652 205 205 205
0.1194777 -0.07372561 0.3227567 205 205 205
0.1301741 -0.07439629 0.320987 205 205 205
0.1376572 -0.07466431 0.3194322 205 205 205
0.1413638 -0.07530326 0.3195691 205 205 205
0.1624773 -0.07370819 0.3112668 205 205 205
0.1657539 -0.07366266 0.3103598 205 205 205
-0.02989537 -0.06564576 0.3551983 205 205 205
-0.001686718 -0.06823248 0.3495129 205 205 205
-0.0006554567 -0.06844009 0.3495154 205 205 205
0.01092339 -0.06865398 0.3458117 205 205 205
0.01615769 -0.06758621 0.342086 205 205 205
0.03574488 -0.06450998 0.3299357 205 205 205
0.04243228 -0.05888522 0.3176872 205 205 205
0.05106723 -0.06607582 0.3276936 205 205 205
0.0533242 -0.05639912 0.3097208 205 205 205
0.06372577 -0.07092126 0.3322805 205 205 205
0.06896773 -0.07218495 0.3328829 205 205 205
0.07541488 -0.06892901 0.3250925 205 205 205
0.08150344 -0.07207447 0.3288196 205 205 205
0.08138423 -0.06753793 0.3207986 205 205 205
0.08441766 -0.07211105 0.3280006 205 205 205
0.09109727 -0.07008023 0.3223946 205 205 205
0.0924494 -0.06904326 0.3201554 205 205 205
0.1102991 -0.07308448 0.3221148 205 205 205
0.1379281 -0.07606342 0.3196857 205 205 205
0.1453063 -0.0784411 0.3218737 205 205 205
0.1486467 -0.07854214 0.3211625 205 205 205
0.166009 -0.07391201 0.3085946 205 205 205
0.001936044 -0.07185904 0.3524947 205 205 205
0.00956774 -0.07080884 0.3479698 205 205 205
0.01697145 -0.06911196 0.3424118 205 205 205
0.02205178 -0.06843138 0.3394713 205 205 205
0.02700011 -0.06669078 0.3347168 205 205 205
0.03089239 -0.0667265 0.3334712 205 205 205
0.03183933 -0.06635718 0.3325014 205 205 205
0.0328106 -0.06648142 0.3323964 205 205 205
0.03669478 -0.0669566 0.3319445 205 205 205
0.0604525 -0.06761158 0.3254085 205 205 205
0.06448451 -0.0748338 0.3368797 205 205 205
0.06809036 -0.08002631 0.3449065 205 205 205
0.07452241 -0.07277873 0.3301288 205 205 205
0.09973556 -0.07126885 0.3199122 205 205 205
0.1059857 -0.07520553 0.3249995 205 205 205
0.1247529 -0.08041529 0.3287745 205 205 205
0.1263601 -0.07974863 0.3271614 205 205 205
0.1349976 -0.08001411 0.3252371 205 205 205
0.1355709 -0.07940783 0.3240243 205 205 205
0.1384881 -0.07908225 0.3226628 205 205 205
0.1394571 -0.07896892 0.3222028 205 205 205
0.1408482 -0.07935333 0.3224948 205 205 205
0.1418174 -0.07923468 0.3220268 205 205 205
0.1446192 -0.0799879 0.3225817 205 205 205
0.1593994 -0.0760322 0.3118334 205 205 205
0.1640248 -0.07517709 0.3091688 205 205 205
-0.01643872 -0.07038474 0.3542567 205 205 205
-0.009866295 -0.07086569 0.3527502 205 205 205
-0.007771215 -0.07131951 0.3528005 205 205 205
-0.005785954 -0.07224023 0.3537089 205 205 205
-0.004840864 -0.07293673 0.354594 205 205 205
-0.001666931 -0.07358467 0.3546111 205 205 205
0.0004511812 -0.07400508 0.3546048 205 205 205
0.01146382 -0.07206563 0.347387 205 205 205
0.01258794 -0.07126679 0.3456015 205 205 205
0.03756195 -0.06841744 0.332206 205 205 205
0.04344263 -0.06308906 0.320952 205 205 205
0.04445125 -0.06368657 0.3216704 205 205 205
0.04555327 -0.06478889 0.3232428 205 205 205
0.05082303 -0.07274396 0.3354655 205 205 205
0.05244989 -0.0668903 0.3247004 205 205 205
0.09431079 -0.07484587 0.3257109 205 205 205
0.1234249 -0.08571099 0.3361625 205 205 205
0.1281715 -0.08049222 0.3257952 205 205 205
0.1287694 -0.07989541 0.3245969 205 205 205
0.1362262 -0.08133445 0.3250253 205 205 205
0.1376164 -0.08173246 0.3253315 205 205 205
0.1405611 -0.08139508 0.3239461 205 205 205
0.1480581 -0.08379428 0.3260529 205 205 205
0.1555013 -0.08102161 0.319301 205 205 205
0.1638751 -0.07608204 0.3086525 205 205 205
-0.03313334 -0.06919423 0.3560451 205 205 205
-0.02254076 -0.07190765 0.3569137 205 205 205
-0.01253838 -0.07273124 0.3547771 205 205 205
-0.00629613 -0.07458906 0.3557985 205 205 205
0.008941634 -0.07504316 0.3513008 205 205 205
0.02163617 -0.07414153 0.3454228 205 205 205
0.0237077 -0.0729532 0.3426646 205 205 205
0.03069612 -0.07093164 0.3368259 205 205 205
0.03838102 -0.06937572 0.3315952 205 205 205
0.03923932 -0.06847201 0.3297468 205 205 205
0.0417897 -0.06624554 0.3250534 205 205 205
0.1295487 -0.08942659 0.3386031 205 205 205
0.1331145 -0.08256217 0.3258379 205 205 205
0.1419162 -0.08547867 0.3284086 205 205 205
0.1483349 -0.08523987 0.3262559 205 205 205
0.1502095 -0.0861159 0.3272456 205 205 205
0.1525399 -0.08749162 0.3289661 205 205 205
0.1572514 -0.08279539 0.3197033 205 205 205
0.1605731 -0.07933335 0.3129404 205 205 205
0.1619515 -0.07849798 0.3111615 205 205 205
0.1669957 -0.07693192 0.3071994 205 205 205
-0.03541892 -0.06953944 0.3553003 205 205 205
-0.03331025 -0.07011022 0.3555167 205 205 205
-0.01861468 -0.0743239 0.357495 205 205 205
0.005266769 -0.07783073 0.3552079 205 205 205
0.00620253 -0.07901137 0.3569173 205 205 205
0.01430519 -0.07338367 0.3444868 205 205 205
0.01587696 -0.08118937 0.3573777 205 205 205
0.02143273 -0.07653291 0.3475048 205 205 205
0.02248267 -0.07618841 0.3465614 205 205 205
0.02862019 -0.0740492 0.3408425 205 205 205
0.02959732 -0.07317561 0.3390172 205 205 205
0.03267755 -0.07458347 0.3404232 205 205 205
0.03459165 -0.07331356 0.3376114 205 205 205
0.04011268 -0.06992711 0.3299887 205 205 205
0.132504 -0.0901268 0.3367243 205 205 205
0.1350859 -0.0876885 0.3318596 205 205 205
0.1428074 -0.08909162 0.3321064 205 205 205
0.1589269 -0.08690474 0.3240408 205 205 205
0.1627945 -0.08040345 0.3120526 205 205 205
0.1673623 -0.07832912 0.3073726 205 205 205
-0.04319122 -0.06883407 0.3547573 205 205 205
-0.04108798 -0.06943946 0.3550246 205 205 205
-0.03792588 -0.07033061 0.3553983 205 205 205
-0.007214884 -0.07885411 0.3590658 205 205 205
-0.006350608 -0.08005481 0.3608115 205 205 205
0.0004711052 -0.07990313 0.3582101 205 205 205
0.02216785 -0.0851585 0.3598506 205 205 205
0.03162895 -0.07787669 0.3443216 205 205 205
0.1617584 -0.0838417 0.3159717 205 205 205
0.1626387 -0.08131615 0.3115177 205 205 205
0.1653617 -0.07960234 0.3079415 205 205 205
-0.0417393 -0.07126912 0.3562018 205 205 205
-0.04067865 -0.07157104 0.3563306 205 205 205
-0.03961703 -0.07187066 0.3564558 205 205 205
-0.03514735 -0.07258106 0.3560611 205 205 205
-0.01595778 -0.08150967 0.3643774 205 205 205
0.03346388 -0.07800189 0.3418548 205 205 205
0.04778912 -0.08571104 0.3502587 205 205 205
0.1630482 -0.08510224 0.315596 205 205 205
0.1648628 -0.08237685 0.3105988 205 205 205
0.1670539 -0.08013412 0.3063101 205 205 205
-0.04132506 -0.07341412 0.3574971 205 205 205
-0.03078784 -0.07680593 0.3594485 205 205 205
-0.02445745 -0.07893035 0.3607904 205 205 205
-0.006691433 -0.08709697 0.3683392 205 205 205
0.04150215 -0.07983766 0.3402895 205 205 205
0.174909 -0.1065208 0.3455472 205 205 205
0.1698686 -0.09967623 0.3356332 205 205 205
0.1666408 -0.09489186 0.3286242 205 205 205
0.1656436 -0.08310593 0.3095084 205 205 205
-0.04066702 -0.07510517 0.3579251 205 205 205
-0.0354997 -0.07706188 0.3593548 205 205 205
-0.03116539 -0.07821114 0.3597495 205 205 205
-0.02345211 -0.08330383 0.3655156 205 205 205
-0.02169593 -0.08529663 0.3682123 205 205 205
-0.01646706 -0.08807402 0.3710258 205 205 205
-0.01365669 -0.08661382 0.3676517 205 205 205
-0.007877998 -0.07744904 0.3505107 205 205 205
0.1661007 -0.08693042 0.3135509 205 205 205
-0.03892321 -0.07710169 0.3584607 205 205 205
-0.03806338 -0.077874 0.3594284 205 205 205
-0.03610604 -0.07894167 0.3605014 205 205 205
-0.0317413 -0.0801007 0.3608977 205 205 205
-0.02754482 -0.0817058 0.3620906 205 205 205
-0.02188367 -0.08625936 0.3676303 205 205 205
-0.01751191 -0.08780301 0.3686814 205 205 205
0.1673462 -0.08697134 0.311187 205 205 205
-0.04605624 -0.07712393 0.3588279 205 205 205
-0.04521801 -0.07790963 0.3598136 205 205 205
-0.024325 -0.08667894 0.3669257 205 205 205
-0.04673464 -0.07899521 0.3599503 205 205 205
-0.03909219 -0.08116844 0.3608401 205 205 205
-0.03290129 -0.08391175 0.3631591 205 205 205
-0.02975992 -0.08525999 0.364271 205 205 205
0.1784209 -0.1111982 0.3426131 205 205 205
0.1709475 -0.1003448 0.3273664 205 205 205
0.1689177 -0.08842218 0.3089442 205 205 205
-0.03388303 -0.08681284 0.3659699 205 205 205
0.1769346 -0.1094142 0.337848 205 205 205
0.1727742 -0.1021894 0.3275745 205 205 205
0.1714041 -0.0968952 0.3195886 205 205 205
0.1697729 -0.09037552 0.3097442 205 205 205
-0.0472405 -0.08357261 0.3631418 205 205 205
-0.04549702 -0.08517877 0.3650965 205 205 205
-0.02890627 -0.09397919 0.3734994 205 205 205
0.1720212 -0.09609516 0.3139257 205 205 205
-0.04456363 -0.08967529 0.3675078 205 205 205
-0.04318627 -0.09228469 0.3711122 205 205 205
-0.04174436 -0.09490082 0.3747072 205 205 205
0.1738073 -0.1042084 0.3238543 205 205 205
0.173844 -0.09789108 0.3141077 205 205 205
0.1731848 -0.09956241 0.314762 205 205 205
-0.05403348 -0.09403325 0.3729554 205 205 205
0.1796226 -0.1141819 0.3308214 205 205 205
0.1738337 -0.1038011 0.3168193 205 205 205
0.2162598 -0.1581122 0.3838844 205 205 205
0.1756184 -0.1082206 0.3208283 205 205 205
0.1752882 -0.1075261 0.3156812 205 205 205
0.1772459 -0.1104849 0.313221 205 205 205
