ply
format ascii 1.0
comment Generated by Floating Hands
element vertex 1915
property double x
property double y
property double z
property uchar red
property uchar green
property uchar blue
end_header
0.1516895 0.0414052 0.4564425 0 0 0
0.1606033 0.04125967 0.4605075 0 0 0
0.1166952 0.03955915 0.4840278 0 0 0
0.1189345 0.03955572 0.4813892 0 0 0
0.1221724 0.03937444 0.4825981 0 0 0
0.1487434 0.03995268 0.4563956 0 0 0
0.1167436 0.03824379 0.478785 0 0 0
0.1175953 0.03829909 0.4765011 0 0 0
0.1474119 0.03848347 0.4568022 0 0 0
0.1872711 0.03897983 0.4585905 0 0 0
0.1153008 0.03679398 0.479071 0 0 0
0.1236874 0.03672448 0.4727006 0 0 0
0.1510278 0.03735023 0.4511262 0 0 0
0.1571388 0.03731582 0.4519783 0 0 0
0.1833908 0.03745697 0.4570153 0 0 0
0.1188261 0.03552876 0.4708412 0 0 0
0.1198912 0.03554981 0.4695189 0 0 0
0.1567181 0.03593225 0.4509821 0 0 0
0.1583448 0.0359126 0.4514113 0 0 0
0.1666898 0.03534016 0.4609566 0 0 0
0.148586 0.03388272 0.4603541 0 0 0
0.1500051 0.03439699 0.4523929 0 0 0
0.1582912 0.03447079 0.4513375 0 0 0
0.1828223 0.03399489 0.4625793 0 0 0
0.183683 0.0334547 0.4510794 0 0 0
0.1166517 0.03099455 0.4742139 0 0 0
0.1493098 0.0313612 0.4545704 0 0 0
0.1495332 0.03160165 0.4512965 0 0 0
0.1507932 0.03162905 0.4508244 0 0 0
0.1533082 0.03169136 0.4498664 0 0 0
0.1558164 0.03176367 0.4488899 0 0 0
0.1823589 0.03131647 0.4581873 0 0 0
0.1912659 0.03224557 0.450634 0 0 0
0.1501691 0.03002197 0.4530751 0 0 0
0.1835139 0.02929914 0.4641197 0 0 0
0.1225584 0.02874339 0.4599592 0 0 0
0.1235728 0.02879837 0.4586274 0 0 0
0.1336728 0.02806093 0.4638944 0 0 0
0.1503513 0.02755889 0.4656271 0 0 0
0.1562112 0.02910874 0.4463584 0 0 0
0.1574558 0.02915134 0.4458613 0 0 0
0.166782 0.02877489 0.4506437 0 0 0
0.1830487 0.02785376 0.4631101 0 0 0
0.1814435 0.02878447 0.4528803 0 0 0
0.1873381 0.02930546 0.4489888 0 0 0
-0.02489354 0.04386619 0.4964495 0 0 0
0.1177161 0.02651795 0.4735793 0 0 0
0.1193758 0.02715381 0.4638407 0 0 0
0.1545374 0.02773454 0.445824 0 0 0
0.1570233 0.02781741 0.444837 0 0 0
0.1856375 0.02748774 0.4518883 0 0 0
0.1860351 0.02773944 0.4494896 0 0 0
0.1897141 0.02836878 0.4443644 0 0 0
0.193106 0.02842354 0.4448924 0 0 0
0.1234034 0.02595025 0.4584271 0 0 0
0.1295411 0.02595226 0.4555368 0 0 0
0.1361977 0.02548802 0.4586397 0 0 0
0.1523403 0.02616143 0.4476167 0 0 0
0.1574505 0.02662451 0.4423866 0 0 0
0.1699903 0.02582991 0.4511815 0 0 0
0.183419 0.02507091 0.4604815 0 0 0
-0.01964716 0.03964329 0.4969212 0 0 0
0.1435138 0.02304632 0.4676101 0 0 0
0.1510445 0.02361868 0.4596695 0 0 0
0.1598552 0.0253198 0.4412672 0 0 0
0.1610851 0.02537264 0.4407561 0 0 0
0.1837842 0.02347511 0.4612654 0 0 0
0.1870476 0.0256127 0.4420794 0 0 0
0.1259474 0.02343106 0.4532427 0 0 0
0.135454 0.0231905 0.4523172 0 0 0
0.1364078 0.0232896 0.4509505 0 0 0
0.1522083 0.02333072 0.4473891 0 0 0
0.1565754 0.0240094 0.440317 0 0 0
0.1622551 0.02402694 0.4401241 0 0 0
0.1862065 0.02397852 0.4434567 0 0 0
0.1882384 0.02427028 0.4413472 0 0 0
-0.0298893 0.03883477 0.4955557 0 0 0
-0.02144099 0.03695388 0.4965745 0 0 0
0.1205857 0.02126891 0.4639879 0 0 0
0.1255746 0.02212646 0.4521716 0 0 0
0.1388603 0.02189574 0.449973 0 0 0
0.1503291 0.01963763 0.4702086 0 0 0
0.1557598 0.02281399 0.4383539 0 0 0
0.1634236 0.02268522 0.4394821 0 0 0
0.1869558 0.02272562 0.4418311 0 0 0
0.2008625 0.0220756 0.4504194 0 0 0
-0.03163867 0.03761507 0.4962516 0 0 0
-0.02394541 0.03629869 0.4921893 0 0 0
-0.02292142 0.03582305 0.4953212 0 0 0
0.1227735 0.02036949 0.4570046 0 0 0
0.1244997 0.02063976 0.4533841 0 0 0
0.1387395 0.02091594 0.4456539 0 0 0
0.15061 0.02012865 0.4508851 0 0 0
0.1556962 0.02142999 0.4382284 0 0 0
0.1581386 0.02152834 0.4372306 0 0 0
0.1772896 0.01969651 0.4539005 0 0 0
0.1853461 0.01893313 0.4611706 0 0 0
0.1864623 0.02138234 0.4408086 0 0 0
0.1901589 0.02169633 0.4389674 0 0 0
-0.0231155 0.03433383 0.4952094 0 0 0
0.138009 0.01974231 0.4436461 0 0 0
0.1512831 0.01930696 0.4451518 0 0 0
0.1535491 0.01985114 0.4400012 0 0 0
0.154779 0.01989441 0.4395118 0 0 0
0.1609024 0.02014839 0.4369985 0 0 0
0.1329309 0.01878442 0.441015 0 0 0
0.1465389 0.01767228 0.4478271 0 0 0
0.1491897 0.01725241 0.4510863 0 0 0
0.1600595 0.01898353 0.4350331 0 0 0
0.2004364 0.01846791 0.4434067 0 0 0
-0.02939078 0.03345023 0.4862152 0 0 0
-0.02704758 0.03262718 0.48953 0 0 0
-0.02338026 0.03142674 0.4939781 0 0 0
-0.001927263 0.02739497 0.4917603 0 0 0
0.006446544 0.02574985 0.493124 0 0 0
0.1247548 0.01721548 0.4455565 0 0 0
0.1279005 0.01742098 0.4424923 0 0 0
0.1334457 0.01765826 0.4385809 0 0 0
0.1428172 0.01705148 0.4416121 0 0 0
0.1567217 0.0173326 0.437323 0 0 0
0.1644324 0.01756326 0.4351579 0 0 0
0.1721808 0.01705456 0.4393372 0 0 0
0.1839025 0.01474267 0.4580202 205 205 205
0.1939847 0.01806838 0.4342659 0 0 0
0.1966148 0.01786501 0.4362539 0 0 0
-0.02558738 0.03099021 0.4875937 0 0 0
0.002338125 0.02546833 0.4878552 0 0 0
0.008968013 0.02350028 0.4960549 0 0 0
0.1265412 0.01235044 0.4759233 205 205 205
0.1281154 0.01593775 0.4432958 205 205 205
0.1324521 0.01617739 0.4397926 205 205 205
0.1436347 0.01581686 0.4400839 205 205 205
0.1528357 0.01541579 0.4419079 205 205 205
0.1855682 0.01322021 0.4581562 205 205 205
0.1860195 0.0165341 0.4336914 0 0 0
-0.03406458 0.03144116 0.4863838 0 0 0
-0.02716478 0.02984559 0.4872945 0 0 0
-0.003396621 0.02506344 0.4874349 0 0 0
0.008708304 0.0218225 0.4979013 0 0 0
0.1286646 0.01481554 0.4408599 205 205 205
0.131739 0.01506715 0.4377626 205 205 205
0.1590844 0.01510242 0.432767 205 205 205
0.1804165 0.01316211 0.4472174 205 205 205
0.187254 0.01214806 0.4549799 205 205 205
0.1850751 0.0131984 0.447223 205 205 205
0.1848653 0.01456419 0.4374009 205 205 205
0.197743 0.01512214 0.4352916 205 205 205
-0.006766943 0.02370638 0.4920838 0 0 0
0.129627 0.008453961 0.4818725 205 205 205
0.1268432 0.01034474 0.4671859 205 205 205
0.1344263 0.01360551 0.4377209 205 205 205
0.1525253 0.0122138 0.4448515 205 205 205
0.1731993 0.0133642 0.4350514 205 205 205
-0.006207506 0.02306815 0.4830033 0 0 0
-0.003233061 0.02281252 0.4801938 0 0 0
0.1306524 0.01223452 0.4388016 205 205 205
0.1312551 0.01250202 0.4365129 205 205 205
0.1432475 0.01225414 0.4354467 205 205 205
0.1550967 0.01133227 0.4404514 205 205 205
0.1841183 0.009589536 0.45166 205 205 205
0.1878273 0.01265669 0.4311023 205 205 205
0.1890354 0.01276951 0.430487 205 205 205
-0.02636931 0.02517226 0.4870284 0 0 0
-0.002048431 0.02112257 0.4801176 0 0 0
0.001804458 0.0199425 0.4842865 0 0 0
0.1861564 0.008932868 0.4460964 205 205 205
0.1863691 0.01028336 0.4371728 205 205 205
0.1877716 0.01125667 0.4309292 205 205 205
0.193536 0.01146966 0.4301875 205 205 205
0.1952171 0.01146663 0.4304223 205 205 205
0.2122313 0.008844955 0.4494209 205 205 205
-0.03559966 0.0263054 0.481675 0 0 0
-0.03407652 0.02606426 0.4808852 0 0 0
-0.03135056 0.0254224 0.481257 0 0 0
-0.02570827 0.02304788 0.4909809 0 0 0
0.005170238 0.01645344 0.4961939 205 205 205
0.13475 0.009844752 0.4349379 205 205 205
0.1439588 0.009716718 0.4337319 205 205 205
0.1636291 0.01038256 0.4268027 205 205 205
0.185256 0.007247306 0.4474084 205 205 205
0.1867558 0.008730029 0.4378763 205 205 205
0.188924 0.009971348 0.4301354 205 205 205
0.1997508 0.01018844 0.4300323 205 205 205
-0.03531345 0.02513696 0.478569 0 0 0
0.002536612 0.01625389 0.4889764 205 205 205
0.003720976 0.01555486 0.4929972 205 205 205
0.1355565 0.008662152 0.4334073 205 205 205
0.1466673 0.008292637 0.4335621 205 205 205
0.1552353 0.007030709 0.4408448 205 205 205
0.1557333 0.007363394 0.4385134 205 205 205
0.1579551 0.008571994 0.4301113 205 205 205
0.1619631 0.009106751 0.4262454 205 205 205
0.1927374 0.009326084 0.425707 205 205 205
0.196082 0.009312349 0.4261686 205 205 205
-0.04078954 0.02408626 0.484667 0 0 0
-0.0302328 0.02234273 0.480128 0 0 0
-0.001222646 0.0165868 0.4796964 205 205 205
0.08331062 0.004672506 0.47936 205 205 205
0.08591139 0.004607642 0.4778934 205 205 205
0.1316818 0.003017356 0.4646694 205 205 205
0.132445 0.006996551 0.4363589 205 205 205
0.1336732 0.007005976 0.4359424 205 205 205
0.1379018 0.007363081 0.4323709 205 205 205
0.1423982 0.007611746 0.4296758 205 205 205
0.1602997 0.007842285 0.4256767 205 205 205
0.1871632 0.005213609 0.4416448 205 205 205
0.1914859 0.007815279 0.4261479 205 205 205
0.1926815 0.007939335 0.4255188 205 205 205
0.1960275 0.007918568 0.4259794 205 205 205
-0.03673386 0.02281803 0.4760803 0 0 0
-0.01327754 0.01805665 0.4747609 0 0 0
-0.0102912 0.01782878 0.4720051 205 205 205
-0.008953019 0.01755585 0.4721028 205 205 205
-0.001333356 0.01527956 0.4785303 205 205 205
0.002170646 0.01333489 0.4886211 205 205 205
0.08238298 0.003940821 0.4742842 205 205 205
0.09426773 0.003398452 0.4700086 205 205 205
0.1311298 0.005036744 0.4407507 205 205 205
0.132063 0.005192806 0.4394005 205 205 205
0.1424627 0.006766923 0.4262704 205 205 205
0.1571905 0.004505642 0.4385514 205 205 205
0.1576699 0.004858909 0.4362202 205 205 205
0.1658069 0.006490945 0.4251989 205 205 205
0.1751796 0.00572758 0.4296026 205 205 205
0.1872262 0.005266675 0.4325528 205 205 205
-0.04015224 0.02178164 0.4784428 0 0 0
-0.01980625 0.01692973 0.4819971 205 205 205
-0.01028029 0.01666576 0.4698524 205 205 205
-0.009042241 0.0162793 0.4709382 205 205 205
-0.007706424 0.01600917 0.4710304 205 205 205
0.0008362996 0.01262137 0.4844167 205 205 205
0.08020054 0.000744633 0.4884693 205 205 205
0.0956514 0.002723728 0.4634337 205 205 205
0.09975346 0.001510094 0.469619 205 205 205
0.1067365 -0.001690329 0.4883039 205 205 205
0.1303483 0.002745154 0.4470157 205 205 205
0.1313443 0.003524248 0.4414982 205 205 205
0.132895 0.004002464 0.4378584 205 205 205
0.1423801 0.00545101 0.4260842 205 205 205
0.1681175 0.005305428 0.4239301 205 205 205
0.1701505 0.00508542 0.4251725 205 205 205
0.18489 0.002538778 0.4400785 205 205 205
0.1911441 0.005610056 0.4225215 205 205 205
0.1951757 0.005851126 0.4214876 205 205 205
-0.03679822 0.02020888 0.4737696 0 0 0
-0.03173177 0.01871346 0.4764788 0 0 0
-0.03067787 0.01818417 0.4786192 0 0 0
-0.009131055 0.01501172 0.469769 205 205 205
0.09543997 0.002338616 0.4561799 205 205 205
0.1314557 0.0007280021 0.4505766 205 205 205
0.139046 0.00388935 0.4281508 205 205 205
0.1434902 0.004170473 0.4254405 205 205 205
0.1446827 0.00420711 0.4249839 205 205 205
0.1515783 0.002908928 0.4318287 205 205 205
0.1753858 0.00338401 0.4268574 205 205 205
-0.03193014 0.01730653 0.476294 205 205 205
-0.02872232 0.01569097 0.4827017 205 205 205
-0.01309894 0.01469672 0.4673058 205 205 205
0.08339391 0.0006849936 0.4654049 205 205 205
0.1011776 0.0002137003 0.4576923 205 205 205
0.1389961 -0.005561857 0.4789988 205 205 205
0.1330222 0.001144845 0.4383979 205 205 205
0.1426953 0.003182058 0.423403 205 205 205
0.1523403 0.001770912 0.4302268 205 205 205
0.1619979 0.002244873 0.426192 205 205 205
0.164766 0.002784159 0.4228138 205 205 205
0.1938736 0.002971584 0.4217148 205 205 205
-0.03107597 0.01535498 0.4782413 205 205 205
-0.02833634 0.01175395 0.4985642 205 205 205
0.1019281 -0.0009052498 0.4552529 205 205 205
0.1054447 -0.001678764 0.4584642 205 205 205
0.1332409 -0.001048031 0.4432847 205 205 205
0.1381879 0.001588014 0.4259018 205 205 205
0.1422551 0.002044057 0.4222828 205 205 205
0.1635021 0.001376669 0.4231369 205 205 205
0.1853955 -0.0008767234 0.4346929 205 205 205
0.1900134 0.001816874 0.4201655 205 205 205
0.1983433 0.001693614 0.4212886 205 205 205
-0.03572377 0.01592407 0.4714394 205 205 205
-0.03127583 0.01394238 0.4780437 205 205 205
0.03098834 0.0002178759 0.493512 205 205 205
0.03515579 0.0003543227 0.4883768 205 205 205
0.09366193 -0.0006172229 0.4488069 205 205 205
0.1009279 -0.001609134 0.4511972 205 205 205
0.1085572 -0.002714005 0.4543935 205 205 205
0.137611 -0.006359861 0.4654541 205 205 205
0.1401439 0.0005077289 0.4238929 205 205 205
-0.0191943 0.01146778 0.468224 205 205 205
-0.01201782 0.01070853 0.4638692 205 205 205
0.02932358 -0.0004399355 0.4893896 205 205 205
0.08299156 -0.00352571 0.4647628 205 205 205
0.08399623 -0.003282302 0.4625753 205 205 205
0.08804077 -0.002443515 0.4547746 205 205 205
0.09843733 -0.002049357 0.4464799 205 205 205
0.1358065 -0.002510628 0.4346302 205 205 205
0.1363805 -0.002142963 0.4323428 205 205 205
0.1400548 -0.0007946512 0.4236827 205 205 205
0.1491663 -0.000293704 0.4190886 205 205 205
0.1541951 -0.001399496 0.4244804 205 205 205
0.1633468 -0.001284099 0.4227098 205 205 205
0.1744315 -0.0006775401 0.4186779 205 205 205
0.1875868 -0.002844097 0.4297776 205 205 205
-0.03746127 0.0134796 0.4708464 205 205 205
-0.03511197 0.01258425 0.4731804 205 205 205
-0.03075826 0.01042317 0.4807426 205 205 205
-0.01926152 0.01022773 0.4670351 205 205 205
0.08251029 -0.007323692 0.4796015 205 205 205
0.08600154 -0.004336911 0.4589418 205 205 205
0.0869645 -0.004075128 0.456749 205 205 205
0.08809377 -0.003984894 0.455522 205 205 205
0.1105006 -0.003500473 0.4411663 205 205 205
0.1351179 -0.004221255 0.4366965 205 205 205
0.156503 -0.002602958 0.4232634 205 205 205
0.1620739 -0.002686398 0.4230134 205 205 205
0.163637 -0.002185252 0.4201699 205 205 205
0.1682458 -0.001245026 0.4148162 205 205 205
0.184934 -0.003832404 0.4275325 205 205 205
0.188376 -0.002848276 0.4224718 205 205 205
0.1891009 -0.002554279 0.4209858 205 205 205
0.1950206 -0.001899614 0.4178338 205 205 205
-0.04033582 0.01275766 0.4702419 205 205 205
-0.02958314 0.008682998 0.4806904 205 205 205
-0.01932827 0.008996761 0.4658418 205 205 205
-0.01249079 0.007858529 0.4644403 205 205 205
-0.01117035 0.007583799 0.4645386 205 205 205
-0.004250854 0.004097342 0.4778489 205 205 205
0.04070582 -0.006306069 0.4962287 205 205 205
0.08439267 -0.006779605 0.4660015 205 205 205
0.08982126 -0.004797616 0.4509026 205 205 205
0.09396062 -0.004185314 0.4449852 205 205 205
0.1366354 -0.007223618 0.4452678 205 205 205
0.1459595 -0.002026477 0.4145755 205 205 205
0.1471199 -0.001977363 0.4141087 205 205 205
0.1693336 -0.002460409 0.4140467 205 205 205
0.1709297 -0.002544936 0.4143791 205 205 205
0.1921131 -0.003354945 0.4180137 205 205 205
-0.03344579 0.0086278 0.4770243 205 205 205
-0.03238755 0.008038984 0.4791554 205 205 205
-0.008992389 0.005244719 0.4674589 205 205 205
-0.007838056 0.004680679 0.4695132 205 205 205
0.02162644 -0.004868667 0.4957944 205 205 205
0.02452057 -0.002551802 0.4789569 205 205 205
0.02728553 -0.002812466 0.4778883 205 205 205
0.04057385 -0.007972064 0.4969669 205 205 205
0.0855849 -0.009641168 0.4735173 205 205 205
0.09079216 -0.00604231 0.4494398 205 205 205
0.09510681 -0.005583115 0.4444748 205 205 205
0.09742924 -0.00552093 0.4429342 205 205 205
0.114229 -0.005535502 0.4355367 205 205 205
0.1170887 -0.006676543 0.4408479 205 205 205
0.1371662 -0.008214596 0.4427363 205 205 205
0.1378687 -0.005710214 0.4289513 205 205 205
0.1485726 -0.003384299 0.4143232 205 205 205
0.1661807 -0.004212551 0.4163339 205 205 205
0.1724557 -0.003937866 0.4144744 205 205 205
-0.04569117 0.01160888 0.467016 205 205 205
-0.04285182 0.01105837 0.4664733 205 205 205
-0.03655849 0.009141125 0.4694152 205 205 205
-0.03196834 0.005613938 0.4839917 205 205 205
-0.01670674 0.006133434 0.4626992 205 205 205
-0.00616759 0.001243881 0.4792905 205 205 205
0.02008321 -0.004802004 0.4876813 205 205 205
0.02434654 -0.003138807 0.4737892 205 205 205
0.02991032 -0.004983659 0.4795191 205 205 205
0.03419038 -0.006271996 0.4832668 205 205 205
0.08776548 -0.01367869 0.4868278 205 205 205
0.09583103 -0.006600227 0.4420361 205 205 205
0.09687801 -0.006471258 0.4407863 205 205 205
0.103153 -0.006731313 0.4392663 205 205 205
0.1076596 -0.006514421 0.4360702 205 205 205
0.1120902 -0.00625597 0.4328196 205 205 205
0.1254228 -0.01036641 0.4503925 205 205 205
0.1388328 -0.006212593 0.4241539 205 205 205
0.1461982 -0.004145373 0.4118455 205 205 205
0.1986825 -0.004530406 0.4104779 205 205 205
-0.03489411 0.006422999 0.4744368 205 205 205
-0.03172216 0.004607096 0.4808205 205 205 205
-0.01315553 0.003640322 0.4647604 205 205 205
-0.01060122 0.002935699 0.4659342 205 205 205
0.01543047 -0.007061097 0.4963469 205 205 205
0.03404359 -0.007889044 0.4840025 205 205 205
0.1052985 -0.007942781 0.43744 205 205 205
0.1126759 -0.007194322 0.4303487 205 205 205
0.1186756 -0.008043248 0.4326788 205 205 205
0.1380074 -0.008538017 0.4294014 205 205 205
0.1385511 -0.008123538 0.427119 205 205 205
0.1417445 -0.006406336 0.4175505 205 205 205
0.1425603 -0.00617262 0.4161848 205 205 205
0.1441657 -0.005698571 0.4134493 205 205 205
0.1461108 -0.005408772 0.4116156 205 205 205
0.1472646 -0.005356894 0.4111475 205 205 205
0.1499524 -0.005438199 0.4111017 205 205 205
0.1545512 -0.005185845 0.4091502 205 205 205
0.1753464 -0.006062375 0.4114277 205 205 205
0.1769544 -0.006143125 0.4117274 205 205 205
0.1878769 -0.007614498 0.4182947 205 205 205
0.1930843 -0.007277071 0.4166526 205 205 205
0.1963 -0.006162843 0.4115324 205 205 205
-0.03713211 0.006250708 0.4699339 205 205 205
-0.02877166 0.004621407 0.4690061 205 205 205
-0.02365674 0.004890578 0.4616158 205 205 205
0.01403448 -0.006769089 0.4872269 205 205 205
0.01562133 -0.005810816 0.4803276 205 205 205
0.09049379 -0.01412486 0.4707301 205 205 205
0.105941 -0.008900324 0.4349751 205 205 205
0.1074275 -0.009134644 0.4355958 205 205 205
0.116226 -0.008544748 0.4290452 205 205 205
0.1404729 -0.007723033 0.4177622 205 205 205
0.1412949 -0.007487546 0.4164 205 205 205
0.1471767 -0.006618763 0.4109127 205 205 205
0.160693 -0.00693625 0.4104569 205 205 205
0.1634169 -0.006967423 0.4102985 205 205 205
0.1892204 -0.008326602 0.4150825 205 205 205
0.1986945 -0.006678682 0.4076399 205 205 205
-0.04270769 0.007529164 0.4619018 205 205 205
-0.04158197 0.007054892 0.4630785 205 205 205
-0.03320518 0.002393438 0.4782135 205 205 205
-0.0222688 0.003558071 0.4595588 205 205 205
-0.02083228 0.003420416 0.4587089 205 205 205
-0.01463683 0.001525753 0.4622262 205 205 205
-0.01230796 0.0004902974 0.4653691 205 205 205
-0.008213513 -0.002883358 0.4794671 205 205 205
-0.007672262 -0.00479868 0.4893716 205 205 205
0.0224715 -0.006589198 0.4701343 205 205 205
0.03080005 -0.009643442 0.4796903 205 205 205
0.03226103 -0.01039246 0.4825746 205 205 205
0.03539513 -0.01280758 0.493238 205 205 205
0.09246059 -0.01643482 0.474039 205 205 205
0.09545701 -0.01056376 0.4413143 205 205 205
0.11435 -0.009416173 0.427281 205 205 205
0.1418627 -0.01691717 0.4565454 205 205 205
0.1389564 -0.0134429 0.439931 205 205 205
0.1383605 -0.009271225 0.4193224 205 205 205
0.1439839 -0.008230167 0.4129737 205 205 205
0.1447755 -0.007981719 0.4116054 205 205 205
0.1640645 -0.00796463 0.4086398 205 205 205
0.1765969 -0.008058391 0.4080473 205 205 205
0.1963253 -0.008305416 0.4086863 205 205 205
-0.01971761 0.001799458 0.4585951 205 205 205
-0.01040971 -0.002411548 0.4711936 205 205 205
0.009596989 -0.008050629 0.4817698 205 205 205
0.01562773 -0.005974341 0.4650595 205 205 205
0.01696688 -0.006197597 0.4650499 205 205 205
0.02638126 -0.008790515 0.470746 205 205 205
0.09553953 -0.01208637 0.4420197 205 205 205
0.1130235 -0.01068062 0.4273882 205 205 205
0.1163842 -0.01052309 0.4253774 205 205 205
0.1211653 -0.01137422 0.4280067 205 205 205
0.1269278 -0.01282193 0.4333625 205 205 205
0.1385513 -0.01543984 0.4428815 205 205 205
0.1380368 -0.01269602 0.4295733 205 205 205
0.14228 -0.009992686 0.4154601 205 205 205
0.1496788 -0.00855852 0.4072019 205 205 205
0.1512123 -0.008700182 0.4076179 205 205 205
0.1710263 -0.009374 0.4083134 205 205 205
0.1990626 -0.009521437 0.4079677 205 205 205
-0.03971059 0.003392422 0.4649364 205 205 205
-0.03025038 0.001293426 0.4651912 205 205 205
-0.02832334 0.001613039 0.4614425 205 205 205
-0.02121271 0.0007583511 0.458228 205 205 205
0.01683446 -0.007193958 0.4628291 205 205 205
0.09478915 -0.0179074 0.4649446 205 205 205
0.09436795 -0.01611575 0.4560282 205 205 205
0.1003805 -0.0124293 0.4345463 205 205 205
0.1038641 -0.01235186 0.4326554 205 205 205
0.1126417 -0.01175262 0.426197 205 205 205
0.118688 -0.01182065 0.4243923 205 205 205
0.1613609 -0.009280813 0.4028421 205 205 205
0.1771312 -0.01032496 0.4060945 205 205 205
0.1938686 -0.01124652 0.4094464 205 205 205
0.1996356 -0.01049562 0.4062058 205 205 205
-0.03225065 -0.0002275492 0.4677025 205 205 205
-0.02387412 0.0001815616 0.456742 205 205 205
-0.01772386 -0.001770805 0.4602923 205 205 205
-0.01420948 -0.00329995 0.4645242 205 205 205
0.01276181 -0.007316416 0.4596394 205 205 205
0.02602866 -0.01137479 0.4692366 205 205 205
0.02739825 -0.0117731 0.4701687 205 205 205
0.09760409 -0.01463246 0.4399574 205 205 205
0.1014994 -0.01377216 0.4339786 205 205 205
0.1131964 -0.01262014 0.4237126 205 205 205
0.1213003 -0.01246566 0.4202111 205 205 205
0.14297 -0.01159264 0.4104121 205 205 205
0.1525265 -0.01065043 0.4043521 205 205 205
0.1659573 -0.01088647 0.4036387 205 205 205
-0.03993774 0.0008406271 0.4634597 205 205 205
-0.02041682 -0.002359434 0.4588261 205 205 205
0.0009956352 -0.01418771 0.4975099 205 205 205
0.009902527 -0.008383658 0.4603465 205 205 205
0.01915162 -0.01033854 0.4622709 205 205 205
0.09726957 -0.01696917 0.4447537 205 205 205
0.1102428 -0.01447789 0.427315 205 205 205
0.1140119 -0.01368576 0.4221629 205 205 205
0.118803 -0.01372424 0.4207062 205 205 205
0.1226616 -0.01306965 0.4164004 205 205 205
0.13672 -0.01599509 0.4260257 205 205 205
0.1409129 -0.01315057 0.4119675 205 205 205
0.156968 -0.01159838 0.4021035 205 205 205
0.1869367 -0.01416398 0.4103289 205 205 205
0.1997271 -0.01200239 0.4010048 205 205 205
-0.0281581 -0.001561245 0.455808 205 205 205
0.005538173 -0.009770593 0.4639472 205 205 205
0.009849731 -0.009150358 0.457138 205 205 205
0.01768014 -0.01108104 0.4600599 205 205 205
0.02844859 -0.01534908 0.4725029 205 205 205
0.1000872 -0.02556513 0.4778219 205 205 205
0.1084395 -0.01636523 0.430553 205 205 205
0.111761 -0.0151356 0.4235412 205 205 205
0.1378582 -0.01566079 0.4180346 205 205 205
0.1383524 -0.0151846 0.4157696 205 205 205
0.1400023 -0.01466756 0.4130605 205 205 205
0.1420463 -0.01365494 0.4080825 205 205 205
0.1447424 -0.01306349 0.4049022 205 205 205
0.1526808 -0.01262649 0.4015627 205 205 205
0.1689349 -0.01363891 0.4037731 205 205 205
0.172548 -0.01407776 0.405273 205 205 205
0.1752879 -0.01407397 0.4050061 205 205 205
0.1801032 -0.01436662 0.4058528 205 205 205
-0.04373691 -0.0003586526 0.4594359 205 205 205
-0.03570504 -0.003843373 0.4675438 205 205 205
-0.03338463 -0.003146588 0.4618836 205 205 205
-0.01841966 -0.005956337 0.4604843 205 205 205
-0.01721637 -0.006423803 0.4615698 205 205 205
-0.0143029 -0.009101348 0.4716425 205 205 205
0.002554655 -0.01101447 0.4655717 205 205 205
0.008450547 -0.009856105 0.4548957 205 205 205
0.01098656 -0.01070941 0.4568765 205 205 205
0.01615383 -0.01240165 0.4607815 205 205 205
0.01750469 -0.01242315 0.4597862 205 205 205
0.02143894 -0.01427447 0.4655885 205 205 205
0.02988257 -0.02022113 0.4878166 205 205 205
0.1104361 -0.01637985 0.4236194 205 205 205
0.1113773 -0.01617512 0.422336 205 205 205
0.1223957 -0.01465899 0.4117877 205 205 205
0.1238706 -0.01487563 0.4123237 205 205 205
0.1271567 -0.01552673 0.4142971 205 205 205
0.1286531 -0.01573574 0.4148122 205 205 205
0.133843 -0.01679752 0.4181491 205 205 205
0.1555573 -0.0134118 0.3989234 205 205 205
0.162849 -0.01387113 0.3998732 205 205 205
0.1659658 -0.01412246 0.4005566 205 205 205
0.1961738 -0.01507831 0.402405 205 205 205
-0.03975928 -0.004045059 0.4657579 205 205 205
-0.02073507 -0.005982665 0.4560806 205 205 205
-0.01836836 -0.006925539 0.4582607 205 205 205
-0.01519967 -0.009077102 0.4654048 205 205 205
0.005605736 -0.01089991 0.4555622 205 205 205
0.009579769 -0.01140721 0.4546353 205 205 205
0.01600052 -0.01354337 0.4595231 205 205 205
0.1027078 -0.01944502 0.4344727 205 205 205
0.1264134 -0.01631465 0.4121863 205 205 205
0.1327389 -0.01737938 0.4151283 205 205 205
0.1332474 -0.01689469 0.4128763 205 205 205
0.1355895 -0.01683418 0.4120195 205 205 205
0.141485 -0.01590903 0.4066433 205 205 205
0.1441754 -0.01530134 0.4034705 205 205 205
0.1554676 -0.01463745 0.3986551 205 205 205
0.1638858 -0.01501748 0.3990723 205 205 205
0.181957 -0.0159047 0.4009483 205 205 205
0.182419 -0.006511829 0.3637559 205 205 205
-0.04337204 -0.002341317 0.4550304 205 205 205
-0.0266986 -0.004908932 0.4502915 205 205 205
-0.02298555 -0.005978595 0.4516658 205 205 205
-0.02183047 -0.006454634 0.4527642 205 205 205
-0.01539423 -0.01043229 0.4651218 205 205 205
-0.01416138 -0.01367702 0.478972 205 205 205
-0.007762319 -0.0164681 0.4862061 205 205 205
-0.003279924 -0.01290042 0.4658053 205 205 205
0.0001182055 -0.01143972 0.4561269 205 205 205
0.01198244 -0.01338717 0.4553456 205 205 205
0.1204424 -0.0175985 0.4138613 205 205 205
0.127474 -0.01753552 0.4115103 205 205 205
0.1382813 -0.01750752 0.4086148 205 205 205
0.1398734 -0.01695823 0.4059162 205 205 205
0.1474496 -0.01559886 0.3986436 205 205 205
0.169615 -0.01653599 0.3992383 205 205 205
0.1741264 -0.01744888 0.4024404 205 205 205
-0.02560815 -0.006502579 0.4501556 205 205 205
-0.02432405 -0.006798337 0.450289 205 205 205
-0.02098965 -0.008428753 0.4545537 205 205 205
-0.008141022 -0.0148448 0.4721635 205 205 205
-0.004328253 -0.01279583 0.4595994 205 205 205
0.001714387 -0.01159187 0.449045 205 205 205
0.002938529 -0.01203726 0.4500571 205 205 205
0.005466192 -0.01272014 0.4510908 205 205 205
0.01826902 -0.01708199 0.4608673 205 205 205
0.1042166 -0.02642868 0.4524906 205 205 205
0.1051928 -0.02235494 0.434193 205 205 205
0.1134304 -0.01998316 0.4208008 205 205 205
0.1158348 -0.02000649 0.42008 205 205 205
0.1313579 -0.01820627 0.4077586 205 205 205
0.1382655 -0.01799607 0.4051794 205 205 205
0.1401917 -0.01767064 0.4033865 205 205 205
0.1677463 -0.01686128 0.3954934 205 205 205
0.1702049 -0.01744535 0.3975371 205 205 205
0.1778381 -0.01720724 0.3958488 205 205 205
0.1789534 -0.01708209 0.3952658 205 205 205
0.1805428 -0.01718152 0.3955285 205 205 205
0.1853384 -0.01745981 0.3962716 205 205 205
0.1927956 -0.01823175 0.3988294 205 205 205
-0.04338898 -0.004613688 0.4525452 205 205 205
-0.03511274 -0.006021887 0.4507499 205 205 205
-0.03365843 -0.00615257 0.4499483 205 205 205
-0.03028545 -0.00584241 0.4454208 205 205 205
-0.02105123 -0.009547237 0.4532974 205 205 205
-0.01578501 -0.01313813 0.4645397 205 205 205
-0.003857523 -0.01250107 0.4515033 205 205 205
0.02205973 -0.02059034 0.467311 205 205 205
0.02480753 -0.02428826 0.4818623 205 205 205
0.1057995 -0.02693214 0.4477437 205 205 205
0.1075708 -0.02372346 0.4332306 205 205 205
0.1085722 -0.02351425 0.431953 205 205 205
0.1154364 -0.02102062 0.4188637 205 205 205
0.1231232 -0.01956748 0.4103028 205 205 205
0.1271279 -0.0190235 0.4068824 205 205 205
0.1343679 -0.01909762 0.405298 205 205 205
0.1355155 -0.01906129 0.4048674 205 205 205
0.1378061 -0.01898129 0.4039943 205 205 205
0.1412557 -0.01807403 0.3995085 205 205 205
0.1510169 -0.01805781 0.3975371 205 205 205
0.1558991 -0.01798857 0.3964395 205 205 205
0.1616358 -0.01834945 0.3970124 205 205 205
0.161893 -0.01778512 0.3947444 205 205 205
0.1667684 -0.01762285 0.3934797 205 205 205
0.1874909 -0.01843734 0.394756 205 205 205
0.1966058 -0.01927317 0.3974405 205 205 205
-0.04044487 -0.006031257 0.4497539 205 205 205
-0.03588878 -0.006254822 0.4464293 205 205 205
-0.02905374 -0.007230263 0.4443216 205 205 205
-0.02794431 -0.007721781 0.4454354 205 205 205
-0.01381815 -0.01607154 0.4692923 205 205 205
-0.01020504 -0.01480025 0.4606932 205 205 205
-0.008307084 -0.01384277 0.4549222 205 205 205
-0.004991913 -0.01271884 0.4472571 205 205 205
0.01533879 -0.01845426 0.4564045 205 205 205
0.02053458 -0.02130335 0.4650881 205 205 205
0.02185778 -0.0226232 0.4699281 205 205 205
0.1081478 -0.02954581 0.4517988 205 205 205
0.1094448 -0.02578446 0.4354002 205 205 205
0.11306 -0.02345593 0.4243028 205 205 205
0.1137351 -0.02298183 0.4220831 205 205 205
0.1162319 -0.0220333 0.4172798 205 205 205
0.1327709 -0.02010794 0.4045314 205 205 205
0.1400274 -0.01933229 0.3996754 205 205 205
0.148675 -0.0194099 0.3982169 205 205 205
0.1783113 -0.01933761 0.3938333 205 205 205
0.187254 -0.01149603 0.3641675 205 205 205
-0.03573063 -0.007154067 0.4442127 205 205 205
-0.01987974 -0.01204549 0.4508883 205 205 205
-0.01472257 -0.01591858 0.4630578 205 205 205
-0.01152534 -0.01544602 0.4583664 205 205 205
-0.008021901 -0.01411237 0.4497579 205 205 205
-0.002371246 -0.01387508 0.4441535 205 205 205
0.02162962 -0.02535116 0.4754581 205 205 205
0.1120016 -0.03512654 0.4674543 205 205 205
0.1100634 -0.02783568 0.4378993 205 205 205
0.114549 -0.02400605 0.4204955 205 205 205
0.1214659 -0.02278087 0.4132582 205 205 205
0.1373035 -0.0203858 0.3993764 205 205 205
0.1455533 -0.02025931 0.3970972 205 205 205
0.1612793 -0.01997717 0.3932965 205 205 205
0.1630564 -0.01954082 0.3913771 205 205 205
0.1755298 -0.02058654 0.3938417 205 205 205
0.1783857 -0.01997151 0.391257 205 205 205
0.1955194 -0.02073866 0.392874 205 205 205
-0.04262257 -0.007198042 0.4449424 205 205 205
-0.0280186 -0.009872315 0.4429239 205 205 205
-0.01403559 -0.01558719 0.454976 205 205 205
0.00864146 -0.01862533 0.4499642 205 205 205
0.1122182 -0.03018988 0.440968 205 205 205
0.1127104 -0.02822246 0.4327896 205 205 205
0.1138832 -0.02699976 0.4274168 205 205 205
0.1147019 -0.0255132 0.4211207 205 205 205
0.1162754 -0.02477332 0.4176104 205 205 205
0.1213495 -0.02401567 0.41296 205 205 205
0.1311911 -0.0215298 0.4003253 205 205 205
0.1349371 -0.02167235 0.3999551 205 205 205
0.1398415 -0.02093994 0.3959611 205 205 205
0.154376 -0.02088739 0.392938 205 205 205
0.1558997 -0.02105238 0.3933121 205 205 205
0.1776648 -0.02157199 0.3923856 205 205 205
0.1787737 -0.02144357 0.3918025 205 205 205
0.1794021 -0.02107077 0.3903715 205 205 205
0.1816023 -0.02080218 0.3891898 205 205 205
0.1911833 -0.0213665 0.3905289 205 205 205
0.1939003 -0.02128946 0.3900888 205 205 205
0.1986964 -0.02214602 0.3929118 205 205 205
0.2008548 -0.02244867 0.3938931 205 205 205
0.2019731 -0.02227587 0.3932273 205 205 205
0.2020741 -0.02098478 0.3886295 205 205 205
-0.0449428 -0.007425905 0.4423323 205 205 205
-0.02915265 -0.01043231 0.4405543 205 205 205
-0.02329701 -0.01252144 0.4441249 205 205 205
-0.0218901 -0.01260329 0.443277 205 205 205
-0.01846587 -0.01408381 0.4465191 205 205 205
-0.005189892 -0.01569568 0.4424806 205 205 205
-0.003921811 -0.01594843 0.4425365 205 205 205
-0.002653161 -0.01619883 0.4425879 205 205 205
0.001017388 -0.01737851 0.4446601 205 205 205
0.0096759 -0.0206062 0.4516095 205 205 205
0.126862 -0.02309509 0.4025809 205 205 205
0.1341272 -0.02236213 0.3978578 205 205 205
0.1553875 -0.02200431 0.3921401 205 205 205
0.1831017 -0.02213528 0.3891261 205 205 205
0.1862871 -0.02233699 0.3895858 205 205 205
-0.04328123 -0.008434097 0.4393553 205 205 205
-0.02572757 -0.01278658 0.4416361 205 205 205
-0.02348821 -0.01379062 0.4438236 205 205 205
-0.02208026 -0.01386923 0.4429763 205 205 205
-0.0119218 -0.01609306 0.4437715 205 205 205
0.1146959 -0.03059886 0.4304962 205 205 205
0.1159438 -0.02829588 0.421059 205 205 205
0.1302933 -0.02340373 0.3979232 205 205 205
0.133669 -0.02329432 0.3966594 205 205 205
0.1344363 -0.02299399 0.3953321 205 205 205
0.1411166 -0.02269629 0.3926849 205 205 205
0.1608065 -0.02274832 0.3892775 205 205 205
0.1734014 -0.02328211 0.3895255 205 205 205
0.1782694 -0.02302619 0.3880723 205 205 205
0.1905931 -0.02296631 0.3867968 205 205 205
-0.04493146 -0.009554211 0.4398177 205 205 205
-0.03454738 -0.01171823 0.4393431 205 205 205
0.009181585 -0.02391432 0.4538898 205 205 205
0.01658529 -0.03121785 0.4781012 205 205 205
0.1166992 -0.03400232 0.4375842 205 205 205
0.1169296 -0.03060964 0.4244347 205 205 205
0.1399032 -0.02393294 0.3928342 205 205 205
0.1421218 -0.02381878 0.3919287 205 205 205
0.1629055 -0.02374412 0.3879204 205 205 205
0.1797567 -0.0243629 0.3880141 205 205 205
0.1803697 -0.02397419 0.3865858 205 205 205
0.1851227 -0.0243047 0.3872925 205 205 205
0.1862182 -0.02415737 0.3866829 205 205 205
0.1958516 -0.02470694 0.3878576 205 205 205
-0.03206869 -0.01337402 0.4383892 205 205 205
-0.02956812 -0.01397996 0.4386846 205 205 205
-0.02706387 -0.0145764 0.4389619 205 205 205
-0.02162796 -0.01508428 0.4365647 205 205 205
-0.01039137 -0.0175395 0.4374179 205 205 205
0.01502419 -0.03190899 0.4758329 205 205 205
0.1260215 -0.02724901 0.4038841 205 205 205
0.1300735 -0.02577557 0.3973142 205 205 205
0.1357339 -0.02473357 0.3920707 205 205 205
0.1446178 -0.02513858 0.3915852 205 205 205
0.1628098 -0.02493737 0.3876097 205 205 205
0.1829534 -0.02516431 0.3859127 205 205 205
0.1920247 -0.02552331 0.3863519 205 205 205
0.2034087 -0.02403649 0.3806409 205 205 205
-0.03725361 -0.01337684 0.437435 205 205 205
-0.03084605 -0.01470828 0.4372663 205 205 205
-0.0204343 -0.01638269 0.4354017 205 205 205
-0.01171769 -0.01828997 0.4360613 205 205 205
-0.005471151 -0.01958014 0.4363984 205 205 205
0.00638117 -0.02510189 0.4493381 205 205 205
0.1276003 -0.0480471 0.4757463 205 205 205
0.1280331 -0.0272923 0.3987295 205 205 205
0.1315239 -0.02634623 0.394368 205 205 205
0.1367355 -0.02585597 0.3913258 205 205 205
0.1415338 -0.02590616 0.3904269 205 205 205
0.143741 -0.02578175 0.3895091 205 205 205
0.1515457 -0.02615284 0.3892837 205 205 205
0.1611797 -0.02596561 0.3869616 205 205 205
0.180794 -0.02600387 0.3845209 205 205 205
0.1935457 -0.0268493 0.3862095 205 205 205
0.1973517 -0.02659963 0.3850912 205 205 205
-0.03228591 -0.01564493 0.4368026 205 205 205
-0.02543617 -0.01624858 0.4336504 205 205 205
-0.02144409 -0.01665564 0.4320836 205 205 205
-0.006809332 -0.02033014 0.4350551 205 205 205
0.1202972 -0.03690558 0.4313375 205 205 205
0.12272 -0.03221104 0.4134212 205 205 205
0.1272667 -0.02990681 0.4037479 205 205 205
0.1290544 -0.02844866 0.3980018 205 205 205
0.1410492 -0.02680542 0.3892287 205 205 205
0.1562628 -0.02726421 0.3878416 205 205 205
0.1759943 -0.02682792 0.3834417 205 205 205
0.1908253 -0.02746686 0.3840543 205 205 205
-0.04345722 -0.01381752 0.4339886 205 205 205
-0.03443685 -0.01560403 0.4332961 205 205 205
-0.01299223 -0.0197897 0.432448 205 205 205
-0.004583512 -0.0223095 0.4358111 205 205 205
-0.00341485 -0.02280072 0.4368268 205 205 205
0.009132644 -0.03313331 0.4670605 205 205 205
0.1269105 -0.04629716 0.4580397 205 205 205
0.1219949 -0.03876949 0.4324307 205 205 205
0.1269517 -0.0319711 0.4065428 205 205 205
0.1631699 -0.02813111 0.3852647 205 205 205
0.1780678 -0.02775483 0.381956 205 205 205
0.1983138 -0.02749927 0.3792306 205 205 205
0.2004606 -0.02783827 0.3801799 205 205 205
-0.04078856 -0.01525602 0.4321294 205 205 205
-0.03092309 -0.01774436 0.4334293 205 205 205
-0.009565586 -0.02203964 0.4333141 205 205 205
-0.00368198 -0.0242876 0.4374632 205 205 205
0.008597382 -0.03652418 0.4744284 205 205 205
0.1259758 -0.03348918 0.4075197 205 205 205
0.1291586 -0.03109893 0.3982535 205 205 205
0.1397306 -0.02919704 0.3890412 205 205 205
0.1419372 -0.02907642 0.3881339 205 205 205
0.1426529 -0.02873225 0.3867953 205 205 205
0.1452349 -0.02887731 0.3867445 205 205 205
0.1467268 -0.02908561 0.3871485 205 205 205
0.151518 -0.02905397 0.3860905 205 205 205
0.1652518 -0.02909711 0.3838671 205 205 205
0.1722193 -0.02865954 0.3814079 205 205 205
0.1759309 -0.02854138 0.3805373 205 205 205
0.1875824 -0.02830393 0.3784763 205 205 205
0.1886527 -0.02814422 0.3778579 205 205 205
0.1907541 -0.028515 0.3788631 205 205 205
0.1987629 -0.02827233 0.3774347 205 205 205
-0.04364665 -0.01605129 0.4323898 205 205 205
-0.04098422 -0.01647666 0.4318055 205 205 205
-0.01077658 -0.02251535 0.430987 205 205 205
-0.00395072 -0.02578033 0.4380927 205 205 205
0.001787519 -0.02928367 0.4469562 205 205 205
0.1327355 -0.05399834 0.472421 205 205 205
0.1268149 -0.04654473 0.4481826 205 205 205
0.1282314 -0.03260126 0.3992337 205 205 205
0.1418288 -0.03024014 0.3878076 205 205 205
0.1514132 -0.03022316 0.3857622 205 205 205
0.1572978 -0.03005852 0.384121 205 205 205
0.1742801 -0.02958375 0.3799423 205 205 205
0.1779873 -0.0294524 0.3790449 205 205 205
0.1821919 -0.02956912 0.3789273 205 205 205
0.1949274 -0.02974882 0.3782376 205 205 205
0.196 -0.02957394 0.377593 205 205 205
0.1992104 -0.02975051 0.3778939 205 205 205
-0.04363794 -0.01704752 0.4311085 205 205 205
-0.0294097 -0.01955136 0.4290821 205 205 205
-0.004135474 -0.02702571 0.4377517 205 205 205
-0.001993136 -0.02879752 0.4426547 205 205 205
0.003852312 -0.0326011 0.4524299 205 205 205
0.005786751 -0.03672167 0.4659521 205 205 205
0.006406719 -0.04113612 0.4813852 205 205 205
0.1267872 -0.03471421 0.4024146 205 205 205
0.1304005 -0.03372477 0.3980653 205 205 205
0.1372954 -0.03163571 0.3892763 205 205 205
0.145722 -0.03084283 0.3847443 205 205 205
0.1652365 -0.0307795 0.3809651 205 205 205
0.182734 -0.02962847 0.3749268 205 205 205
-0.04342162 -0.0178058 0.428873 205 205 205
-0.03344543 -0.02009365 0.4292725 205 205 205
-0.03065446 -0.0202221 0.4276535 205 205 205
-0.009802668 -0.02495374 0.4294253 205 205 205
-0.005316613 -0.02724756 0.4344701 205 205 205
-0.002258825 -0.03031927 0.4432658 205 205 205
0.13266 -0.0339151 0.3937759 205 205 205
0.1371826 -0.0327973 0.3889411 205 205 205
0.1386613 -0.03303473 0.3893789 205 205 205
0.1397721 -0.03297716 0.3889295 205 205 205
0.1438118 -0.03243118 0.3862193 205 205 205
0.1499728 -0.03168722 0.3824965 205 205 205
0.1573195 -0.03172311 0.3812253 205 205 205
0.1826398 -0.0308036 0.3745859 205 205 205
0.1995447 -0.03098341 0.373489 205 205 205
-0.0432032 -0.01854773 0.4266367 205 205 205
-0.02199645 -0.02296217 0.4262825 205 205 205
-0.01724489 -0.02431784 0.4276461 205 205 205
-0.01110948 -0.02564814 0.4280549 205 205 205
-0.008752599 -0.02642106 0.4291487 205 205 205
-0.005410592 -0.02821805 0.4331613 205 205 205
-0.004419745 -0.02925078 0.4360933 205 205 205
-0.001306887 -0.03236113 0.4448671 205 205 205
0.0008852109 -0.03444413 0.4506963 205 205 205
0.1249085 -0.04378353 0.4244374 205 205 205
0.1240646 -0.04048249 0.4136631 205 205 205
0.1254769 -0.0383457 0.4061327 205 205 205
0.1260169 -0.03772817 0.4039261 205 205 205
0.1306228 -0.03546398 0.3951719 205 205 205
0.1325423 -0.03508747 0.393433 205 205 205
0.1359577 -0.03400999 0.3890419 205 205 205
0.1425996 -0.03365712 0.3863428 205 205 205
0.1433136 -0.03329464 0.3850063 205 205 205
0.1455042 -0.03315299 0.3840719 205 205 205
0.1483725 -0.03262832 0.3817765 205 205 205
0.1546217 -0.03278125 0.3810427 205 205 205
0.1598141 -0.03297171 0.3807059 205 205 205
0.1799217 -0.03199323 0.3746109 205 205 205
0.1872547 -0.03235355 0.3748603 205 205 205
-0.04319067 -0.01950958 0.425349 205 205 205
-0.03975161 -0.02070797 0.426834 205 205 205
-0.02568082 -0.02305464 0.4246376 205 205 205
-0.0244678 -0.02334087 0.4247577 205 205 205
-0.02096413 -0.02443846 0.426049 205 205 205
-0.01118318 -0.02659264 0.426751 205 205 205
-0.002476366 -0.03231634 0.440624 205 205 205
0.0008299655 -0.0352026 0.4484023 205 205 205
0.1482638 -0.03377646 0.3814349 205 205 205
0.1718606 -0.03384355 0.3774696 205 205 205
0.19084 -0.03405972 0.3756873 205 205 205
0.1988397 -0.03459329 0.3764781 205 205 205
-0.04359425 -0.02094252 0.4259548 205 205 205
-0.04217452 -0.0210251 0.4251888 205 205 205
-0.03071383 -0.02307349 0.4237716 205 205 205
-0.02829307 -0.02366353 0.4240415 205 205 205
-0.02208123 -0.02484129 0.4236844 205 205 205
-0.01870941 -0.02618739 0.4259041 205 205 205
-0.01259235 -0.02753015 0.4263306 205 205 205
-0.01024761 -0.02831469 0.4274292 205 205 205
-0.009120136 -0.02883707 0.4284516 205 205 205
-0.007984392 -0.02935866 0.4294701 205 205 205
0.002982018 -0.04489657 0.474958 205 205 205
0.1255936 -0.04231147 0.410315 205 205 205
0.1372102 -0.0356097 0.3857078 205 205 205
0.1416072 -0.03536433 0.3839051 205 205 205
0.1580844 -0.03509483 0.379678 205 205 205
0.1591658 -0.03499218 0.3791612 205 205 205
0.1743811 -0.03503877 0.3768124 205 205 205
0.1807872 -0.03418024 0.3733169 205 205 205
0.1918125 -0.03507947 0.3746962 205 205 205
0.1955302 -0.03559087 0.3758214 205 205 205
0.1966031 -0.03541101 0.3751737 205 205 205
-0.04337202 -0.02165008 0.4237126 205 205 205
-0.03713165 -0.02298892 0.4236253 205 205 205
-0.02605709 -0.02543186 0.4239456 205 205 205
0.1352085 -0.0381478 0.3901966 205 205 205
0.1487209 -0.0356807 0.3793955 205 205 205
0.1538758 -0.03593525 0.3791443 205 205 205
0.1727286 -0.03604298 0.3761953 205 205 205
0.181185 -0.03564057 0.3737749 205 205 205
0.1848784 -0.03546838 0.3727825 205 205 205
0.1986451 -0.0362404 0.3734997 205 205 205
0.1991702 -0.03576422 0.3720511 205 205 205
-0.04074504 -0.02298047 0.4218251 205 205 205
-0.03853297 -0.0238616 0.4231111 205 205 205
-0.03592734 -0.02423073 0.4224835 205 205 205
-0.02503161 -0.02690573 0.4237116 205 205 205
-0.01162378 -0.02991343 0.4247361 205 205 205
-0.0009881917 -0.03852359 0.446279 205 205 205
0.136237 -0.03827003 0.3863213 205 205 205
0.1388054 -0.03747359 0.3832353 205 205 205
0.1409955 -0.03734547 0.3823295 205 205 205
0.1464425 -0.03698236 0.3799998 205 205 205
0.1492796 -0.03642684 0.3776996 205 205 205
0.1669332 -0.03680865 0.3755647 205 205 205
0.1710791 -0.0370355 0.3755687 205 205 205
0.1953444 -0.03721778 0.3728436 205 205 205
0.1964094 -0.03703554 0.3721965 205 205 205
-0.04432784 -0.02294454 0.4199885 205 205 205
-0.03611938 -0.02541096 0.4221282 205 205 205
-0.02990434 -0.02666182 0.421902 205 205 205
-0.02522032 -0.02809065 0.4233535 205 205 205
-0.02157161 -0.0289411 0.423684 205 205 205
-0.01791581 -0.02976999 0.4239755 205 205 205
-0.005442957 -0.03569631 0.4352271 205 205 205
-0.00331403 -0.03760444 0.4400885 205 205 205
-0.002337334 -0.03898262 0.4439477 205 205 205
0.1285951 -0.04946836 0.4190443 205 205 205
0.1290116 -0.0449369 0.4048448 205 205 205
0.133843 -0.04051834 0.3899085 205 205 205
0.1368585 -0.03904726 0.3846431 205 205 205
0.1456386 -0.03851147 0.3809783 205 205 205
0.1463289 -0.03812057 0.3796419 205 205 205
0.1547358 -0.03812918 0.3779262 205 205 205
0.1637733 -0.03758416 0.3746127 205 205 205
0.1720449 -0.0380611 0.3746416 205 205 205
0.1804833 -0.03767104 0.3722308 205 205 205
0.184169 -0.03750513 0.3712424 205 205 205
0.1873374 -0.03701412 0.3694083 205 205 205
0.1936492 -0.03828711 0.3723166 205 205 205
0.1973526 -0.03725776 0.3689419 205 205 205
-0.02054139 -0.03040498 0.4234215 205 205 205
-0.006712734 -0.03610737 0.432891 205 205 205
-0.0005580902 -0.04333252 0.452209 205 205 205
0.1431521 -0.06904215 0.4706603 205 205 205
0.1382134 -0.04044967 0.3847069 205 205 205
0.1389446 -0.04007017 0.3833857 205 205 205
0.1400451 -0.04000663 0.3829333 205 205 205
0.155048 -0.03958573 0.3784111 205 205 205
0.1572134 -0.03938594 0.3773922 205 205 205
0.1578586 -0.03896876 0.3760331 205 205 205
0.1861818 -0.03834203 0.3696518 205 205 205
0.1872361 -0.0381754 0.3690371 205 205 205
0.1956754 -0.03910635 0.3706527 205 205 205
-0.0445013 -0.02502751 0.4183286 205 205 205
-0.043308 -0.02535035 0.4185106 205 205 205
-0.04071418 -0.02572867 0.4179179 205 205 205
-0.03593716 -0.02697382 0.4185662 205 205 205
-0.03252187 -0.02815011 0.4199547 205 205 205
-0.006995801 -0.03761543 0.4334622 205 205 205
-0.005911731 -0.03844472 0.4354157 205 205 205
-0.003862263 -0.04068124 0.4412187 205 205 205
0.1429164 -0.06887509 0.4652243 205 205 205
0.129603 -0.04699754 0.4027629 205 205 205
0.1307709 -0.04462472 0.3952904 205 205 205
0.137352 -0.04197541 0.3856569 205 205 205
0.1388336 -0.04223831 0.3860802 205 205 205
0.1530078 -0.04018902 0.376846 205 205 205
0.1545105 -0.04041143 0.3771933 205 205 205
0.1676808 -0.04013323 0.3739156 205 205 205
0.195561 -0.03949302 0.3680475 205 205 205
-0.04209874 -0.02657295 0.4173807 205 205 205
0.1338226 -0.04431522 0.3896672 205 205 205
0.1405601 -0.04293622 0.3839272 205 205 205
0.1444982 -0.0412796 0.378156 205 205 205
0.1470676 -0.04144422 0.3780653 205 205 205
0.156987 -0.04167098 0.3766485 205 205 205
0.1733818 -0.04093283 0.371567 205 205 205
0.1770559 -0.04081867 0.3706567 205 205 205
0.1943861 -0.04004846 0.366091 205 205 205
-0.02928896 -0.03138106 0.419616 205 205 205
-0.00264649 -0.04755883 0.452851 205 205 205
0.1342896 -0.05843749 0.4272349 205 205 205
0.1298554 -0.04870183 0.3997819 205 205 205
0.1309801 -0.04626951 0.3923321 205 205 205
0.1506125 -0.04264323 0.377088 205 205 205
0.1780088 -0.04181833 0.3696913 205 205 205
0.1795636 -0.04198423 0.3699126 205 205 205
0.1958685 -0.04133225 0.3658445 205 205 205
-0.03612998 -0.02991088 0.4155699 205 205 205
-0.03374854 -0.03051874 0.4158646 205 205 205
-0.02388368 -0.03484923 0.4226608 205 205 205
-0.01555472 -0.0373718 0.4252 205 205 205
-0.009785951 -0.03987407 0.4293293 205 205 205
0.130501 -0.05193597 0.4051102 205 205 205
0.1326791 -0.04805871 0.3932691 205 205 205
0.133919 -0.04696173 0.3897717 205 205 205
0.1410425 -0.04482295 0.3818425 205 205 205
0.153499 -0.0442489 0.3774095 205 205 205
0.1567557 -0.04394916 0.3758874 205 205 205
0.1584808 -0.04340882 0.3740168 205 205 205
0.1606281 -0.04318722 0.3729726 205 205 205
0.1941785 -0.04236774 0.3653146 205 205 205
0.1952253 -0.04218034 0.3646713 205 205 205
-0.02407454 -0.03602841 0.4222728 205 205 205
-0.01904295 -0.03686104 0.4217176 205 205 205
-0.01008041 -0.04137987 0.4298791 205 205 205
0.1304249 -0.05070491 0.3976743 205 205 205
0.1346241 -0.04666467 0.3850159 205 205 205
0.1620311 -0.04453445 0.3728908 205 205 205
0.1641749 -0.04429647 0.3718216 205 205 205
0.1657012 -0.04450318 0.3721075 205 205 205
0.1810057 -0.04283932 0.3649453 205 205 205
0.1820502 -0.04267814 0.3643479 205 205 205
0.1841165 -0.04315836 0.3653397 205 205 205
-0.005010125 -0.05272577 0.4562732 205 205 205
0.1333089 -0.0489329 0.3881092 205 205 205
0.1371051 -0.04694986 0.3815616 205 205 205
0.1440182 -0.04578177 0.3766344 205 205 205
0.1457884 -0.04528186 0.3748364 205 205 205
0.1608395 -0.04578311 0.373029 205 205 205
0.162988 -0.0455494 0.3719672 205 205 205
0.1677257 -0.0453843 0.3706213 205 205 205
0.1881859 -0.04443574 0.3646892 205 205 205
0.1944748 -0.04417034 0.3630985 205 205 205
-0.04457587 -0.03058982 0.4113954 205 205 205
-0.03986345 -0.03186031 0.4120784 205 205 205
-0.03868276 -0.03217211 0.4122386 205 205 205
-0.03108604 -0.03545205 0.4170057 205 205 205
-0.02763569 -0.03662857 0.4183192 205 205 205
-0.02430616 -0.03808517 0.4205396 205 205 205
-0.02186557 -0.03865275 0.4207422 205 205 205
-0.0195579 -0.03951033 0.4218719 205 205 205
-0.01252607 -0.04204458 0.4251629 205 205 205
0.1311469 -0.05410593 0.3994902 205 205 205
0.1314697 -0.05194951 0.3933713 205 205 205
0.1340101 -0.04859846 0.383359 205 205 205
0.1417723 -0.04815781 0.3802089 205 205 205
0.1527207 -0.04731521 0.3753928 205 205 205
0.1563996 -0.04735334 0.3747134 205 205 205
0.1654692 -0.04677271 0.3713194 205 205 205
0.1702131 -0.04658721 0.3699331 205 205 205
0.1730153 -0.04502466 0.3652388 205 205 205
0.1751095 -0.04473108 0.3640948 205 205 205
-0.02449749 -0.03925533 0.4201388 205 205 205
-0.01459282 -0.04116422 0.4198995 205 205 205
0.135743 -0.04926934 0.3812143 205 205 205
0.1368503 -0.04920884 0.3807695 205 205 205
0.1590852 -0.04781593 0.3719286 205 205 205
0.1749969 -0.04585192 0.363698 205 205 205
0.1848445 -0.04556989 0.3613486 205 205 205
0.1864025 -0.04572857 0.3615243 205 205 205
-0.04218099 -0.03292433 0.4090993 205 205 205
-0.03983648 -0.03355308 0.409429 205 205 205
-0.03551562 -0.03537099 0.4119114 205 205 205
-0.03369205 -0.03686392 0.4150052 205 205 205
-0.03249365 -0.03716548 0.4151409 205 205 205
-0.02102523 -0.04127425 0.420029 205 205 205
-0.01966508 -0.04124591 0.4191772 205 205 205
-0.008723978 -0.04798738 0.4321074 205 205 205
0.1313782 -0.05573718 0.3964672 205 205 205
0.131197 -0.05428229 0.392544 205 205 205
0.1381982 -0.05062403 0.3807781 205 205 205
0.1393064 -0.05055806 0.3803244 205 205 205
0.162184 -0.04859186 0.3699446 205 205 205
0.1695093 -0.04851141 0.3683122 205 205 205
0.1759279 -0.04681962 0.3627199 205 205 205
0.1811002 -0.04686333 0.3619631 205 205 205
0.1836935 -0.04686695 0.3615521 205 205 205
0.1842159 -0.04636093 0.3601574 205 205 205
-0.03885327 -0.03499127 0.4091929 205 205 205
-0.03669663 -0.03590393 0.4104318 205 205 205
-0.03570654 -0.03650708 0.4115132 205 205 205
-0.02457534 -0.04097585 0.4174446 205 205 205
-0.01093288 -0.04708693 0.4268657 205 205 205
-0.008025533 -0.05074396 0.4354926 205 205 205
0.1374025 -0.06774635 0.4236109 205 205 205
0.1317342 -0.05615945 0.3938658 205 205 205
0.1325013 -0.05204564 0.3825821 205 205 205
0.1519341 -0.05034339 0.3733453 205 205 205
0.1609919 -0.04983286 0.3700686 205 205 205
0.1667929 -0.04955903 0.3681954 205 205 205
0.1710418 -0.04901543 0.3659726 205 205 205
0.1877273 -0.04729299 0.358694 205 205 205
-0.04490558 -0.03453356 0.4079625 205 205 205
-0.03389286 -0.03885467 0.4132606 205 205 205
-0.02112345 -0.04298143 0.4173246 205 205 205
-0.01882541 -0.04384984 0.4184374 205 205 205
-0.01215795 -0.04737672 0.4245008 205 205 205
-0.01028553 -0.04983237 0.4302546 205 205 205
-0.009100129 -0.06516454 0.4718496 205 205 205
0.1368261 -0.05294307 0.3804075 205 205 205
0.1408262 -0.05116627 0.3747168 205 205 205
0.1535504 -0.05090756 0.3710979 205 205 205
0.157642 -0.05129652 0.3712275 205 205 205
0.1677383 -0.05054875 0.3672334 205 205 205
0.1782819 -0.04908495 0.3615356 205 205 205
0.1814034 -0.0485966 0.3597576 205 205 205
-0.03999591 -0.03632582 0.4063708 205 205 205
-0.0260133 -0.04268719 0.4155738 205 205 205
-0.01657227 -0.04555747 0.4181741 205 205 205
-0.01131873 -0.04947613 0.4260065 205 205 205
0.1322864 -0.06072422 0.3986556 205 205 205
0.1320584 -0.05658296 0.3878047 205 205 205
0.1332873 -0.05538999 0.3843411 205 205 205
0.1374349 -0.0536414 0.3786852 205 205 205
0.1443528 -0.05240131 0.3737528 205 205 205
0.163958 -0.05170471 0.3676402 205 205 205
0.1875005 -0.04953402 0.357866 205 205 205
0.1885325 -0.049352 0.3572451 205 205 205
-0.03308163 -0.04143683 0.4125692 205 205 205
-0.02272095 -0.04501218 0.4163923 205 205 205
-0.01243002 -0.04941932 0.4226999 205 205 205
-0.0114032 -0.05033965 0.4246316 205 205 205
-0.009606117 -0.05317168 0.4312995 205 205 205
0.1329258 -0.06416126 0.4038641 205 205 205
0.1497894 -0.05425097 0.3739275 205 205 205
0.1894475 -0.05028419 0.3562008 205 205 205
-0.0445323 -0.03851902 0.4078436 205 205 205
-0.03666639 -0.04134526 0.4108059 205 205 205
-0.03327412 -0.04257429 0.4121495 205 205 205
-0.03087914 -0.04317351 0.412404 205 205 205
-0.0215526 -0.04612238 0.4151231 205 205 205
-0.01486904 -0.04940272 0.4202674 205 205 205
0.1318392 -0.06156729 0.3938604 205 205 205
0.1353108 -0.05637479 0.3795904 205 205 205
0.13753 -0.05507191 0.375687 205 205 205
0.1400529 -0.0541193 0.3726241 205 205 205
0.1411388 -0.05404319 0.3721634 205 205 205
-0.02537906 -0.04641876 0.4144054 205 205 205
-0.009692392 -0.05458333 0.4275871 205 205 205
0.131694 -0.06273598 0.3934124 205 205 205
0.1392121 -0.05566598 0.3735057 205 205 205
0.1527996 -0.05619123 0.3715813 205 205 205
0.1545461 -0.05561351 0.3697415 205 205 205
0.167246 -0.05501747 0.3655442 205 205 205
0.185593 -0.05270632 0.3564338 205 205 205
0.1866252 -0.05252598 0.355819 205 205 205
-0.03365996 -0.04484351 0.4112964 205 205 205
-0.02662147 -0.04694609 0.4129366 205 205 205
-0.02420741 -0.04752009 0.4131399 205 205 205
-0.02058027 -0.04836282 0.4134131 205 205 205
-0.008779706 -0.06143584 0.4412328 205 205 205
0.1357929 -0.05697598 0.3744312 205 205 205
0.1372609 -0.0572861 0.3748323 205 205 205
0.1390782 -0.056768 0.3730778 205 205 205
0.1483013 -0.05769279 0.3731313 205 205 205
0.1649822 -0.05639614 0.3662071 205 205 205
0.1713708 -0.05556684 0.3628772 205 205 205
0.1849522 -0.05345557 0.3552282 205 205 205
-0.0462892 -0.04154621 0.4064059 205 205 205
-0.04393718 -0.04219517 0.406748 205 205 205
-0.02785512 -0.04746277 0.4114631 205 205 205
-0.02544974 -0.0480408 0.4116736 205 205 205
-0.0231907 -0.0489432 0.4127978 205 205 205
0.1356268 -0.07751763 0.4224072 205 205 205
0.1360241 -0.05845764 0.3748475 205 205 205
0.1451805 -0.05822727 0.3719903 205 205 205
0.1527819 -0.05755916 0.3685564 205 205 205
0.1642342 -0.05801027 0.3671221 205 205 205
0.16531 -0.05788016 0.3665779 205 205 205
0.171245 -0.05667577 0.3624407 205 205 205
0.1822514 -0.05454826 0.355232 205 205 205
0.1868887 -0.05419503 0.3535652 205 205 205
0.1884447 -0.05437069 0.3537123 205 205 205
-0.04198514 -0.04427254 0.4075648 205 205 205
-0.03743992 -0.04585552 0.4090909 205 205 205
-0.02564157 -0.04917407 0.4112337 205 205 205
-0.02082003 -0.05030277 0.4116029 205 205 205
-0.01853964 -0.05119362 0.4126925 205 205 205
-0.01440331 -0.05433414 0.4185479 205 205 205
0.1319709 -0.07296269 0.4084612 205 205 205
0.1339323 -0.06250145 0.3821388 205 205 205
0.1369875 -0.05949273 0.3739607 205 205 205
0.138087 -0.05942264 0.3735082 205 205 205
0.1715943 -0.05815643 0.3627959 205 205 205
0.1737159 -0.05785703 0.3616545 205 205 205
0.18006 -0.05599026 0.3559911 205 205 205
0.1857399 -0.05547916 0.3537427 205 205 205
-0.04645213 -0.04344896 0.404622 205 205 205
-0.02357481 -0.05121684 0.4119095 205 205 205
-0.008719183 -0.06792695 0.446322 205 205 205
0.1353354 -0.06273112 0.3790971 205 205 205
0.1460013 -0.06034517 0.3706288 205 205 205
0.1496761 -0.06044944 0.3699957 205 205 205
0.1507647 -0.06035054 0.3695001 205 205 205
0.1561802 -0.05981758 0.3669678 205 205 205
0.1814921 -0.05637226 0.3535791 205 205 205
0.1835464 -0.05601908 0.352373 205 205 205
0.1856172 -0.05657814 0.3533001 205 205 205
-0.03782833 -0.04809904 0.4082065 205 205 205
-0.02843312 -0.0508538 0.4101316 205 205 205
-0.02013472 -0.05319161 0.4117156 205 205 205
-0.01161976 -0.0592211 0.4224314 205 205 205
0.1351924 -0.06384841 0.3786433 205 205 205
0.1370791 -0.06208309 0.3739152 205 205 205
0.1586377 -0.06107215 0.3662946 205 205 205
0.1638396 -0.06134429 0.3657802 205 205 205
0.1696727 -0.06104426 0.3638223 205 205 205
0.1782684 -0.05797563 0.3549177 205 205 205
0.1823964 -0.05728772 0.3525335 205 205 205
0.1854932 -0.05767513 0.3528533 205 205 205
-0.04544454 -0.04565558 0.4029966 205 205 205
-0.03103038 -0.05138853 0.4094539 205 205 205
-0.02862642 -0.0519802 0.4096788 205 205 205
-0.01694501 -0.05585215 0.4133303 205 205 205
-0.01262049 -0.05870209 0.4181994 205 205 205
-0.008097771 -0.06649363 0.4350984 205 205 205
0.1290962 -0.07058784 0.3932101 205 205 205
0.1346323 -0.0658171 0.3803244 205 205 205
0.1361719 -0.06489954 0.3777367 205 205 205
0.1479066 -0.06235745 0.3687607 205 205 205
0.1673927 -0.06243546 0.3644817 205 205 205
0.1684674 -0.06229568 0.3639256 205 205 205
0.1812419 -0.05855278 0.3526862 205 205 205
-0.04039397 -0.04936638 0.4060955 205 205 205
-0.02415352 -0.05461242 0.4105432 205 205 205
-0.01179211 -0.06084855 0.4196264 205 205 205
0.1441883 -0.1016529 0.45921 205 205 205
0.1274338 -0.07138918 0.392298 205 205 205
0.1311495 -0.07001223 0.3880092 205 205 205
0.1323155 -0.069962 0.3875708 205 205 205
0.1363885 -0.06641171 0.3781173 205 205 205
0.1672582 -0.06354327 0.3640207 205 205 205
-0.0448835 -0.0485141 0.4031822 205 205 205
-0.03261994 -0.05333285 0.408418 205 205 205
-0.01963702 -0.05722109 0.4113328 205 205 205
-0.01623481 -0.05876207 0.4133847 205 205 205
0.1264102 -0.07298786 0.3930936 205 205 205
0.1291658 -0.07039689 0.3862583 205 205 205
0.1377571 -0.06658428 0.3750617 205 205 205
0.1417754 -0.06459311 0.3694111 205 205 205
0.1654188 -0.06531662 0.3654559 205 205 205
0.1703427 -0.0642196 0.3618774 205 205 205
0.1815012 -0.06016308 0.3504106 205 205 205
-0.03161346 -0.05475272 0.4080705 205 205 205
-0.01888215 -0.05935467 0.412777 205 205 205
-0.01433118 -0.06153895 0.4157925 205 205 205
-0.007497909 -0.07666509 0.4484091 205 205 205
0.1324907 -0.0713818 0.3844698 205 205 205
0.1372215 -0.06857124 0.3767235 205 205 205
0.1387276 -0.06761672 0.3741346 205 205 205
0.1485766 -0.06554012 0.3668924 205 205 205
0.1511628 -0.06573936 0.3667182 205 205 205
0.1813723 -0.06124235 0.3499514 205 205 205
-0.00699731 -0.07492813 0.4404935 205 205 205
0.1264798 -0.08075724 0.404518 205 205 205
0.1260049 -0.07361782 0.3882691 205 205 205
0.1280225 -0.07312345 0.386569 205 205 205
0.135174 -0.07022499 0.37799 205 205 205
0.1407762 -0.06726018 0.3697777 205 205 205
0.1557874 -0.06679629 0.3650271 205 205 205
0.1651411 -0.06753072 0.3645096 205 205 205
0.1700697 -0.06642271 0.3609355 205 205 205
0.1711398 -0.06627356 0.3603694 205 205 205
0.1791232 -0.06459207 0.3549429 205 205 205
0.185359 -0.06255267 0.3491865 205 205 205
-0.02356686 -0.05903008 0.4078292 205 205 205
-0.0214363 -0.06032948 0.4098291 205 205 205
-0.02035845 -0.06097806 0.4108235 205 205 205
-0.01280544 -0.06624597 0.4195159 205 205 205
0.1244316 -0.07607642 0.3911727 205 205 205
0.1258475 -0.07475737 0.3877754 205 205 205
0.1318421 -0.0732318 0.3826498 205 205 205
0.1329956 -0.07317583 0.3822081 205 205 205
0.149105 -0.06853606 0.3675863 205 205 205
0.1560735 -0.06829626 0.3653596 205 205 205
0.1671667 -0.0683582 0.3629264 205 205 205
0.1731363 -0.06706466 0.3587497 205 205 205
0.1752625 -0.06674723 0.357593 205 205 205
0.1795325 -0.06511324 0.3531061 205 205 205
0.182136 -0.06321432 0.3484195 205 205 205
-0.01824076 -0.06303444 0.4113933 205 205 205
-0.01491942 -0.06497976 0.4143244 205 205 205
-0.01185252 -0.06805655 0.4199754 205 205 205
0.1285535 -0.09204385 0.4227799 205 205 205
0.1336454 -0.07382456 0.3804303 205 205 205
0.1756108 -0.06824522 0.3578875 205 205 205
0.18046 -0.06504616 0.3499092 205 205 205
-0.04468321 -0.05431505 0.4010198 205 205 205
-0.03239486 -0.05920966 0.4061639 205 205 205
-0.03101643 -0.05914169 0.4053633 205 205 205
-0.02911836 -0.06084448 0.4083158 205 205 205
-0.02274621 -0.06154419 0.4069459 205 205 205
-0.01952644 -0.06351113 0.4099174 205 205 205
-0.01399282 -0.06677304 0.4147933 205 205 205
-0.01194188 -0.06883828 0.41855 205 205 205
-0.006170286 -0.07246185 0.4242029 205 205 205
0.1245749 -0.08781614 0.4110669 205 205 205
0.1288858 -0.07516356 0.3816879 205 205 205
0.134638 -0.07488225 0.3794869 205 205 205
0.1414782 -0.07177852 0.3708215 205 205 205
0.1525112 -0.07082018 0.3659328 205 205 205
0.1653454 -0.070287 0.361719 205 205 205
0.1728578 -0.06925281 0.3577839 205 205 205
0.1734403 -0.06868685 0.3564323 205 205 205
0.1823862 -0.06575979 0.3482294 205 205 205
0.1849344 -0.06479803 0.3456498 205 205 205
-0.0481721 -0.05406119 0.399144 205 205 205
-0.04723044 -0.05474931 0.4002172 205 205 205
-0.04391889 -0.05608957 0.4016047 205 205 205
-0.03739486 -0.05908994 0.4051858 205 205 205
-0.02066164 -0.0635968 0.4075229 205 205 205
-0.009821894 -0.07130321 0.4199416 205 205 205
-0.003467513 -0.07912526 0.434709 205 205 205
-0.003811952 -0.0880489 0.4548639 205 205 205
0.1238793 -0.07777528 0.3858386 205 205 205
0.1345658 -0.07466171 0.3760356 205 205 205
0.1413284 -0.07287205 0.3703319 205 205 205
0.1556408 -0.07157116 0.3639075 205 205 205
0.1610632 -0.07095287 0.3612747 205 205 205
0.1716494 -0.07049973 0.3578674 205 205 205
0.1759059 -0.06985992 0.3555561 205 205 205
0.1837974 -0.06705188 0.347895 205 205 205
-0.03176024 -0.06210254 0.4062057 205 205 205
-0.03072485 -0.06277891 0.4072238 205 205 205
-0.02829827 -0.06337316 0.4074278 205 205 205
-0.02571079 -0.06357727 0.4067035 205 205 205
-0.01977955 -0.06537381 0.4080091 205 205 205
0.1228247 -0.1122794 0.4586127 205 205 205
0.1285704 -0.0773975 0.3806835 205 205 205
0.138949 -0.07412478 0.3707717 205 205 205
0.1460079 -0.07403433 0.3687422 205 205 205
0.1554942 -0.07265856 0.3634152 205 205 205
0.1576696 -0.07241842 0.362373 205 205 205
0.1609183 -0.07203852 0.360783 205 205 205
0.169365 -0.07189392 0.3585083 205 205 205
0.1716182 -0.07060196 0.3552537 205 205 205
-0.03658925 -0.06160951 0.4043279 205 205 205
-0.02987877 -0.06457133 0.4077363 205 205 205
-0.02119472 -0.06621201 0.407436 205 205 205
-0.006405473 -0.07441124 0.4189716 205 205 205
0.1174789 -0.1179195 0.4687895 205 205 205
0.1226904 -0.08049728 0.3860753 205 205 205
0.1280797 -0.07807869 0.3793362 205 205 205
0.1458566 -0.07512597 0.3682431 205 205 205
0.1590434 -0.07380294 0.3621444 205 205 205
0.1767492 -0.07086317 0.3518649 205 205 205
-0.04922859 -0.05803625 0.3994918 205 205 205
-0.04805017 -0.05837011 0.3996597 205 205 205
-0.04687063 -0.0587016 0.3998236 205 205 205
-0.04591317 -0.05940109 0.4008849 205 205 205
-0.03678661 -0.06271062 0.403828 205 205 205
-0.005332244 -0.07582812 0.4184575 205 205 205
-0.00311082 -0.0779452 0.4221207 205 205 205
-0.001271925 -0.08249462 0.4312335 205 205 205
-0.001142974 -0.09844857 0.4658399 205 205 205
0.1059967 -0.09792857 0.4255256 205 205 205
0.1059231 -0.09055435 0.4096742 205 205 205
0.1133841 -0.08620952 0.39806 205 205 205
0.1146128 -0.08620054 0.3976727 205 205 205
0.1192684 -0.08392716 0.3914253 205 205 205
0.120768 -0.08256219 0.3880682 205 205 205
0.1230797 -0.08071464 0.3834538 205 205 205
0.1259367 -0.07971822 0.3805152 205 205 205
0.1329621 -0.07803149 0.3749725 205 205 205
0.1468134 -0.07611949 0.3672516 205 205 205
0.1776999 -0.07075501 0.348671 205 205 205
0.1838912 -0.06965984 0.3450678 205 205 205
-0.04198815 -0.06292112 0.4036904 205 205 205
-0.03131794 -0.06611056 0.4057097 205 205 205
-0.02539798 -0.06797593 0.4070905 205 205 205
-0.01623072 -0.0722015 0.4121749 205 205 205
-0.006713285 -0.07632761 0.416998 205 205 205
-0.0003631031 -0.0851858 0.4333973 205 205 205
0.0005480092 -0.09719098 0.4588358 205 205 205
0.1000224 -0.09557316 0.4190578 205 205 205
0.1160476 -0.08601245 0.393789 205 205 205
0.1169758 -0.08555412 0.3925423 205 205 205
0.1206009 -0.08369429 0.3875408 205 205 205
0.1211808 -0.08278232 0.3854423 205 205 205
0.1491651 -0.07603301 0.3636506 205 205 205
0.1539559 -0.07602508 0.3624289 205 205 205
0.1635322 -0.07587318 0.3597739 205 205 205
0.1646152 -0.07573402 0.3592267 205 205 205
0.1661521 -0.07602092 0.359456 205 205 205
0.1822071 -0.07049294 0.3444341 205 205 205
-0.03737625 -0.0652919 0.403717 205 205 205
-0.03617105 -0.06560381 0.4038404 205 205 205
-0.03254983 -0.06652449 0.4041856 205 205 205
-0.02437444 -0.06937645 0.406656 205 205 205
-0.02112779 -0.07142235 0.4095959 205 205 205
-0.01878812 -0.07238188 0.4106301 205 205 205
-0.006914324 -0.07748129 0.4164607 205 205 205
0.0007013978 -0.08707055 0.4337256 205 205 205
0.09587504 -0.09668698 0.4195017 205 205 205
0.09744122 -0.091916 0.4089198 205 205 205
0.1068703 -0.08853436 0.398849 205 205 205
0.108361 -0.08898386 0.3993407 205 205 205
0.10934 -0.08854128 0.3981112 205 205 205
0.130707 -0.08078928 0.3756566 205 205 205
0.139448 -0.07839075 0.36829 205 205 205
0.142787 -0.07813361 0.3668744 205 205 205
0.1435086 -0.07760317 0.3655851 205 205 205
0.1516152 -0.07733128 0.3629397 205 205 205
0.1627416 -0.07752684 0.3605901 205 205 205
0.1649174 -0.07724956 0.3594961 205 205 205
0.1704504 -0.0754943 0.3545902 205 205 205
0.1720997 -0.07474776 0.3526814 205 205 205
0.1742134 -0.0744205 0.3515281 205 205 205
0.1825691 -0.07093921 0.342586 205 205 205
0.1840758 -0.07013345 0.3406284 205 205 205
-0.04554206 -0.06336937 0.4004287 205 205 205
-0.0211857 -0.07214235 0.4081642 205 205 205
-0.01885393 -0.07310453 0.4091958 205 205 205
-0.009552635 -0.07770327 0.41497 205 205 205
0.001708227 -0.08937711 0.4349467 205 205 205
0.09335371 -0.1079342 0.4406611 205 205 205
0.09244601 -0.09648054 0.4169616 205 205 205
0.1151402 -0.08741073 0.3910067 205 205 205
0.1389135 -0.08044095 0.3698722 205 205 205
0.1507732 -0.07895971 0.3637297 205 205 205
0.1547437 -0.0780633 0.3608921 205 205 205
0.1599679 -0.07844123 0.3603673 205 205 205
0.1675536 -0.07746197 0.3565392 205 205 205
0.1697026 -0.07715821 0.3554137 205 205 205
0.1724314 -0.07625052 0.3529353 205 205 205
0.1767257 -0.07454878 0.3485087 205 205 205
-0.04454987 -0.06478308 0.4000663 205 205 205
-0.03695169 -0.06858549 0.4046043 205 205 205
-0.03087221 -0.07012191 0.4051592 205 205 205
-0.02507814 -0.07240029 0.4074135 205 205 205
-0.01469333 -0.07736893 0.4133855 205 205 205
-0.01228461 -0.07831914 0.4143664 205 205 205
-0.01123494 -0.07941099 0.4162069 205 205 205
-0.008688007 -0.07993783 0.4162581 205 205 205
0.09326403 -0.09151057 0.4032453 205 205 205
0.09884736 -0.09030824 0.3989974 205 205 205
0.1023217 -0.08991308 0.3971018 205 205 205
0.1069883 -0.08949682 0.3948125 205 205 205
0.1232742 -0.08468077 0.3800941 205 205 205
0.1280901 -0.08309411 0.3754784 205 205 205
0.1289011 -0.08258929 0.3742178 205 205 205
0.1391334 -0.08055031 0.3672569 205 205 205
0.1524033 -0.07937138 0.3614015 205 205 205
0.1576288 -0.07977775 0.3609092 205 205 205
0.1652445 -0.07883309 0.3571318 205 205 205
0.1663244 -0.07868748 0.356578 205 205 205
0.1680134 -0.0779506 0.3546903 205 205 205
0.1733443 -0.07715859 0.351843 205 205 205
0.1744041 -0.07699224 0.3512632 205 205 205
0.1822845 -0.0730397 0.3415799 205 205 205
-0.0347226 -0.07030963 0.4043112 205 205 205
-0.0204904 -0.07506383 0.4080664 205 205 205
-0.007616498 -0.08134746 0.4157245 205 205 205
-0.003959917 -0.08295291 0.4175608 205 205 205
0.004168742 -0.09104288 0.4310195 205 205 205
0.09472763 -0.09092187 0.3985754 205 205 205
0.1225591 -0.08673356 0.381643 205 205 205
0.1302192 -0.08407408 0.3740781 205 205 205
0.1306779 -0.08310758 0.3719916 205 205 205
0.1404657 -0.08199363 0.3670759 205 205 205
0.1515631 -0.081005 0.3621817 205 205 205
0.1552797 -0.08110277 0.3614321 205 205 205
0.1568034 -0.08142687 0.3616976 205 205 205
0.166629 -0.08020505 0.3568268 205 205 205
0.1736758 -0.07866631 0.352082 205 205 205
0.1753123 -0.07789154 0.3501606 205 205 205
-0.0349228 -0.07140935 0.4037792 205 205 205
-0.02988248 -0.07222111 0.4032975 205 205 205
-0.02654951 -0.0739224 0.4053621 205 205 205
-0.02069061 -0.07617946 0.4075257 205 205 205
-0.01164213 -0.08170672 0.4150988 205 205 205
-0.001750312 -0.08546012 0.4188 205 205 205
0.01037356 -0.0969004 0.4374353 205 205 205
0.01164532 -0.09843468 0.4400813 205 205 205
0.01976923 -0.1076571 0.4558346 205 205 205
0.08786368 -0.0936572 0.4033698 205 205 205
0.08892699 -0.093247 0.4021955 205 205 205
0.09411561 -0.09114971 0.3962909 205 205 205
0.09534671 -0.09117945 0.395965 205 205 205
0.09903396 -0.09125168 0.3949628 205 205 205
0.1061267 -0.09086154 0.3919974 205 205 205
0.1241047 -0.08684555 0.3786 205 205 205
0.1373063 -0.08377136 0.3687571 205 205 205
0.1395575 -0.08361004 0.3678264 205 205 205
0.1403054 -0.08307105 0.3665475 205 205 205
0.1429217 -0.08334783 0.3664029 205 205 205
0.1459353 -0.08406581 0.3670393 205 205 205
0.1504117 -0.08365447 0.3650484 205 205 205
0.1621262 -0.08185308 0.3584981 205 205 205
0.171864 -0.08050722 0.3534697 205 205 205
0.1755568 -0.08045193 0.3524857 205 205 205
-0.04775575 -0.06775955 0.399085 205 205 205
-0.04492665 -0.06763076 0.3976077 205 205 205
-0.02830114 -0.07555488 0.4065303 205 205 205
-0.01978979 -0.07799087 0.4079392 205 205 205
-0.01067817 -0.08354118 0.4154643 205 205 205
-0.008023375 -0.08364081 0.4146059 205 205 205
-0.005562171 -0.08458116 0.4155289 205 205 205
-0.003000971 -0.08508478 0.415535 205 205 205
-0.001876869 -0.08619177 0.4173307 205 205 205
0.0004899717 -0.08797523 0.4200092 205 205 205
0.02538846 -0.109851 0.454788 205 205 205
0.0842536 -0.09557491 0.4054333 205 205 205
0.08604079 -0.09384146 0.4013671 205 205 205
0.08815469 -0.09301631 0.3990299 205 205 205
0.09270199 -0.09225211 0.3960522 205 205 205
0.09371963 -0.09182289 0.3948696 205 205 205
0.1081211 -0.09152997 0.3898563 205 205 205
0.1157117 -0.0900562 0.3846501 205 205 205
0.1274261 -0.08780155 0.3767788 205 205 205
0.130692 -0.08573162 0.371745 205 205 205
0.1348854 -0.08500189 0.3691383 205 205 205
0.1375073 -0.08530937 0.3690334 205 205 205
0.1386377 -0.08522953 0.3685685 205 205 205
0.1397663 -0.08514696 0.3680999 205 205 205
0.160218 -0.08365105 0.3598217 205 205 205
0.1667753 -0.08280516 0.3565341 205 205 205
0.1758871 -0.08197141 0.3527065 205 205 205
0.1834016 -0.07749113 0.3422436 205 205 205
-0.0498694 -0.06737181 0.3964566 205 205 205
-0.01901496 -0.08022869 0.4092372 205 205 205
-0.01067069 -0.08383165 0.4131017 205 205 205
0.002824538 -0.09006189 0.4202902 205 205 205
0.004131435 -0.09030052 0.4202642 205 205 205
0.006589796 -0.09208356 0.4228913 205 205 205
0.007861075 -0.09275457 0.4237491 205 205 205
0.03492948 -0.1053739 0.4389679 205 205 205
0.0365281 -0.1082629 0.444178 205 205 205
0.07996231 -0.09926079 0.411223 205 205 205
0.1006529 -0.09262105 0.3914434 205 205 205
0.1119565 -0.0912236 0.3852589 205 205 205
0.1185125 -0.09015927 0.3812265 205 205 205
0.1295771 -0.0887884 0.3753605 205 205 205
0.1308673 -0.08727714 0.3720219 205 205 205
0.1456106 -0.08623237 0.3659608 205 205 205
0.1613634 -0.08609454 0.3616133 205 205 205
0.1832481 -0.0796213 0.3437957 205 205 205
-0.03552483 -0.0746948 0.4021568 205 205 205
-0.009604022 -0.08523139 0.4125553 205 205 205
-0.007060747 -0.08574982 0.4125864 205 205 205
0.001515498 -0.08967216 0.4170389 205 205 205
0.003984977 -0.09102894 0.4187832 205 205 205
0.03034234 -0.1015379 0.4298174 205 205 205
0.03172481 -0.1021773 0.4305851 205 205 205
0.03891382 -0.107167 0.4379004 205 205 205
0.04272181 -0.1170977 0.4562418 205 205 205
0.08454634 -0.09332574 0.3950359 205 205 205
0.1050868 -0.09330756 0.3886148 205 205 205
0.1060415 -0.09283961 0.3874064 205 205 205
0.1159753 -0.09131818 0.3814686 205 205 205
0.1171579 -0.09129167 0.3810712 205 205 205
0.1221821 -0.09162622 0.3802714 205 205 205
0.1305654 -0.08982316 0.3743676 205 205 205
0.1371223 -0.08894324 0.3708359 205 205 205
0.1397738 -0.08924889 0.3707072 205 205 205
0.1484805 -0.08803581 0.366015 205 205 205
0.1589776 -0.08744469 0.3621416 205 205 205
0.1776206 -0.0848496 0.3525321 205 205 205
0.1786981 -0.08467241 0.351935 205 205 205
-0.0464854 -0.07010834 0.3949724 205 205 205
-0.03815667 -0.07515723 0.4013766 205 205 205
-0.03329159 -0.07640316 0.4018213 205 205 205
-0.03242588 -0.07754581 0.4037036 205 205 205
-0.02302365 -0.08118651 0.407041 205 205 205
-0.02053286 -0.08175628 0.4071647 205 205 205
-0.009808353 -0.08636584 0.4119822 205 205 205
-0.004718987 -0.08739333 0.412026 205 205 205
0.01397614 -0.09759086 0.42497 205 205 205
0.01531333 -0.09780919 0.4249024 205 205 205
0.01798834 -0.09823715 0.4247538 205 205 205
0.02063174 -0.1000096 0.4272628 205 205 205
0.02468384 -0.1019789 0.4296498 205 205 205
0.07851961 -0.1144503 0.4355032 205 205 205
0.1092087 -0.09346625 0.3848907 205 205 205
0.1260744 -0.09160794 0.3763719 205 205 205
0.1307315 -0.0913853 0.3746269 205 205 205
0.1335133 -0.09024942 0.3716556 205 205 205
0.1396054 -0.09033845 0.3701516 205 205 205
0.1407495 -0.09025404 0.3696774 205 205 205
0.1418918 -0.09016683 0.3691994 205 205 205
0.1441713 -0.08998421 0.3682324 205 205 205
0.1592407 -0.08899188 0.3623654 205 205 205
0.1829203 -0.08282422 0.3447998 205 205 205
-0.03489518 -0.07760445 0.4020507 205 205 205
-0.03245111 -0.07822006 0.4022563 205 205 205
-0.03140097 -0.07894707 0.4032421 205 205 205
-0.03034235 -0.07967342 0.4042244 205 205 205
-0.02927527 -0.08039901 0.405203 205 205 205
-0.02432088 -0.08157891 0.4055164 205 205 205
-0.008640979 -0.08731964 0.4105291 205 205 205
0.02044284 -0.1003008 0.4248677 205 205 205
0.02717871 -0.1026699 0.4270359 205 205 205
0.02854483 -0.1033205 0.4278102 205 205 205
0.03940887 -0.1047509 0.4267309 205 205 205
0.07941462 -0.09581534 0.3958973 205 205 205
0.08502851 -0.09466438 0.3918772 205 205 205
0.1119708 -0.09550161 0.3852373 205 205 205
0.1238772 -0.09327162 0.3774809 205 205 205
0.128562 -0.09306962 0.3757612 205 205 205
0.1328794 -0.09234954 0.3731696 205 205 205
0.134037 -0.0922812 0.3727164 205 205 205
0.1367019 -0.09260903 0.3726055 205 205 205
0.1416869 -0.09275656 0.3715202 205 205 205
0.1455238 -0.09144523 0.3679789 205 205 205
0.1546867 -0.09210052 0.3667927 205 205 205
0.1666425 -0.09017166 0.3600535 205 205 205
0.1684101 -0.08940732 0.3581625 205 205 205
0.1701554 -0.0886339 0.3562642 205 205 205
-0.05209322 -0.07170148 0.3950178 205 205 205
-0.04948277 -0.07197367 0.394462 205 205 205
-0.0397742 -0.07701042 0.400145 205 205 205
-0.02093887 -0.08397628 0.4060275 205 205 205
-0.008946266 -0.0888892 0.4108394 205 205 205
-0.003939155 -0.09035487 0.4117547 205 205 205
0.008394159 -0.09725122 0.4204147 205 205 205
0.02425924 -0.1020994 0.4239659 205 205 205
0.04305525 -0.104577 0.4220966 205 205 205
0.04592375 -0.1062898 0.4244013 205 205 205
0.05154734 -0.1263098 0.4610075 205 205 205
0.07596945 -0.1191838 0.4391018 205 205 205
0.0846548 -0.09529519 0.3904445 205 205 205
0.09403151 -0.09747291 0.3916852 205 205 205
0.103333 -0.09664572 0.387256 205 205 205
0.1081731 -0.0966436 0.3857967 205 205 205
0.1195902 -0.09548278 0.3802214 205 205 205
0.1251926 -0.09479844 0.377307 205 205 205
0.1278673 -0.09517466 0.3772609 205 205 205
0.1305509 -0.09553901 0.377194 205 205 205
0.1399949 -0.09346168 0.3706292 205 205 205
0.1422968 -0.09328783 0.3696714 205 205 205
0.1488015 -0.09375161 0.3687913 205 205 205
0.1538397 -0.09531626 0.3704014 205 205 205
0.1599004 -0.09364066 0.3656527 205 205 205
0.1660051 -0.09342276 0.3636689 205 205 205
0.1666922 -0.09280906 0.3623415 205 205 205
0.1756856 -0.08669022 0.348642 205 205 205
0.1836717 -0.08252317 0.3389634 205 205 205
-0.04219311 -0.07702489 0.398447 205 205 205
-0.03529961 -0.0797815 0.400926 205 205 205
-0.02752476 -0.08406543 0.4060024 205 205 205
-0.02627785 -0.0843618 0.4060785 205 205 205
-0.02003169 -0.08580384 0.406395 205 205 205
-0.01878026 -0.08608427 0.4064456 205 205 205
-0.001822504 -0.09333593 0.4138181 205 205 205
0.004400173 -0.09635584 0.4172609 205 205 205
0.008184154 -0.09842138 0.4198049 205 205 205
0.02004554 -0.1017587 0.4218579 205 205 205
0.0227152 -0.1021638 0.4216726 205 205 205
0.02673401 -0.1036801 0.4231312 205 205 205
0.03076294 -0.1042428 0.4227773 205 205 205
0.03881993 -0.1052883 0.4219482 205 205 205
0.0428469 -0.1057709 0.4214731 205 205 205
0.07162975 -0.1018649 0.4043735 205 205 205
0.07958485 -0.09618786 0.3910146 205 205 205
0.1043622 -0.09775851 0.386316 205 205 205
0.1082517 -0.09823535 0.3860516 205 205 205
0.1185178 -0.09709855 0.380877 205 205 205
0.1197098 -0.09706546 0.3804683 205 205 205
0.1202972 -0.09606501 0.3784108 205 205 205
0.1339021 -0.09644861 0.3752629 205 205 205
0.150577 -0.09723045 0.3721568 205 205 205
0.1662745 -0.09499376 0.3638564 205 205 205
0.1676483 -0.09375596 0.3612019 205 205 205
-0.04338939 -0.07735015 0.3968707 205 205 205
-0.02756988 -0.08473354 0.4045373 205 205 205
-0.01317166 -0.09034606 0.4095993 205 205 205
-0.004523843 -0.09352311 0.4123457 205 205 205
0.02250469 -0.1033449 0.4210505 205 205 205
0.0292091 -0.1052474 0.4222732 205 205 205
0.03187371 -0.1051433 0.4211415 205 205 205
0.07279419 -0.09930563 0.3963463 205 205 205
0.07711543 -0.09765086 0.3918418 205 205 205
0.07922566 -0.0968041 0.3895753 205 205 205
0.08287972 -0.09696573 0.3887233 205 205 205
0.09979022 -0.09980704 0.3888261 205 205 205
0.111292 -0.1007857 0.3872044 205 205 205
0.1242851 -0.09800546 0.3782121 205 205 205
0.1288063 -0.09930943 0.3793547 205 205 205
0.1386503 -0.09926181 0.3764992 205 205 205
0.1422697 -0.09748048 0.3721868 205 205 205
0.1547106 -0.1005189 0.3744526 205 205 205
0.17012 -0.09233581 0.3553207 205 205 205
0.1747717 -0.08945177 0.3488528 205 205 205
0.1790557 -0.08873329 0.3464773 205 205 205
-0.04629584 -0.07573111 0.3923757 205 205 205
-0.04555286 -0.07691 0.3942737 205 205 205
-0.02918126 -0.08597333 0.4047585 205 205 205
-0.02543994 -0.08686516 0.404985 205 205 205
-0.01819613 -0.08947174 0.4070927 205 205 205
0.0002734832 -0.09656493 0.4134664 205 205 205
0.003981605 -0.09866592 0.4160397 205 205 205
0.01832383 -0.1029724 0.4189298 205 205 205
0.02764489 -0.1057733 0.4208791 205 205 205
0.04237613 -0.1076727 0.4193354 205 205 205
0.06894507 -0.1049514 0.4053916 205 205 205
0.06996683 -0.09977677 0.3953983 205 205 205
0.08569891 -0.09962094 0.3901047 205 205 205
0.110411 -0.1028937 0.3886532 205 205 205
0.1177666 -0.1027842 0.3862795 205 205 205
0.1292709 -0.1013937 0.3803843 205 205 205
0.1304704 -0.1013367 0.379938 205 205 205
0.1340596 -0.1011486 0.3785759 205 205 205
0.1609094 -0.1046599 0.3776869 205 205 205
0.1629282 -0.1054962 0.378684 205 205 205
0.1649593 -0.1063279 0.3796706 205 205 205
-0.04455914 -0.07829844 0.3938469 205 205 205
-0.0425887 -0.07981226 0.3958667 205 205 205
-0.03063242 -0.08677002 0.4040864 205 205 205
-0.02814049 -0.08737347 0.4042495 205 205 205
0.006283418 -0.1012181 0.4171108 205 205 205
0.007600785 -0.1014494 0.4170651 205 205 205
0.02341756 -0.1058982 0.4196926 205 205 205
0.0260888 -0.1062873 0.4194793 205 205 205
0.03407482 -0.1069051 0.4178548 205 205 205
0.03677418 -0.1077256 0.4184476 205 205 205
0.04350511 -0.1090103 0.4185326 205 205 205
0.0683475 -0.104631 0.4021883 205 205 205
0.071669 -0.0990831 0.3908579 205 205 205
0.08835894 -0.101792 0.3905959 205 205 205
0.117201 -0.1054099 0.3885504 205 205 205
0.1209445 -0.103318 0.3836165 205 205 205
0.1396965 -0.1034379 0.3784997 205 205 205
0.1461114 -0.1019318 0.3739757 205 205 205
0.1749571 -0.09589834 0.3554043 205 205 205
0.1759994 -0.0918662 0.347863 205 205 205
0.1792209 -0.09131885 0.346072 205 205 205
0.1825046 -0.08847089 0.3401372 205 205 205
-0.04158547 -0.08120142 0.3954192 205 205 205
-0.03667654 -0.08542833 0.4012579 205 205 205
-0.03332708 -0.08725183 0.4033145 205 205 205
-0.0201384 -0.09231579 0.4076158 205 205 205
-0.01900148 -0.09305283 0.4085427 205 205 205
0.03386474 -0.108077 0.4172191 205 205 205
0.03789937 -0.109068 0.4176607 205 205 205
0.04200708 -0.1105202 0.4189326 205 205 205
0.04744299 -0.1116115 0.4191054 205 205 205
0.06820085 -0.1014172 0.393588 205 205 205
0.07484089 -0.09940053 0.3877721 205 205 205
0.1139925 -0.1055887 0.3870947 205 205 205
0.1154989 -0.1060652 0.3875186 205 205 205
0.1299276 -0.1071367 0.3852817 205 205 205
0.1369282 -0.1062642 0.3817119 205 205 205
0.1410915 -0.1085835 0.3847463 205 205 205
0.1800396 -0.09332802 0.3469528 205 205 205
0.182307 -0.09065622 0.3416206 205 205 205
-0.04660153 -0.0809489 0.3943093 205 205 205
-0.04220355 -0.08314192 0.3965885 205 205 205
-0.00692137 -0.09918676 0.4125524 205 205 205
0.01631551 -0.1072154 0.4188728 205 205 205
0.02700093 -0.1088231 0.4180881 205 205 205
0.04442294 -0.11152 0.4170753 205 205 205
0.06977323 -0.1001971 0.3882063 205 205 205
0.0807366 -0.1042169 0.3920292 205 205 205
0.09250715 -0.1061062 0.3918 205 205 205
0.1264721 -0.1155345 0.398689 205 205 205
0.1858244 -0.09041552 0.3378624 205 205 205
-0.05300741 -0.07822805 0.3893384 205 205 205
-0.05016838 -0.08055744 0.3924177 205 205 205
-0.04897332 -0.08089724 0.3925683 205 205 205
-0.04139811 -0.08497705 0.3969972 205 205 205
-0.03935476 -0.08651162 0.398978 205 205 205
-0.02924754 -0.09202077 0.4050855 205 205 205
-0.02546825 -0.09291814 0.4052976 205 205 205
-0.01840295 -0.09648678 0.4091167 205 205 205
-0.01479164 -0.09824925 0.4109702 205 205 205
-0.0111284 -0.09999646 0.4127853 205 205 205
-0.0007862711 -0.1025278 0.4136286 205 205 205
0.004212644 -0.1053945 0.4170162 205 205 205
0.008141777 -0.1065733 0.4177535 205 205 205
0.02947549 -0.1108521 0.4180742 205 205 205
0.03215561 -0.1112141 0.4178146 205 205 205
0.04688884 -0.1129909 0.4160682 205 205 205
0.06609235 -0.1064375 0.3980006 205 205 205
0.06683382 -0.1045299 0.3943318 205 205 205
0.09840433 -0.109838 0.3940156 205 205 205
0.09966476 -0.1098558 0.3936651 205 205 205
0.1821585 -0.09786256 0.3494046 205 205 205
0.1828491 -0.09602622 0.3460062 205 205 205
-0.03956 -0.08758758 0.3983803 205 205 205
-0.03872022 -0.08880727 0.4002351 205 205 205
-0.03197154 -0.09250831 0.4043117 205 205 205
-0.02131016 -0.09749722 0.4092842 205 205 205
-0.001073353 -0.1041437 0.41387 205 205 205
0.01452371 -0.1098158 0.4185324 205 205 205
0.01986842 -0.1111465 0.4190644 205 205 205
0.0346523 -0.1132278 0.4177535 205 205 205
0.03733999 -0.1135673 0.417457 205 205 205
0.06761892 -0.1047127 0.3917637 205 205 205
0.07305212 -0.1025776 0.3862387 205 205 205
0.0780274 -0.1068119 0.3922144 205 205 205
0.08283247 -0.106532 0.3902173 205 205 205
0.0842572 -0.1070869 0.3907623 205 205 205
0.08655149 -0.1066705 0.3893121 205 205 205
0.09738324 -0.1119604 0.395398 205 205 205
0.1046689 -0.1140627 0.3969289 205 205 205
0.226266 -0.1461516 0.4197553 205 205 205
0.184759 -0.09785903 0.346228 205 205 205
-0.04201266 -0.08756113 0.3966753 205 205 205
-0.03912167 -0.09034077 0.4004992 205 205 205
-0.0382631 -0.09156989 0.4023474 205 205 205
-0.03235227 -0.09406374 0.4045682 205 205 205
-0.009248463 -0.1042188 0.4141589 205 205 205
-0.003992872 -0.1052602 0.4141394 205 205 205
0.004771369 -0.110837 0.420925 205 205 205
0.01163036 -0.1105399 0.4180215 205 205 205
0.01293611 -0.1112486 0.4188243 205 205 205
0.01562222 -0.1116843 0.4186707 205 205 205
0.03446722 -0.1148955 0.4179614 205 205 205
0.03581513 -0.1150674 0.4178149 205 205 205
0.03716293 -0.1152363 0.4176638 205 205 205
0.03851063 -0.1154022 0.4175083 205 205 205
0.04633699 -0.1143322 0.4130278 205 205 205
0.0478035 -0.1154768 0.414569 205 205 205
0.06594618 -0.1096793 0.3984556 205 205 205
0.08317719 -0.1091594 0.3921217 205 205 205
0.0881808 -0.1093399 0.3908955 205 205 205
0.09569972 -0.1125604 0.3942693 205 205 205
0.1872582 -0.09900308 0.3450845 205 205 205
-0.04907193 -0.085724 0.3935443 205 205 205
-0.040768 -0.09155279 0.4006434 205 205 205
-0.008436905 -0.1070603 0.4161319 205 205 205
-0.005521866 -0.1061442 0.4135041 205 205 205
0.04914255 -0.1182985 0.4162964 205 205 205
0.06749347 -0.1079167 0.392226 205 205 205
0.08369675 -0.112317 0.39485 205 205 205
0.09423254 -0.1136615 0.393966 205 205 205
0.09894098 -0.1188472 0.4015843 205 205 205
-0.05071775 -0.08688518 0.3936582 205 205 205
-0.04806744 -0.08711839 0.3930844 205 205 205
-0.04406703 -0.09027389 0.3970712 205 205 205
-0.04032109 -0.09433895 0.4027356 205 205 205
-0.03107602 -0.09920937 0.407824 205 205 205
-0.0237983 -0.1024404 0.4108184 205 205 205
0.0007213911 -0.1195249 0.4318576 205 205 205
0.008060472 -0.117325 0.4255199 205 205 205
0.03280731 -0.119574 0.4210882 205 205 205
0.0461641 -0.1186783 0.4151421 205 205 205
0.07400563 -0.1068967 0.3858273 205 205 205
0.07743727 -0.1101153 0.3903337 205 205 205
0.08494651 -0.1140018 0.39474 205 205 205
-0.04773173 -0.08987564 0.3952007 205 205 205
-0.04672899 -0.09067068 0.3961976 205 205 205
-0.04469758 -0.09225912 0.3981814 205 205 205
-0.04283608 -0.0943059 0.401015 205 205 205
-0.03659099 -0.09951961 0.4077066 205 205 205
-0.03402499 -0.1001602 0.4078871 205 205 205
-0.02116851 -0.108269 0.4172499 205 205 205
0.0160819 -0.120377 0.4252497 205 205 205
0.0188319 -0.1213088 0.4259285 205 205 205
0.0202188 -0.1215205 0.4258279 205 205 205
0.02983624 -0.1198868 0.4198158 205 205 205
0.04205871 -0.1209204 0.4175777 205 205 205
0.05164423 -0.1224568 0.4171122 205 205 205
0.07599007 -0.1111475 0.3899765 205 205 205
0.09002038 -0.1158119 0.3936605 205 205 205
-0.05037939 -0.09025031 0.3943022 205 205 205
-0.04816199 -0.09139484 0.3954435 205 205 205
-0.04715607 -0.09219474 0.3964387 205 205 205
-0.03476259 -0.1026854 0.4098335 205 205 205
-0.03363737 -0.1034777 0.4107821 205 205 205
-0.03103537 -0.1041099 0.4109377 205 205 205
-0.02652924 -0.1123502 0.423371 205 205 205
0.01854265 -0.124518 0.428686 205 205 205
0.03795294 -0.1241654 0.4216834 205 205 205
0.04194016 -0.1231204 0.4186054 205 205 205
0.07768805 -0.1143917 0.3924086 205 205 205
0.0867058 -0.1152832 0.3911526 205 205 205
-0.05566591 -0.08772594 0.3894885 205 205 205
-0.04596683 -0.09626115 0.4003661 205 205 205
-0.04513364 -0.09753249 0.4022093 205 205 205
-0.03942079 -0.1042426 0.4114836 205 205 205
0.02669335 -0.123901 0.4221337 205 205 205
0.0351208 -0.1275769 0.4255856 205 205 205
0.04057961 -0.1267164 0.4223609 205 205 205
0.06508567 -0.121418 0.4056038 205 205 205
0.06721924 -0.1143741 0.3930531 205 205 205
0.07449479 -0.1137893 0.3898045 205 205 205
0.0813654 -0.1198203 0.3978511 205 205 205
-0.05561846 -0.08830648 0.3880206 205 205 205
-0.04334873 -0.1038802 0.4096404 205 205 205
0.0251136 -0.1310472 0.4318523 205 205 205
0.03769241 -0.1291281 0.4245508 205 205 205
0.04174232 -0.128071 0.4214768 205 205 205
0.08462376 -0.1237053 0.4007223 205 205 205
-0.04574589 -0.1033593 0.407028 205 205 205
-0.04466074 -0.1041775 0.4080025 205 205 205
0.02621897 -0.1236797 0.4164414 205 205 205
0.04412356 -0.1280056 0.4178487 205 205 205
0.07899912 -0.1198851 0.3934772 205 205 205
-0.05237634 -0.09681066 0.396051 205 205 205
-0.04960252 -0.1029415 0.4051285 205 205 205
-0.04939673 -0.1056683 0.4095252 205 205 205
-0.04758346 -0.1152117 0.4245398 205 205 205
0.0452751 -0.1293344 0.4169486 205 205 205
0.0681378 -0.1188112 0.3924973 205 205 205
0.07767219 -0.1214671 0.3939234 205 205 205
-0.05530341 -0.09763183 0.3959531 205 205 205
-0.05329055 -0.09929231 0.3979515 205 205 205
0.07232225 -0.1222968 0.3943638 205 205 205
0.07316657 -0.1207574 0.3916003 205 205 205
-0.05749115 -0.09702368 0.3932936 205 205 205
-0.05918511 -0.09818399 0.3933212 205 205 205
-0.05862516 -0.1011337 0.3930033 205 205 205
