ply
format ascii 1.0
comment Generated by Floating Hands
element vertex 2057
property double x
property double y
property double z
property uchar red
property uchar green
property uchar blue
end_header
-0.0169811 0.06413142 0.4598098 0 0 0
-0.012301 0.06324764 0.4523079 0 0 0
-0.01116597 0.06300385 0.4534391 0 0 0
0.1260667 0.04796445 0.4533153 0 0 0
0.1244228 0.04827351 0.4433709 0 0 0
0.1235887 0.04848789 0.4363093 0 0 0
0.1252914 0.04878302 0.4252879 0 0 0
0.1272903 0.04881337 0.4235791 0 0 0
0.1292697 0.04885243 0.421858 0 0 0
0.1343025 0.04897137 0.4179723 0 0 0
0.1373414 0.04906175 0.4157898 0 0 0
-0.009024019 0.06116848 0.4556841 0 0 0
-0.005434114 0.06042924 0.4580321 0 0 0
-0.00330815 0.05994796 0.4632303 0 0 0
-0.001983013 0.05946213 0.4803828 0 0 0
0.124123 0.04733874 0.429812 0 0 0
0.1252399 0.04747454 0.4252569 0 0 0
0.1283933 0.04751127 0.4231623 0 0 0
0.1366 0.04784733 0.413886 0 0 0
-0.02112177 0.06201347 0.4693914 0 0 0
-0.01136579 0.06032004 0.4524297 0 0 0
-0.007826 0.05956808 0.4548007 0 0 0
0.137323 0.04663296 0.4124944 0 0 0
0.1395479 0.04668671 0.4116443 0 0 0
0.1402936 0.04675685 0.4102827 0 0 0
-0.01027584 0.0587311 0.4525451 0 0 0
-0.005737504 0.05771338 0.4580023 0 0 0
0.127768 0.04481307 0.4253662 0 0 0
-0.02209572 0.05949058 0.4642289 0 0 0
-0.01990276 0.05921565 0.4574581 0 0 0
-0.01813754 0.05894972 0.4536521 0 0 0
-0.01053328 0.05738991 0.4535183 0 0 0
-0.00938453 0.0571305 0.4546396 0 0 0
-0.003026593 0.0554897 0.4702531 0 0 0
0.1272322 0.04321212 0.4317846 0 0 0
0.1337834 0.04385804 0.4168752 0 0 0
0.1461456 0.04417193 0.4121304 0 0 0
0.1326073 0.04051843 0.4572538 0 0 0
0.1299845 0.04220081 0.4244862 0 0 0
0.1394248 0.04286914 0.411503 0 0 0
0.1412812 0.04298438 0.4097072 0 0 0
0.1472225 0.0429308 0.411621 0 0 0
-0.02613477 0.05724772 0.471739 0 0 0
-0.008634063 0.05416304 0.4566909 0 0 0
-0.007558652 0.05387941 0.4587991 0 0 0
-0.005534256 0.05327496 0.464997 0 0 0
0.1338256 0.03907449 0.456784 0 0 0
0.1386231 0.0415133 0.4128059 0 0 0
0.1427174 0.04169682 0.4101386 0 0 0
0.1441779 0.04188458 0.4073984 0 0 0
0.1650706 0.03997399 0.440872 0 0 0
-0.0213867 0.05545366 0.4552196 0 0 0
-0.01736849 0.05466651 0.4537152 0 0 0
-0.005310142 0.05139716 0.4760204 0 0 0
0.1331723 0.03986931 0.4189915 0 0 0
0.1344274 0.04008489 0.4153562 0 0 0
0.1385773 0.04023882 0.4127439 0 0 0
0.1430459 0.0403672 0.4110032 0 0 0
-0.01627751 0.05306309 0.4538229 0 0 0
-0.006546922 0.05030759 0.4728768 0 0 0
0.1326051 0.03796152 0.4286194 0 0 0
0.1327993 0.03816525 0.4253846 0 0 0
0.1374085 0.03893839 0.413102 0 0 0
0.1385303 0.03896519 0.4126769 0 0 0
0.1399873 0.03421356 0.4628864 0 0 0
0.1365333 0.03524794 0.4482636 0 0 0
0.1372837 0.03743554 0.4162545 0 0 0
0.1396031 0.0377214 0.4121758 0 0 0
0.1429573 0.03782193 0.4108634 0 0 0
0.1530265 0.03798657 0.4099285 0 0 0
-0.02174526 0.05144909 0.4540905 0 0 0
0.1374029 0.03392114 0.4468124 0 0 0
0.1354082 0.03465614 0.4369546 0 0 0
0.1410382 0.03640901 0.4125942 0 0 0
0.1440268 0.03658855 0.4103404 0 0 0
0.1476981 0.03690503 0.4066786 0 0 0
0.1632662 0.03568885 0.4238595 0 0 0
-0.02904012 0.05089896 0.467169 0 0 0
-0.01676214 0.04905511 0.4536645 0 0 0
0.1013733 0.03138903 0.4875216 0 0 0
0.1048091 0.03184047 0.4765678 0 0 0
0.1394502 0.03492041 0.4152403 0 0 0
0.1421121 0.03516798 0.4120729 0 0 0
0.1517508 0.03564759 0.4070231 0 0 0
-0.02333248 0.04905396 0.4538037 0 0 0
-0.02207705 0.04877606 0.4539711 0 0 0
-0.01830583 0.04795556 0.4544445 0 0 0
-0.0146425 0.0471191 0.4558677 0 0 0
-0.01001136 0.04427937 0.4884377 0 0 0
0.02482032 0.03778945 0.4967466 0 0 0
0.03027593 0.03788439 0.4806836 0 0 0
0.09809352 0.03064555 0.4789213 0 0 0
0.09953725 0.03183552 0.4592422 0 0 0
0.1126719 0.0296649 0.4797231 0 0 0
0.1420891 0.0302425 0.4565706 0 0 0
0.1378081 0.0316244 0.4401225 0 0 0
0.1413013 0.03377992 0.4133531 0 0 0
0.1439321 0.03404847 0.4101709 0 0 0
-0.01847051 0.04661889 0.4543756 0 0 0
-0.01194571 0.04461338 0.465128 0 0 0
-0.0106999 0.04347752 0.4792894 0 0 0
0.09623327 0.02940543 0.4771461 0 0 0
0.09669029 0.03106887 0.4526089 0 0 0
0.1007202 0.03079735 0.4527297 0 0 0
0.1174299 0.02776348 0.4814876 0 0 0
0.1410184 0.0294039 0.4494349 0 0 0
0.1416122 0.03241874 0.4141887 0 0 0
0.1472279 0.03290882 0.4087162 0 0 0
0.15277 0.03316825 0.406364 0 0 0
-0.03658917 0.04701233 0.4851004 0 0 0
0.1054809 0.02928227 0.4504574 0 0 0
0.1376432 0.02989659 0.4283133 0 0 0
0.1392079 0.03078316 0.4181878 0 0 0
0.1501183 0.0318778 0.4063045 0 0 0
0.1556216 0.03217066 0.4038989 0 0 0
0.157547 0.03206482 0.4052173 0 0 0
-0.03464559 0.04603605 0.4722022 0 0 0
-0.02775749 0.04586528 0.4540451 0 0 0
-0.01290884 0.04155872 0.4709245 0 0 0
0.02975433 0.03396774 0.4744235 0 0 0
0.03111701 0.03370168 0.4753857 0 0 0
0.09294017 0.02788501 0.4612957 0 0 0
0.09326446 0.02825516 0.4561464 0 0 0
0.09395104 0.02845071 0.4529514 0 0 0
0.09966056 0.028395 0.4486388 0 0 0
0.1036648 0.02813754 0.4487214 0 0 0
0.109187 0.02776506 0.4494024 0 0 0
0.1392696 0.02810609 0.432891 0 0 0
0.1377432 0.02886527 0.424973 0 0 0
0.147514 0.0302838 0.4094357 0 0 0
0.1559901 0.03082015 0.4047034 0 0 0
-0.0309281 0.04498776 0.4565446 0 0 0
-0.02400619 0.04372123 0.4535016 0 0 0
-0.01909598 0.04256517 0.4551272 0 0 0
-0.01795492 0.04224324 0.4562655 0 0 0
0.03682179 0.03043432 0.4890423 0 0 0
0.09277195 0.02705343 0.4540843 0 0 0
0.09704397 0.02715284 0.4490983 0 0 0
0.09830587 0.02709027 0.4488164 0 0 0
0.1041359 0.02700303 0.4454022 0 0 0
0.1071129 0.02671834 0.4467146 0 0 0
0.1448464 0.02901982 0.4093226 0 0 0
0.1492354 0.02954402 0.4042669 0 0 0
-0.0205287 0.04150304 0.4548847 0 0 0
-0.01521731 0.03964581 0.464523 0 0 0
0.01700069 0.03174458 0.4912619 0 0 0
0.09547047 0.02242774 0.4899516 0 0 0
0.104045 0.02564686 0.445288 0 0 0
0.1420496 0.02493123 0.4368993 0 0 0
0.1408917 0.02673863 0.419288 0 0 0
0.1416889 0.02686971 0.4179191 0 0 0
0.1444186 0.02751419 0.4115064 0 0 0
-0.03733152 0.04259205 0.4685495 0 0 0
-0.02560538 0.04134396 0.453148 0 0 0
-0.01507713 0.03745371 0.473482 0 0 0
-0.01608609 0.0358214 0.4954436 0 0 0
0.01700702 0.03088094 0.4831721 0 0 0
0.0279413 0.03015082 0.4711428 0 0 0
0.02931544 0.0297064 0.4741015 0 0 0
0.09981115 0.02409811 0.4502374 0 0 0
0.1428608 0.02369372 0.4353953 0 0 0
0.1419916 0.02434429 0.4293556 0 0 0
0.1423459 0.02536906 0.4196557 0 0 0
0.1476437 0.02709067 0.4035911 0 0 0
0.1516236 0.02741515 0.4007984 0 0 0
-0.01883575 0.0380374 0.4589458 0 0 0
0.09383157 0.02218077 0.4605506 0 0 0
0.116674 0.02194084 0.4478567 0 0 0
0.1430817 0.02421081 0.4181587 0 0 0
0.1454222 0.02537843 0.4075989 0 0 0
0.1475914 0.02584399 0.4034708 0 0 0
0.1512846 0.02590203 0.402974 0 0 0
0.1619039 0.02563148 0.4058363 0 0 0
-0.02483387 0.03834237 0.4541006 0 0 0
-0.02356915 0.03805935 0.4542656 0 0 0
-0.02244077 0.03771539 0.4554144 0 0 0
0.09573614 0.02095847 0.4569478 0 0 0
0.09748972 0.02126279 0.4524972 0 0 0
0.1027401 0.02152376 0.4461848 0 0 0
0.103997 0.02147306 0.4458801 0 0 0
0.1107663 0.02103199 0.4462123 0 0 0
0.1185693 0.02073613 0.4450966 0 0 0
0.1219151 0.02035709 0.4472286 0 0 0
0.1441084 0.021365 0.4314381 0 0 0
0.1478513 0.02487182 0.401055 0 0 0
0.1515241 0.02493235 0.4005531 0 0 0
-0.0334974 0.03917864 0.4507367 0 0 0
-0.03066621 0.03870801 0.4491564 0 0 0
-0.02374122 0.03672812 0.4541545 0 0 0
0.01543251 0.02773397 0.4718319 0 0 0
0.1079107 0.01986355 0.4457661 0 0 0
0.1139257 0.01979706 0.4431425 0 0 0
0.1263588 0.01813009 0.4529922 0 0 0
0.1446624 0.02066184 0.425753 0 0 0
0.145317 0.02247288 0.4105541 0 0 0
0.1566591 0.02372622 0.4002848 0 0 0
-0.02405572 0.0353278 0.4550252 0 0 0
0.02332113 0.02494831 0.4726968 0 0 0
0.02466739 0.02474187 0.4726798 0 0 0
0.03021655 0.0228525 0.4835066 0 0 0
0.09832943 0.01792222 0.4570725 0 0 0
0.09920408 0.01809398 0.4548422 0 0 0
0.1032282 0.01845582 0.448808 0 0 0
0.1090741 0.018463 0.4453002 0 0 0
0.1125852 0.01847336 0.4433416 0 0 0
0.1261106 0.0173127 0.4477042 0 0 0
0.1285516 0.01682095 0.4511073 205 205 205
0.1395255 0.01343557 0.4767956 205 205 205
0.144337 0.01985079 0.421455 0 0 0
0.1448354 0.02052425 0.4159304 0 0 0
0.1540107 0.02246185 0.4002299 0 0 0
-0.03742984 0.03675557 0.4559886 0 0 0
-0.03243063 0.03631296 0.4497181 0 0 0
-0.03009009 0.03565421 0.4510795 0 0 0
-0.02883432 0.03536223 0.4512615 0 0 0
0.01386746 0.02543827 0.4685606 0 0 0
0.02048554 0.02405923 0.4715823 0 0 0
0.0272429 0.02241765 0.4774643 0 0 0
0.1006394 0.01285465 0.4888941 205 205 205
0.09931204 0.01658606 0.455663 205 205 205
0.1018571 0.01714331 0.4489639 0 0 0
0.1031284 0.01708965 0.4486607 0 0 0
0.1112407 0.01715307 0.4435312 0 0 0
0.1124928 0.01711913 0.4431943 0 0 0
0.1147296 0.01718238 0.4415504 0 0 0
0.1227531 0.01680988 0.4412869 0 0 0
0.1447713 0.01923669 0.4157865 0 0 0
0.1477587 0.0207441 0.4038544 0 0 0
0.1606826 0.02121604 0.4002932 0 0 0
0.1622069 0.02117483 0.400674 0 0 0
-0.0326074 0.03500034 0.4495944 0 0 0
-0.02124439 0.03141678 0.4601789 0 0 0
0.009252505 0.0236528 0.4792766 0 0 0
0.02031719 0.02255332 0.4724329 0 0 0
0.02166453 0.02234131 0.4724251 0 0 0
0.02711381 0.02056654 0.4812939 0 0 0
0.02858743 0.01940585 0.4902092 0 0 0
0.1011129 0.01256371 0.4774393 205 205 205
0.1034813 0.01547114 0.4504394 205 205 205
0.109128 0.01562014 0.4459615 205 205 205
0.1178227 0.01601675 0.4384298 205 205 205
0.1480888 0.01937176 0.4046221 0 0 0
0.1545829 0.02017181 0.3985543 0 0 0
0.1619498 0.0203725 0.3973309 0 0 0
-0.0259974 0.03153755 0.4554644 0 0 0
-0.02128746 0.03014907 0.4590553 0 0 0
-0.02044479 0.02714946 0.484201 0 0 0
0.00938579 0.02293472 0.4721687 0 0 0
0.02419887 0.02008362 0.4762203 0 0 0
0.1022762 0.01185956 0.4698778 205 205 205
0.1019055 0.01283638 0.4618282 205 205 205
0.1021324 0.01342743 0.4566881 205 205 205
0.1100447 0.01435249 0.4445136 205 205 205
0.1123044 0.01441373 0.4428841 205 205 205
0.1132973 0.014514 0.4415857 205 205 205
0.1157916 0.01445842 0.4408908 205 205 205
0.1207661 0.01437626 0.439447 205 205 205
0.1484611 0.01435328 0.4320827 205 205 205
0.146478 0.01600842 0.420087 0 0 0
0.1461628 0.01657515 0.4159462 0 0 0
-0.03078217 0.03162324 0.4516727 0 0 0
-0.02760051 0.03041078 0.4561422 0 0 0
-0.02632161 0.0301197 0.4563114 0 0 0
-0.02261617 0.02917287 0.4577767 0 0 0
-0.02088724 0.02680748 0.4750102 0 0 0
0.02000194 0.01974258 0.4721272 0 0 0
0.02268272 0.01898406 0.4750868 0 0 0
0.105245 0.01227242 0.4526979 205 205 205
0.1083894 0.01253676 0.4488486 205 205 205
0.1112061 0.01296096 0.4440167 205 205 205
0.1154316 0.01324723 0.4397737 205 205 205
0.1164038 0.01335911 0.4384673 205 205 205
0.1235197 0.01340202 0.4353137 205 205 205
0.1290317 0.01311549 0.4356422 205 205 205
0.133371 0.0123055 0.4404711 205 205 205
-0.03456667 0.03128653 0.4499787 0 0 0
0.01722951 0.01922591 0.4679951 0 0 0
0.01854609 0.01889631 0.4689897 0 0 0
0.1197416 0.01210379 0.4362667 205 205 205
0.1231395 0.01220845 0.4342 205 205 205
0.1298655 0.01191703 0.4341305 205 205 205
0.1335819 0.01136894 0.4370666 205 205 205
0.1491672 0.01182916 0.4303506 205 205 205
0.0007748668 0.01751518 0.4932867 205 205 205
0.1097066 0.009613263 0.4491336 205 205 205
0.1112601 0.01011062 0.4446315 205 205 205
0.1230504 0.01087975 0.4340279 205 205 205
0.1270228 0.01072209 0.4338127 205 205 205
0.1494185 0.01333361 0.4108417 205 205 205
0.1519714 0.01427035 0.4043876 205 205 205
0.152684 0.01447378 0.4029995 205 205 205
0.1584692 0.01517294 0.3982331 0 0 0
0.1606515 0.01532989 0.3972158 0 0 0
0.1626068 0.01513311 0.3984819 0 0 0
0.1658812 0.01539403 0.396905 0 0 0
-0.0361829 0.02896903 0.4494848 0 0 0
0.004906347 0.01851234 0.4674342 0 0 0
0.01813563 0.01550803 0.4736162 205 205 205
0.0194648 0.01504575 0.4755967 205 205 205
0.02078768 0.01433773 0.4795569 205 205 205
0.110195 0.004758795 0.4743018 205 205 205
0.1100019 0.00725448 0.455999 205 205 205
0.1163904 0.009200447 0.4389017 205 205 205
0.1188766 0.009159912 0.4381809 205 205 205
0.1235953 0.009841453 0.4315812 205 205 205
0.1266322 0.009538898 0.4326929 205 205 205
0.1497355 0.01191489 0.4115803 205 205 205
0.1533261 0.01343548 0.4014409 205 205 205
0.1669156 0.01424137 0.396201 205 205 205
0.1754407 0.01245034 0.4074388 205 205 205
-0.03436655 0.02676759 0.4526633 0 0 0
-0.0002034144 0.01622326 0.4809701 205 205 205
0.01281029 0.01598249 0.4654715 205 205 205
0.1219287 0.008082868 0.434991 205 205 205
0.1237998 0.008370942 0.4323431 205 205 205
0.1569274 0.004473425 0.4500321 205 205 205
0.1523534 0.006932748 0.4348375 205 205 205
0.1629208 0.01340267 0.3935452 205 205 205
-0.02811665 0.02282741 0.4614357 0 0 0
0.0072882 0.01540199 0.466176 205 205 205
0.01128137 0.01470823 0.4662643 205 205 205
0.01261321 0.01448183 0.466284 205 205 205
0.04456244 0.006591865 0.4891234 205 205 205
0.1218349 0.00675347 0.4348031 205 205 205
0.1255263 0.006733442 0.4336545 205 205 205
0.1310197 0.007060461 0.4297808 205 205 205
0.1346567 0.007098605 0.4285344 205 205 205
0.138077 0.00666908 0.4304704 205 205 205
0.13997 0.006380482 0.4318903 205 205 205
0.1429003 0.005627993 0.4360814 205 205 205
0.147935 0.003946081 0.4458087 205 205 205
0.1540089 0.01064549 0.4028904 205 205 205
0.1558222 0.01093507 0.4010047 205 205 205
0.005790523 0.01426389 0.4659535 205 205 205
0.1156009 1.654998E-06 0.4732572 205 205 205
0.1131321 0.004023397 0.4473581 205 205 205
0.1166333 0.00486859 0.4402363 205 205 205
0.1260593 0.005723531 0.4311894 205 205 205
0.1302992 0.006060556 0.4277176 205 205 205
0.1330356 0.005923919 0.4278285 205 205 205
0.1527965 0.005089683 0.4288894 205 205 205
0.1593243 0.01030412 0.3970212 205 205 205
-0.03835401 0.02394654 0.4496081 0 0 0
-0.033984 0.02229088 0.4543083 0 0 0
-0.02978984 0.02042232 0.4609129 0 0 0
0.01083431 0.01155516 0.4688604 205 205 205
0.01217883 0.01132596 0.4688797 205 205 205
0.0409076 0.005617039 0.4780327 205 205 205
0.04692313 0.003725411 0.4855353 205 205 205
0.0486532 0.002807157 0.4903558 205 205 205
0.111481 -0.003324285 0.4872586 205 205 205
0.1145482 0.001677486 0.4528758 205 205 205
0.1200115 0.003632351 0.4379944 205 205 205
0.1320568 0.004432993 0.4289788 205 205 205
0.1554945 0.007506972 0.4061165 205 205 205
0.155807 0.007896825 0.4038213 205 205 205
0.1644572 0.01006405 0.3910673 205 205 205
0.1664289 0.009843041 0.3922966 205 205 205
-0.03305496 0.02054894 0.4552935 0 0 0
-0.02839823 0.01765829 0.4679367 205 205 205
0.00673508 0.01114564 0.4665981 205 205 205
0.04664907 0.002565698 0.4833481 205 205 205
0.09434178 -0.001814526 0.476656 205 205 205
0.09499098 -0.0001652612 0.4654434 205 205 205
0.1177703 0.001346356 0.444575 205 205 205
0.1280063 0.003258903 0.4290606 205 205 205
0.1402545 0.002729198 0.4289919 205 205 205
0.1421596 0.00242276 0.430394 205 205 205
0.1530996 0.002787712 0.4261644 205 205 205
0.1543529 0.005619136 0.4096115 205 205 205
0.1591979 0.00783757 0.3966402 205 205 205
0.162686 0.008501011 0.3928063 205 205 205
0.1643981 0.008844796 0.3908761 205 205 205
0.1680673 0.008973512 0.3901525 205 205 205
0.1866544 0.005050108 0.4116614 205 205 205
-0.008466224 0.009740927 0.4845519 205 205 205
0.001486915 0.01128835 0.4622624 205 205 205
0.002744609 0.01090736 0.4633031 205 205 205
0.03118378 0.001372333 0.4959019 205 205 205
0.03640031 0.003462839 0.4768669 205 205 205
0.03774827 0.003428849 0.4758031 205 205 205
0.09850421 -0.001462465 0.4624222 205 205 205
0.1049717 -0.001599543 0.4599187 205 205 205
0.1182388 -0.001188806 0.4513677 205 205 205
0.1288174 0.002124002 0.4275172 205 205 205
0.1303434 0.001960688 0.4280458 205 205 205
0.1360615 0.002210258 0.4250241 205 205 205
0.1557705 -0.002315518 0.4471211 205 205 205
0.1554244 0.004411582 0.4089134 205 205 205
0.1561628 0.004647648 0.4075158 205 205 205
0.1576139 0.006694184 0.3960584 205 205 205
0.1587074 0.006773193 0.3955531 205 205 205
0.1589417 0.007188412 0.3932681 205 205 205
0.1654112 0.007721186 0.3901512 205 205 205
-0.03342537 0.01789402 0.4549159 0 0 0
-0.002721419 0.01053821 0.4628624 205 205 205
0.002574009 0.009546691 0.4630997 205 205 205
0.003899152 0.009304883 0.4631469 205 205 205
0.01149288 0.006440878 0.473214 205 205 205
0.01402114 0.004947257 0.4801566 205 205 205
0.03085009 0.001422207 0.4857949 205 205 205
0.0361777 0.002351696 0.4746742 205 205 205
0.03897006 0.001822922 0.4755037 205 205 205
0.04817634 -0.00164243 0.4896869 205 205 205
0.09357757 -0.003096931 0.4662472 205 205 205
0.09838102 -0.00287262 0.462198 205 205 205
0.1044065 -0.002657987 0.457776 205 205 205
0.123728 -0.0081197 0.4822882 205 205 205
0.1210312 -0.004502545 0.4615788 205 205 205
0.1256442 -0.0002459301 0.4345139 205 205 205
0.1363053 0.0007286028 0.4257383 205 205 205
0.1425121 0.0001358943 0.4276699 205 205 205
0.1538203 0.0009273932 0.4211175 205 205 205
0.1772081 0.006180441 0.3916238 205 205 205
0.1768487 0.006796693 0.3884633 205 205 205
-0.03764969 0.01853257 0.4480963 0 0 0
-0.03455312 0.01712133 0.4525794 205 205 205
-0.03053408 0.01502896 0.4601426 205 205 205
-0.0001052351 0.008967552 0.4608086 205 205 205
0.004998843 0.007558193 0.4639675 205 205 205
0.007514956 0.006639527 0.4670006 205 205 205
0.03054025 0.001392536 0.4766816 205 205 205
0.03598695 0.001096666 0.4734649 205 205 205
0.04640568 -0.002453946 0.4866142 205 205 205
0.0998062 -0.004525318 0.4626308 205 205 205
0.1286449 -0.001213126 0.4312275 205 205 205
0.1343476 -0.0002428343 0.4240939 205 205 205
0.1401756 -0.0006822372 0.4251335 205 205 205
0.1594563 -0.004996018 0.4451293 205 205 205
0.1556763 0.001693605 0.4093908 205 205 205
0.1567476 0.002360959 0.4056979 205 205 205
0.1583817 0.004927322 0.3919761 205 205 205
-0.03693395 0.01667437 0.4500462 205 205 205
0.004827697 0.006195318 0.4637522 205 205 205
0.007294754 0.005111979 0.4677701 205 205 205
0.0303298 0.000459189 0.4734932 205 205 205
0.03865153 -0.001016352 0.4750504 205 205 205
0.04159785 -0.002045796 0.4788116 205 205 205
0.04471093 -0.003407822 0.4845174 205 205 205
0.0464154 -0.004425341 0.4893283 205 205 205
0.109703 -0.005830914 0.4569559 205 205 205
0.1166581 -0.008143957 0.4673351 205 205 205
0.1233909 -0.005610356 0.4501205 205 205 205
0.1285471 -0.002533637 0.4310032 205 205 205
0.1363226 -0.001315901 0.4220937 205 205 205
0.137858 -0.001473194 0.4225838 205 205 205
0.140599 -0.001597193 0.4226235 205 205 205
0.1545314 -0.004042276 0.4330537 205 205 205
0.1685818 0.004830536 0.3856429 205 205 205
-0.03730084 0.01523982 0.4508174 205 205 205
-0.0330282 0.01335055 0.4564438 205 205 205
-0.01322391 0.005117194 0.4814077 205 205 205
-0.01084417 0.006302471 0.4716651 205 205 205
0.02466237 -0.003908199 0.4961267 205 205 205
0.02879121 -0.0007487313 0.4733129 205 205 205
0.03849096 -0.002434002 0.4748154 205 205 205
0.04152736 -0.003820673 0.4805421 205 205 205
0.09590381 -0.007507086 0.4649671 205 205 205
0.1258534 -0.005352003 0.4398555 205 205 205
0.1311799 -0.003264656 0.4267553 205 205 205
0.1394692 -0.002339278 0.419638 205 205 205
0.1565976 -0.0001589786 0.4052594 205 205 205
0.1569117 0.0002813194 0.4029692 205 205 205
0.1575857 0.002239503 0.3929447 205 205 205
0.1669993 0.003701828 0.3851006 205 205 205
0.1675952 0.003985339 0.383693 205 205 205
0.1713187 0.004600663 0.3806446 205 205 205
-0.03203331 0.005465344 0.4923044 205 205 205
-0.007393911 0.005890516 0.4617746 205 205 205
-0.003420659 0.005115675 0.4619999 205 205 205
0.00802089 0.001156874 0.4732598 205 205 205
0.02862583 -0.002154902 0.4730754 205 205 205
0.1012628 -0.008124888 0.4574575 205 205 205
0.1025927 -0.008183341 0.4571458 205 205 205
0.1074363 -0.008011133 0.4539443 205 205 205
0.1366571 -0.003496734 0.4193618 205 205 205
0.1515977 -0.002750865 0.4124869 205 205 205
0.153531 -0.002440411 0.4106086 205 205 205
0.1538955 -0.001999077 0.4083176 205 205 205
0.158363 0.0006521624 0.3944981 205 205 205
0.1667851 0.002032374 0.3871613 205 205 205
0.1681202 0.003079314 0.3820696 205 205 205
0.1798168 0.002260837 0.3858698 205 205 205
-0.03564812 0.01158883 0.4536956 205 205 205
-0.03075386 0.008639864 0.4643404 205 205 205
-0.008895989 0.004803256 0.4614621 205 205 205
-0.004838394 0.004177057 0.460717 205 205 205
-0.002424439 0.00319163 0.4638046 205 205 205
0.004136413 0.001627205 0.466029 205 205 205
0.008917199 -0.001636539 0.4799406 205 205 205
0.02707088 -0.003010463 0.47091 205 205 205
0.03119414 -0.003783941 0.4717383 205 205 205
0.09774822 -0.009903646 0.4609952 205 205 205
0.1055383 -0.008960077 0.4521161 205 205 205
0.1302222 -0.01579121 0.4789712 205 205 205
0.138595 -0.004527356 0.4173365 205 205 205
0.1482388 -0.005647882 0.4209929 205 205 205
0.1798362 0.001534574 0.3833561 205 205 205
-0.03913911 0.01163296 0.4499766 205 205 205
-0.006426046 0.002928317 0.4613923 205 205 205
-0.002679215 0.001669731 0.4645522 205 205 205
0.03104628 -0.005362757 0.4724737 205 205 205
0.1122144 -0.01074501 0.4511294 205 205 205
0.1477814 -0.006755101 0.4198397 205 205 205
0.1510442 -0.00510844 0.4111111 205 205 205
0.1540836 -0.004069799 0.4055613 205 205 205
0.1583784 -0.002452797 0.3972079 205 205 205
0.1623562 -0.0007691642 0.3888283 205 205 205
0.1638773 -0.0008677331 0.3891794 205 205 205
-0.03620177 0.008807619 0.4542181 205 205 205
-0.03330478 0.006989757 0.4606052 205 205 205
-0.03246764 0.006232489 0.4637043 205 205 205
-0.0029356 0.0001414811 0.465293 205 205 205
0.002126458 -0.001711555 0.4704229 205 205 205
0.01819419 -0.007895736 0.4892893 205 205 205
0.03512584 -0.008082487 0.4759461 205 205 205
0.1308186 -0.01012442 0.4340456 205 205 205
0.1326414 -0.008871914 0.4272304 205 205 205
0.1335408 -0.008652335 0.4258841 205 205 205
0.1353135 -0.008206176 0.4231862 205 205 205
0.1402908 -0.007454396 0.4182425 205 205 205
0.1513429 -0.00658048 0.4117684 205 205 205
0.1573164 -0.004436811 0.4006465 205 205 205
0.1677967 -0.000983418 0.3836662 205 205 205
0.1683907 -0.0006811924 0.3822595 205 205 205
0.1689758 -0.0003774225 0.3808527 205 205 205
-0.03464615 0.006109762 0.4592155 205 205 205
-0.03346497 0.004112103 0.468338 205 205 205
-0.03521317 -0.0009987388 0.4969779 205 205 205
-0.001920705 -0.00182059 0.4670697 205 205 205
0.0005824747 -0.002845004 0.470124 205 205 205
0.02656826 -0.007192439 0.4701529 205 205 205
0.03351714 -0.008932162 0.4737922 205 205 205
0.03996271 -0.01404248 0.4960347 205 205 205
0.104301 -0.01344174 0.4535698 205 205 205
0.1161696 -0.01279575 0.4453987 205 205 205
0.1227127 -0.01390867 0.4486008 205 205 205
0.1309229 -0.01332891 0.4429836 205 205 205
0.1372922 -0.009245127 0.4211489 205 205 205
0.1481195 -0.008226753 0.4138606 205 205 205
0.1539595 -0.00725719 0.4082538 205 205 205
0.155794 -0.006233824 0.4031879 205 205 205
0.1572362 -0.005677738 0.400403 205 205 205
0.1586432 -0.005114043 0.3976149 205 205 205
0.1593335 -0.004829393 0.3962198 205 205 205
0.1595882 -0.004341023 0.3939423 205 205 205
0.1622119 -0.003178156 0.3883594 205 205 205
-0.03466997 0.004926288 0.4579985 205 205 205
0.02365459 -0.008355995 0.4709534 205 205 205
0.03646536 -0.01283811 0.484162 205 205 205
0.132098 -0.01469002 0.4422948 205 205 205
0.1346302 -0.01210149 0.4290627 205 205 205
0.1375312 -0.01074606 0.42181 205 205 205
0.1464045 -0.01002238 0.4163592 205 205 205
0.1475908 -0.009973324 0.4158883 205 205 205
0.1542313 -0.008038262 0.4057178 205 205 205
0.1549755 -0.007760975 0.4043285 205 205 205
0.1601807 -0.005268017 0.3923039 205 205 205
0.1614942 -0.004678274 0.3895139 205 205 205
0.1621378 -0.004380761 0.3881181 205 205 205
0.1653678 -0.004088784 0.3865357 205 205 205
0.1665964 -0.003476573 0.3837304 205 205 205
-0.03899182 0.005797731 0.45118 205 205 205
-0.03486254 0.003593083 0.4577502 205 205 205
-0.03421392 0.002642349 0.4618176 205 205 205
-0.03456428 -0.001047295 0.4806649 205 205 205
-0.0153263 -0.001181972 0.4618202 205 205 205
-0.006077976 -0.003249248 0.4634183 205 205 205
0.003467991 -0.00909465 0.4844481 205 205 205
0.01798461 -0.008884281 0.4707895 205 205 205
0.02348644 -0.009557757 0.4697028 205 205 205
0.03179364 -0.01155169 0.4733206 205 205 205
0.03472953 -0.01311402 0.4790599 205 205 205
0.1081427 -0.01531563 0.4469595 205 205 205
0.1366632 -0.01316203 0.4270115 205 205 205
0.1566599 -0.007945187 0.3990155 205 205 205
0.1687714 -0.003931288 0.3801382 205 205 205
0.1693502 -0.003613333 0.3787335 205 205 205
0.1699203 -0.003293897 0.3773287 205 205 205
0.1756112 0.0003166378 0.3618796 205 205 205
-0.03636638 0.002576853 0.4573175 205 205 205
-0.0236662 -0.0051736 0.4825884 205 205 205
-0.01017948 -0.003627025 0.4619409 205 205 205
0.002160601 -0.009348469 0.4792265 205 205 205
0.002994301 -0.01146446 0.4890714 205 205 205
0.01203822 -0.01088736 0.4783924 205 205 205
0.01786722 -0.009696421 0.4675728 205 205 205
0.02057117 -0.01051861 0.469492 205 205 205
0.103537 -0.02108677 0.4698921 205 205 205
0.1317877 -0.0182959 0.4458706 205 205 205
0.1409477 -0.01323451 0.4199479 205 205 205
0.1562686 -0.00968423 0.4010349 205 205 205
0.1572832 -0.008885333 0.397369 205 205 205
0.1630655 -0.006686559 0.3870981 205 205 205
0.1770859 -0.003602476 0.3731527 205 205 205
0.1801551 -0.003197297 0.3714137 205 205 205
0.1801516 -0.002649161 0.3691571 205 205 205
-0.03493733 -0.000385449 0.463242 205 205 205
-0.02031987 -0.003907797 0.4658404 205 205 205
-0.01026443 -0.004793404 0.4606959 205 205 205
0.0190729 -0.01109523 0.4662968 205 205 205
0.1228791 -0.01788178 0.4401632 205 205 205
0.1686284 -0.00629418 0.3796394 205 205 205
-0.03544321 -0.0003978776 0.4569735 205 205 205
-0.02689063 -0.007405673 0.4817485 205 205 205
-0.01531155 -0.004307574 0.4561416 205 205 205
-0.006892086 -0.007874327 0.4655477 205 205 205
0.0002490254 -0.01230942 0.4805731 205 205 205
0.01345721 -0.01157684 0.4660637 205 205 205
0.0257201 -0.01454156 0.47074 205 205 205
0.02710124 -0.01474772 0.4706906 205 205 205
0.107134 -0.02520789 0.473379 205 205 205
0.1087132 -0.02028167 0.4498919 205 205 205
0.1111032 -0.02013299 0.4482582 205 205 205
0.1186386 -0.01896211 0.4400877 205 205 205
0.11992 -0.01897764 0.4397107 205 205 205
0.1358162 -0.02033314 0.4407993 205 205 205
0.1448292 -0.01519781 0.4157522 205 205 205
0.1456545 -0.01492571 0.414382 205 205 205
0.1464711 -0.01465139 0.4130104 205 205 205
0.1530834 -0.01260364 0.4028851 205 205 205
0.1542249 -0.01253319 0.4023905 205 205 205
0.1560948 -0.0121626 0.4005039 205 205 205
0.156816 -0.01186294 0.399115 205 205 205
0.1602896 -0.01033626 0.3921591 205 205 205
0.1667577 -0.008455361 0.3835885 205 205 205
0.1764547 -0.005727232 0.3718079 205 205 205
0.1768019 -0.002011351 0.356958 205 205 205
0.1740988 -0.0003987549 0.3506064 205 205 205
0.1432772 0.01316511 0.2972809 0 0 0
-0.03994846 0.0004093973 0.4511248 205 205 205
-0.0380823 -0.0009162013 0.4553744 205 205 205
-0.03598084 -0.002072851 0.4586434 205 205 205
-0.0332985 -0.004427059 0.4669207 205 205 205
-0.02543857 -0.0066502 0.4697734 205 205 205
-0.01286588 -0.006180814 0.4560648 205 205 205
-0.008245397 -0.008586682 0.4632386 205 205 205
-0.007077863 -0.009236443 0.4652662 205 205 205
0.0227994 -0.01489274 0.4675971 205 205 205
0.107778 -0.02339258 0.4578364 205 205 205
0.1208026 -0.02010071 0.4381048 205 205 205
0.1491719 -0.01455926 0.4063405 205 205 205
0.1518485 -0.01391364 0.4031023 205 205 205
0.1567281 -0.01309595 0.3988432 205 205 205
0.1722705 -0.007401592 0.3738102 205 205 205
0.1799413 -0.005554519 0.3661528 205 205 205
0.1798008 -0.003834391 0.3594363 205 205 205
0.1785694 -0.002260744 0.3533395 205 205 205
-0.03386266 -0.004397114 0.4606497 205 205 205
-0.02671726 -0.007351732 0.4674021 205 205 205
-0.02146007 -0.006573711 0.4590394 205 205 205
-0.006509691 -0.0122374 0.4718849 205 205 205
0.00742254 -0.01439549 0.4703487 205 205 205
0.01989779 -0.01563285 0.4663893 205 205 205
0.02678672 -0.01880231 0.4759639 205 205 205
0.1105699 -0.0291594 0.4758417 205 205 205
0.110252 -0.02352119 0.4508355 205 205 205
0.1121591 -0.02289318 0.4473101 205 205 205
0.1142721 -0.02248688 0.4447166 205 205 205
0.1153157 -0.02227955 0.443416 205 205 205
0.1160882 -0.02183587 0.4411767 205 205 205
0.1206818 -0.02143544 0.4378089 205 205 205
0.1216774 -0.0212118 0.436493 205 205 205
0.1280219 -0.02122351 0.4345064 205 205 205
0.1416127 -0.02175176 0.4329388 205 205 205
0.1540428 -0.01501481 0.401839 205 205 205
0.1566388 -0.01432758 0.3985668 205 205 205
0.1700345 -0.009373683 0.3769085 205 205 205
0.1742611 -0.008313584 0.3724251 205 205 205
0.1768398 -0.007698018 0.3698768 205 205 205
0.1780801 -0.003725901 0.3544888 205 205 205
0.1785084 -0.003361808 0.3530908 205 205 205
-0.03224363 -0.005500579 0.4576216 205 205 205
-0.02284235 -0.00742594 0.4576575 205 205 205
-0.01212802 -0.009491828 0.457543 205 205 205
-0.008899025 -0.01188634 0.4655901 205 205 205
-0.007811067 -0.01275402 0.4685903 205 205 205
-0.006699779 -0.01362361 0.4715867 205 205 205
-0.000390089 -0.01677512 0.4806477 205 205 205
0.007384028 -0.01515713 0.4671179 205 205 205
0.008840833 -0.01498067 0.4651777 205 205 205
0.01569875 -0.01570964 0.4632201 205 205 205
0.02243675 -0.0180751 0.4689561 205 205 205
0.02520307 -0.02000344 0.4757066 205 205 205
0.1129925 -0.03186208 0.4798791 205 205 205
0.110681 -0.0267479 0.4584117 205 205 205
0.1108392 -0.02560417 0.4533513 205 205 205
0.1154474 -0.02386588 0.4440485 205 205 205
0.1240995 -0.02255339 0.4354113 205 205 205
0.1354867 -0.02344836 0.4357802 205 205 205
0.142507 -0.02380207 0.4353699 205 205 205
0.145805 -0.01822295 0.4112594 205 205 205
0.1493658 -0.01652381 0.4035106 205 205 205
0.1509038 -0.01669488 0.4039186 205 205 205
0.1593554 -0.01429077 0.3927327 205 205 205
0.1648254 -0.01246404 0.3847188 205 205 205
0.1683265 -0.01100416 0.3785879 205 205 205
0.1715688 -0.01007739 0.3746844 205 205 205
0.1806502 -0.005934241 0.3583394 205 205 205
0.1826463 -0.003473976 0.3490976 205 205 205
-0.02012795 -0.008945361 0.4556673 205 205 205
-0.01868545 -0.009034528 0.4548085 205 205 205
-0.01473808 -0.009873549 0.4551203 205 205 205
-0.01252534 -0.01122125 0.4592005 205 205 205
0.004522258 -0.01583057 0.465797 205 205 205
0.01552175 -0.0170672 0.4629194 205 205 205
0.01954507 -0.01837474 0.4657866 205 205 205
0.02502673 -0.02228977 0.4792958 205 205 205
0.1224232 -0.02363472 0.4345709 205 205 205
0.1246663 -0.02340007 0.432857 205 205 205
0.1268894 -0.02315501 0.4311301 205 205 205
0.1369639 -0.02501258 0.4359486 205 205 205
0.142444 -0.026145 0.4391648 205 205 205
0.1440611 -0.02006408 0.4136991 205 205 205
0.1473103 -0.01889814 0.4082293 205 205 205
0.154918 -0.01662732 0.3976212 205 205 205
0.1647426 -0.01365515 0.3844411 205 205 205
0.1703539 -0.01194608 0.377217 205 205 205
0.1741579 -0.01004659 0.3696422 205 205 205
0.1861212 -0.004904608 0.3500615 205 205 205
-0.03099434 -0.008081997 0.4552628 205 205 205
-0.02952383 -0.00819527 0.4544462 205 205 205
-0.02044597 -0.01046519 0.4563457 205 205 205
-0.01635922 -0.01111643 0.4557003 205 205 205
-0.01189059 -0.01385343 0.4638558 205 205 205
0.003035262 -0.01673464 0.4644872 205 205 205
0.1203124 -0.02543057 0.4368904 205 205 205
0.1431211 -0.02162328 0.4147632 205 205 205
0.1452332 -0.02050283 0.4097717 205 205 205
0.1552311 -0.01809276 0.3982129 205 205 205
0.1587535 -0.01647387 0.3912903 205 205 205
0.1707474 -0.01335372 0.3777879 205 205 205
0.1780909 -0.008846547 0.3603786 205 205 205
0.1810439 -0.00840464 0.3586293 205 205 205
0.1830016 -0.008098769 0.3574459 205 205 205
0.1842938 -0.006945657 0.353218 205 205 205
0.1860595 -0.006006351 0.3497991 205 205 205
-0.04073458 -0.005910411 0.4487615 205 205 205
-0.03348398 -0.008390064 0.452715 205 205 205
-0.02563068 -0.01021487 0.4536063 205 205 205
-0.02431867 -0.01051041 0.4537383 205 205 205
-0.01798983 -0.01236017 0.4562687 205 205 205
-0.01322134 -0.01451319 0.4615172 205 205 205
-0.01218389 -0.01541495 0.4645209 205 205 205
-0.006813859 -0.02037813 0.4814318 205 205 205
-0.004987248 -0.0195886 0.476623 205 205 205
0.005733364 -0.01793041 0.4613037 205 205 205
0.01914287 -0.02178356 0.4680855 205 205 205
0.02186401 -0.02334544 0.4728895 205 205 205
0.1158172 -0.03255356 0.4619793 205 205 205
0.1430142 -0.02289497 0.4144582 205 205 205
0.147107 -0.02140259 0.407633 205 205 205
0.1661036 -0.01616947 0.3841961 205 205 205
0.170079 -0.01488637 0.3789062 205 205 205
0.172295 -0.01404577 0.3755442 205 205 205
0.1728597 -0.01368257 0.3741401 205 205 205
0.1850478 -0.007271995 0.350136 205 205 205
-0.04330943 -0.0063603 0.4471169 205 205 205
-0.04202552 -0.006686971 0.4473128 205 205 205
-0.02991084 -0.01082425 0.4538488 205 205 205
-0.02450991 -0.0118226 0.4534365 205 205 205
-0.01464675 -0.01536651 0.4601448 205 205 205
1.400944E-05 -0.01872796 0.4628175 205 205 205
0.002850806 -0.01878845 0.4609401 205 205 205
0.117673 -0.03327838 0.4580824 205 205 205
0.1223356 -0.02785019 0.434552 205 205 205
0.1365451 -0.02697187 0.4268083 205 205 205
0.1425501 -0.02391342 0.4132485 205 205 205
0.1450243 -0.02301289 0.4091641 205 205 205
0.1560659 -0.01963691 0.3939786 205 205 205
0.1592507 -0.01854629 0.38932 205 205 205
0.160352 -0.01845412 0.3888029 205 205 205
0.1666433 -0.01700647 0.3825073 205 205 205
0.1693988 -0.01642427 0.380018 205 205 205
0.1699963 -0.01606359 0.378617 205 205 205
0.1710569 -0.01594447 0.3780632 205 205 205
0.1733367 -0.01447803 0.3724507 205 205 205
0.175945 -0.01384295 0.3699111 205 205 205
0.1814895 -0.01150871 0.3611255 205 205 205
0.1833977 -0.0105762 0.3577115 205 205 205
0.1833064 -0.00994964 0.3554904 205 205 205
0.1840314 -0.008534985 0.3504653 205 205 205
-0.04112662 -0.008495728 0.4481669 205 205 205
-0.03157872 -0.01203266 0.4543575 205 205 205
-0.02863799 -0.01223591 0.4527216 205 205 205
-0.01190953 -0.01991852 0.4707669 205 205 205
-0.009969446 -0.02244062 0.4796605 205 205 205
-0.008725218 -0.02316012 0.4816732 205 205 205
0.00547699 -0.02017014 0.4587252 205 205 205
0.008117679 -0.02087309 0.4597277 205 205 205
0.01209242 -0.02202763 0.4616818 205 205 205
0.0213578 -0.02986815 0.4877866 205 205 205
0.1192228 -0.03370957 0.4532476 205 205 205
0.1192515 -0.03244738 0.4482131 205 205 205
0.1204826 -0.02992561 0.4377791 205 205 205
0.1248534 -0.02814941 0.4293496 205 205 205
0.1420855 -0.02492266 0.4120358 205 205 205
0.1507798 -0.02231443 0.4001722 205 205 205
0.1530023 -0.02133776 0.3960532 205 205 205
0.1548488 -0.02092947 0.3941796 205 205 205
0.1591584 -0.01974505 0.3890213 205 205 205
0.1699123 -0.01723939 0.3783233 205 205 205
0.1716542 -0.0161353 0.3741225 205 205 205
0.17792 -0.01472206 0.3684717 205 205 205
-0.04350457 -0.008734443 0.4455554 205 205 205
-0.0329261 -0.01282858 0.4529251 205 205 205
0.01059355 -0.0229131 0.4603854 205 205 205
0.01448388 -0.02500115 0.4661951 205 205 205
0.1214236 -0.03744295 0.4612688 205 205 205
0.1226462 -0.03101312 0.435742 205 205 205
0.1256884 -0.02918945 0.4277017 205 205 205
0.1288211 -0.02864169 0.4246429 205 205 205
0.1416203 -0.02592278 0.4108202 205 205 205
0.1444445 -0.02525795 0.4076436 205 205 205
0.1499189 -0.02386675 0.4012324 205 205 205
0.1506783 -0.02354117 0.3998621 205 205 205
0.1565781 -0.02171826 0.3919916 205 205 205
0.1649389 -0.01923028 0.3815939 205 205 205
0.1752487 -0.01653183 0.3707342 205 205 205
0.1762825 -0.01639715 0.3701623 205 205 205
0.1793711 -0.01470627 0.3639565 205 205 205
0.184025 -0.01137464 0.3521181 205 205 205
-0.03443442 -0.01382293 0.4524494 205 205 205
-0.0215342 -0.01728195 0.4557644 205 205 205
-0.01778644 -0.01858602 0.4580234 205 205 205
0.007752632 -0.02355162 0.4590741 205 205 205
0.01172853 -0.0247238 0.4610229 205 205 205
0.05602022 -0.03718669 0.4836124 205 205 205
0.101586 -0.04154317 0.4788492 205 205 205
0.1361177 -0.02980895 0.4217535 205 205 205
0.1391259 -0.02918456 0.4186108 205 205 205
0.14198 -0.02660412 0.4082486 205 205 205
0.1596434 -0.02178644 0.3870279 205 205 205
0.1640225 -0.02139114 0.384928 205 205 205
0.1703314 -0.01921192 0.3763244 205 205 205
0.1762012 -0.01755194 0.3698641 205 205 205
0.1830941 -0.01329041 0.3546403 205 205 205
0.1842317 -0.01141844 0.3482276 205 205 205
0.1840767 -0.01076612 0.3460302 205 205 205
-0.03331878 -0.01544261 0.4522875 205 205 205
-0.02820959 -0.01689152 0.4538409 205 205 205
-0.02438335 -0.01801157 0.4551993 205 205 205
-0.02159559 -0.018379 0.4544719 205 205 205
-0.01906876 -0.01917974 0.4556577 205 205 205
-0.01785886 -0.01968963 0.4567273 205 205 205
0.01018735 -0.0258372 0.4606883 205 205 205
0.0140862 -0.02797501 0.4664851 205 205 205
0.01534005 -0.02941379 0.4713171 205 205 205
0.05413332 -0.03324913 0.4630189 205 205 205
0.05813672 -0.03715233 0.4761655 205 205 205
0.09451988 -0.04315257 0.4819342 205 205 205
0.1080798 -0.04434061 0.4808837 205 205 205
0.1230996 -0.033131 0.4328249 205 205 205
0.1263909 -0.0315108 0.4257132 205 205 205
0.1316852 -0.03172699 0.4249639 205 205 205
0.1350905 -0.03139248 0.4227629 205 205 205
0.1359983 -0.03109726 0.4214187 205 205 205
0.139009 -0.03046472 0.4182778 205 205 205
0.1413973 -0.0284297 0.4101727 205 205 205
0.1430485 -0.02779993 0.4074642 205 205 205
0.1481736 -0.02612403 0.4001945 205 205 205
0.1512238 -0.02565443 0.3978589 205 205 205
0.1606462 -0.0228812 0.3861973 205 205 205
0.1653807 -0.02121651 0.3795928 205 205 205
0.172357 -0.02013175 0.3749039 205 205 205
0.1811369 -0.0153715 0.357748 205 205 205
-0.01150535 -0.02617087 0.4714218 205 205 205
-0.004664378 -0.0237429 0.4571555 205 205 205
0.05315515 -0.03201629 0.4530436 205 205 205
0.1059016 -0.04155053 0.4651387 205 205 205
0.123513 -0.03877964 0.4484077 205 205 205
0.1328072 -0.03300226 0.4241952 205 205 205
0.1346438 -0.03241143 0.4215165 205 205 205
0.1421148 -0.02936307 0.4084891 205 205 205
0.1432984 -0.02931367 0.4080275 205 205 205
0.1472945 -0.02767988 0.4012327 205 205 205
0.1544517 -0.02576123 0.3929272 205 205 205
0.1598804 -0.02443171 0.3872638 205 205 205
0.1749373 -0.02064661 0.3720611 205 205 205
0.1780992 -0.01957831 0.3681004 205 205 205
0.1830319 -0.01617679 0.3562636 205 205 205
0.1833861 -0.01267899 0.3446612 205 205 205
-0.0193297 -0.02158357 0.4540232 205 205 205
-0.01614378 -0.02406679 0.4610737 205 205 205
-0.01110974 -0.02613256 0.4652673 205 205 205
-0.0005335351 -0.02487305 0.4530771 205 205 205
0.0123656 -0.03022814 0.464827 205 205 205
0.04841175 -0.03079057 0.4454324 205 205 205
0.05111172 -0.03135309 0.4461136 205 205 205
0.09113929 -0.04146606 0.46509 205 205 205
0.09958772 -0.03846879 0.4504166 205 205 205
0.1029252 -0.03940217 0.4525835 205 205 205
0.1389636 -0.03215714 0.4144509 205 205 205
0.153627 -0.02731747 0.3939747 205 205 205
0.1602109 -0.02589279 0.3878046 205 205 205
0.1662682 -0.02344604 0.3784264 205 205 205
0.1742875 -0.02220193 0.3731499 205 205 205
0.1743631 -0.02154151 0.3709151 205 205 205
0.1780361 -0.02006147 0.3655608 205 205 205
0.1824238 -0.01703513 0.3551539 205 205 205
0.1834037 -0.01687535 0.3545578 205 205 205
0.1842753 -0.01603724 0.3517527 205 205 205
-0.03618803 -0.01827062 0.449053 205 205 205
-0.03226852 -0.01921272 0.4495248 205 205 205
-0.00337692 -0.02567708 0.4526502 205 205 205
-0.002048383 -0.02593158 0.4526941 205 205 205
0.004370932 -0.02815831 0.4567103 205 205 205
0.005609787 -0.0288979 0.45866 205 205 205
0.04043339 -0.03966126 0.477726 205 205 205
0.04556185 -0.0315158 0.4443861 205 205 205
0.05242403 -0.03334012 0.447538 205 205 205
0.09062172 -0.0423205 0.4628228 205 205 205
0.09191409 -0.0402631 0.4546961 205 205 205
0.1297307 -0.03647817 0.4274959 205 205 205
0.1306817 -0.03618371 0.4261649 205 205 205
0.1374277 -0.03433099 0.4176973 205 205 205
0.1422434 -0.03213095 0.4087066 205 205 205
0.144254 -0.03175036 0.4068875 205 205 205
0.1642887 -0.02575961 0.3822689 205 205 205
0.1649262 -0.02537947 0.3808815 205 205 205
0.1774289 -0.02161023 0.3666497 205 205 205
0.1818901 -0.01856544 0.3562494 205 205 205
0.183118 -0.01661988 0.349849 205 205 205
-0.04011094 -0.01837125 0.4472438 205 205 205
-0.03881179 -0.01869485 0.4474191 205 205 205
-0.03115649 -0.02081508 0.4493317 205 205 205
-0.02474048 -0.02256069 0.4509597 205 205 205
-0.02104515 -0.02391453 0.453229 205 205 205
-0.01473254 -0.02606153 0.4566022 205 205 205
-0.007825547 -0.02694107 0.4550375 205 205 205
-0.002312562 -0.02748827 0.453311 205 205 205
0.001623115 -0.02849038 0.4543795 205 205 205
0.002899693 -0.02898769 0.4553702 205 205 205
0.005477107 -0.02997876 0.4573376 205 205 205
0.006777951 -0.03047245 0.4583142 205 205 205
0.01053271 -0.03322218 0.4660457 205 205 205
0.04527588 -0.03227089 0.4421138 205 205 205
0.04664178 -0.03269588 0.4429466 205 205 205
0.05525504 -0.03602846 0.4507039 205 205 205
0.09081527 -0.04643614 0.4721657 205 205 205
0.09845296 -0.04005629 0.4459323 205 205 205
0.102659 -0.04049723 0.4459043 205 205 205
0.1297785 -0.0429173 0.4452297 205 205 205
0.1376403 -0.03588778 0.4182437 205 205 205
0.1449534 -0.03265548 0.4051871 205 205 205
0.1504318 -0.03115017 0.3987815 205 205 205
0.1549542 -0.02992764 0.3936792 205 205 205
0.1613528 -0.02752663 0.3843839 205 205 205
0.1624494 -0.02742499 0.3838572 205 205 205
0.163102 -0.0270446 0.3824733 205 205 205
0.1659115 -0.02644348 0.3800161 205 205 205
0.16761 -0.0259403 0.3780835 205 205 205
0.1725748 -0.02438213 0.3722396 205 205 205
0.1741859 -0.02384685 0.370277 205 205 205
0.1793833 -0.02109382 0.3607279 205 205 205
0.1816457 -0.01830099 0.351533 205 205 205
-0.04468793 -0.01743703 0.4423411 205 205 205
-0.0362321 -0.02038953 0.4464549 205 205 205
-0.02493567 -0.02385883 0.4506109 205 205 205
-0.01737236 -0.026328 0.4541419 205 205 205
-0.01603786 -0.02661128 0.4542333 205 205 205
-0.01336681 -0.02717012 0.4544019 205 205 205
-0.003752155 -0.02829111 0.4519482 205 205 205
-0.001018615 -0.02854649 0.4510654 205 205 205
0.0002378597 -0.02904961 0.4520639 205 205 205
0.003938365 -0.03106334 0.4569618 205 205 205
0.03994512 -0.03318188 0.4431884 205 205 205
0.04641302 -0.03371128 0.4416325 205 205 205
0.05669919 -0.03832514 0.4530441 205 205 205
0.1020712 -0.04126855 0.4436647 205 205 205
0.1049444 -0.04164674 0.4439329 205 205 205
0.1116916 -0.04351895 0.4481098 205 205 205
0.1327378 -0.04600535 0.4498895 205 205 205
0.1319126 -0.04137797 0.4340354 205 205 205
0.1428386 -0.03428547 0.4066602 205 205 205
0.1510815 -0.03201366 0.3970723 205 205 205
0.1525756 -0.03129512 0.3943385 205 205 205
0.1558709 -0.03011665 0.3897269 205 205 205
0.1572655 -0.02937403 0.3869812 205 205 205
0.165629 -0.02828612 0.3819208 205 205 205
0.1702577 -0.02647047 0.3752607 205 205 205
0.1802675 -0.02137254 0.3576124 205 205 205
0.1802152 -0.0206778 0.3554063 205 205 205
-0.0401336 -0.02047399 0.4446445 205 205 205
-0.02746545 -0.02407323 0.4480875 205 205 205
-0.02527431 -0.02539765 0.4512166 205 205 205
-0.02395169 -0.02569505 0.4513357 205 205 205
-0.02143562 -0.02652719 0.4525203 205 205 205
-0.01611567 -0.02767438 0.4529125 205 205 205
-0.01201299 -0.02825735 0.4521942 205 205 205
-0.01068286 -0.02852933 0.4522659 205 205 205
-0.003940659 -0.02959559 0.4515894 205 205 205
0.006144271 -0.03443902 0.4624052 205 205 205
0.03509364 -0.03897234 0.4614931 205 205 205
0.04482614 -0.03428526 0.4394845 205 205 205
0.09773654 -0.0421551 0.4433129 205 205 205
0.09884806 -0.04192077 0.442065 205 205 205
0.1001666 -0.04197319 0.4417469 205 205 205
0.1030236 -0.04235996 0.4420277 205 205 205
0.1105764 -0.04371714 0.4440213 205 205 205
0.1351401 -0.04855157 0.4526936 205 205 205
0.133607 -0.04445272 0.4390983 205 205 205
0.1364916 -0.03876217 0.4188649 205 205 205
0.1396914 -0.03716155 0.4125918 205 205 205
0.1418902 -0.03586454 0.4076567 205 205 205
0.1478976 -0.03372531 0.399059 205 205 205
0.1509705 -0.03322775 0.3967251 205 205 205
0.1604815 -0.03027372 0.3850909 205 205 205
0.1648822 -0.02985833 0.3829701 205 205 205
0.1666191 -0.02935311 0.3810409 205 205 205
0.1678755 -0.02855751 0.3782611 205 205 205
0.1684903 -0.02815714 0.3768708 205 205 205
0.1701623 -0.02763241 0.3749272 205 205 205
0.1718124 -0.0270996 0.372976 205 205 205
0.1776903 -0.02461318 0.3642814 205 205 205
0.1792237 -0.02404247 0.3622994 205 205 205
0.1812635 -0.01908188 0.3465297 205 205 205
0.1809807 -0.0176722 0.342171 205 205 205
-0.03126117 -0.02395963 0.445408 205 205 205
-0.0002082508 -0.03192056 0.4523023 205 205 205
0.0009925191 -0.03269337 0.4542564 205 205 205
0.004521183 -0.0358045 0.4629806 205 205 205
0.03702816 -0.03569077 0.4436335 205 205 205
0.0394769 -0.03491552 0.4395887 205 205 205
0.04466044 -0.03555972 0.4391235 205 205 205
0.05021275 -0.03757711 0.4433669 205 205 205
0.09208445 -0.04492031 0.4500608 205 205 205
0.1039683 -0.04343906 0.4403848 205 205 205
0.1149188 -0.04573501 0.4443853 205 205 205
0.1418291 -0.0567364 0.4731765 205 205 205
0.1365136 -0.04875038 0.4477662 205 205 205
0.1351826 -0.04127635 0.4229732 205 205 205
0.1357815 -0.04065872 0.420734 205 205 205
0.1378187 -0.03908629 0.4149166 205 205 205
0.142242 -0.03646833 0.4050622 205 205 205
0.1466244 -0.03500744 0.3991848 205 205 205
0.1630202 -0.03154114 0.3845461 205 205 205
0.168854 -0.02960742 0.3773714 205 205 205
0.172774 -0.02812558 0.372077 205 205 205
-0.03868199 -0.02262263 0.4412518 205 205 205
-0.03739891 -0.02294147 0.4414186 205 205 205
-0.0351782 -0.02405721 0.4436468 205 205 205
-0.004319353 -0.03219935 0.4508565 205 205 205
0.003129848 -0.03610322 0.4596968 205 205 205
0.004158557 -0.03795616 0.4654825 205 205 205
0.03548166 -0.03623928 0.4414434 205 205 205
0.04319778 -0.03667504 0.4388809 205 205 205
0.04449397 -0.03683247 0.4387575 205 205 205
0.09211513 -0.04656583 0.4506052 205 205 205
0.09404201 -0.04551776 0.4462666 205 205 205
0.09498142 -0.04498845 0.4440953 205 205 205
0.1014035 -0.04496837 0.4415882 205 205 205
0.1124421 -0.04586531 0.4406763 205 205 205
0.1155931 -0.0465102 0.4417768 205 205 205
0.1190325 -0.04744305 0.4437679 205 205 205
0.1227823 -0.04866383 0.4466426 205 205 205
0.1293688 -0.05286051 0.4586099 205 205 205
0.1371061 -0.04952213 0.4451015 205 205 205
0.1368035 -0.04068375 0.4158867 205 205 205
0.1408077 -0.03869129 0.4082797 205 205 205
0.151104 -0.03498559 0.3937836 205 205 205
0.1556536 -0.03466125 0.3917844 205 205 205
0.1570853 -0.03389702 0.3890402 205 205 205
0.159166 -0.03273628 0.3849192 205 205 205
0.1698303 -0.03065265 0.3764739 205 205 205
0.1805623 -0.02095685 0.3451021 205 205 205
-0.02056539 -0.03046853 0.4505652 205 205 205
-0.01658176 -0.03132728 0.4508485 205 205 205
-0.01259157 -0.03216298 0.4510892 205 205 205
0.02632752 -0.04635441 0.4761661 205 205 205
0.0403899 -0.03733553 0.4377868 205 205 205
0.04308411 -0.03823396 0.4394661 205 205 205
0.04444255 -0.03868073 0.440298 205 205 205
0.04574676 -0.03883678 0.4401692 205 205 205
0.05157842 -0.04176142 0.4472376 205 205 205
0.05331684 -0.043364 0.4518485 205 205 205
0.09818432 -0.04558913 0.4399797 205 205 205
0.1071413 -0.04559611 0.4367381 205 205 205
0.1117982 -0.04659354 0.438441 205 205 205
0.1131115 -0.04661873 0.4380761 205 205 205
0.1346198 -0.04478819 0.4253458 205 205 205
0.145638 -0.03683711 0.3967121 205 205 205
0.1535966 -0.03535045 0.3902028 205 205 205
0.1565598 -0.03479193 0.3878243 205 205 205
0.1583733 -0.03430914 0.3859394 205 205 205
0.1697298 -0.03181767 0.3761249 205 205 205
0.1709336 -0.03098254 0.3733436 205 205 205
0.1779354 -0.02757596 0.3618817 205 205 205
0.1789226 -0.02597752 0.3568909 205 205 205
0.1807419 -0.02085254 0.3412298 205 205 205
-0.04379907 -0.02334758 0.4379225 205 205 205
-0.03427929 -0.02690648 0.4430722 205 205 205
-0.03315182 -0.02747035 0.4441736 205 205 205
-0.02591879 -0.03032362 0.4487901 205 205 205
-0.0127855 -0.03346131 0.4507106 205 205 205
-0.007362101 -0.03427301 0.4500051 205 205 205
0.0009187185 -0.04043686 0.4656191 205 205 205
0.02606 -0.04205971 0.4565814 205 205 205
0.02738886 -0.0408328 0.451722 205 205 205
0.0286908 -0.03988389 0.4478179 205 205 205
0.04557823 -0.04011385 0.4397909 205 205 205
0.05601427 -0.05015449 0.4684221 205 205 205
0.0952669 -0.04855698 0.4461011 205 205 205
0.1022007 -0.04735874 0.4395454 205 205 205
0.107229 -0.0472136 0.4372668 205 205 205
0.1114024 -0.04761075 0.4371244 205 205 205
0.1148116 -0.04706546 0.4341865 205 205 205
0.1174084 -0.04709608 0.4334313 205 205 205
0.1261572 -0.04957467 0.4387318 205 205 205
0.130841 -0.05171029 0.4442374 205 205 205
0.1359868 -0.05011027 0.4375248 205 205 205
0.1443156 -0.03907743 0.399922 205 205 205
0.1538888 -0.03684372 0.390705 205 205 205
0.1568645 -0.03627969 0.3883229 205 205 205
0.1586865 -0.03579199 0.386436 205 205 205
0.1711707 -0.03315193 0.3760478 205 205 205
0.1713046 -0.03243322 0.3738237 205 205 205
0.1745922 -0.03131318 0.3699059 205 205 205
0.1767946 -0.02957771 0.3643274 205 205 205
0.1773371 -0.02841033 0.360727 205 205 205
-0.02108946 -0.03332157 0.4507621 205 205 205
-0.01975769 -0.03361227 0.450861 205 205 205
-0.01164765 -0.03503226 0.450397 205 205 205
0.001248457 -0.04594357 0.4786543 205 205 205
0.03101029 -0.03894248 0.4386644 205 205 205
0.03355405 -0.0387184 0.4365819 205 205 205
0.1120623 -0.0483338 0.4345248 205 205 205
0.1136189 -0.04866565 0.4350744 205 205 205
0.1185602 -0.04841681 0.4326476 205 205 205
0.1343478 -0.04738302 0.4245577 205 205 205
0.137306 -0.04412887 0.4134048 205 205 205
0.1399277 -0.04307613 0.4093831 205 205 205
0.1537747 -0.03803718 0.3903383 205 205 205
0.1771968 -0.03100517 0.3647936 205 205 205
0.1777293 -0.03056303 0.3633988 205 205 205
0.1800312 -0.0226772 0.3397949 205 205 205
-0.04272474 -0.02591508 0.4364238 205 205 205
-0.04145456 -0.0262408 0.4366015 205 205 205
-0.04018327 -0.02656408 0.4367745 205 205 205
-0.0118422 -0.03632754 0.4500079 205 205 205
-0.00399604 -0.03847884 0.4522417 205 205 205
0.0230013 -0.04168438 0.4472933 205 205 205
0.03464317 -0.03985375 0.4351536 205 205 205
0.05008763 -0.04703872 0.4509632 205 205 205
0.05549784 -0.05762478 0.4829463 205 205 205
0.09722506 -0.05072431 0.4428059 205 205 205
0.1010077 -0.05057048 0.4409167 205 205 205
0.1034372 -0.05034935 0.4393297 205 205 205
0.1079993 -0.04955933 0.4351935 205 205 205
0.11061 -0.0496171 0.4344828 205 205 205
0.1145175 -0.04968315 0.4333832 205 205 205
0.1158176 -0.0496997 0.4330077 205 205 205
0.1273386 -0.05098793 0.4334578 205 205 205
0.1389334 -0.04467778 0.4103375 205 205 205
0.1406564 -0.04396092 0.4076544 205 205 205
0.1407971 -0.04297451 0.4045476 205 205 205
0.1452811 -0.04044636 0.3956048 205 205 205
0.1539772 -0.03852515 0.3877446 205 205 205
0.1668953 -0.03700219 0.3805976 205 205 205
0.1695459 -0.03706938 0.3803326 205 205 205
0.180333 -0.02326768 0.338095 205 205 205
-0.03692166 -0.02928182 0.4387875 205 205 205
-0.02002544 -0.03592977 0.4491253 205 205 205
-0.006608477 -0.03841612 0.4488888 205 205 205
0.02675883 -0.0406087 0.4371599 205 205 205
0.03575868 -0.0412775 0.4346716 205 205 205
0.09873504 -0.05887103 0.4634324 205 205 205
0.0992359 -0.05336933 0.4457773 205 205 205
0.1295007 -0.05197101 0.431298 205 205 205
0.1372494 -0.04565014 0.4095114 205 205 205
0.1501307 -0.04066199 0.3910799 205 205 205
0.1652397 -0.03798291 0.3799309 205 205 205
0.1713244 -0.03694933 0.3757875 205 205 205
-0.04524503 -0.0272167 0.433416 205 205 205
-0.03601393 -0.03111091 0.4395076 205 205 205
-0.03472561 -0.03142578 0.4396584 205 205 205
-0.02972166 -0.03292959 0.4411653 205 205 205
-0.02873498 -0.03377326 0.4431939 205 205 205
-0.02758106 -0.03434682 0.4442687 205 205 205
-0.01334746 -0.03807618 0.4472376 205 205 205
-0.005555626 -0.04025286 0.4494895 205 205 205
-0.003196431 -0.04191601 0.4533861 205 205 205
-0.002368767 -0.04418327 0.4601026 205 205 205
0.01068799 -0.05283685 0.4802161 205 205 205
0.01258261 -0.04925413 0.4677778 205 205 205
0.01426118 -0.04683274 0.4591563 205 205 205
0.02785001 -0.04114959 0.4338378 205 205 205
0.03043482 -0.04181977 0.434639 205 205 205
0.03435548 -0.04296183 0.4362815 205 205 205
0.04392209 -0.04689126 0.4440578 205 205 205
0.1007874 -0.06161967 0.4663651 205 205 205
0.09997348 -0.05816693 0.4558519 205 205 205
0.1012724 -0.05604085 0.4487219 205 205 205
0.1068566 -0.05277862 0.436555 205 205 205
0.1552807 -0.04111607 0.3873442 205 205 205
0.1695068 -0.0386767 0.3773618 205 205 205
0.1788361 -0.02599113 0.3393811 205 205 205
0.1796142 -0.02505705 0.3366468 205 205 205
-0.04418204 -0.02877446 0.4332198 205 205 205
-0.0226702 -0.03708401 0.4452735 205 205 205
-0.02003471 -0.03766545 0.4454711 205 205 205
-0.01211031 -0.03934811 0.4459516 205 205 205
-0.001981509 -0.05538616 0.4902587 205 205 205
-0.0008618215 -0.0574215 0.4960017 205 205 205
0.004199259 -0.05559543 0.487441 205 205 205
0.01439456 -0.04488011 0.4482427 205 205 205
0.01718519 -0.04381753 0.4434096 205 205 205
0.02120271 -0.04293597 0.4385124 205 205 205
0.02381424 -0.04272954 0.4364977 205 205 205
0.03158898 -0.04386045 0.4360643 205 205 205
0.03420901 -0.04452435 0.4368346 205 205 205
0.03688006 -0.04548857 0.4385363 205 205 205
0.1031192 -0.05841493 0.4507183 205 205 205
0.1148489 -0.05296241 0.4299465 205 205 205
0.1158778 -0.05265093 0.4286604 205 205 205
0.1194628 -0.05234977 0.4265985 205 205 205
0.1242867 -0.05201817 0.4240984 205 205 205
0.1290007 -0.05295913 0.4255457 205 205 205
0.1352173 -0.04885662 0.4113766 205 205 205
0.1390016 -0.0453572 0.3998616 205 205 205
0.1398219 -0.04498207 0.3985288 205 205 205
0.1414358 -0.04422505 0.3958597 205 205 205
0.1547528 -0.04197847 0.3861067 205 205 205
0.1628156 -0.04054419 0.3802512 205 205 205
0.1735057 -0.03748892 0.369482 205 205 205
0.178868 -0.03523139 0.3621847 205 205 205
0.1789798 -0.02579279 0.3355282 205 205 205
-0.04205122 -0.03092265 0.4341318 205 205 205
-0.04097619 -0.03151564 0.4352466 205 205 205
-0.04008277 -0.0323773 0.4373019 205 205 205
-0.03880048 -0.03269991 0.4374654 205 205 205
-0.01230524 -0.04062493 0.4455456 205 205 205
0.03275662 -0.04591434 0.4374739 205 205 205
0.1054923 -0.05761808 0.4428166 205 205 205
0.1167491 -0.05362193 0.4269527 205 205 205
0.1251198 -0.05296178 0.4223725 205 205 205
0.1263867 -0.05295045 0.4219595 205 205 205
0.1311036 -0.05388568 0.4233733 205 205 205
0.1380425 -0.04694103 0.4007963 205 205 205
0.1470991 -0.04509828 0.3931091 205 205 205
0.1535078 -0.04324422 0.3862245 205 205 205
0.1692855 -0.04100809 0.3765994 205 205 205
0.1779496 -0.02980838 0.3435859 205 205 205
-0.03679076 -0.03513195 0.4392693 205 205 205
-0.03403161 -0.0354869 0.4386199 205 205 205
-0.03161241 -0.03638687 0.4398425 205 205 205
-0.02671769 -0.03816722 0.4422366 205 205 205
-0.02424239 -0.03904739 0.4434079 205 205 205
-0.02279107 -0.03905665 0.4425644 205 205 205
-0.01754435 -0.04020679 0.4429363 205 205 205
-0.01250072 -0.04189984 0.4451345 205 205 205
-0.008431111 -0.0424148 0.4443588 205 205 205
-0.001220315 -0.04694717 0.4540973 205 205 205
0.1132512 -0.05553031 0.4294717 205 205 205
0.1198912 -0.05425535 0.4235586 205 205 205
0.1246811 -0.05390451 0.4210537 205 205 205
0.134614 -0.05101411 0.4096723 205 205 205
0.1379113 -0.04815025 0.4003949 205 205 205
0.1408189 -0.04628325 0.3941998 205 205 205
0.1594262 -0.0442746 0.384118 205 205 205
0.1627834 -0.04396054 0.3825311 205 205 205
0.1650118 -0.04373846 0.3814542 205 205 205
0.1656786 -0.0432995 0.380075 205 205 205
0.1676251 -0.04197197 0.3759356 205 205 205
0.1719703 -0.04146333 0.3737049 205 205 205
0.1763831 -0.04013292 0.3692065 205 205 205
0.1780793 -0.0387373 0.3650273 205 205 205
0.178176 -0.03637958 0.3584433 205 205 205
0.1765517 -0.0286687 0.337359 205 205 205
0.1774859 -0.02850349 0.336783 205 205 205
0.1782553 -0.02754717 0.3340648 205 205 205
-0.04604149 -0.03211515 0.4318635 205 205 205
-0.02921605 -0.03825092 0.439694 205 205 205
-0.02023555 -0.04060874 0.4413999 205 205 205
-0.01774072 -0.04147051 0.4425237 205 205 205
-0.01654617 -0.04204541 0.4435533 205 205 205
-0.009947141 -0.0434187 0.4438897 205 205 205
-0.007210342 -0.04365106 0.4430419 205 205 205
-0.003575952 -0.04563029 0.4469599 205 205 205
0.01283924 -0.04543472 0.4375093 205 205 205
0.02069563 -0.04576354 0.4344394 205 205 205
0.02199646 -0.0456503 0.4334376 205 205 205
0.02457444 -0.04604234 0.4333197 205 205 205
0.03111497 -0.04856569 0.4376863 205 205 205
0.1109122 -0.05910582 0.4365028 205 205 205
0.1242422 -0.0548379 0.4197327 205 205 205
0.1255027 -0.05482638 0.4193222 205 205 205
0.1327173 -0.0543644 0.4158822 205 205 205
0.1344759 -0.05225227 0.4092563 205 205 205
0.1381267 -0.04969242 0.4008646 205 205 205
0.1483781 -0.04666785 0.3896215 205 205 205
0.1551058 -0.04508106 0.3835762 205 205 205
0.1734117 -0.04281063 0.3735671 205 205 205
-0.04371452 -0.03399841 0.431825 205 205 205
-0.0366503 -0.03677785 0.4356278 205 205 205
-0.03554461 -0.03737764 0.4367184 205 205 205
-0.03425735 -0.03769194 0.4368625 205 205 205
-0.0266648 -0.03981489 0.4385757 205 205 205
-0.01519214 -0.04299615 0.4413155 205 205 205
-0.01135912 -0.04411701 0.4424634 205 205 205
-0.007310989 -0.04461423 0.4416733 205 205 205
0.001843806 -0.04669157 0.4428292 205 205 205
0.003354664 -0.04600965 0.4399925 205 205 205
0.01004922 -0.04624036 0.4371306 205 205 205
0.04031814 -0.06288285 0.4716237 205 205 205
0.140011 -0.05046001 0.3986671 205 205 205
0.1520133 -0.04685241 0.385538 205 205 205
0.1527378 -0.04643013 0.3841867 205 205 205
0.1576424 -0.0463909 0.3829972 205 205 205
0.1614274 -0.04641633 0.3822663 205 205 205
0.1647758 -0.046085 0.380657 205 205 205
0.1650004 -0.04530648 0.378448 205 205 205
0.1769568 -0.03795401 0.3560879 205 205 205
0.178233 -0.03040182 0.3355005 205 205 205
-0.02556507 -0.04135827 0.438271 205 205 205
-0.01418875 -0.0448323 0.441911 205 205 205
-0.01023655 -0.04564901 0.4420966 205 205 205
-0.007504801 -0.04587432 0.4412497 205 205 205
0.01902321 -0.04835949 0.4346018 205 205 205
0.02033342 -0.04824333 0.4336062 205 205 205
0.02162679 -0.04844446 0.4335534 205 205 205
0.03219356 -0.05321613 0.4424213 205 205 205
0.03360239 -0.05437756 0.4451602 205 205 205
0.116674 -0.05943113 0.4270271 205 205 205
0.1341962 -0.05472289 0.40841 205 205 205
0.1386947 -0.05171643 0.3987094 205 205 205
0.1446821 -0.0492454 0.3902524 205 205 205
0.1492689 -0.04894958 0.3883231 205 205 205
0.1677329 -0.04577465 0.3755755 205 205 205
0.1692845 -0.04598337 0.3758461 205 205 205
0.1771168 -0.04342295 0.3674493 205 205 205
0.177308 -0.04099988 0.3608703 205 205 205
0.1763463 -0.03872766 0.3549077 205 205 205
-0.01427198 -0.04578588 0.4405374 205 205 205
-0.006473206 -0.04770458 0.4418102 205 205 205
0.01239348 -0.04821722 0.4334056 205 205 205
0.01368578 -0.0484342 0.4333797 205 205 205
0.01622079 -0.04950513 0.4352069 205 205 205
0.01754301 -0.04939266 0.434221 205 205 205
0.1160868 -0.06725195 0.4452577 205 205 205
0.1170491 -0.06140876 0.4283795 205 205 205
0.1240889 -0.05897105 0.4193212 205 205 205
0.1250596 -0.05861185 0.4180192 205 205 205
0.1368743 -0.05370894 0.4009391 205 205 205
0.1445523 -0.05042323 0.3898405 205 205 205
0.1491409 -0.05012637 0.3879113 205 205 205
0.1532974 -0.04944593 0.385072 205 205 205
0.1589396 -0.0489671 0.3825046 205 205 205
0.1647616 -0.04763038 0.3776384 205 205 205
0.1691663 -0.04714298 0.3754395 205 205 205
0.1740092 -0.04695052 0.373997 205 205 205
0.1758331 -0.04552368 0.3698279 205 205 205
0.177492 -0.04489773 0.3678553 205 205 205
0.1767307 -0.04097036 0.3574965 205 205 205
0.1756642 -0.03704461 0.347235 205 205 205
0.1758804 -0.03410571 0.3394274 205 205 205
-0.04684312 -0.03698409 0.430233 205 205 205
-0.04557928 -0.03731875 0.4304152 205 205 205
-0.03578777 -0.04049606 0.4335867 205 205 205
-0.01685044 -0.04586617 0.4380727 205 205 205
-0.01293453 -0.04669409 0.4382825 205 205 205
-0.002623457 -0.04942093 0.4405301 205 205 205
0.001607278 -0.04889308 0.4368068 205 205 205
0.01220854 -0.04945032 0.4329783 205 205 205
0.02122122 -0.05223121 0.4364783 205 205 205
0.02647613 -0.05401399 0.4390483 205 205 205
0.1206911 -0.06095463 0.4218731 205 205 205
0.130261 -0.0587164 0.4128098 205 205 205
0.1344709 -0.05644697 0.4053488 205 205 205
0.1512965 -0.05113687 0.3865073 205 205 205
0.1706033 -0.04851271 0.3752895 205 205 205
0.1740349 -0.04729358 0.3713841 205 205 205
0.1761098 -0.03926897 0.3498043 205 205 205
0.1755604 -0.03811162 0.3468558 205 205 205
-0.04198134 -0.03952264 0.4305133 205 205 205
-0.02828762 -0.04357116 0.4339445 205 205 205
-0.01835126 -0.04682824 0.4375599 205 205 205
-0.006680547 -0.04958756 0.4390476 205 205 205
-0.001345429 -0.05028725 0.4382262 205 205 205
0.01839781 -0.05339872 0.4370864 205 205 205
0.1231143 -0.07637217 0.4596989 205 205 205
0.130724 -0.05922359 0.4101724 205 205 205
0.1316383 -0.05883846 0.4088596 205 205 205
0.1379353 -0.05496265 0.3965682 205 205 205
0.1465885 -0.05262905 0.3880466 205 205 205
0.1586887 -0.05130242 0.3816713 205 205 205
0.1620541 -0.05098242 0.3800857 205 205 205
0.1726773 -0.04940556 0.3737406 205 205 205
0.1765612 -0.04850052 0.3706238 205 205 205
0.1760213 -0.04117743 0.3515771 205 205 205
0.1762999 -0.03735119 0.3416043 205 205 205
0.1762075 -0.03651807 0.339465 205 205 205
-0.0321724 -0.04357726 0.4322048 205 205 205
-0.02864289 -0.04510488 0.4344508 205 205 205
-0.02606091 -0.04570419 0.4346755 205 205 205
-0.01985247 -0.04778477 0.4370382 205 205 205
-0.01854864 -0.04806947 0.4371214 205 205 205
-0.01060717 -0.04940408 0.4365816 205 205 205
-0.008093077 -0.05025379 0.437621 205 205 205
0.01558352 -0.05422384 0.4367278 205 205 205
0.024783 -0.05836248 0.443877 205 205 205
0.1237957 -0.0645519 0.4228219 205 205 205
0.1251934 -0.06309637 0.4184455 205 205 205
0.1302608 -0.06010029 0.4088468 205 205 205
0.1338538 -0.05852965 0.4035968 205 205 205
0.1369598 -0.05656309 0.3974561 205 205 205
0.1417828 -0.05521169 0.3925663 205 205 205
0.1529125 -0.05295071 0.3838145 205 205 205
0.1592612 -0.05201126 0.3798889 205 205 205
0.172556 -0.05056214 0.3733198 205 205 205
0.1770413 -0.04915994 0.3688157 205 205 205
0.1761049 -0.03755816 0.3390862 205 205 205
0.1765289 -0.03705474 0.337732 205 205 205
-0.0413088 -0.04257485 0.4307525 205 205 205
-0.03347821 -0.0441791 0.4307025 205 205 205
-0.02135401 -0.04873576 0.4365077 205 205 205
-0.01991961 -0.04870639 0.4356558 205 205 205
0.006369647 -0.052903 0.4336129 205 205 205
0.01031389 -0.05325137 0.4326311 205 205 205
0.1236128 -0.07090825 0.436041 205 205 205
0.124496 -0.06691241 0.4250173 205 205 205
0.1291914 -0.06171947 0.4097038 205 205 205
0.1443949 -0.05547511 0.3890033 205 205 205
0.1523791 -0.05375813 0.3825436 205 205 205
0.1561779 -0.05383199 0.3818583 205 205 205
0.1580124 -0.05327469 0.3799857 205 205 205
0.1631606 -0.05237304 0.3765067 205 205 205
0.177605 -0.04896113 0.3648193 205 205 205
0.1766947 -0.04742003 0.3610409 205 205 205
0.1762518 -0.04622684 0.3580699 205 205 205
0.175191 -0.04045521 0.3435503 205 205 205
0.1780367 -0.03604809 0.3319486 205 205 205
-0.03240101 -0.04570151 0.4303955 205 205 205
-0.0312897 -0.04632132 0.4314572 205 205 205
-0.02011763 -0.04993952 0.4352091 205 205 205
-0.01456175 -0.05009121 0.4326942 205 205 205
0.003454889 -0.0543344 0.4350498 205 205 205
0.00873388 -0.05493004 0.4340819 205 205 205
0.01008231 -0.05481803 0.4331235 205 205 205
0.01130468 -0.05571819 0.4349809 205 205 205
0.01644787 -0.05795304 0.4386025 205 205 205
0.1275589 -0.07771886 0.448892 205 205 205
0.1337746 -0.05981867 0.3996502 205 205 205
0.1415073 -0.05757402 0.3916939 205 205 205
0.142675 -0.05750958 0.391225 205 205 205
0.1442586 -0.05664725 0.3885677 205 205 205
0.1522476 -0.05491709 0.3821126 205 205 205
0.174683 -0.04457621 0.3509573 205 205 205
-0.04658689 -0.04336482 0.4282663 205 205 205
-0.04532057 -0.04369993 0.4284422 205 205 205
-0.03624513 -0.04566275 0.4286143 205 205 205
-0.0303696 -0.04816022 0.4320686 205 205 205
-0.01475724 -0.05131343 0.4322453 205 205 205
-0.0006575671 -0.05484144 0.4345681 205 205 205
0.0006487359 -0.05508691 0.4345815 205 205 205
0.008543679 -0.05616356 0.4336269 205 205 205
0.01235192 -0.05786385 0.4363737 205 205 205
0.1265897 -0.06759123 0.4183923 205 205 205
0.1272669 -0.06683422 0.4162087 205 205 205
0.1429636 -0.05788697 0.3886015 205 205 205
0.1494525 -0.0558857 0.3818302 205 205 205
0.1570444 -0.05605324 0.3804725 205 205 205
0.1688839 -0.05442084 0.3737229 205 205 205
0.1728117 -0.05352447 0.3706521 205 205 205
0.1766783 -0.05259057 0.3675371 205 205 205
0.1739963 -0.04271851 0.3433326 205 205 205
0.1770417 -0.0391181 0.3338799 205 205 205
-0.04531421 -0.04459422 0.4270699 205 205 205
-0.04191375 -0.0462085 0.4294261 205 205 205
-0.03535213 -0.04749901 0.429239 205 205 205
-0.0340763 -0.04781206 0.4293739 205 205 205
-0.03279953 -0.0481226 0.4295043 205 205 205
-0.03168884 -0.04875067 0.4305627 205 205 205
-0.02412568 -0.0508759 0.4321595 205 205 205
-0.02269402 -0.0508415 0.4313196 205 205 205
-0.01366055 -0.05280666 0.4318545 205 205 205
-0.01236723 -0.05307711 0.4319128 205 205 205
-0.008778536 -0.05487864 0.4348715 205 205 205
-0.007376783 -0.05480498 0.433975 205 205 205
0.001830148 -0.05622172 0.4331927 205 205 205
0.009614043 -0.05796716 0.4340858 205 205 205
0.01337976 -0.06036997 0.438688 205 205 205
0.01724229 -0.06311703 0.4441824 205 205 205
0.1523821 -0.05759732 0.382076 205 205 205
0.156606 -0.05804562 0.3822162 205 205 205
0.1749103 -0.04882352 0.3552375 205 205 205
0.1762076 -0.04205377 0.3383062 205 205 205
-0.0478245 -0.04480826 0.4253429 205 205 205
-0.03791523 -0.04775166 0.4275751 205 205 205
-0.0280383 -0.0508753 0.4304588 205 205 205
-0.02160361 -0.05234574 0.4309525 205 205 205
-0.01137536 -0.05490185 0.4324426 205 205 205
-0.007572495 -0.05603317 0.433512 205 205 205
0.0002615765 -0.05755039 0.4336573 205 205 205
0.001569017 -0.05779407 0.4336655 205 205 205
0.005437296 -0.05885614 0.4345992 205 205 205
0.1326305 -0.08181651 0.4455633 205 205 205
0.1287811 -0.07502235 0.4292823 205 205 205
0.1281472 -0.0708441 0.4187605 205 205 205
0.1304248 -0.06581681 0.4052452 205 205 205
0.1324626 -0.06382564 0.3995931 205 205 205
0.1359019 -0.06213976 0.3943592 205 205 205
0.1387422 -0.0612254 0.3912777 205 205 205
0.151109 -0.05884456 0.3821319 205 205 205
0.1576079 -0.05910734 0.381248 205 205 205
0.1633149 -0.05648364 0.3734059 205 205 205
0.1670716 -0.05648129 0.3725838 205 205 205
0.16973 -0.05658753 0.3722816 205 205 205
0.175235 -0.05115361 0.357766 205 205 205
0.1747916 -0.04991634 0.3548157 205 205 205
-0.0431883 -0.04765314 0.426504 205 205 205
-0.0293621 -0.05145516 0.428956 205 205 205
-0.02152638 -0.05289085 0.4286261 205 205 205
-0.02024439 -0.05317605 0.4287105 205 205 205
0.1323132 -0.06502184 0.399128 205 205 205
0.1425429 -0.06138672 0.3872547 205 205 205
0.1547872 -0.06009448 0.3809988 205 205 205
0.1658371 -0.05775065 0.3726886 205 205 205
0.1722645 -0.05783035 0.3715092 205 205 205
0.1752215 -0.05615308 0.3668016 205 205 205
0.1746716 -0.05100729 0.3543898 205 205 205
0.1769478 -0.04395281 0.3369251 205 205 205
-0.02940065 -0.05232759 0.4275635 205 205 205
-0.01787486 -0.05494469 0.428401 205 205 205
-0.01284442 -0.05638471 0.4295888 205 205 205
-0.006752855 -0.05909123 0.4335398 205 205 205
0.001041713 -0.06095424 0.4345883 205 205 205
0.003612917 -0.06179152 0.4355236 205 205 205
0.01200064 -0.07235949 0.4587112 205 205 205
0.137628 -0.06400902 0.3916729 205 205 205
0.1470271 -0.06225139 0.3848791 205 205 205
0.1583403 -0.06008385 0.3768133 205 205 205
0.1628154 -0.05963239 0.3746859 205 205 205
0.1661511 -0.05926649 0.3730511 205 205 205
0.1679118 -0.0586359 0.3711334 205 205 205
0.1749208 -0.05424706 0.3590592 205 205 205
0.1741035 -0.0490544 0.3467467 205 205 205
0.1735801 -0.0477965 0.3438338 205 205 205
0.1764003 -0.04551663 0.3378654 205 205 205
-0.03342773 -0.05260705 0.4267377 205 205 205
-0.01174969 -0.05786302 0.4291693 205 205 205
-0.009265885 -0.05874259 0.4301921 205 205 205
0.009339605 -0.06996366 0.4498713 205 205 205
0.01025537 -0.07453322 0.4610213 205 205 205
0.0108766 -0.083095 0.4824117 205 205 205
0.1296684 -0.07064961 0.4068487 205 205 205
0.1378299 -0.06556754 0.3920601 205 205 205
0.1418894 -0.06332506 0.3854879 205 205 205
0.1445741 -0.06356571 0.3853836 205 205 205
0.1533719 -0.06250112 0.3805936 205 205 205
0.1631155 -0.06115569 0.3750461 205 205 205
0.169336 -0.06001906 0.3709273 205 205 205
0.1720014 -0.06012177 0.3705997 205 205 205
0.1760466 -0.05826969 0.3653202 205 205 205
0.1752825 -0.05572573 0.3594074 205 205 205
0.1744843 -0.05138508 0.3492397 205 205 205
-0.04018281 -0.05254824 0.4265039 205 205 205
-0.03380211 -0.05413989 0.4271925 205 205 205
-0.01826946 -0.05735051 0.4274573 205 205 205
-0.01569874 -0.05790571 0.4275928 205 205 205
-0.01194644 -0.05907077 0.4286921 205 205 205
0.008134551 -0.07963125 0.4707566 205 205 205
0.1307166 -0.07023843 0.4020295 205 205 205
0.1558155 -0.06258404 0.3769361 205 205 205
0.1565247 -0.06209504 0.3755941 205 205 205
0.1576454 -0.06198838 0.3750734 205 205 205
0.1766957 -0.0479515 0.337803 205 205 205
-0.04801006 -0.05174538 0.4250565 205 205 205
-0.03674132 -0.05504578 0.4273777 205 205 205
-0.02103578 -0.05798376 0.4268254 205 205 205
-0.003414449 -0.06353411 0.4321637 205 205 205
-0.0009401797 -0.06475919 0.4340497 205 205 205
0.0003092437 -0.06536988 0.4349858 205 205 205
0.1347836 -0.07048453 0.3980491 205 205 205
0.1353208 -0.0696485 0.3958866 205 205 205
0.1399988 -0.06655218 0.3871791 205 205 205
0.1408035 -0.06609368 0.3858666 205 205 205
0.1415992 -0.06563297 0.3845531 205 205 205
0.1608589 -0.0627895 0.3730254 205 205 205
0.1659583 -0.06179139 0.3695044 205 205 205
0.1686117 -0.06191273 0.3691997 205 205 205
0.1750333 -0.06197195 0.3679453 205 205 205
0.1741787 -0.0553521 0.3526449 205 205 205
0.1786985 -0.04624602 0.3306661 205 205 205
-0.03292611 -0.05684403 0.426358 205 205 205
-0.009550389 -0.06129179 0.4259591 205 205 205
0.1328512 -0.07256245 0.4001658 205 205 205
0.1385638 -0.0690252 0.3901691 205 205 205
0.1406558 -0.06724843 0.3853911 205 205 205
0.1441381 -0.06703383 0.3839709 205 205 205
0.1479822 -0.06592201 0.3803566 205 205 205
0.1525445 -0.06555852 0.37836 205 205 205
0.1611504 -0.06431464 0.3733714 205 205 205
0.1622678 -0.0641965 0.3728343 205 205 205
0.1695754 -0.0629089 0.3681714 205 205 205
0.1748972 -0.05904249 0.3580532 205 205 205
0.1746271 -0.05404805 0.3465798 205 205 205
-0.04946566 -0.05344224 0.4230038 205 205 205
-0.03714762 -0.05743886 0.4264086 205 205 205
-0.02143389 -0.06037503 0.4258543 205 205 205
-0.01337369 -0.06096439 0.4234798 205 205 205
-0.007459058 -0.06410342 0.4283186 205 205 205
-0.005210561 -0.06608558 0.4320763 205 205 205
0.1315115 -0.07872938 0.4117517 205 205 205
0.1335868 -0.07331546 0.398366 205 205 205
0.1344717 -0.0728678 0.3970631 205 205 205
0.1576451 -0.06579068 0.374486 205 205 205
0.1694384 -0.06403869 0.3677001 205 205 205
0.1709979 -0.06428996 0.3679321 205 205 205
0.1744167 -0.05789886 0.3525281 205 205 205
-0.0420709 -0.05663988 0.4235086 205 205 205
-0.02932426 -0.05979701 0.424801 205 205 205
-0.0269173 -0.0607542 0.4259274 205 205 205
-0.02563209 -0.06105147 0.4260234 205 205 205
-0.01777768 -0.06241768 0.4255816 205 205 205
-0.006633831 -0.06667632 0.4306221 205 205 205
0.0008719941 -0.08707698 0.4760012 205 205 205
0.1563765 -0.06703421 0.3745295 205 205 205
0.1666464 -0.06504221 0.367542 205 205 205
0.1752465 -0.06483512 0.3651534 205 205 205
0.1746339 -0.06124371 0.3571296 205 205 205
0.1771003 -0.05095666 0.3334134 205 205 205
-0.04227454 -0.05782179 0.4230165 205 205 205
-0.03846 -0.05879754 0.4234501 205 205 205
-0.03463662 -0.0597502 0.4238436 205 205 205
-0.03318726 -0.05970691 0.4230473 205 205 205
-0.01131934 -0.06423587 0.4235137 205 205 205
-0.006926544 -0.06826326 0.4310369 205 205 205
-0.003626639 -0.07203913 0.4384815 205 205 205
0.135033 -0.07478469 0.394758 205 205 205
0.1393978 -0.07117409 0.3852447 205 205 205
0.1405666 -0.07110693 0.3847778 205 205 205
0.1410049 -0.07022411 0.3826313 205 205 205
0.1517088 -0.06857582 0.3760963 205 205 205
0.1600303 -0.06823532 0.3732812 205 205 205
0.1618438 -0.06759807 0.3714005 205 205 205
0.1640749 -0.0673518 0.370316 205 205 205
0.1647445 -0.06682514 0.3689657 205 205 205
0.1758461 -0.06446906 0.3611522 205 205 205
0.1746479 -0.06045193 0.3523892 205 205 205
0.1752498 -0.05611213 0.3425489 205 205 205
0.1751841 -0.05421723 0.3383328 205 205 205
-0.04755066 -0.05766243 0.4218803 205 205 205
-0.04543199 -0.05903819 0.4240354 205 205 205
-0.01536142 -0.06461173 0.4228622 205 205 205
0.1515618 -0.06970846 0.3756089 205 205 205
0.1749358 -0.06288203 0.3548319 205 205 205
0.1751235 -0.05906778 0.3463254 205 205 205
0.1756104 -0.05659717 0.3407547 205 205 205
-0.04670105 -0.05952996 0.4224576 205 205 205
-0.02976686 -0.06298694 0.4223841 205 205 205
-0.02380671 -0.06558159 0.4256101 205 205 205
-0.01193293 -0.06735794 0.4243455 205 205 205
-0.01074753 -0.06800252 0.4253064 205 205 205
0.1349764 -0.08397799 0.4091409 205 205 205
0.1394466 -0.07388643 0.3850888 205 205 205
0.1441724 -0.07228129 0.3802179 205 205 205
0.1464784 -0.0721174 0.3792478 205 205 205
0.1506734 -0.07134627 0.3764409 205 205 205
0.1525478 -0.07074028 0.3746106 205 205 205
0.1570665 -0.070319 0.3725467 205 205 205
0.1637873 -0.06960764 0.3693392 205 205 205
0.1649006 -0.06947982 0.3687917 205 205 205
0.1693335 -0.06894206 0.3665648 205 205 205
0.1720006 -0.06906147 0.3662182 205 205 205
0.1759204 -0.06805629 0.3631149 205 205 205
0.1783961 -0.05615227 0.3364518 205 205 205
-0.04034389 -0.0620109 0.4218034 205 205 205
-0.03907077 -0.06233526 0.4219425 205 205 205
-0.03524551 -0.06329276 0.4223329 205 205 205
-0.03124463 -0.06385889 0.4217686 205 205 205
-0.02901105 -0.06520665 0.4238097 205 205 205
-0.02659159 -0.06617945 0.4249194 205 205 205
-0.01946604 -0.06576087 0.4207417 205 205 205
-0.01819056 -0.06604102 0.4208088 205 205 205
-0.01678927 -0.06594086 0.4199539 205 205 205
-0.00407951 -0.08183035 0.4506748 205 205 205
0.1373576 -0.0885662 0.4153991 205 205 205
0.1369682 -0.07821014 0.3923101 205 205 205
0.1451739 -0.07333791 0.3792351 205 205 205
0.1614085 -0.07098077 0.3699282 205 205 205
0.1745297 -0.07029682 0.3653533 205 205 205
0.1746636 -0.06505895 0.3538787 205 205 205
0.1747939 -0.06312267 0.3496301 205 205 205
0.1753723 -0.05964677 0.3419466 205 205 205
-0.04415638 -0.06183306 0.4199398 205 205 205
-0.03946551 -0.06387603 0.4223415 205 205 205
-0.02664252 -0.06699134 0.4234868 205 205 205
-0.02249662 -0.06711931 0.4219131 205 205 205
-0.01036538 -0.07257865 0.4288905 205 205 205
-0.005727268 -0.09015204 0.4666174 205 205 205
0.1500419 -0.1089026 0.4535428 205 205 205
0.1390128 -0.0775131 0.3870468 205 205 205
0.1403074 -0.07611484 0.3836066 205 205 205
0.1661654 -0.07200858 0.3680418 205 205 205
0.1717119 -0.07131058 0.3652233 205 205 205
0.1767321 -0.05994504 0.3395606 205 205 205
0.1782009 -0.05919169 0.3376337 205 205 205
-0.04793682 -0.06162547 0.4180394 205 205 205
-0.0369295 -0.06532576 0.4211774 205 205 205
-0.02669255 -0.06779401 0.4220527 205 205 205
-0.0106721 -0.07417317 0.4292727 205 205 205
-0.007078667 -0.07653614 0.4330168 205 205 205
-0.00626934 -0.07915465 0.4385283 205 205 205
-0.006169542 -0.08531976 0.4522754 205 205 205
0.1408824 -0.09444899 0.4205702 205 205 205
0.1400395 -0.0786026 0.3860599 205 205 205
0.1577456 -0.07357998 0.3705225 205 205 205
0.1748694 -0.07198 0.362985 205 205 205
0.1745652 -0.06427778 0.3465624 205 205 205
-0.0496223 -0.06280787 0.4182597 205 205 205
-0.03731811 -0.06687208 0.4215641 205 205 205
-0.03090674 -0.06844153 0.4221447 205 205 205
-0.02962175 -0.06874757 0.4222474 205 205 205
-0.02833589 -0.06905098 0.4223456 205 205 205
-0.0201999 -0.06965645 0.420104 205 205 205
-0.01098046 -0.07577245 0.429647 205 205 205
-0.007561878 -0.07894386 0.4352119 205 205 205
0.1500651 -0.07586227 0.3744244 205 205 205
0.1512062 -0.07576469 0.3739204 205 205 205
0.1546182 -0.07545599 0.3723859 205 205 205
0.1557519 -0.07534771 0.3718669 205 205 205
0.1709568 -0.07313278 0.3634289 205 205 205
-0.042436 -0.0663655 0.419587 205 205 205
-0.03899166 -0.06809979 0.4218134 205 205 205
-0.02982602 -0.06992333 0.4217173 205 205 205
-0.02040101 -0.07082515 0.4195764 205 205 205
-0.01912093 -0.07110801 0.4196425 205 205 205
-0.01349525 -0.07524759 0.4262891 205 205 205
-0.009118428 -0.07990496 0.434633 205 205 205
0.1425394 -0.07982759 0.3819309 205 205 205
0.1464645 -0.07864078 0.3783452 205 205 205
0.1745749 -0.07421362 0.3619658 205 205 205
0.175454 -0.07164128 0.3563501 205 205 205
0.1811215 -0.06013236 0.331035 205 205 205
-0.02842686 -0.07062476 0.4194646 205 205 205
-0.02586721 -0.07122208 0.4196453 205 205 205
-0.0170081 -0.07362571 0.4210479 205 205 205
-0.0148938 -0.0757678 0.4247894 205 205 205
-0.01293317 -0.07871071 0.4303357 205 205 205
0.1423782 -0.08096883 0.3814029 205 205 205
0.1447239 -0.08081052 0.3804373 205 205 205
0.1497539 -0.07810708 0.3733906 205 205 205
0.1512922 -0.0784412 0.3736966 205 205 205
0.1539021 -0.07726709 0.3705479 205 205 205
0.1554438 -0.07758943 0.3708342 205 205 205
0.1584137 -0.07681676 0.3684571 205 205 205
0.1792271 -0.06456107 0.3379938 205 205 205
0.1801043 -0.06234968 0.3332352 205 205 205
-0.0500165 -0.06590616 0.4157818 205 205 205
-0.04370977 -0.06759915 0.4165731 205 205 205
-0.03902514 -0.06967553 0.4189337 205 205 205
-0.02350713 -0.07297558 0.4192705 205 205 205
-0.0209408 -0.07355277 0.4194152 205 205 205
0.1406446 -0.08634457 0.3902057 205 205 205
0.1416446 -0.0844491 0.3859453 205 205 205
0.1515307 -0.07999923 0.37398 205 205 205
0.175924 -0.0712106 0.3497572 205 205 205
0.1775925 -0.06841245 0.3436212 205 205 205
0.177602 -0.06739403 0.3415272 205 205 205
0.1795685 -0.0649949 0.3361709 205 205 205
0.1804184 -0.06276521 0.3314237 205 205 205
-0.05148053 -0.06670915 0.4150769 205 205 205
-0.01636646 -0.07705401 0.4218271 205 205 205
-0.01530333 -0.0781402 0.4236889 205 205 205
0.1439502 -0.09884709 0.4123218 205 205 205
0.1467393 -0.08291468 0.3783879 205 205 205
0.1529183 -0.08145967 0.3737437 205 205 205
0.179952 -0.06644686 0.3364259 205 205 205
-0.04686062 -0.06961577 0.4160933 205 205 205
-0.03560468 -0.07295926 0.4182178 205 205 205
-0.01389001 -0.08356047 0.4313633 205 205 205
0.16754 -0.07853273 0.3611885 205 205 205
0.1749717 -0.07497873 0.3521874 205 205 205
0.1767398 -0.07215095 0.3460549 205 205 205
0.1793513 -0.06912389 0.3393511 205 205 205
-0.04937526 -0.0696943 0.4143329 205 205 205
-0.04833272 -0.07042487 0.41539 205 205 205
-0.03945161 -0.07275923 0.4164008 205 205 205
-0.03290541 -0.07394873 0.4160898 205 205 205
-0.02764819 -0.0747657 0.415579 205 205 205
-0.02040002 -0.07773605 0.4187401 205 205 205
0.1548937 -0.08349206 0.3716314 205 205 205
0.1566622 -0.08137326 0.366877 205 205 205
0.1596084 -0.08056822 0.3644943 205 205 205
0.1602951 -0.07999987 0.3631705 205 205 205
0.1618403 -0.08031422 0.3634165 205 205 205
0.1781897 -0.07138667 0.3415256 205 205 205
-0.04473934 -0.07259009 0.4152988 205 205 205
-0.04240039 -0.07365167 0.4164787 205 205 205
-0.04132171 -0.07437853 0.4175109 205 205 205
-0.03601675 -0.07527429 0.4171124 205 205 205
-0.03473713 -0.07559088 0.4172259 205 205 205
-0.02060442 -0.07889822 0.4181813 205 205 205
-0.01944603 -0.07959548 0.419143 205 205 205
0.1427424 -0.0913178 0.3878297 205 205 205
0.1453789 -0.08828663 0.3809825 205 205 205
0.1466213 -0.08675877 0.3775626 205 205 205
0.1520688 -0.08582903 0.3742359 205 205 205
0.1674232 -0.07969836 0.358016 205 205 205
0.1719293 -0.07805733 0.3536411 205 205 205
0.1775206 -0.07304551 0.3423533 205 205 205
0.1831035 -0.07045103 0.3359382 205 205 205
-0.05082115 -0.07123987 0.412176 205 205 205
-0.0495651 -0.07158543 0.4123407 205 205 205
-0.04726534 -0.07266431 0.4135499 205 205 205
-0.0449461 -0.07373688 0.4147433 205 205 205
-0.03204115 -0.07655728 0.4150842 205 205 205
-0.0186129 -0.08187617 0.4204331 205 205 205
0.1471397 -0.09025147 0.3815462 205 205 205
0.1706964 -0.07929271 0.3536833 205 205 205
0.1783356 -0.07602804 0.3454145 205 205 205
0.1783774 -0.07497133 0.343328 205 205 205
0.1809645 -0.07292679 0.3387124 205 205 205
0.1824754 -0.0721124 0.3367689 205 205 205
-0.02473157 -0.07992665 0.4159472 205 205 205
0.1477854 -0.09084873 0.3796712 205 205 205
0.1544025 -0.08684269 0.3699843 205 205 205
0.1551421 -0.08627513 0.36867 205 205 205
0.1584319 -0.08443857 0.3641934 205 205 205
0.1595552 -0.0843142 0.3636588 205 205 205
0.1602477 -0.08373398 0.3623389 205 205 205
0.1613635 -0.0836046 0.3617987 205 205 205
0.1703873 -0.08142119 0.3552455 205 205 205
0.1705411 -0.08036957 0.3531485 205 205 205
0.1732951 -0.0794438 0.3506636 205 205 205
0.1787599 -0.07540113 0.3414684 205 205 205
0.1823539 -0.07421773 0.338326 205 205 205
0.183373 -0.074026 0.3377174 205 205 205
0.1853529 -0.07256113 0.3344209 205 205 205
-0.0424174 -0.07587929 0.4121179 205 205 205
-0.02190393 -0.08448083 0.4209584 205 205 205
0.1549767 -0.08738351 0.3681144 205 205 205
0.1557081 -0.08681012 0.3668016 205 205 205
0.157979 -0.08657274 0.3657443 205 205 205
0.1605143 -0.08528304 0.362571 205 205 205
0.1674036 -0.08340782 0.3571667 205 205 205
0.168502 -0.08325959 0.3566031 205 205 205
0.1695984 -0.08310868 0.3560359 205 205 205
0.1731398 -0.08051367 0.350127 205 205 205
0.1742096 -0.08034875 0.349546 205 205 205
0.179079 -0.07796525 0.3437622 205 205 205
0.1842419 -0.07487132 0.336584 205 205 205
-0.04870576 -0.07492423 0.4099333 205 205 205
-0.0440924 -0.07709032 0.4123031 205 205 205
-0.04009474 -0.0776685 0.4118131 205 205 205
-0.03647772 -0.07904641 0.4130641 205 205 205
-0.0304347 -0.08144232 0.4153632 205 205 205
-0.01906417 -0.08951069 0.4268037 205 205 205
0.1525754 -0.09170492 0.3743828 205 205 205
0.1643766 -0.0853799 0.3590578 205 205 205
0.1672432 -0.08449195 0.3566179 205 205 205
0.1728574 -0.08265188 0.3516738 205 205 205
0.1771607 -0.08198096 0.3493285 205 205 205
0.1798679 -0.08099958 0.3467911 205 205 205
-0.04640104 -0.07673013 0.4096696 205 205 205
-0.04262676 -0.07773144 0.4100927 205 205 205
-0.03650013 -0.07976584 0.4116001 205 205 205
-0.02259817 -0.0876756 0.4215679 205 205 205
0.1531699 -0.0952713 0.3782947 205 205 205
0.1592005 -0.08911424 0.3648709 205 205 205
0.1855129 -0.07828983 0.3377022 205 205 205
-0.04660721 -0.07785417 0.409097 205 205 205
-0.04283266 -0.07885707 0.409519 205 205 205
-0.03324297 -0.0826886 0.4131189 205 205 205
-0.02714616 -0.08507311 0.4153448 205 205 205
0.1540271 -0.1008579 0.3859019 205 205 205
0.1545716 -0.09373719 0.3721868 205 205 205
0.1597443 -0.08961985 0.3629881 205 205 205
0.1649308 -0.08848056 0.3594785 205 205 205
0.1723935 -0.08587915 0.352657 205 205 205
0.1869116 -0.07958352 0.3372639 205 205 205
-0.0488786 -0.07746325 0.4064532 205 205 205
-0.03780252 -0.08085893 0.4085552 205 205 205
-0.03582483 -0.08276979 0.4114378 205 205 205
-0.03234076 -0.0845659 0.4135177 205 205 205
-0.03105671 -0.08487535 0.4136112 205 205 205
-0.02433681 -0.08971958 0.4203027 205 205 205
0.1547509 -0.09992169 0.3810676 205 205 205
0.1629591 -0.09031621 0.3607848 205 205 205
0.1683079 -0.08804714 0.3551427 205 205 205
0.1760912 -0.08582202 0.3490091 205 205 205
0.1819518 -0.08538697 0.3467448 205 205 205
0.1830759 -0.08409187 0.3440557 205 205 205
0.1872826 -0.08108196 0.3374388 205 205 205
-0.05055817 -0.07864796 0.4065993 205 205 205
-0.04555054 -0.08001159 0.4072008 205 205 205
-0.04178375 -0.08100682 0.4076064 205 205 205
-0.02483595 -0.09176219 0.4214699 205 205 205
0.1785687 -0.08700378 0.3479975 205 205 205
0.1834207 -0.0856149 0.3442265 205 205 205
0.1579849 -0.103447 0.3811384 205 205 205
0.1571893 -0.09781908 0.3709267 205 205 205
0.1627798 -0.09406017 0.3624843 205 205 205
-0.03987391 -0.08432063 0.4075579 205 205 205
0.1582209 -0.1003864 0.3726594 205 205 205
0.1620107 -0.09734654 0.3660679 205 205 205
0.164607 -0.09597784 0.3628722 205 205 205
0.1717339 -0.09016487 0.3503923 205 205 205
0.1820309 -0.08792768 0.3437077 205 205 205
0.1841567 -0.08754281 0.3424784 205 205 205
0.1852161 -0.08734632 0.3418586 205 205 205
-0.05242738 -0.08162636 0.4046761 205 205 205
-0.04867598 -0.08266582 0.4051434 205 205 205
-0.04512533 -0.08411403 0.4064487 205 205 205
-0.04154248 -0.08554452 0.4077173 205 205 205
0.16151 -0.09955482 0.367555 205 205 205
0.1674108 -0.09616263 0.3598303 205 205 205
0.1698388 -0.09203135 0.351713 205 205 205
-0.04763016 -0.08411288 0.404693 205 205 205
-0.04407296 -0.08555914 0.4059827 205 205 205
-0.03595012 -0.08960313 0.4103119 205 205 205
-0.02761503 -0.09792764 0.4224323 205 205 205
0.1801361 -0.0897532 0.342443 205 205 205
0.1827638 -0.08984858 0.3419472 205 205 205
0.1854302 -0.08878273 0.3393736 205 205 205
0.1864915 -0.08743114 0.3366986 205 205 205
0.1875167 -0.0860741 0.3340261 205 205 205
-0.04701442 -0.086432 0.4059785 205 205 205
-0.03035014 -0.09802439 0.4207646 205 205 205
-0.02768146 -0.09864604 0.4209132 205 205 205
0.1635727 -0.1031174 0.3680758 205 205 205
0.1673039 -0.09721909 0.3565618 205 205 205
0.1754413 -0.0938149 0.3483732 205 205 205
0.1825301 -0.09205216 0.343423 205 205 205
-0.05156828 -0.08484323 0.4021643 205 205 205
-0.05054895 -0.08562859 0.4031881 205 205 205
-0.04952096 -0.0864134 0.4042085 205 205 205
-0.04363688 -0.08899518 0.4066419 205 205 205
-0.0414914 -0.09055049 0.4086344 205 205 205
-0.03820864 -0.09287784 0.4115954 205 205 205
-0.03056711 -0.09919008 0.4201214 205 205 205
0.1646456 -0.1057177 0.3697398 205 205 205
0.1682516 -0.09814702 0.3553925 205 205 205
0.1757438 -0.09536513 0.3485152 205 205 205
0.18236 -0.09310912 0.3428353 205 205 205
-0.03506245 -0.09633885 0.4138871 205 205 205
0.1766643 -0.09625285 0.3473231 205 205 205
0.1826867 -0.09464967 0.3429617 205 205 205
0.1859933 -0.0905435 0.3349681 205 205 205
-0.05221479 -0.08747107 0.4018096 205 205 205
-0.04890185 -0.08940479 0.4039921 205 205 205
-0.04339254 -0.092903 0.4081331 205 205 205
-0.03597859 -0.09931248 0.4167312 205 205 205
-0.03482734 -0.1000955 0.4176958 205 205 205
0.17395 -0.09998567 0.3520197 205 205 205
0.1752378 -0.09865332 0.3493707 205 205 205
0.1775818 -0.09713438 0.3461239 205 205 205
0.1797603 -0.09676669 0.3449169 205 205 205
0.1858099 -0.09275399 0.3364185 205 205 205
-0.04201523 -0.09697139 0.4120767 205 205 205
0.1691179 -0.1073511 0.3634801 205 205 205
0.1861174 -0.09546632 0.3385679 205 205 205
-0.04422252 -0.09604871 0.4085935 205 205 205
-0.04037589 -0.1006181 0.4151181 205 205 205
0.172498 -0.1141774 0.3716362 205 205 205
0.1699395 -0.1066343 0.3594529 205 205 205
-0.05147063 -0.09371577 0.404546 205 205 205
-0.0437469 -0.09889188 0.41066 205 205 205
-0.04303437 -0.1006214 0.4133692 205 205 205
-0.03922046 -0.1056983 0.4207204 205 205 205
0.1804753 -0.1250001 0.3851312 205 205 205
0.1709055 -0.1075701 0.3582348 205 205 205
-0.05501331 -0.09283486 0.4017251 205 205 205
-0.04005389 -0.116515 0.4366435 205 205 205
0.1773474 -0.1018577 0.3443996 205 205 205
-0.04425967 -0.1047704 0.4154807 205 205 205
-0.04292993 -0.1051132 0.4155958 205 205 205
-0.03974519 -0.11216 0.4263482 205 205 205
0.1743585 -0.1126701 0.3607605 205 205 205
-0.04527318 -0.107808 0.418234 205 205 205
-0.04392821 -0.1081552 0.41835 205 205 205
0.178315 -0.1154995 0.3618066 205 205 205
0.1771371 -0.1068872 0.3479336 205 205 205
0.17917 -0.1035832 0.3419432 205 205 205
0.1845995 -0.1025988 0.3388632 205 205 205
-0.05509487 -0.0978566 0.4025017 205 205 205
-0.0491516 -0.1037564 0.4101977 205 205 205
0.1866252 -0.1019974 0.3349608 205 205 205
-0.050014 -0.1063069 0.4120772 205 205 205
-0.04554897 -0.1133465 0.422089 205 205 205
0.2126022 -0.159751 0.4190525 205 205 205
-0.05018239 -0.110674 0.4166258 205 205 205
-0.04932686 -0.1157313 0.424545 205 205 205
-0.04597243 -0.1149979 0.4222289 205 205 205
0.1802285 -0.1112633 0.3469131 205 205 205
0.1805429 -0.1087937 0.3428595 205 205 205
-0.05434211 -0.1042378 0.4050439 205 205 205
-0.0517747 -0.1082024 0.4105594 205 205 205
0.1842627 -0.1085229 0.3390321 205 205 205
-0.05309014 -0.1084786 0.4088765 205 205 205
-0.05116734 -0.1177141 0.4229648 205 205 205
-0.04999183 -0.1185689 0.4239393 205 205 205
0.190375 -0.129856 0.3687084 205 205 205
0.1834691 -0.1102945 0.3397003 205 205 205
-0.05701366 -0.1080085 0.4068911 205 205 205
0.1971108 -0.1390151 0.3785945 205 205 205
0.1831544 -0.1169094 0.347812 205 205 205
0.187275 -0.1074408 0.3318352 205 205 205
0.1883421 -0.1072222 0.331199 205 205 205
0.1826533 -0.1161798 0.3444152 205 205 205
0.1854472 -0.1094215 0.3331312 205 205 205
-0.06037423 -0.1071456 0.4016566 205 205 205
-0.0595749 -0.1084962 0.4034944 205 205 205
-0.05442871 -0.1132971 0.4092839 205 205 205
-0.0535467 -0.114652 0.4111036 205 205 205
-0.05221109 -0.115017 0.4112391 205 205 205
0.1827592 -0.11469 0.3397211 205 205 205
0.1838668 -0.1144857 0.3390958 205 205 205
0.1857582 -0.1109769 0.333157 205 205 205
0.1831782 -0.1191439 0.3417453 205 205 205
-0.06097057 -0.1132639 0.4038612 205 205 205
-0.05711701 -0.117773 0.4094704 205 205 205
0.1853582 -0.1184801 0.3377998 205 205 205
0.1856737 -0.1145803 0.3318376 205 205 205
0.1852423 -0.1127385 0.3291866 205 205 205
-0.05376664 -0.1176051 0.4056871 205 205 205
0.2127759 -0.1628506 0.3940056 205 205 205
0.1953644 -0.1405728 0.3656712 205 205 205
0.1849638 -0.1250441 0.343075 205 205 205
0.184656 -0.1231796 0.3403981 205 205 205
-0.06334992 -0.1206882 0.4058764 205 205 205
-0.0624426 -0.1291449 0.4154545 205 205 205
0.1917501 -0.1382897 0.350976 205 205 205
0.1860474 -0.1209851 0.3277627 205 205 205
0.1861833 -0.1182987 0.3238624 205 205 205
-0.06460056 -0.1386219 0.4246663 205 205 205
0.1893619 -0.1351899 0.344864 205 205 205
0.1870455 -0.1190614 0.3225374 205 205 205
-0.06497909 -0.1272173 0.4036848 205 205 205
-0.06413838 -0.1286635 0.4054694 205 205 205
0.197531 -0.1476497 0.3553237 205 205 205
0.1878566 -0.1328714 0.3374175 205 205 205
0.1863185 -0.12649 0.3289078 205 205 205
0.1870102 -0.1243299 0.32567 205 205 205
0.1881609 -0.122734 0.3230894 205 205 205
-0.06551397 -0.1258027 0.3995026 205 205 205
-0.06495193 -0.1277807 0.4020941 205 205 205
-0.06449386 -0.133341 0.4097042 205 205 205
0.2058974 -0.1591494 0.3664505 205 205 205
0.1873733 -0.130231 0.3294174 205 205 205
0.2019342 -0.1551361 0.3546358 205 205 205
0.1877465 -0.1286496 0.3228001 205 205 205
0.1980803 -0.150141 0.3466226 205 205 205
0.19098 -0.1399298 0.3349511 205 205 205
-0.06598729 -0.1368358 0.4006756 205 205 205
0.1916709 -0.1417614 0.3327452 205 205 205
-0.06782272 -0.1380649 0.4004942 205 205 205
0.1905223 -0.1397543 0.3260686 205 205 205
-0.06869528 -0.1450534 0.4028905 205 205 205
-0.06978225 -0.1446054 0.4003099 205 205 205
0.1900678 -0.1398482 0.3199453 205 205 205
-0.07058509 -0.1435786 0.3969502 205 205 205
-0.07081511 -0.144642 0.3961022 205 205 205
0.237847 -0.2086899 0.3851622 205 205 205
0.1978516 -0.1558511 0.3269977 205 205 205
0.222086 -0.1894872 0.3584543 205 205 205
