ply
format ascii 1.0
comment Generated by Floating Hands
element vertex 1944
property double x
property double y
property double z
property uchar red
property uchar green
property uchar blue
end_header
0.1232595 0.0392084 0.4655251 0 0 0
0.1171752 0.03836527 0.4588259 0 0 0
0.1217751 0.03835951 0.4554808 0 0 0
0.1236023 0.03820595 0.4570332 0 0 0
0.1295598 0.03739747 0.4677675 0 0 0
0.1195252 0.03748712 0.4477263 0 0 0
0.1210485 0.03739347 0.4483275 0 0 0
0.1243957 0.0371454 0.4504665 0 0 0
0.1309706 0.03616285 0.4630754 0 0 0
0.1176651 0.03628048 0.4460798 0 0 0
0.1211102 0.03627349 0.4440545 0 0 0
0.1259714 0.03592992 0.4467669 0 0 0
0.00990233 0.04451918 0.4798322 0 0 0
0.1158805 0.03475066 0.4495737 0 0 0
0.1217087 0.03503834 0.4416945 0 0 0
0.1232223 0.03494392 0.4422833 0 0 0
0.1339187 0.03374844 0.4546233 0 0 0
0.002601574 0.04401402 0.4854361 0 0 0
0.004212185 0.0439484 0.4815194 0 0 0
0.0057935 0.04389061 0.4775962 0 0 0
0.008487437 0.04341613 0.4777125 0 0 0
0.009835064 0.04318243 0.477763 0 0 0
0.1197245 0.03356876 0.4442424 0 0 0
0.1216356 0.03368258 0.4416063 0 0 0
0.1225785 0.03374314 0.4402846 0 0 0
0.1247317 0.03379186 0.4385873 0 0 0
0.1259492 0.03377993 0.4382095 0 0 0
0.1280659 0.03353141 0.4406789 0 0 0
0.1302028 0.03328506 0.443137 0 0 0
0.1335892 0.03272229 0.4493767 0 0 0
-0.00250151 0.04280514 0.4960679 0 0 0
-0.0004527165 0.04296999 0.4871905 0 0 0
0.001396477 0.04305302 0.4802971 0 0 0
0.002942471 0.04295209 0.4773827 0 0 0
0.00574705 0.04256802 0.4755242 0 0 0
0.008379655 0.04204362 0.4766366 0 0 0
0.01223071 0.04108224 0.4817611 0 0 0
0.1159996 0.03153047 0.4555098 0 0 0
0.1159803 0.03190881 0.4503528 0 0 0
0.1169786 0.03195846 0.449045 0 0 0
0.1181367 0.03231492 0.443545 0 0 0
0.1252861 0.0326004 0.4362131 0 0 0
-0.003540293 0.04192835 0.488917 0 0 0
0.008223513 0.04062424 0.4765528 0 0 0
0.009568995 0.04039029 0.4766026 0 0 0
0.01320528 0.03900493 0.4886945 0 0 0
0.1186 0.03078238 0.4453638 0 0 0
0.1198448 0.03075639 0.4450073 0 0 0
0.1261258 0.03134069 0.4347847 0 0 0
0.1285361 0.03132869 0.4340131 0 0 0
0.1321975 0.03097532 0.4370052 0 0 0
0.1369067 0.03001346 0.4469847 0 0 0
0.004030437 0.03992322 0.4762847 0 0 0
0.005431694 0.03973993 0.4753526 0 0 0
0.007968752 0.03908684 0.4784574 0 0 0
0.01059376 0.03849618 0.4805463 0 0 0
0.01176722 0.03795677 0.4855731 0 0 0
0.1180739 0.02917219 0.4484898 0 0 0
0.1216904 0.02952908 0.4422653 0 0 0
0.1229251 0.02951024 0.4418972 0 0 0
0.1239293 0.02993714 0.4363877 0 0 0
0.1266547 0.03018385 0.4324007 0 0 0
0.1302451 0.03017653 0.4312301 0 0 0
-0.006227177 0.0398139 0.483557 0 0 0
-0.004358429 0.03989349 0.4776892 0 0 0
-0.001280964 0.03967446 0.472897 0 0 0
0.0001231521 0.03948461 0.471985 0 0 0
0.001452417 0.03923836 0.4720634 0 0 0
0.002717925 0.03893372 0.473133 0 0 0
0.006456071 0.03790014 0.4783072 0 0 0
0.009119064 0.03736134 0.4794079 0 0 0
0.1187912 0.02751073 0.4512565 0 0 0
0.1212081 0.02790808 0.4453875 0 0 0
0.1218933 0.0280775 0.4431107 0 0 0
0.1277822 0.02885518 0.4319069 0 0 0
0.1357032 0.02829294 0.4355581 0 0 0
0.1493998 0.02506716 0.4666263 0 0 0
-0.005700702 0.03885474 0.4755023 0 0 0
-0.001367631 0.03833564 0.4718041 0 0 0
0.002492991 0.03746622 0.4740302 0 0 0
0.005056009 0.03684968 0.4761546 0 0 0
0.01106216 0.03435663 0.4953388 0 0 0
0.1213452 0.02421117 0.4710583 0 0 0
0.1197722 0.02572732 0.4549747 0 0 0
0.1202469 0.0259956 0.4517388 0 0 0
0.1224844 0.02689814 0.4407192 0 0 0
0.1246979 0.02735362 0.4348394 0 0 0
0.1253093 0.02754349 0.4325617 0 0 0
0.1315338 0.02783541 0.42738 0 0 0
0.1342246 0.02775184 0.4275067 0 0 0
0.1383899 0.02686814 0.4355368 0 0 0
-0.01127489 0.03736563 0.4889769 0 0 0
-0.0002002108 0.03668964 0.4717838 0 0 0
0.008707185 0.03436106 0.481191 0 0 0
0.00977568 0.03361644 0.4882102 0 0 0
0.1212824 0.02370708 0.4606015 0 0 0
0.1215107 0.0240899 0.456403 0 0 0
0.1218762 0.02486467 0.4480168 0 0 0
0.1232579 0.0252377 0.4434587 0 0 0
0.1255334 0.02611768 0.4333924 0 0 0
0.127637 0.02620995 0.4316757 0 0 0
0.1311441 0.02662905 0.4263208 0 0 0
0.1319994 0.02673946 0.4249773 0 0 0
0.134678 0.02665665 0.4250986 0 0 0
0.1542675 0.02185051 0.4677382 0 0 0
-0.01243342 0.03644398 0.4847715 0 0 0
-0.008435193 0.03676165 0.4720986 0 0 0
-0.004185632 0.03618857 0.4694244 0 0 0
-0.0004360607 0.0352225 0.4726697 0 0 0
0.002103721 0.03458312 0.4748105 0 0 0
0.005918822 0.03355703 0.4789827 0 0 0
0.007177603 0.03316607 0.4810282 0 0 0
0.1229887 0.0225469 0.4568593 0 0 0
0.1226226 0.02316574 0.4507543 0 0 0
0.1231763 0.02387635 0.4433326 0 0 0
0.1242062 0.02438303 0.4378245 0 0 0
0.1287626 0.02488662 0.4311617 0 0 0
0.1317141 0.02510917 0.4280809 0 0 0
0.1331053 0.02544789 0.424449 0 0 0
0.1555314 0.02038365 0.4671076 0 0 0
-0.009935307 0.03563099 0.4718734 0 0 0
-0.008315952 0.03557793 0.469007 0 0 0
-0.006810425 0.03546015 0.4671271 0 0 0
0.005591333 0.03189696 0.4818506 0 0 0
0.007957032 0.03077519 0.4899186 0 0 0
0.1239451 0.0221821 0.4460584 0 0 0
0.1243383 0.02249964 0.4428257 0 0 0
0.1249996 0.02270849 0.4405452 0 0 0
0.1268888 0.02334978 0.4337041 0 0 0
0.1313221 0.02390864 0.427012 0 0 0
0.1321831 0.0240272 0.4256678 0 0 0
0.1350488 0.02428497 0.4225604 0 0 0
0.138408 0.02398598 0.4245202 0 0 0
-0.01154059 0.03443154 0.4726302 0 0 0
-0.008483592 0.03419473 0.4688896 0 0 0
0.003935802 0.03054409 0.4836567 0 0 0
0.006128903 0.02913882 0.4947168 0 0 0
0.1274235 0.01831793 0.4676557 0 0 0
0.1317876 0.02283963 0.4245962 0 0 0
0.1351353 0.02335226 0.4192078 0 0 0
0.1427817 0.02203393 0.4291032 0 0 0
-0.01967073 0.03250878 0.4937713 0 0 0
-0.0148293 0.03327858 0.476221 0 0 0
-0.009873355 0.03315438 0.4676639 0 0 0
-0.004767765 0.0319538 0.4700621 0 0 0
0.001276449 0.02994206 0.4794163 0 0 0
0.002451411 0.02943745 0.4824674 0 0 0
0.1265783 0.01929098 0.4459639 0 0 0
0.1266596 0.01975675 0.4417817 0 0 0
0.1270327 0.02057669 0.4343767 0 0 0
0.1314942 0.02117608 0.4276815 0 0 0
0.1317145 0.02154153 0.4244591 0 0 0
0.1349089 0.02169653 0.4222914 0 0 0
0.1350661 0.02207051 0.419072 0 0 0
0.1384135 0.02175271 0.4210243 0 0 0
-0.008626306 0.03159627 0.4666544 0 0 0
-0.0003986707 0.0285959 0.4811958 0 0 0
0.0007039355 0.02798926 0.4852444 0 0 0
0.12896 0.01633 0.4585503 205 205 205
0.1269258 0.01876046 0.4384046 0 0 0
0.1281672 0.01924327 0.4338416 0 0 0
0.1284557 0.01961154 0.4306172 0 0 0
0.1299108 0.0199851 0.4269993 0 0 0
0.1328184 0.02025417 0.4239103 0 0 0
0.1339953 0.02026624 0.4234993 0 0 0
-0.02198072 0.03071451 0.4862685 0 0 0
-0.0114262 0.03075344 0.4662972 0 0 0
-0.01000946 0.03057313 0.4654205 0 0 0
-0.008697293 0.03031031 0.4655296 0 0 0
0.1274718 0.01766434 0.4359721 0 0 0
0.1295177 0.01880809 0.4259112 0 0 0
0.1312418 0.01907551 0.423232 0 0 0
0.1332615 0.01922468 0.4214811 0 0 0
0.1394399 0.01919259 0.4203037 0 0 0
0.1414139 0.01937334 0.4185028 0 0 0
-0.01891166 0.03024128 0.4714471 0 0 0
-0.01733589 0.03012969 0.46961 0 0 0
-0.01565734 0.03010999 0.466777 0 0 0
-0.01159697 0.02938332 0.4661591 0 0 0
-0.01017907 0.02920631 0.4652824 0 0 0
-0.007552688 0.02868199 0.4654951 0 0 0
-0.002340886 0.02571047 0.4838085 0 0 0
-0.001605304 0.02459373 0.4928224 0 0 0
0.1326676 0.0176631 0.4236109 0 0 0
0.1331867 0.01793766 0.4213298 0 0 0
0.1355248 0.01796899 0.4204997 0 0 0
0.1408857 0.01779768 0.4206432 0 0 0
0.141699 0.01795673 0.4192765 0 0 0
0.1447469 0.01775938 0.420231 0 0 0
0.1507676 0.01653016 0.4285201 0 0 0
-0.02707586 0.02838479 0.489434 0 0 0
-0.02417791 0.02902549 0.4787467 0 0 0
-0.01846533 0.02929497 0.4663617 0 0 0
-0.01155601 0.0281993 0.4640355 0 0 0
-0.007721605 0.02731525 0.4653509 0 0 0
0.1288055 0.01431897 0.4403758 205 205 205
0.1317319 0.01622383 0.4247978 0 0 0
0.13344 0.01651662 0.422108 0 0 0
0.1389487 0.0167479 0.4190661 0 0 0
0.1417176 0.01710219 0.4159033 0 0 0
0.142869 0.01713501 0.4154594 0 0 0
0.1440188 0.01717011 0.4150113 0 0 0
0.1466418 0.01667073 0.4182384 0 0 0
-0.02766151 0.02785581 0.4822043 0 0 0
-0.0229977 0.02850899 0.4687291 0 0 0
-0.02140619 0.0284016 0.4669096 0 0 0
-0.01565228 0.02765073 0.4635198 0 0 0
-0.01303623 0.02710731 0.4637696 0 0 0
-0.0105203 0.02647598 0.4649898 0 0 0
-0.007891209 0.02594964 0.4652012 0 0 0
-0.006667409 0.02559054 0.4662904 0 0 0
-0.00423589 0.02289308 0.4853966 0 0 0
0.1379471 0.007417791 0.4788291 205 205 205
0.1296666 0.01365657 0.4346981 205 205 205
0.1319743 0.01478768 0.4255719 205 205 205
0.1333624 0.01522767 0.4219463 205 205 205
0.1345373 0.01524249 0.4215318 205 205 205
0.1388751 0.01546361 0.4189044 205 205 205
0.1396883 0.01562854 0.417544 205 205 205
0.143993 0.01634651 0.4116398 0 0 0
0.1496447 0.0151869 0.4189798 205 205 205
-0.02408147 0.02770278 0.4654596 0 0 0
-0.01058844 0.02521353 0.463846 0 0 0
0.1368677 0.007042933 0.4706452 205 205 205
0.1311152 0.01218272 0.4350639 205 205 205
0.1310831 0.01275849 0.4309026 205 205 205
0.1332836 0.01393976 0.4217796 205 205 205
0.1341267 0.01409766 0.4204328 205 205 205
0.1396144 0.01434939 0.4173777 205 205 205
0.1446894 0.01526557 0.4101055 205 205 205
-0.0300297 0.0260888 0.4766065 0 0 0
-0.02369646 0.02672619 0.4613614 0 0 0
-0.01588151 0.02503866 0.4622213 0 0 0
-0.01327032 0.02449466 0.4624691 0 0 0
-0.007564495 0.02221085 0.4719127 0 0 0
-0.006843616 0.02119202 0.4789385 0 0 0
0.1318911 0.01159264 0.4293831 205 205 205
0.1321325 0.01204181 0.4261663 205 205 205
0.1333261 0.01205242 0.4257552 205 205 205
0.1352189 0.01283223 0.4198441 205 205 205
0.1430776 0.01363876 0.4126737 205 205 205
0.1457527 0.01405018 0.4094814 205 205 205
0.1591703 0.01041227 0.4317809 205 205 205
-0.02884261 0.02556617 0.4675891 0 0 0
-0.02243569 0.02519216 0.4603703 0 0 0
-0.016056 0.02368722 0.4620583 0 0 0
-0.01135026 0.02206247 0.4674759 0 0 0
0.13237 0.01058918 0.4269226 205 205 205
0.1334507 0.01121632 0.4223638 205 205 205
0.1339673 0.01153312 0.4200855 205 205 205
0.1376075 0.01206856 0.4156118 205 205 205
0.1391128 0.0119447 0.4161059 205 205 205
0.1402702 0.01197358 0.4156699 205 205 205
0.1529289 0.01144221 0.4170235 205 205 205
-0.03312116 0.02389859 0.4758968 0 0 0
-0.02261347 0.02384853 0.4602039 0 0 0
-0.01884184 0.02289244 0.4616239 0 0 0
-0.01515685 0.02184206 0.4639896 0 0 0
-0.01163019 0.02057813 0.4682918 0 0 0
-0.009038038 0.01805334 0.4834353 205 205 205
-0.007550302 0.01576351 0.4984664 205 205 205
0.1329888 0.008346952 0.4327603 205 205 205
0.1329266 0.008974918 0.4286073 205 205 205
0.1358908 0.01044468 0.4181367 205 205 205
0.1375295 0.01080031 0.415432 205 205 205
0.1390353 0.01067265 0.4159255 205 205 205
0.1398402 0.01085599 0.4145668 205 205 205
0.1433403 0.01145647 0.4100351 205 205 205
0.1448476 0.01134287 0.4104998 205 205 205
-0.03956596 0.02097488 0.4959165 0 0 0
-0.03218298 0.02322467 0.4688494 0 0 0
-0.0300639 0.02344267 0.4641233 0 0 0
-0.02683514 0.02326977 0.4605386 0 0 0
-0.01889099 0.02165622 0.4604653 0 0 0
-0.01070752 0.01677782 0.4841348 205 205 205
0.1406758 0.001768999 0.4643214 205 205 205
0.1344854 0.006225911 0.437243 205 205 205
0.1340463 0.007674622 0.4280019 205 205 205
0.1342677 0.008164085 0.4247886 205 205 205
0.134466 0.008655639 0.4215786 205 205 205
0.1389566 0.009401677 0.4157403 205 205 205
0.1401155 0.009430918 0.4153041 205 205 205
0.1440008 0.009886577 0.4116849 205 205 205
0.1459125 0.01012754 0.409859 205 205 205
-0.03403267 0.0219449 0.4704421 0 0 0
-0.02050182 0.0204799 0.4611326 0 0 0
-0.01586104 0.01877442 0.466592 0 0 0
0.1409815 0.0008058191 0.4608512 205 205 205
0.135315 0.00505195 0.4356874 205 205 205
0.1347127 0.007206814 0.4223159 205 205 205
0.140389 0.007999131 0.4160354 205 205 205
0.1411942 0.008192983 0.4146735 205 205 205
0.1431421 0.008425197 0.4128629 205 205 205
0.1454401 0.008504641 0.4119561 205 205 205
0.1477315 0.008593397 0.4110328 205 205 205
0.151933 0.008422238 0.4114318 205 205 205
-0.04036647 0.01900916 0.4894387 0 0 0
-0.03322638 0.02122966 0.464377 0 0 0
-0.02849911 0.02088091 0.4600119 0 0 0
-0.02068062 0.0191348 0.460949 0 0 0
-0.01937455 0.01885193 0.4610882 0 0 0
-0.01844306 0.01821051 0.464177 0 0 0
0.1406327 0.0002034802 0.4555135 205 205 205
0.1371444 0.002712003 0.4410778 205 205 205
0.1349577 0.005751217 0.4230472 205 205 205
0.1363202 0.006289225 0.4194178 205 205 205
0.1411144 0.006924533 0.4144784 205 205 205
0.1442144 0.007199809 0.4122168 205 205 205
0.1472787 0.007495235 0.4099266 205 205 205
0.1521736 0.008086568 0.4057463 205 205 205
0.1560894 0.006996445 0.4115785 205 205 205
-0.03524086 0.01984072 0.4669347 0 0 0
-0.02607823 0.01894794 0.460156 0 0 0
-0.02463069 0.01877526 0.459332 0 0 0
-0.02318973 0.01860658 0.4585023 0 0 0
-0.02202901 0.01819842 0.4596332 0 0 0
-0.01458372 0.01239832 0.4882519 205 205 205
-0.0139959 0.01108005 0.4962552 205 205 205
0.140249 -0.0003558418 0.4501837 205 205 205
0.1369107 0.004668865 0.4210676 205 205 205
0.1374111 0.005032367 0.4187885 205 205 205
0.1475817 0.006622904 0.4074427 205 205 205
0.1506206 0.006388206 0.4083157 205 205 205
0.159122 0.005512882 0.412172 205 205 205
-0.03745597 0.01832197 0.4704539 0 0 0
-0.03293332 0.01899046 0.4600795 0 0 0
-0.01867692 0.01562673 0.4628053 205 205 205
-0.0165641 0.01270529 0.4789359 205 205 205
0.1446253 -0.004198294 0.4629972 205 205 205
0.1381654 0.0007116935 0.436059 205 205 205
0.137499 0.003034009 0.42271 205 205 205
0.1424688 0.004252072 0.4145457 205 205 205
0.1432666 0.004462632 0.4131798 205 205 205
0.1505449 0.005131694 0.4081115 205 205 205
0.1539501 0.005304534 0.4066632 205 205 205
0.1662986 0.002315406 0.4216775 205 205 205
-0.02873674 0.01711362 0.4574755 205 205 205
-0.02004304 0.01469137 0.4614868 205 205 205
-0.01840069 0.01306672 0.4696176 205 205 205
-0.01693488 0.009115351 0.4926276 205 205 205
-0.01604206 0.008141438 0.4976709 205 205 205
0.137218 0.001185227 0.4257021 205 205 205
0.1428218 0.003375457 0.412055 205 205 205
0.1439743 0.003414785 0.4116034 205 205 205
0.1459013 0.003677502 0.409777 205 205 205
0.1466687 0.003900641 0.4084053 205 205 205
0.1478076 0.003949013 0.4079401 205 205 205
0.1500805 0.004052769 0.4069977 205 205 205
0.1529999 0.004990865 0.4014688 205 205 205
0.1567454 0.005014211 0.4008893 205 205 205
-0.03150908 0.01638646 0.4569273 205 205 205
-0.02126701 0.01390082 0.459179 205 205 205
-0.01855643 0.009895387 0.4803488 205 205 205
0.1493146 -0.009096101 0.4722657 205 205 205
0.1431961 -0.004890296 0.4504506 205 205 205
0.1385127 0.0004725863 0.4218441 205 205 205
0.1427386 0.002115927 0.411841 205 205 205
0.1438917 0.002155441 0.4113893 205 205 205
0.1530034 0.00315595 0.4044406 205 205 205
0.1570847 0.003598334 0.4015714 205 205 205
-0.02750042 0.01442609 0.455274 205 205 205
-0.02636073 0.01399757 0.4564134 205 205 205
-0.02158334 0.01242792 0.4599504 205 205 205
0.1424193 -0.005160477 0.4441964 205 205 205
0.1410512 0.0004142196 0.4143461 205 205 205
0.1422154 0.0004494987 0.4138998 205 205 205
0.143016 0.0006723049 0.4125357 205 205 205
0.1461109 0.0009837588 0.4102544 205 205 205
0.1480275 0.001264175 0.4084157 205 205 205
0.1491697 0.001315489 0.4079449 205 205 205
0.1517981 0.001851137 0.4047072 205 205 205
0.1525289 0.002095084 0.4033242 205 205 205
0.1532508 0.00234096 0.4019402 205 205 205
0.1570106 0.002358714 0.4013545 205 205 205
0.1589566 0.002065176 0.4026347 205 205 205
0.161752 0.001410138 0.4056839 205 205 205
-0.03759159 0.01457692 0.4586858 205 205 205
-0.03593605 0.0145261 0.4569309 205 205 205
-0.03026146 0.01370272 0.454729 205 205 205
-0.0278378 0.01296908 0.4560408 205 205 205
-0.02554247 0.0121022 0.4583146 205 205 205
-0.02203696 0.01080693 0.4616957 205 205 205
-0.02044767 0.00721223 0.4807474 205 205 205
-0.0202639 0.00546717 0.490698 205 205 205
-0.01831059 0.003695388 0.4988111 205 205 205
0.1462712 -0.008818746 0.4550509 205 205 205
0.1396908 -0.002866217 0.4250755 205 205 205
0.1413182 -0.001040446 0.4150369 205 205 205
0.14293 -0.0005887656 0.4123113 205 205 205
0.149456 0.0004935117 0.405441 205 205 205
0.155001 0.001424492 0.3998439 205 205 205
0.1565237 0.001306977 0.4002407 205 205 205
0.166069 -0.0006214335 0.4088431 205 205 205
-0.03448114 0.01316212 0.4549532 205 205 205
-0.03319122 0.01285443 0.4551368 205 205 205
-0.02339774 0.009898416 0.4603513 205 205 205
-0.0212579 0.006975788 0.4744929 205 205 205
-0.02094527 0.003415154 0.4943816 205 205 205
0.1461595 -0.00944725 0.450631 205 205 205
0.1408041 -0.004142972 0.4243959 205 205 205
0.1415833 -0.002501648 0.4157213 205 205 205
0.1451587 -0.001765744 0.4111714 205 205 205
0.1470925 -0.001480986 0.4093378 205 205 205
0.1508518 -0.0002515513 0.4024599 205 205 205
0.1515773 2.679077E-07 0.4010813 205 205 205
0.1526946 6.274667E-05 0.4005978 205 205 205
0.1538102 0.0001275976 0.4001104 205 205 205
0.154924 0.0001947612 0.399619 205 205 205
0.1560361 0.0002642027 0.3991236 205 205 205
0.1662834 -0.001437023 0.4063058 205 205 205
-0.0332077 0.01167772 0.4539402 205 205 205
-0.03175338 0.01151518 0.4531425 205 205 205
-0.02706297 0.009883797 0.4567374 205 205 205
-0.02489504 0.008853085 0.4599779 205 205 205
-0.0237227 0.008411719 0.4611034 205 205 205
-0.02005318 0.001178678 0.4972033 205 205 205
-0.01859578 0.0008733811 0.4973279 205 205 205
0.1473637 -0.01083098 0.4499006 205 205 205
0.1415691 -0.005218338 0.4227899 205 205 205
0.142666 -0.003736263 0.415036 205 205 205
0.1439136 -0.003066746 0.4113948 205 205 205
0.1447031 -0.002827328 0.4100287 205 205 205
0.1466313 -0.002538553 0.4081984 205 205 205
0.1473981 -0.002292782 0.4068272 205 205 205
0.1496457 -0.001543237 0.4027069 205 205 205
0.1544385 -0.0008390776 0.3984971 205 205 205
0.1559585 -0.0009640394 0.398894 205 205 205
0.1594321 -0.00139965 0.4005541 205 205 205
0.1649214 -0.002126715 0.4034199 205 205 205
0.1715313 -0.003880071 0.4111461 205 205 205
-0.03468176 0.01067247 0.4535318 205 205 205
-0.02968645 0.009306489 0.4552086 205 205 205
-0.02522538 0.007365292 0.4607239 205 205 205
-0.02314051 0.004334222 0.4748557 205 205 205
-0.02195563 -0.0003070261 0.4987751 205 205 205
-0.01902545 -0.0009245891 0.4990302 205 205 205
0.1482271 -0.01200896 0.4482412 205 205 205
0.1426762 -0.00648317 0.4220935 205 205 205
0.142932 -0.005206347 0.4157072 205 205 205
0.1446148 -0.004080434 0.4097905 205 205 205
0.1499023 -0.002318383 0.4001997 205 205 205
0.1532476 -0.002129949 0.3987536 205 205 205
0.1543592 -0.002062484 0.3982637 205 205 205
0.1607396 -0.002085239 0.3975223 205 205 205
0.1627035 -0.002397644 0.3987696 205 205 205
0.1642479 -0.002509763 0.3991261 205 205 205
0.1662323 -0.002815577 0.4003541 205 205 205
0.1746565 -0.00537704 0.4115317 205 205 205
-0.03872697 0.01030093 0.4527262 205 205 205
-0.03744219 0.009985327 0.4529225 205 205 205
-0.03358174 0.009052565 0.4534828 205 205 205
-0.02904674 0.007230796 0.4580664 205 205 205
-0.02687783 0.006169262 0.4613117 205 205 205
-0.02584784 0.005560655 0.4634176 205 205 205
-0.02415364 0.003869797 0.4705535 205 205 205
-0.02057446 -0.001943735 0.4976596 205 205 205
0.1451863 -0.01006673 0.432363 205 205 205
0.1444625 -0.0059889 0.4127294 205 205 205
0.1448931 -0.005536641 0.4104547 205 205 205
0.1453079 -0.005082544 0.4081815 205 205 205
0.1516525 -0.00321495 0.3981076 205 205 205
0.1564977 -0.003142345 0.3970338 205 205 205
-0.03634521 0.008362733 0.4528782 205 205 205
-0.03505784 0.008051184 0.4530646 205 205 205
-0.03394144 0.007589003 0.4542195 205 205 205
-0.03248019 0.00743515 0.4534232 205 205 205
-0.02632827 0.003893707 0.4651253 205 205 205
-0.02555957 0.002954467 0.4691808 205 205 205
-0.02473684 9.39507E-05 0.4831524 205 205 205
-0.02424543 -0.0013498 0.4901386 205 205 205
0.152697 -0.01600054 0.4522217 205 205 205
0.1447342 -0.007459665 0.4133873 205 205 205
0.1455891 -0.00653719 0.4088395 205 205 205
0.1497348 -0.004763481 0.399719 205 205 205
0.1508528 -0.004702532 0.3992408 205 205 205
0.1526807 -0.004367101 0.397381 205 205 205
0.1582097 -0.004005165 0.3948998 205 205 205
0.1593101 -0.003925815 0.3943919 205 205 205
0.1604087 -0.003844186 0.39388 205 205 205
0.1619365 -0.003964751 0.3942431 205 205 205
0.1661086 -0.004105443 0.3944154 205 205 205
0.1689879 -0.004825043 0.3973678 205 205 205
-0.0304079 0.005198725 0.4554677 205 205 205
-0.02857572 0.003791066 0.4606636 205 205 205
-0.02770523 0.003003342 0.4637454 205 205 205
-0.02660706 0.0006014253 0.4747826 205 205 205
-0.02606424 -0.0006918929 0.4807887 205 205 205
-0.02547551 -0.001992652 0.4867944 205 205 205
0.1549593 -0.01802363 0.4541777 205 205 205
0.1459881 -0.01025291 0.4199485 205 205 205
0.146277 -0.007526151 0.4072196 205 205 205
0.1470474 -0.007264027 0.4058513 205 205 205
0.147809 -0.006999817 0.4044818 205 205 205
0.1507678 -0.005922926 0.3989934 205 205 205
0.1514855 -0.005648798 0.3976189 205 205 205
0.1625222 -0.004887413 0.3925978 205 205 205
0.1647075 -0.004707217 0.3915471 205 205 205
0.1715837 -0.006072846 0.3968856 205 205 205
-0.03525913 0.00559507 0.4516053 205 205 205
-0.0317304 0.004349002 0.4540779 205 205 205
-0.02992788 0.002922518 0.4592758 205 205 205
-0.02892 0.002288861 0.461384 205 205 205
-0.02819746 0.001322543 0.4654383 205 205 205
-0.02581215 -0.00360065 0.4874963 205 205 205
-0.02346977 -0.004905847 0.4916813 205 205 205
0.1579449 -0.02049763 0.4579312 205 205 205
0.1511017 -0.01547873 0.4365083 205 205 205
0.1471849 -0.01080799 0.4160286 205 205 205
0.1484816 -0.00866608 0.4060248 205 205 205
0.1510769 -0.007356742 0.3996345 205 205 205
0.1543222 -0.006445336 0.3950153 205 205 205
0.1554258 -0.006372671 0.3945206 205 205 205
0.1576274 -0.006220316 0.3935195 205 205 205
0.1635371 -0.006010505 0.3918229 205 205 205
0.1706028 -0.006893301 0.3948935 205 205 205
0.1712532 -0.00658026 0.393475 205 205 205
-0.03930067 0.005237361 0.4507854 205 205 205
-0.03673349 0.004605487 0.4511693 205 205 205
-0.03450933 0.003654256 0.4534763 205 205 205
-0.03338454 0.003179494 0.4546241 205 205 205
-0.03027694 0.00142319 0.4599907 205 205 205
-0.02716115 -0.004381925 0.4851193 205 205 205
-0.02354427 -0.006188707 0.4904206 205 205 205
0.148188 -0.01274506 0.4184721 205 205 205
0.1475326 -0.0115987 0.4134829 205 205 205
0.1475875 -0.01089044 0.4103064 205 205 205
0.151712 -0.008295929 0.3980026 205 205 205
0.152024 -0.007793387 0.395738 205 205 205
0.1575447 -0.007428648 0.3932643 205 205 205
0.1693569 -0.006952456 0.3897564 205 205 205
-0.03692363 0.003305446 0.4509133 205 205 205
-0.0307868 -0.0002539454 0.4616711 205 205 205
-0.02949334 -0.002426954 0.4707452 205 205 205
-0.02518772 -0.007327492 0.4899948 205 205 205
-0.02413498 -0.008175976 0.4930575 205 205 205
0.1482795 -0.01187191 0.4086651 205 205 205
0.1509498 -0.01052857 0.4022734 205 205 205
0.1537426 -0.008640853 0.3936152 205 205 205
0.1544314 -0.008346605 0.3922383 205 205 205
0.165117 -0.008025071 0.3893788 205 205 205
0.1666506 -0.008146988 0.3897126 205 205 205
0.16945 -0.007624756 0.3872226 205 205 205
0.1767153 -0.009796062 0.3955658 205 205 205
-0.03839936 0.002322802 0.4504632 205 205 205
-0.0339366 0.000381862 0.4550703 205 205 205
-0.03089833 -0.003312323 0.4693355 205 205 205
-0.02966162 -0.005715082 0.4793757 205 205 205
-0.02756626 -0.007243113 0.4845443 205 205 205
-0.02434038 -0.009637884 0.4927599 205 205 205
0.1512832 -0.01736713 0.4260364 205 205 205
0.1489632 -0.01284174 0.4070195 205 205 205
0.149734 -0.01255851 0.4056462 205 205 205
0.1576295 -0.009312191 0.3904777 205 205 205
0.1667568 -0.008810536 0.3871792 205 205 205
0.1684562 -0.008384326 0.3852357 205 205 205
-0.0334949 -0.001952603 0.4588501 205 205 205
-0.03203489 -0.005761934 0.4748794 205 205 205
-0.0303105 -0.007668553 0.4820003 205 205 205
-0.02904432 -0.008170402 0.4831265 205 205 205
0.1496387 -0.0138 0.4053697 205 205 205
0.1553551 -0.0106668 0.3912129 205 205 205
0.1571215 -0.01028038 0.3893332 205 205 205
0.1618998 -0.01016418 0.3881593 205 205 205
0.1757962 -0.01127033 0.3910179 205 205 205
-0.0398773 0.0002264662 0.4487672 205 205 205
-0.03674829 -0.001436431 0.4531997 205 205 205
-0.03402549 -0.003643232 0.4605086 205 205 205
-0.02710549 -0.0111666 0.48798 205 205 205
-0.02647533 -0.01261708 0.4939565 205 205 205
0.1539967 -0.02188673 0.4326495 205 205 205
0.1508276 -0.01901434 0.4213587 205 205 205
0.1487754 -0.01457126 0.4033018 205 205 205
0.1498893 -0.01374898 0.3996709 205 205 205
0.1523733 -0.01231632 0.3933004 205 205 205
0.1570349 -0.01147165 0.3890623 205 205 205
0.1592107 -0.01130409 0.3880476 205 205 205
0.1602958 -0.01121678 0.3875346 205 205 205
0.1646175 -0.01084437 0.3854445 205 205 205
0.1667669 -0.0106442 0.3843768 205 205 205
0.1718316 -0.01123979 0.3861709 205 205 205
0.1758713 -0.01192391 0.3884612 205 205 205
-0.03841286 -0.001021258 0.4467528 205 205 205
-0.034144 -0.008592225 0.4760604 205 205 205
-0.02974559 -0.01139369 0.4844613 205 205 205
-0.0277282 -0.01318286 0.4905836 205 205 205
0.1529348 -0.02174901 0.4264486 205 205 205
0.1497037 -0.0188305 0.4151898 205 205 205
0.1486403 -0.01734498 0.409334 205 205 205
0.1505304 -0.01466706 0.3980199 205 205 205
0.1540795 -0.01313289 0.3911603 205 205 205
0.1604217 -0.01184647 0.3850046 205 205 205
0.1619361 -0.01198925 0.3853546 205 205 205
0.1656099 -0.01193291 0.3846371 205 205 205
0.16867 -0.01219311 0.3852791 205 205 205
0.1742308 -0.01302421 0.3878942 205 205 205
-0.03695458 -0.003861154 0.4516696 205 205 205
-0.03539938 -0.005616654 0.4578237 205 205 205
-0.03453814 -0.01222432 0.4856078 205 205 205
-0.02895593 -0.01372556 0.4872076 205 205 205
0.160708 -0.02919526 0.449101 205 205 205
0.1503437 -0.02059205 0.4166822 205 205 205
0.1485708 -0.01781576 0.405882 205 205 205
0.1521894 -0.01471277 0.3927414 205 205 205
0.1566025 -0.01441081 0.3907607 205 205 205
0.1659749 -0.01335632 0.3852184 205 205 205
0.1675062 -0.01349109 0.3855404 205 205 205
0.1694989 -0.01385944 0.3867128 205 205 205
0.1715034 -0.01422412 0.3878745 205 205 205
0.1767965 -0.01423543 0.3873193 205 205 205
-0.03898444 -0.003769518 0.4471533 205 205 205
-0.03714817 -0.005160531 0.4513804 205 205 205
-0.03594277 -0.00732283 0.4594609 205 205 205
-0.03627568 -0.01143768 0.4772071 205 205 205
-0.03601453 -0.01312677 0.4841506 205 205 205
-0.03060092 -0.01483822 0.4867359 205 205 205
0.1488483 -0.01930182 0.4064779 205 205 205
0.1495518 -0.01660219 0.3956724 205 205 205
0.1527947 -0.01559227 0.3910858 205 205 205
0.1567675 -0.01503727 0.3882223 205 205 205
0.1574331 -0.01471057 0.386845 205 205 205
0.1596017 -0.01453711 0.385826 205 205 205
0.1617628 -0.01435434 0.3847919 205 205 205
0.1639163 -0.01416219 0.3837428 205 205 205
0.1654395 -0.01430373 0.3840728 205 205 205
0.1674204 -0.0146831 0.3852541 205 205 205
0.1704983 -0.01495043 0.3858746 205 205 205
0.1746819 -0.01508939 0.3859007 205 205 205
-0.04045655 -0.004731015 0.4466727 205 205 205
0.1487454 -0.02054416 0.4061761 205 205 205
0.1491118 -0.01836753 0.3976302 205 205 205
0.1544882 -0.01638355 0.3889327 205 205 205
0.1562547 -0.01597575 0.3870607 205 205 205
0.1752079 -0.01593209 0.3841906 205 205 205
-0.03735437 -0.007557399 0.4498233 205 205 205
-0.03659585 -0.008468251 0.4528921 205 205 205
-0.03633836 -0.00997922 0.4588518 205 205 205
-0.03654809 -0.01209843 0.467707 205 205 205
-0.03482907 -0.01826784 0.4915615 205 205 205
0.1548455 -0.02773827 0.4273602 205 205 205
0.1512235 -0.02438011 0.4152626 205 205 205
0.1507946 -0.01836745 0.3923545 205 205 205
0.1553205 -0.01665408 0.3850247 205 205 205
0.1663403 -0.01656607 0.3829548 205 205 205
0.1724905 -0.01711895 0.3841733 205 205 205
0.1755947 -0.01737681 0.3847387 205 205 205
0.1796771 -0.01811299 0.3869595 205 205 205
-0.03975416 -0.007809035 0.4472285 205 205 205
-0.03809731 -0.009451293 0.4524066 205 205 205
-0.03790418 -0.01685311 0.4820229 205 205 205
-0.0345013 -0.02130526 0.497176 205 205 205
0.1580679 -0.03138699 0.4350569 205 205 205
0.1511811 -0.02482737 0.4117832 205 205 205
0.1492557 -0.02020742 0.3947808 205 205 205
0.1499805 -0.0198845 0.3934181 205 205 205
0.1510006 -0.01897673 0.3898116 205 205 205
0.1530584 -0.0179857 0.3857193 205 205 205
0.1558847 -0.01748747 0.3833599 205 205 205
0.1584666 -0.017568 0.3832167 205 205 205
0.1647255 -0.01759694 0.3823352 205 205 205
0.1673262 -0.01764065 0.3821176 205 205 205
0.1730141 -0.01794598 0.3824634 205 205 205
0.1765906 -0.01845556 0.3838628 205 205 205
0.155729 -0.04160398 0.468609 205 205 205
0.1549436 -0.01813663 0.3813251 205 205 205
0.1560134 -0.01805129 0.3808256 205 205 205
0.1605251 -0.01855319 0.3818899 205 205 205
0.1620393 -0.01871458 0.3822305 205 205 205
0.1637384 -0.01825958 0.3803209 205 205 205
0.1652572 -0.01841298 0.3806452 205 205 205
0.1678513 -0.01845546 0.380421 205 205 205
0.1704513 -0.01848708 0.3801749 205 205 205
0.1719877 -0.01862594 0.3804665 205 205 205
0.1755508 -0.01914766 0.3818702 205 205 205
-0.03746474 -0.01458259 0.4607835 205 205 205
-0.03750422 -0.01659596 0.4686527 205 205 205
-0.03774057 -0.02334816 0.4951651 205 205 205
0.1536024 -0.02921117 0.4173442 205 205 205
0.1510085 -0.02649965 0.4079848 205 205 205
0.1502633 -0.02511334 0.403073 205 205 205
0.1500975 -0.02167571 0.390563 205 205 205
0.1508028 -0.02134101 0.3892021 205 205 205
0.1510935 -0.02074091 0.3869655 205 205 205
0.1528657 -0.02032559 0.3851157 205 205 205
0.1559195 -0.01920799 0.3805246 205 205 205
0.1636468 -0.01942578 0.380017 205 205 205
0.1662352 -0.01947706 0.3798045 205 205 205
0.177611 -0.02008634 0.3804108 205 205 205
-0.0414286 -0.01111318 0.4451466 205 205 205
-0.0395574 -0.0223876 0.4867557 205 205 205
0.1152433 -0.01625432 0.3748416 205 205 205
0.10926 -0.009452398 0.3514459 205 205 205
0.1068645 -0.005896781 0.3390181 205 205 205
0.1074282 -0.005605754 0.3377918 205 205 205
0.1083206 -0.005583534 0.3374669 205 205 205
0.1363985 -0.02522727 0.402006 205 205 205
0.1493395 -0.02406778 0.3947284 205 205 205
0.150702 -0.02252096 0.3888907 205 205 205
0.1536808 -0.02053274 0.3812142 205 205 205
0.1573235 -0.02054046 0.3805791 205 205 205
0.1594632 -0.02035642 0.3795585 205 205 205
0.1626588 -0.02006283 0.3779999 205 205 205
0.1673541 -0.01990113 0.3767176 205 205 205
0.1781082 -0.02088465 0.3786811 205 205 205
-0.03957348 -0.01735073 0.4618577 205 205 205
-0.03946699 -0.01920426 0.4687536 205 205 205
0.1320602 -0.03550556 0.4358148 205 205 205
0.1097394 -0.01350116 0.3621719 205 205 205
0.1043325 -0.006318606 0.3375936 205 205 205
0.1050079 -0.004616727 0.3312287 205 205 205
0.1067415 -0.004571466 0.3305943 205 205 205
0.1430601 -0.03077841 0.4155703 205 205 205
0.1655829 -0.04167125 0.4490813 205 205 205
0.149966 -0.02492665 0.3930471 205 205 205
0.149893 -0.02404225 0.3899335 205 205 205
0.1537553 -0.02257969 0.3840014 205 205 205
0.1576571 -0.021967 0.3811302 205 205 205
0.1582986 -0.02160658 0.3797598 205 205 205
0.1655954 -0.0215444 0.3783317 205 205 205
0.1713717 -0.02124477 0.3764473 205 205 205
0.1729049 -0.02138911 0.3767287 205 205 205
0.178018 -0.02206665 0.3783628 205 205 205
0.1811337 -0.02232575 0.3788557 205 205 205
-0.03945743 -0.01105419 0.4330265 205 205 205
-0.04056551 -0.02167339 0.4731972 205 205 205
0.1109898 -0.01761067 0.3725822 205 205 205
0.1052672 -0.01147297 0.3522187 205 205 205
0.1024898 -0.00812039 0.3409933 205 205 205
0.10151 -0.006437986 0.3352396 205 205 205
0.1014396 -0.005589711 0.3322165 205 205 205
0.1024067 -0.004149305 0.3267847 205 205 205
0.1032573 -0.004129711 0.3264785 205 205 205
0.1548524 -0.03328456 0.4166932 205 205 205
0.1510803 -0.02784155 0.3984733 205 205 205
0.1506485 -0.02667043 0.3944761 205 205 205
0.1554031 -0.02330306 0.3818228 205 205 205
0.1571298 -0.02285359 0.3799531 205 205 205
0.1583987 -0.02212353 0.3772176 205 205 205
0.1635327 -0.02226962 0.3768473 205 205 205
-0.04125959 -0.02158941 0.467867 205 205 205
-0.04220643 -0.02485311 0.480499 205 205 205
-0.04226282 -0.02940146 0.4971561 205 205 205
0.1011811 -0.008785003 0.3401325 205 205 205
0.099913 -0.006799033 0.3334742 205 205 205
0.1000793 -0.005363816 0.3283475 205 205 205
0.1002942 -0.004785026 0.3262411 205 205 205
0.1013344 -0.004186991 0.3238376 205 205 205
0.1144223 -0.01051637 0.3425252 205 205 205
0.1536548 -0.03282606 0.4105499 205 205 205
0.1517512 -0.02961476 0.3998925 205 205 205
0.156602 -0.02373118 0.3787738 205 205 205
0.1578655 -0.02299356 0.3760438 205 205 205
0.1661538 -0.0228236 0.3740811 205 205 205
0.1681333 -0.02325791 0.3752266 205 205 205
0.1696572 -0.02341531 0.3755206 205 205 205
0.1727197 -0.02372073 0.3760867 205 205 205
0.1798774 -0.0248346 0.378791 205 205 205
-0.0309245 -0.00341525 0.3894434 205 205 205
0.1081101 -0.01918148 0.370847 205 205 205
0.1019643 -0.01230729 0.3486648 205 205 205
0.09881801 -0.005977278 0.3274902 205 205 205
0.1566 -0.03635819 0.41723 205 205 205
0.1528092 -0.0316848 0.4021791 205 205 205
0.1507677 -0.02842946 0.3915751 205 205 205
0.1565022 -0.02488024 0.3784509 205 205 205
0.156707 -0.024228 0.3762301 205 205 205
0.1577675 -0.02413449 0.3757231 205 205 205
0.1609378 -0.02384 0.3741801 205 205 205
0.1644016 -0.0244668 0.3756738 205 205 205
0.1700292 -0.02484883 0.3760348 205 205 205
0.1715617 -0.02500615 0.3763187 205 205 205
0.1730989 -0.02516025 0.3765953 205 205 205
0.1761878 -0.02545892 0.3771266 205 205 205
-0.02671911 0.0005416679 0.3681882 205 205 205
-0.04402916 -0.03174751 0.4952273 205 205 205
0.09796906 -0.008626801 0.333554 205 205 205
0.09762602 -0.007459365 0.329634 205 205 205
0.09999578 -0.005656741 0.3227465 205 205 205
0.1018364 -0.005018999 0.3200505 205 205 205
0.1026641 -0.004996011 0.3197464 205 205 205
0.1353564 -0.02795226 0.3892485 205 205 205
0.1681304 -0.04749744 0.44728 205 205 205
0.1561752 -0.02508373 0.3750491 205 205 205
0.1572327 -0.02499023 0.3745438 205 205 205
0.1597846 -0.0250793 0.3743731 205 205 205
0.16084 -0.02497846 0.3738552 205 205 205
0.1618935 -0.02487529 0.3733336 205 205 205
0.1679415 -0.02556306 0.3745731 205 205 205
0.1730026 -0.02632601 0.3762622 205 205 205
0.1760919 -0.02663142 0.3767915 205 205 205
0.1776436 -0.02677926 0.3770452 205 205 205
0.1792001 -0.02692387 0.3772914 205 205 205
0.1848919 -0.0278915 0.3796297 205 205 205
-0.02448075 0.002347139 0.3564954 205 205 205
-0.03509576 -0.01891188 0.438304 205 205 205
0.1181713 -0.0339311 0.4101078 205 205 205
0.09696975 -0.008649259 0.3305736 205 205 205
0.09692318 -0.007760414 0.3275673 205 205 205
0.09685352 -0.006870031 0.3245654 205 205 205
0.09769971 -0.006859091 0.3242777 205 205 205
0.09906878 -0.006538351 0.3227928 205 205 205
0.1037481 -0.006121558 0.3200855 205 205 205
0.1052694 -0.006680605 0.3215571 205 205 205
0.1529594 -0.0334904 0.3992318 205 205 205
0.15775 -0.02574111 0.372855 205 205 205
0.1634412 -0.02551252 0.3711075 205 205 205
0.1719584 -0.02692311 0.3742567 205 205 205
0.1796838 -0.02768329 0.375538 205 205 205
0.1828066 -0.02796444 0.3759987 205 205 205
-0.02443282 -0.002628583 0.3699763 205 205 205
0.1343942 -0.05359721 0.4666578 205 205 205
0.1085805 -0.02532641 0.3797033 205 205 205
0.09676337 -0.007738468 0.3243122 205 205 205
0.09729734 -0.007429975 0.3231224 205 205 205
0.09813923 -0.007417221 0.3228329 205 205 205
0.09949639 -0.00708912 0.3213471 205 205 205
0.1016643 -0.006732808 0.3195537 205 205 205
0.1532087 -0.03404735 0.3966364 205 205 205
0.1527215 -0.02925129 0.3811696 205 205 205
0.1565962 -0.02696578 0.3730308 205 205 205
0.1582588 -0.02648066 0.3711641 205 205 205
0.15975 -0.02667039 0.3714984 205 205 205
0.1658939 -0.02670833 0.3705488 205 205 205
0.1713872 -0.02779099 0.3730841 205 205 205
0.1729195 -0.02795324 0.3733558 205 205 205
0.1822774 -0.02814662 0.3725976 205 205 205
0.1828298 -0.02771731 0.3711836 205 205 205
-0.02994609 -0.0158384 0.4148887 205 205 205
0.09620788 -0.01073789 0.331243 205 205 205
0.09804935 -0.008280507 0.3225775 205 205 205
0.09940762 -0.007948429 0.3210928 205 205 205
0.1002432 -0.007930292 0.320796 205 205 205
0.1007472 -0.007609549 0.3196017 205 205 205
0.1024058 -0.007564632 0.3189963 205 205 205
0.1057858 -0.009014799 0.3228253 205 205 205
0.1152678 -0.01398478 0.3365507 205 205 205
0.1530275 -0.03069957 0.3816878 205 205 205
0.1558692 -0.02848245 0.3740513 205 205 205
0.1575474 -0.02799668 0.372188 205 205 205
0.1738781 -0.02897862 0.372447 205 205 205
0.1822303 -0.02859139 0.3700218 205 205 205
-0.02225537 6.635394E-05 0.3521791 205 205 205
0.1112233 -0.03177615 0.3921244 205 205 205
0.0984119 -0.01590931 0.3442421 205 205 205
0.100154 -0.008788322 0.3205383 205 205 205
0.1149863 -0.01397075 0.3332707 205 205 205
0.122685 -0.01712662 0.3414626 205 205 205
0.1557435 -0.03857615 0.4019864 205 205 205
0.1553216 -0.03729274 0.3980118 205 205 205
0.1544671 -0.03570746 0.3931811 205 205 205
0.1531751 -0.03116835 0.3791269 205 205 205
0.1544877 -0.03039391 0.3764194 205 205 205
0.155956 -0.02892024 0.3715053 205 205 205
0.1586576 -0.02832626 0.3691334 205 205 205
0.1613215 -0.0277134 0.3667395 205 205 205
0.1774299 -0.03002358 0.3712042 205 205 205
0.1779904 -0.02959326 0.3698034 205 205 205
0.1801432 -0.02785718 0.3642023 205 205 205
-0.02214238 0.000876077 0.3460921 205 205 205
-0.02203879 -0.001824811 0.3548898 205 205 205
-0.0228935 -0.006057912 0.3693957 205 205 205
-0.02719922 -0.01564681 0.403898 205 205 205
0.0993762 -0.01901671 0.3506007 205 205 205
0.09659173 -0.01220717 0.3295144 205 205 205
0.09710336 -0.01095429 0.3253328 205 205 205
0.09870909 -0.009988716 0.3217644 205 205 205
0.10039 -0.009953612 0.321171 205 205 205
0.1012289 -0.009933407 0.3208699 205 205 205
0.112569 -0.01531271 0.3349175 205 205 205
0.1140023 -0.01493279 0.3333402 205 205 205
0.1152554 -0.01520099 0.3338689 205 205 205
0.1150501 -0.01423871 0.3308779 205 205 205
0.1341674 -0.02661621 0.3652176 205 205 205
0.1629626 -0.04760377 0.4243571 205 205 205
0.1542726 -0.03591051 0.3897253 205 205 205
0.157511 -0.02954314 0.3693025 205 205 205
0.1581106 -0.02914064 0.3679479 205 205 205
0.1597345 -0.02863147 0.3660786 205 205 205
0.1613369 -0.02811449 0.3642021 205 205 205
0.1677812 -0.02914649 0.3662353 205 205 205
0.1702408 -0.02991772 0.368172 205 205 205
0.1773296 -0.0311757 0.3708507 205 205 205
0.1830397 -0.0314904 0.3709433 205 205 205
0.1836198 -0.03030812 0.3673103 205 205 205
-0.02195888 -0.000996034 0.3488012 205 205 205
-0.02180237 -0.002239012 0.3527205 205 205 205
-0.02508731 -0.01342186 0.3912134 205 205 205
0.09841387 -0.01904812 0.3475839 205 205 205
0.09731643 -0.01213801 0.3259629 205 205 205
0.09755348 -0.01150147 0.3238762 205 205 205
0.1108798 -0.0156491 0.3332058 205 205 205
0.1124732 -0.01623867 0.3346312 205 205 205
0.1139076 -0.01585466 0.3330551 205 205 205
0.1155994 -0.01413416 0.3272601 205 205 205
0.1628306 -0.04892829 0.4239469 205 205 205
0.1550837 -0.03972485 0.3972632 205 205 205
0.1537517 -0.0367868 0.3884974 205 205 205
0.1522846 -0.0338481 0.3797731 205 205 205
0.1544899 -0.03196022 0.3735166 205 205 205
0.1574064 -0.03065767 0.3689564 205 205 205
0.1580068 -0.03025114 0.3676031 205 205 205
0.1585984 -0.02984294 0.3662495 205 205 205
0.159632 -0.02973759 0.365735 205 205 205
0.1652398 -0.0294786 0.3639397 205 205 205
0.1672086 -0.02996327 0.3650591 205 205 205
0.1691892 -0.03044395 0.3661676 205 205 205
0.1782822 -0.0321872 0.3699119 205 205 205
0.18238 -0.03309668 0.3719935 205 205 205
-0.0224238 -0.0008942464 0.3455646 205 205 205
-0.02190605 -0.001636537 0.3475852 205 205 205
-0.02156393 -0.002637271 0.3505519 205 205 205
-0.03928176 -0.04015008 0.4823665 205 205 205
0.1260732 -0.05385631 0.4449463 205 205 205
0.1035401 -0.02696502 0.3675148 205 205 205
0.09802246 -0.01968852 0.3463802 205 205 205
0.09611047 -0.01557156 0.334047 205 205 205
0.09776976 -0.01268384 0.3245017 205 205 205
0.1076375 -0.01536526 0.3300466 205 205 205
0.1095473 -0.01628248 0.3323713 205 205 205
0.1191414 -0.01651026 0.3306136 205 205 205
0.1545651 -0.04062562 0.3960193 205 205 205
0.1539552 -0.03277508 0.3723128 205 205 205
0.1550144 -0.03268212 0.3718131 205 205 205
0.1556387 -0.03227691 0.3704633 205 205 205
0.1568606 -0.03146145 0.367763 205 205 205
0.1580472 -0.03063931 0.3650621 205 205 205
0.1590778 -0.03053398 0.3645494 205 205 205
0.1596525 -0.03011855 0.363197 205 205 205
0.1606759 -0.03000897 0.362679 205 205 205
0.1642024 -0.02997262 0.361933 205 205 205
0.1721196 -0.03191882 0.366351 205 205 205
0.1771961 -0.03272906 0.3679175 205 205 205
0.1802227 -0.03379948 0.370594 205 205 205
0.1843428 -0.03471434 0.3726485 205 205 205
0.1870229 -0.03395072 0.3700124 205 205 205
0.1844639 -0.03093593 0.3615703 205 205 205
-0.02204808 -0.002527534 0.3473136 205 205 205
-0.02170747 -0.003539632 0.3502768 205 205 205
-0.03442082 -0.03359346 0.4534626 205 205 205
0.09600948 -0.01647442 0.333761 205 205 205
0.09629955 -0.01486271 0.3286844 205 205 205
0.09686951 -0.01453438 0.3274973 205 205 205
0.09906577 -0.01320368 0.3227441 205 205 205
0.1010882 -0.01348731 0.3230354 205 205 205
0.1140732 -0.01801314 0.3333521 205 205 205
0.1152813 -0.01661588 0.3287911 205 205 205
0.1517212 -0.03407455 0.3729443 205 205 205
0.1544761 -0.03348795 0.3706092 205 205 205
0.1569093 -0.03184221 0.3652204 205 205 205
0.1806135 -0.03525976 0.3710383 205 205 205
0.1874319 -0.03541755 0.3704443 205 205 205
0.1879942 -0.03418623 0.3668065 205 205 205
0.1827781 -0.03039218 0.3566163 205 205 205
-0.02341034 -0.00216462 0.3439499 205 205 205
-0.02571371 -0.01873849 0.3970042 205 205 205
-0.03173563 -0.03031533 0.4369446 205 205 205
0.09788764 -0.01474362 0.3248417 205 205 205
0.1007825 -0.01502045 0.3248391 205 205 205
0.1034851 -0.01595004 0.3268894 205 205 205
0.1103803 -0.01907475 0.3344349 205 205 205
0.1112808 -0.01904268 0.3340946 205 205 205
0.1121802 -0.01900868 0.3337512 205 205 205
0.1161301 -0.01917521 0.3332207 205 205 205
0.1159224 -0.01816578 0.3302437 205 205 205
0.1173152 -0.0177518 0.3286536 205 205 205
0.1511912 -0.03487504 0.3717322 205 205 205
0.1545562 -0.03387212 0.3680595 205 205 205
0.1589904 -0.03199211 0.3616601 205 205 205
0.1605698 -0.03145559 0.3597941 205 205 205
0.1635292 -0.03185246 0.3604013 205 205 205
0.184695 -0.03658644 0.3704849 205 205 205
0.186816 -0.03627441 0.3692646 205 205 205
0.1821091 -0.03042344 0.3532754 205 205 205
-0.02180719 -0.00822951 0.3584614 205 205 205
-0.0232615 -0.01385533 0.3766696 205 205 205
0.09667739 -0.01925911 0.3358757 205 205 205
0.0969741 -0.01661833 0.3278248 205 205 205
0.09896242 -0.01592708 0.3251554 205 205 205
0.111181 -0.01996351 0.3337942 205 205 205
0.1167599 -0.02075044 0.3346642 205 205 205
0.1179694 -0.01931046 0.3300932 205 205 205
0.1185938 -0.01823509 0.326762 205 205 205
0.1506271 -0.04132979 0.3871207 205 205 205
0.1578614 -0.03318834 0.3618161 205 205 205
0.1604651 -0.03253955 0.3594389 205 205 205
0.1629579 -0.03262569 0.3592183 205 205 205
0.1804673 -0.03679585 0.3680745 205 205 205
0.1840842 -0.03743414 0.3692993 205 205 205
0.1856506 -0.03759139 0.369496 205 205 205
-0.02369312 -0.003916607 0.343397 205 205 205
-0.02194597 -0.005968031 0.348487 205 205 205
-0.02195631 -0.009161575 0.3581645 205 205 205
-0.02306379 -0.01430811 0.3744606 205 205 205
-0.02819012 -0.02642279 0.4144132 205 205 205
0.1072536 -0.03607868 0.3796956 205 205 205
0.09747677 -0.0181609 0.3293228 205 205 205
0.09980169 -0.01779269 0.3275385 205 205 205
0.1006751 -0.01777662 0.3272358 205 205 205
0.1025074 -0.01875163 0.3295933 205 205 205
0.105253 -0.01970205 0.3316205 205 205 205
0.1074681 -0.02100071 0.334833 205 205 205
0.1101789 -0.02091534 0.3338307 205 205 205
0.1128792 -0.02081238 0.3328005 205 205 205
0.1144898 -0.02143375 0.3341993 205 205 205
0.1183802 -0.01984639 0.3285588 205 205 205
0.1303566 -0.02755907 0.3481068 205 205 205
0.1489204 -0.04118884 0.3833023 205 205 205
0.1490744 -0.03653492 0.3697865 205 205 205
0.1518115 -0.03594403 0.3674795 205 205 205
0.1597989 -0.03405659 0.3604268 205 205 205
0.1608187 -0.03394373 0.3599074 205 205 205
0.1677956 -0.03462392 0.3605331 205 205 205
0.1732901 -0.03582396 0.3629461 205 205 205
0.1762846 -0.03695837 0.3656242 205 205 205
0.1798626 -0.03762325 0.3668865 205 205 205
0.1866035 -0.03859124 0.3684994 205 205 205
0.1886898 -0.03905997 0.36948 205 205 205
-0.02228436 -0.007136078 0.3491404 205 205 205
-0.02682731 -0.02504857 0.405542 205 205 205
0.100868 -0.02845466 0.3556235 205 205 205
0.09825525 -0.01903645 0.3287317 205 205 205
0.1049049 -0.02129759 0.3334081 205 205 205
0.1064587 -0.02194409 0.3348536 205 205 205
0.1080261 -0.02258827 0.3362908 205 205 205
0.1131307 -0.02206386 0.3333675 205 205 205
0.1339597 -0.03081406 0.353365 205 205 205
0.1516986 -0.03704267 0.3671105 205 205 205
0.1527458 -0.03694943 0.3666176 205 205 205
0.1541238 -0.0353447 0.3617699 205 205 205
0.1547081 -0.03491607 0.3604343 205 205 205
0.156174 -0.03513991 0.3607659 205 205 205
0.1571963 -0.03503404 0.3602586 205 205 205
0.1652456 -0.03487597 0.3582498 205 205 205
0.1706978 -0.03610644 0.3606932 205 205 205
0.1777145 -0.03826613 0.3654742 205 205 205
0.1792573 -0.03844161 0.3656967 205 205 205
0.1834063 -0.03862825 0.3655194 205 205 205
0.1854744 -0.03910939 0.3665129 205 205 205
0.1870399 -0.03926771 0.3666984 205 205 205
0.1906897 -0.0374811 0.3612179 205 205 205
-0.02276228 -0.006963014 0.3459029 205 205 205
-0.02248248 -0.01488364 0.3691025 205 205 205
0.1027257 -0.03181585 0.361572 205 205 205
0.09809764 -0.02401827 0.3403367 205 205 205
0.1045379 -0.02290529 0.3351894 205 205 205
0.1070073 -0.02353803 0.3363081 205 205 205
0.1121251 -0.02302073 0.3334033 205 205 205
0.1186364 -0.02378022 0.3338677 205 205 205
0.1191692 -0.02339477 0.3326326 205 205 205
0.1222546 -0.02357165 0.3323664 205 205 205
0.1486504 -0.03765294 0.3660207 205 205 205
0.1496945 -0.03756473 0.3655384 205 205 205
0.153575 -0.03609426 0.3605662 205 205 205
0.1661525 -0.03583537 0.3573417 205 205 205
0.1885152 -0.0397673 0.3642776 205 205 205
0.1911142 -0.03893708 0.3616157 205 205 205
0.1883512 -0.03572172 0.3533179 205 205 205
-0.02382316 -0.007609719 0.3454841 205 205 205
-0.02330448 -0.00840787 0.3474878 205 205 205
-0.02221745 -0.01166572 0.3563116 205 205 205
-0.02304003 -0.01839607 0.3764294 205 205 205
0.09806505 -0.02287908 0.3340657 205 205 205
0.09896109 -0.02183173 0.3307967 205 205 205
0.1148932 -0.02488658 0.335 205 205 205
0.1170785 -0.02514245 0.3351479 205 205 205
0.1185337 -0.02470919 0.3335483 205 205 205
0.1365115 -0.03339572 0.3535127 205 205 205
0.1460315 -0.03857382 0.3657522 205 205 205
0.1466632 -0.03815295 0.3644325 205 205 205
0.1518417 -0.03770181 0.3620197 205 205 205
0.1520042 -0.03693371 0.3598543 205 205 205
0.1575455 -0.03674994 0.3581811 205 205 205
0.1591171 -0.03619314 0.3563291 205 205 205
0.1601259 -0.0360781 0.3558117 205 205 205
0.1611326 -0.03596078 0.3552909 205 205 205
0.1621375 -0.03584114 0.3547667 205 205 205
0.1755229 -0.0392109 0.3614763 205 205 205
0.1826809 -0.04057942 0.3639398 205 205 205
0.1920663 -0.04072151 0.362791 205 205 205
0.1931084 -0.04054525 0.3621565 205 205 205
0.1941482 -0.04036652 0.3615185 205 205 205
0.1773754 -0.02958439 0.3351977 205 205 205
-0.0241709 -0.008774552 0.3461252 205 205 205
-0.0236494 -0.009581341 0.3481267 205 205 205
-0.02236663 -0.01091462 0.3511871 205 205 205
-0.0224923 -0.01823574 0.3723309 205 205 205
0.09960872 -0.0279509 0.3450531 205 205 205
0.0985497 -0.02447591 0.3355322 205 205 205
0.09946258 -0.02341709 0.3322622 205 205 205
0.1049617 -0.02542823 0.3363227 205 205 205
0.1071199 -0.02572927 0.3365509 205 205 205
0.1086224 -0.025331 0.3350065 205 205 205
0.1113558 -0.02523725 0.3339866 205 205 205
0.1147881 -0.02581484 0.3346771 205 205 205
0.118253 -0.02637245 0.3353226 205 205 205
0.122051 -0.02542657 0.3317244 205 205 205
0.1237276 -0.02605472 0.3330531 205 205 205
0.1395995 -0.03529851 0.3548205 205 205 205
0.1555208 -0.03725602 0.3566593 205 205 205
0.1569831 -0.03748534 0.3569803 205 205 205
0.159007 -0.03726153 0.355956 205 205 205
0.1684412 -0.0380736 0.3563136 205 205 205
0.1709105 -0.03893936 0.3581877 205 205 205
0.1764458 -0.04017855 0.3605117 205 205 205
0.1815578 -0.04105139 0.3619502 205 205 205
0.188605 -0.03742936 0.3511547 205 205 205
-0.02289975 -0.01239757 0.3527542 205 205 205
-0.02229651 -0.01491812 0.3595577 205 205 205
-0.02405962 -0.02359616 0.3852638 205 205 205
0.09986227 -0.02819311 0.3426323 205 205 205
0.105171 -0.02669866 0.3368801 205 205 205
0.1079302 -0.02662805 0.3358937 205 205 205
0.1150366 -0.02708995 0.3352185 205 205 205
0.1159529 -0.02704807 0.3348587 205 205 205
0.1181471 -0.02730609 0.3349935 205 205 205
0.1196055 -0.02686049 0.333389 205 205 205
0.1205153 -0.02680854 0.3330138 205 205 205
0.1524994 -0.03784565 0.355623 205 205 205
0.1569759 -0.03776032 0.3544463 205 205 205
0.1604482 -0.03775503 0.3537232 205 205 205
0.1814668 -0.04135128 0.359368 205 205 205
0.1866263 -0.04219706 0.3607169 205 205 205
0.1934211 -0.04316026 0.362132 205 205 205
0.1939293 -0.0426509 0.3607146 205 205 205
-0.02621619 -0.0114588 0.3491276 205 205 205
-0.02399798 -0.01306448 0.3523179 205 205 205
-0.02316796 -0.02079742 0.3735312 205 205 205
0.09985249 -0.02592103 0.333397 205 205 205
0.1010658 -0.02626109 0.3339741 205 205 205
0.1022855 -0.02659904 0.3345455 205 205 205
0.1084782 -0.02825671 0.3373173 205 205 205
0.1096558 -0.02749348 0.3348918 205 205 205
0.1105713 -0.02746177 0.3345505 205 205 205
0.1111425 -0.02707565 0.3333354 205 205 205
0.1129602 -0.02700255 0.33264 205 205 205
0.1145752 -0.027667 0.3340207 205 205 205
0.1189568 -0.02819001 0.3342906 205 205 205
0.1198719 -0.0281397 0.333917 205 205 205
0.1229923 -0.02832706 0.3336325 205 205 205
0.1412727 -0.03529994 0.3480751 205 205 205
0.1603368 -0.0388157 0.3533436 205 205 205
0.1628112 -0.0389151 0.3531089 205 205 205
0.1792873 -0.04277516 0.3601524 205 205 205
0.1922635 -0.04532668 0.3645554 205 205 205
0.1943727 -0.04497046 0.3632789 205 205 205
0.1948884 -0.0444558 0.3618589 205 205 205
0.1877634 -0.03844934 0.3474368 205 205 205
0.1838407 -0.03529208 0.339888 205 205 205
-0.02678254 -0.01294019 0.3506808 205 205 205
0.1144726 -0.05116132 0.395072 205 205 205
0.1058707 -0.03900786 0.3644838 205 205 205
0.1025435 -0.03364205 0.3508359 205 205 205
0.1006491 -0.0278963 0.3357229 205 205 205
0.1040278 -0.02856332 0.3365418 205 205 205
0.1098821 -0.02877087 0.3354316 205 205 205
0.1157379 -0.02890437 0.3341927 205 205 205
0.1170145 -0.02921547 0.3346922 205 205 205
0.1179326 -0.02916904 0.3343249 205 205 205
0.1188494 -0.02912055 0.3339545 205 205 205
0.1333282 -0.03232886 0.3389428 205 205 205
0.1422626 -0.03543568 0.3451285 205 205 205
0.153395 -0.03904819 0.3522229 205 205 205
0.1562968 -0.03952674 0.3528646 205 205 205
0.1622283 -0.03963109 0.3519124 205 205 205
0.166182 -0.03993756 0.3519281 205 205 205
0.168151 -0.0404927 0.352994 205 205 205
0.1701317 -0.04104367 0.354049 205 205 205
0.1716327 -0.04124723 0.3542926 205 205 205
0.179173 -0.04388821 0.3597488 205 205 205
0.1858755 -0.04495541 0.3613036 205 205 205
0.1942582 -0.04611939 0.3628621 205 205 205
0.1953097 -0.04593704 0.3622187 205 205 205
0.195725 -0.04370194 0.3564225 205 205 205
-0.0275613 -0.01473139 0.3531569 205 205 205
-0.02425176 -0.02013992 0.3660538 205 205 205
0.1028161 -0.03388446 0.3483909 205 205 205
0.1020011 -0.03170871 0.3427671 205 205 205
0.1082561 -0.03011259 0.336644 205 205 205
0.1263021 -0.03072319 0.3334777 205 205 205
0.1315902 -0.0318719 0.3352244 205 205 205
0.1350967 -0.03314122 0.3377356 205 205 205
0.1382325 -0.03404244 0.3393735 205 205 205
0.1423557 -0.03484034 0.3405247 205 205 205
0.1460095 -0.03606422 0.3429116 205 205 205
0.1533806 -0.0392807 0.3497002 205 205 205
0.1596468 -0.04058154 0.3517584 205 205 205
0.1631147 -0.04056202 0.3509963 205 205 205
0.1685557 -0.04107829 0.3512509 205 205 205
0.1695556 -0.04093965 0.3506997 205 205 205
0.1735401 -0.04203881 0.3527687 205 205 205
0.1775706 -0.04312062 0.3547936 205 205 205
0.1961571 -0.04516721 0.3567762 205 205 205
-0.02834387 -0.01654265 0.3556217 205 205 205
-0.02620701 -0.01674555 0.3549559 205 205 205
-0.02505852 -0.01845898 0.358936 205 205 205
0.1081039 -0.04287886 0.3678194 205 205 205
0.1033719 -0.03447305 0.3468316 205 205 205
0.1038046 -0.03151387 0.338822 205 205 205
0.1084707 -0.03140227 0.3371741 205 205 205
0.1149542 -0.03116031 0.3347346 205 205 205
0.1158755 -0.03111756 0.3343735 205 205 205
0.1186317 -0.03097715 0.3332717 205 205 205
0.1251255 -0.03250835 0.3356192 205 205 205
0.1279033 -0.03231524 0.33442 205 205 205
0.1288263 -0.03224671 0.334014 205 205 205
0.1301511 -0.03253604 0.3344463 205 205 205
0.1314816 -0.03282272 0.3348722 205 205 205
0.1336384 -0.03382541 0.3369682 205 205 205
0.1372804 -0.03430094 0.3373455 205 205 205
0.1395815 -0.03448595 0.3372937 205 205 205
0.165475 -0.04170943 0.3503411 205 205 205
0.1684422 -0.04214214 0.3508559 205 205 205
0.1734262 -0.04311604 0.3523688 205 205 205
0.1749346 -0.04331699 0.3525921 205 205 205
0.181531 -0.04528919 0.3563636 205 205 205
0.1892908 -0.04790905 0.3615825 205 205 205
0.1924425 -0.04824781 0.3618789 205 205 205
0.2003962 -0.04903033 0.3624866 205 205 205
-0.02891929 -0.01806983 0.3571461 205 205 205
-0.02773776 -0.01802082 0.3563518 205 205 205
-0.02696983 -0.01858003 0.3574132 205 205 205
-0.02576862 -0.02211146 0.366171 205 205 205
-0.02614249 -0.02666046 0.3785322 205 205 205
0.1043056 -0.03317858 0.3402297 205 205 205
0.104625 -0.03242405 0.338152 205 205 205
0.1064933 -0.03238117 0.3374959 205 205 205
0.1223998 -0.03283979 0.334348 205 205 205
0.1240856 -0.03351208 0.3356593 205 205 205
0.1253996 -0.03381653 0.3361137 205 205 205
0.1281891 -0.03362199 0.33491 205 205 205
0.1300415 -0.03348185 0.3340918 205 205 205
0.1313719 -0.03377193 0.3345164 205 205 205
0.1340495 -0.03434406 0.3353467 205 205 205
0.1445384 -0.0361619 0.3375875 205 205 205
0.146816 -0.03714098 0.3395826 205 205 205
0.1518809 -0.03944459 0.3443483 205 205 205
0.1663581 -0.04263125 0.3494042 205 205 205
0.1678406 -0.04284971 0.3496587 205 205 205
0.1713137 -0.04363032 0.350941 205 205 205
0.1844961 -0.04763179 0.3584833 205 205 205
0.1965603 -0.05041271 0.3632561 205 205 205
-0.02970891 -0.01991741 0.3595892 205 205 205
-0.02851529 -0.01986828 0.3587976 205 205 205
-0.02669881 -0.02432067 0.3695385 205 205 205
0.1122978 -0.03350005 0.3359657 205 205 205
0.1243543 -0.03482282 0.3361503 205 205 205
0.1252874 -0.03476194 0.3357554 205 205 205
0.1325971 -0.0350104 0.334574 205 205 205
0.1402984 -0.03633298 0.3361156 205 205 205
0.1458144 -0.03740273 0.3375701 205 205 205
0.1481032 -0.03838871 0.3395509 205 205 205
0.1579124 -0.0426481 0.3481463 205 205 205
0.1667252 -0.04404339 0.3498028 205 205 205
0.1712082 -0.04383816 0.3483916 205 205 205
0.1747058 -0.04460926 0.3496288 205 205 205
0.1911487 -0.05070486 0.3616514 205 205 205
0.1985581 -0.05118462 0.3615096 205 205 205
-0.0290883 -0.02142337 0.3603048 205 205 205
-0.02850695 -0.02230872 0.3622929 205 205 205
-0.0274407 -0.02624077 0.3719627 205 205 205
0.1133738 -0.05048841 0.3764845 205 205 205
0.1087782 -0.03493123 0.3378589 205 205 205
0.1173142 -0.03576184 0.3376071 205 205 205
0.1251741 -0.03570576 0.3353935 205 205 205
0.1292916 -0.03581152 0.3346215 205 205 205
0.1328944 -0.03633015 0.3350437 205 205 205
0.1361065 -0.0364568 0.3345893 205 205 205
0.1725867 -0.04510813 0.3482123 205 205 205
0.1791378 -0.04715861 0.3519794 205 205 205
0.1868506 -0.04987833 0.3571863 205 205 205
0.1941936 -0.05219075 0.3614841 205 205 205
0.1957836 -0.05235976 0.3616077 205 205 205
-0.02867375 -0.02510068 0.3667002 205 205 205
-0.02857429 -0.02881994 0.37623 205 205 205
0.108038 -0.03858943 0.344598 205 205 205
0.1086878 -0.03818697 0.3433875 205 205 205
0.1093291 -0.03778255 0.3421764 205 205 205
0.110586 -0.03696802 0.3397524 205 205 205
0.1115343 -0.03693631 0.3394035 205 205 205
0.1127472 -0.03611042 0.3369738 205 205 205
0.1201611 -0.03773846 0.3390549 205 205 205
0.1211088 -0.03768729 0.3386729 205 205 205
0.1273138 -0.03689435 0.3350695 205 205 205
0.134126 -0.03757624 0.3350807 205 205 205
0.1364131 -0.03778413 0.3350464 205 205 205
0.137771 -0.0380707 0.3354351 205 205 205
0.1391345 -0.03835448 0.3358172 205 205 205
0.1446423 -0.03946105 0.3372806 205 205 205
0.1460326 -0.03973042 0.3376299 205 205 205
0.1474283 -0.03999683 0.3379726 205 205 205
0.1521045 -0.0411471 0.3397693 205 205 205
0.1544473 -0.04213814 0.3416973 205 205 205
0.1615891 -0.04508232 0.3473969 205 205 205
0.168488 -0.04587442 0.3478935 205 205 205
0.1759786 -0.04695068 0.3490135 205 205 205
0.1790186 -0.04824133 0.3515583 205 205 205
-0.03049213 -0.03272597 0.3841842 205 205 205
-0.03302338 -0.03916232 0.4019194 205 205 205
0.1231618 -0.06411941 0.4015007 205 205 205
0.1152935 -0.05261723 0.3749062 205 205 205
0.1103566 -0.04377498 0.3541358 205 205 205
0.1168405 -0.03844767 0.3389539 205 205 205
0.1223066 -0.03896307 0.3387639 205 205 205
0.1253279 -0.03796804 0.3355012 205 205 205
0.1285259 -0.03814873 0.335131 205 205 205
0.133075 -0.03860909 0.3351327 205 205 205
0.1367178 -0.03911708 0.3354971 205 205 205
0.1380791 -0.03940669 0.3358828 205 205 205
0.1431425 -0.04016179 0.3365424 205 205 205
0.1454742 -0.04033596 0.3364306 205 205 205
0.1496661 -0.04113735 0.3374398 205 205 205
0.1506163 -0.04102591 0.3369554 205 205 205
0.1529478 -0.04202868 0.3388846 205 205 205
0.1576675 -0.04401991 0.3427011 205 205 205
0.1624627 -0.04599149 0.3464609 205 205 205
0.1644101 -0.04659984 0.3475229 205 205 205
0.1649243 -0.04609553 0.34619 205 205 205
0.1892053 -0.05211582 0.3558463 205 205 205
0.1987035 -0.05406997 0.3587527 205 205 205
0.2003002 -0.0542319 0.3588493 205 205 205
-0.03082133 -0.02994354 0.3742772 205 205 205
-0.035886 -0.044846 0.4144486 205 205 205
-0.04385694 -0.06125834 0.4599451 205 205 205
0.1119721 -0.0431496 0.3492158 205 205 205
0.1142064 -0.03989973 0.3405311 205 205 205
0.1196891 -0.04045366 0.340388 205 205 205
0.1206461 -0.04040382 0.3400064 205 205 205
0.1216017 -0.04035189 0.3396216 205 205 205
0.122556 -0.04029776 0.3392336 205 205 205
0.1235089 -0.04024152 0.3388423 205 205 205
0.1250315 -0.03973928 0.337208 205 205 205
0.1269202 -0.03961222 0.3364062 205 205 205
0.133367 -0.0399421 0.3355845 205 205 205
0.1458017 -0.04168809 0.3368564 205 205 205
0.1471972 -0.04196113 0.3371964 205 205 205
0.1485979 -0.04223117 0.3375297 205 205 205
0.1495502 -0.04212163 0.3370486 205 205 205
0.1523707 -0.04264738 0.3376852 205 205 205
0.1566142 -0.04428548 0.3406963 205 205 205
0.1623425 -0.04702774 0.3460489 205 205 205
0.1672722 -0.04723025 0.345484 205 205 205
0.168754 -0.04745964 0.3457236 205 205 205
0.1732277 -0.04812761 0.3463994 205 205 205
0.1959084 -0.05431211 0.3566766 205 205 205
-0.03220851 -0.03290291 0.3794249 205 205 205
0.1292409 -0.07151943 0.4110294 205 205 205
0.1141553 -0.04325383 0.3460242 205 205 205
0.117034 -0.04193277 0.3419851 205 205 205
0.1196689 -0.0426199 0.3429375 205 205 205
0.1249127 -0.04068774 0.3368275 205 205 205
0.125858 -0.04062505 0.3364282 205 205 205
0.1271878 -0.0409467 0.3368636 205 205 205
0.1286856 -0.04042418 0.3352114 205 205 205
0.1355441 -0.04111708 0.3351679 205 205 205
0.1419626 -0.04220013 0.336225 205 205 205
0.1456845 -0.04266438 0.336464 205 205 205
0.1499274 -0.04261232 0.3353649 205 205 205
0.1517933 -0.04325714 0.3364848 205 205 205
0.1584044 -0.04592389 0.3413767 205 205 205
0.1603253 -0.04655185 0.3424511 205 205 205
0.162258 -0.04717563 0.3435148 205 205 205
0.1632408 -0.04704193 0.3429843 205 205 205
0.168633 -0.04850296 0.345304 205 205 205
0.1701195 -0.04873217 0.3455351 205 205 205
0.1751119 -0.04977268 0.346964 205 205 205
0.181196 -0.05152199 0.3498613 205 205 205
0.1827284 -0.05172486 0.350034 205 205 205
0.1868563 -0.05285957 0.3518903 205 205 205
0.1915599 -0.0543438 0.3544633 205 205 205
0.1957825 -0.05543862 0.3562233 205 205 205
0.19791 -0.05597854 0.3570856 205 205 205
-0.03490876 -0.03594705 0.3853303 205 205 205
-0.04220114 -0.0548329 0.4355318 205 205 205
0.1365068 -0.08059377 0.4274178 205 205 205
0.1214835 -0.04348322 0.3417787 205 205 205
0.1217234 -0.04264746 0.3396989 205 205 205
0.1331315 -0.04184809 0.3348149 205 205 205
0.135426 -0.04207232 0.33478 205 205 205
0.1386703 -0.0421967 0.3342825 205 205 205
0.1414125 -0.04278234 0.3350164 205 205 205
0.149315 -0.044085 0.336255 205 205 205
0.1507224 -0.04435593 0.336574 205 205 205
0.154016 -0.04527114 0.3379911 205 205 205
0.1602044 -0.04757008 0.3420371 205 205 205
0.1645848 -0.04830999 0.3428225 205 205 205
0.1675295 -0.04878683 0.343311 205 205 205
0.1704934 -0.0492503 0.3437712 205 205 205
0.1729842 -0.05023146 0.3455484 205 205 205
0.1744848 -0.05045367 0.3457568 205 205 205
0.1764976 -0.0510486 0.3467329 205 205 205
0.1780108 -0.05126331 0.3469248 205 205 205
0.184662 -0.05338228 0.3505253 205 205 205
0.1882834 -0.05414798 0.3515902 205 205 205
0.1919354 -0.05489664 0.352617 205 205 205
-0.03682192 -0.03768793 0.3875272 205 205 205
-0.0380002 -0.0416606 0.3977852 205 205 205
-0.04011685 -0.04732998 0.4126479 205 205 205
-0.04792253 -0.06550369 0.4608167 205 205 205
-0.04979076 -0.07161694 0.4766406 205 205 205
-0.0477092 -0.07716751 0.4891227 205 205 205
0.1479533 -0.09496615 0.4549081 205 205 205
0.1197777 -0.05354998 0.3636138 205 205 205
0.1198907 -0.04740611 0.3488658 205 205 205
0.1211817 -0.04652153 0.3463942 205 205 205
0.1229261 -0.04394053 0.339761 205 205 205
0.1248468 -0.04382373 0.3389696 205 205 205
0.1277173 -0.04363222 0.3377585 205 205 205
0.1311249 -0.04295387 0.3352704 205 205 205
0.1366657 -0.04333133 0.3347735 205 205 205
0.1426726 -0.04403707 0.3349766 205 205 205
0.1454469 -0.04461177 0.3356684 205 205 205
0.1510588 -0.0457252 0.3369719 205 205 205
0.1615374 -0.04883964 0.3418866 205 205 205
0.1758727 -0.05264686 0.3476507 205 205 205
0.1814601 -0.05405447 0.34975 205 205 205
0.1876294 -0.05486704 0.3503778 205 205 205
0.1891826 -0.05506109 0.3505162 205 205 205
0.1912742 -0.05562663 0.3514047 205 205 205
0.1933768 -0.05618723 0.3522816 205 205 205
-0.03854464 -0.03910294 0.3887885 205 205 205
-0.0466682 -0.05897374 0.4406513 205 205 205
-0.05060723 -0.07402354 0.4788394 205 205 205
0.125317 -0.06015531 0.3747645 205 205 205
0.1234264 -0.05651471 0.3666693 205 205 205
0.123154 -0.05487341 0.3628566 205 205 205
0.12251 -0.05283123 0.3582005 205 205 205
0.1229274 -0.04614661 0.3422829 205 205 205
0.1245033 -0.04563429 0.3406498 205 205 205
0.1256819 -0.04471633 0.3381734 205 205 205
0.126639 -0.04465226 0.3377697 205 205 205
0.1314027 -0.04429932 0.3357035 205 205 205
0.1332977 -0.04414286 0.3348548 205 205 205
0.1355997 -0.04437267 0.334814 205 205 205
0.1361287 -0.04389187 0.333558 205 205 205
0.1481216 -0.04615221 0.3359274 205 205 205
0.149979 -0.04682325 0.3370504 205 205 205
0.1513932 -0.04709988 0.3373631 205 205 205
0.1552008 -0.0475219 0.3374657 205 205 205
0.1623943 -0.04972315 0.3409354 205 205 205
0.169749 -0.0518605 0.3442488 205 205 205
0.1813328 -0.05513201 0.349302 205 205 205
0.1864765 -0.05613672 0.3505423 205 205 205
0.1875017 -0.055957 0.3499246 205 205 205
0.1911461 -0.0567263 0.3509474 205 205 205
0.1969414 -0.05803607 0.3527848 205 205 205
-0.05301786 -0.07327239 0.474245 205 205 205
-0.05253379 -0.07537539 0.4790121 205 205 205
-0.05103904 -0.07575804 0.4791878 205 205 205
-0.04992416 -0.0768305 0.4811954 205 205 205
0.155319 -0.1000526 0.4567881 205 205 205
0.1297483 -0.06398363 0.3794367 205 205 205
0.1240863 -0.05209958 0.3531869 205 205 205
0.1236883 -0.0504374 0.3494093 205 205 205
0.1238874 -0.04831743 0.3444013 205 205 205
0.1284256 -0.04546947 0.3365535 205 205 205
0.130725 -0.04572567 0.3365512 205 205 205
0.1335814 -0.04549267 0.3352782 205 205 205
0.1460867 -0.04734363 0.3364692 205 205 205
0.1470441 -0.04723697 0.335995 205 205 205
0.1521804 -0.048874 0.3385462 205 205 205
0.1526898 -0.04836262 0.3372535 205 205 205
0.1541141 -0.04863628 0.3375512 205 205 205
0.1603379 -0.05009059 0.3394614 205 205 205
0.1632488 -0.05060171 0.3399774 205 205 205
0.17161 -0.05352647 0.3448072 205 205 205
0.1771338 -0.05499353 0.3469557 205 205 205
0.1786535 -0.05521656 0.3471397 205 205 205
0.1904834 -0.05744163 0.3497313 205 205 205
-0.05275315 -0.06556942 0.4520815 205 205 205
-0.04744295 -0.0828845 0.4902792 205 205 205
0.1580559 -0.1013796 0.4551009 205 205 205
0.1308348 -0.06377782 0.3755646 205 205 205
0.1257061 -0.05513767 0.356979 205 205 205
0.1248435 -0.05050804 0.3465068 205 205 205
0.125727 -0.0491744 0.3431865 205 205 205
0.1265613 -0.04783443 0.339871 205 205 205
0.1286884 -0.04682375 0.3369795 205 205 205
0.1306008 -0.04667889 0.3361469 205 205 205
0.1334581 -0.04644515 0.3348743 205 205 205
0.1492192 -0.0492976 0.337506 205 205 205
0.1506349 -0.049583 0.337819 205 205 205
0.1520558 -0.04986528 0.3381254 205 205 205
0.1544515 -0.05002365 0.3379242 205 205 205
0.1568538 -0.05017114 0.3377029 205 205 205
0.1587651 -0.05083394 0.3387667 205 205 205
0.1602129 -0.05109756 0.3390337 205 205 205
0.1626415 -0.05122103 0.3387645 205 205 205
0.1744847 -0.05504221 0.3447732 205 205 205
0.1795359 -0.05611323 0.3460982 205 205 205
0.1919146 -0.05872952 0.3493867 205 205 205
0.1940199 -0.05930617 0.3502477 205 205 205
-0.05092969 -0.07747828 0.4752835 205 205 205
-0.04868101 -0.08286759 0.4867699 205 205 205
0.1624824 -0.1047423 0.4576207 205 205 205
0.1440643 -0.08087845 0.4080482 205 205 205
0.1272906 -0.05564175 0.3548791 205 205 205
0.127782 -0.04913702 0.339882 205 205 205
0.1279869 -0.04825308 0.3378117 205 205 205
0.1289492 -0.04818344 0.3373987 205 205 205
0.1295198 -0.04770415 0.3361569 205 205 205
0.1327834 -0.04788284 0.3357149 205 205 205
0.1356431 -0.04763421 0.3344186 205 205 205
0.1371229 -0.04705241 0.3327258 205 205 205
0.1500587 -0.05016755 0.3365986 205 205 205
0.1552942 -0.05089258 0.3369945 205 205 205
0.158639 -0.05183585 0.3383366 205 205 205
0.1678912 -0.05378349 0.3406013 205 205 205
0.169867 -0.05442542 0.3415964 205 205 205
0.180931 -0.05739686 0.3458113 205 205 205
0.1845173 -0.0582225 0.3468843 205 205 205
0.1860592 -0.05843372 0.3470289 205 205 205
0.1928094 -0.0596296 0.3482803 205 205 205
0.1949186 -0.06020901 0.349131 205 205 205
-0.061366 -0.078618 0.4790477 205 205 205
-0.05794118 -0.07871614 0.4776235 205 205 205
-0.05097092 -0.07849677 0.4737865 205 205 205
0.1524293 -0.09074374 0.424708 205 205 205
0.1376745 -0.07165469 0.3855199 205 205 205
0.1328336 -0.06456757 0.3707946 205 205 205
0.1300101 -0.05996348 0.3611407 205 205 205
0.1274311 -0.05098847 0.3415357 205 205 205
0.128411 -0.05092205 0.3411231 205 205 205
0.1286244 -0.05003023 0.3390529 205 205 205
0.1292081 -0.04954852 0.3378113 205 205 205
0.131136 -0.0494016 0.3369727 205 205 205
0.1349735 -0.04908112 0.3352573 205 205 205
0.135929 -0.04899547 0.3348205 205 205 205
0.1383641 -0.04831693 0.3326814 205 205 205
0.1443165 -0.04996086 0.3348851 205 205 205
0.1513495 -0.05143755 0.3364785 205 205 205
0.1566018 -0.05215962 0.3368449 205 205 205
0.1747225 -0.05657844 0.3425282 205 205 205
0.1777388 -0.05704401 0.3428965 205 205 205
0.1854017 -0.05911446 0.3458083 205 205 205
0.1895557 -0.06031885 0.3475768 205 205 205
-0.06248627 -0.08142082 0.4820898 205 205 205
-0.05188645 -0.0780498 0.46938 205 205 205
-0.04991933 -0.08060408 0.4742791 205 205 205
-0.04916933 -0.08570203 0.4855596 205 205 205
0.129082 -0.05755409 0.3531618 205 205 205
0.1290371 -0.05271954 0.3423544 205 205 205
0.1298506 -0.05133384 0.3390412 205 205 205
0.1304335 -0.05084608 0.3377979 205 205 205
0.1319697 -0.05027964 0.3361306 205 205 205
0.1367564 -0.04986112 0.3339629 205 205 205
0.1427992 -0.05061913 0.3341246 205 205 205
0.1460248 -0.05164149 0.3355919 205 205 205
0.1488394 -0.05224094 0.3362296 205 205 205
0.1555036 -0.05327792 0.3369189 205 205 205
0.167142 -0.0554236 0.3389378 205 205 205
0.171096 -0.05673071 0.3409092 205 205 205
0.1745913 -0.05761865 0.342072 205 205 205
0.1760971 -0.05785633 0.3422585 205 205 205
0.1852685 -0.06018372 0.3453393 205 205 205
0.1894215 -0.06140125 0.3471021 205 205 205
0.1935671 -0.06161207 0.3466897 205 205 205
-0.0614115 -0.08067911 0.4760361 205 205 205
-0.05948562 -0.08036505 0.4744199 205 205 205
-0.0550492 -0.07863598 0.468438 205 205 205
-0.05105081 -0.08050513 0.4707853 205 205 205
0.1299748 -0.0585032 0.3522924 205 205 205
0.1291518 -0.05634065 0.3477239 205 205 205
0.1296603 -0.05452947 0.3435757 205 205 205
0.1316632 -0.05214571 0.3377717 205 205 205
0.1322367 -0.05165025 0.3365268 205 205 205
0.1370426 -0.05122884 0.3343513 205 205 205
0.1403315 -0.05136415 0.3338126 205 205 205
0.1431032 -0.05199435 0.3345005 205 205 205
0.1458963 -0.05261246 0.3351619 205 205 205
0.1473008 -0.05291695 0.3354827 205 205 205
0.1487106 -0.05321838 0.3357968 205 205 205
0.1616303 -0.05578849 0.338318 205 205 205
0.1694761 -0.05750741 0.3402449 205 205 205
0.1709643 -0.05775917 0.3404534 205 205 205
0.1739547 -0.05825235 0.340849 205 205 205
0.1754569 -0.05849365 0.341036 205 205 205
0.1769638 -0.0587314 0.3412158 205 205 205
0.1789895 -0.05936847 0.3421454 205 205 205
0.1825536 -0.06022657 0.3432176 205 205 205
0.1871616 -0.06088202 0.3436351 205 205 205
0.1892407 -0.06149236 0.3445045 205 205 205
0.1913307 -0.06209766 0.3453622 205 205 205
-0.0614329 -0.0816953 0.4745266 205 205 205
-0.05361632 -0.08000351 0.4671191 205 205 205
-0.05215551 -0.0803843 0.4672936 205 205 205
0.1308656 -0.05944754 0.3514158 205 205 205
0.1303996 -0.05768858 0.347685 205 205 205
0.1317257 -0.05444525 0.340225 205 205 205
0.1325017 -0.05302613 0.3369162 205 205 205
0.1334699 -0.05294578 0.336486 205 205 205
0.1354015 -0.05277829 0.3356159 205 205 205
0.136365 -0.05269118 0.3351761 205 205 205
0.1377402 -0.0530214 0.3355412 205 205 205
0.1406268 -0.05273881 0.3341881 205 205 205
0.1448023 -0.05368819 0.3352005 205 205 205
0.1518676 -0.05520922 0.3367547 205 205 205
0.1609891 -0.0573423 0.3391742 205 205 205
0.163439 -0.05747684 0.3388875 205 205 205
0.16786 -0.05827243 0.3395725 205 205 205
0.1713282 -0.05919483 0.3407591 205 205 205
0.1808917 -0.06105284 0.3425926 205 205 205
-0.05822736 -0.08018366 0.4659711 205 205 205
-0.05067473 -0.0880595 0.4799076 205 205 205
0.135676 -0.05415772 0.3359939 205 205 205
0.1366433 -0.05407004 0.3355526 205 205 205
0.1380219 -0.0544032 0.3359146 205 205 205
0.1427368 -0.05486275 0.3356975 205 205 205
0.1540745 -0.05732774 0.338171 205 205 205
0.1579459 -0.05778259 0.3382062 205 205 205
0.1633056 -0.05848573 0.3384312 205 205 205
0.1647743 -0.05875745 0.3386652 205 205 205
0.1677261 -0.05929072 0.339112 205 205 205
0.1692092 -0.0595522 0.3393248 205 205 205
0.1721896 -0.06006473 0.339729 205 205 205
0.1807557 -0.0621028 0.3421176 205 205 205
0.1812423 -0.06151734 0.3407688 205 205 205
0.1863002 -0.06160046 0.3398322 205 205 205
-0.05824562 -0.08115264 0.4644683 205 205 205
-0.05262649 -0.08306699 0.4660975 205 205 205
-0.05216006 -0.08531307 0.4707962 205 205 205
0.1325278 -0.0599607 0.3467482 205 205 205
0.1327749 -0.05902782 0.3446786 205 205 205
0.1330059 -0.05809369 0.342612 205 205 205
0.133221 -0.0571583 0.3405482 205 205 205
0.1338147 -0.05665004 0.3393005 205 205 205
0.1363538 -0.05596968 0.3371733 205 205 205
0.138714 -0.05621682 0.337086 205 205 205
0.1402429 -0.05560151 0.3353759 205 205 205
0.1430308 -0.05625423 0.3360545 205 205 205
0.1440027 -0.05615117 0.3355873 205 205 205
0.1524179 -0.05898437 0.3395065 205 205 205
0.1558388 -0.05903824 0.3387778 205 205 205
0.1572878 -0.05933163 0.3390464 205 205 205
0.1611929 -0.0597723 0.3390357 205 205 205
0.1621829 -0.05963368 0.338505 205 205 205
0.165627 -0.05962125 0.3376613 205 205 205
0.1690738 -0.06057159 0.3388589 205 205 205
0.1705616 -0.0608327 0.3390632 205 205 205
0.1725534 -0.06150593 0.3400204 205 205 205
0.1811057 -0.06256131 0.3402917 205 205 205
0.1836327 -0.06261164 0.3398329 205 205 205
0.186164 -0.06264959 0.3393527 205 205 205
-0.05870038 -0.08285589 0.4647676 205 205 205
-0.05411641 -0.08364682 0.4644146 205 205 205
-0.05212338 -0.09273211 0.4831811 205 205 205
0.1389011 -0.07381145 0.3718803 205 205 205
0.1380106 -0.05770429 0.3378949 205 205 205
0.1408009 -0.05837798 0.3385931 205 205 205
0.1413662 -0.05785134 0.3373324 205 205 205
0.1494162 -0.05935806 0.3384591 205 205 205
0.1531759 -0.06083118 0.3406202 205 205 205
0.1541726 -0.06070983 0.3401164 205 205 205
0.1551674 -0.06058605 0.3396092 205 205 205
0.161528 -0.06120117 0.3393451 205 205 205
0.1689373 -0.06158897 0.3383892 205 205 205
0.1789576 -0.06395488 0.341 205 205 205
0.1804485 -0.06318754 0.3390639 205 205 205
0.1824921 -0.06383875 0.3399556 205 205 205
-0.05292485 -0.09183527 0.4778566 205 205 205
0.1380145 -0.07403047 0.3697269 205 205 205
0.1344087 -0.06317694 0.3478387 205 205 205
0.1386898 -0.05953968 0.3390508 205 205 205
0.1414938 -0.0602185 0.3397394 205 205 205
0.142067 -0.05968735 0.3384771 205 205 205
0.1454504 -0.05981189 0.3378641 205 205 205
0.1464352 -0.05970441 0.3373871 205 205 205
0.1497188 -0.06077452 0.3387878 205 205 205
0.1530374 -0.06183034 0.3401545 205 205 205
0.1544846 -0.06213806 0.3404336 205 205 205
0.1574748 -0.06175727 0.3388973 205 205 205
0.1663239 -0.06248401 0.3382563 205 205 205
0.1687994 -0.06260431 0.3379157 205 205 205
0.1737775 -0.06381765 0.3392534 205 205 205
0.174777 -0.06365231 0.3386783 205 205 205
0.176283 -0.06390543 0.338851 205 205 205
0.1803097 -0.06422388 0.3385805 205 205 205
0.1848854 -0.06493023 0.3389953 205 205 205
-0.05417126 -0.08554205 0.4613897 205 205 205
-0.05336694 -0.09360185 0.4781184 205 205 205
0.1363808 -0.0705635 0.3601176 205 205 205
0.1389711 -0.06332032 0.3443207 205 205 205
0.1395802 -0.06279217 0.3430603 205 205 205
0.1397732 -0.06182472 0.3409981 205 205 205
0.1481521 -0.06144088 0.3380232 205 205 205
0.1553435 -0.06301348 0.339454 205 205 205
0.1617213 -0.06364372 0.3391725 205 205 205
0.1646698 -0.06421832 0.3396348 205 205 205
0.1656705 -0.0640718 0.3390906 205 205 205
0.1746371 -0.06467788 0.3381951 205 205 205
-0.0535208 -0.09149317 0.470106 205 205 205
-0.05420629 -0.09614897 0.4801717 205 205 205
0.1374563 -0.06775104 0.3513107 205 205 205
0.1408262 -0.06652077 0.3478652 205 205 205
0.141454 -0.06598722 0.3465985 205 205 205
0.1420729 -0.06545191 0.3453317 205 205 205
0.1432843 -0.06437606 0.3427977 205 205 205
0.1453025 -0.06417269 0.3418504 205 205 205
0.1556554 -0.06444739 0.3397571 205 205 205
0.1566562 -0.06431929 0.3392435 205 205 205
0.157655 -0.06418881 0.3387266 205 205 205
0.1660098 -0.06551641 0.3393721 205 205 205
0.1670122 -0.06536652 0.338823 205 205 205
0.174496 -0.06570134 0.3377082 205 205 205
-0.05885747 -0.08392563 0.4531522 205 205 205
-0.05854409 -0.08624068 0.4578182 205 205 205
-0.05587784 -0.08740358 0.4590789 205 205 205
0.1437244 -0.06966017 0.3509163 205 205 205
0.1435528 -0.06822999 0.3480448 205 205 205
0.1447943 -0.06714383 0.3455012 205 205 205
0.1462357 -0.06748513 0.3458161 205 205 205
0.148454 -0.0662781 0.3427786 205 205 205
0.151052 -0.06549512 0.3405147 205 205 205
0.15451 -0.06557275 0.3397872 205 205 205
0.1638557 -0.06682337 0.3399731 205 205 205
0.1698493 -0.06694027 0.3387398 205 205 205
0.1708526 -0.06678161 0.3381771 205 205 205
0.1763663 -0.06741626 0.3381318 205 205 205
0.1875851 -0.06957188 0.3398246 205 205 205
-0.05855735 -0.08715602 0.4563012 205 205 205
-0.0563274 -0.08910384 0.4593487 205 205 205
-0.05508837 -0.08988182 0.4604192 205 205 205
-0.05542397 -0.09695221 0.4750973 205 205 205
0.1423781 -0.07320487 0.3558441 205 205 205
0.1450276 -0.07103392 0.3507406 205 205 205
0.1452584 -0.0700389 0.3486691 205 205 205
0.1469215 -0.06938656 0.3469108 205 205 205
0.1527954 -0.06726009 0.3410931 205 205 205
0.1542506 -0.06758197 0.3413658 205 205 205
0.1581915 -0.06808528 0.3413704 205 205 205
0.1681745 -0.06870709 0.340119 205 205 205
0.1706845 -0.06883283 0.3397543 205 205 205
0.1802798 -0.06982762 0.3394232 205 205 205
0.1864224 -0.07081509 0.3399357 205 205 205
0.1879691 -0.07105251 0.3400454 205 205 205
0.1889864 -0.07085625 0.3394192 205 205 205
0.1905383 -0.07108667 0.3395161 205 205 205
-0.05834716 -0.08766944 0.45389 205 205 205
0.1480202 -0.07175031 0.3487849 205 205 205
0.1490647 -0.07164288 0.3482932 205 205 205
0.1496843 -0.07108326 0.3470115 205 205 205
0.1502951 -0.07052188 0.3457298 205 205 205
0.1513271 -0.0704078 0.3452312 205 205 205
0.1525113 -0.0692759 0.3426645 205 205 205
0.1579318 -0.07011777 0.3429419 205 205 205
0.1599748 -0.06985167 0.3418908 205 205 205
0.1609934 -0.06971489 0.3413603 205 205 205
0.165999 -0.07002938 0.3407246 205 205 205
0.1695253 -0.07001312 0.3398161 205 205 205
0.1710273 -0.07029606 0.3400058 205 205 205
0.1735494 -0.07041127 0.339615 205 205 205
0.1760765 -0.07051422 0.3392031 205 205 205
0.1775951 -0.07078023 0.3393607 205 205 205
0.1806458 -0.07130112 0.339654 205 205 205
0.1872912 -0.07166995 0.3388014 205 205 205
0.1888386 -0.07190714 0.3389042 205 205 205
-0.06000799 -0.08856738 0.453075 205 205 205
-0.05824875 -0.09133077 0.4579002 205 205 205
-0.05683224 -0.09490064 0.4644991 205 205 205
-0.05764148 -0.09969119 0.4744905 205 205 205
0.1509971 -0.07244027 0.3467952 205 205 205
0.1526408 -0.07175535 0.3450085 205 205 205
0.1693773 -0.07103361 0.3393112 205 205 205
0.1734011 -0.0714374 0.3391072 205 205 205
0.1744146 -0.07127034 0.3385308 205 205 205
0.1804969 -0.07233884 0.3391404 205 205 205
0.1855993 -0.0724717 0.3381751 205 205 205
0.1886894 -0.07295583 0.3383852 205 205 205
0.189705 -0.07275605 0.3377563 205 205 205
-0.0609243 -0.09104763 0.4551081 205 205 205
-0.0581175 -0.095032 0.4618874 205 205 205
-0.05771017 -0.09743662 0.4665161 205 205 205
0.1472509 -0.07583044 0.3519033 205 205 205
0.1489598 -0.07516161 0.3501311 205 205 205
0.1575011 -0.073181 0.3439973 205 205 205
0.1580828 -0.07259673 0.3427043 205 205 205
0.1631052 -0.07295282 0.3421069 205 205 205
0.1676732 -0.07281169 0.3406719 205 205 205
0.1686941 -0.07265726 0.3401143 205 205 205
0.1895546 -0.07380201 0.3372336 205 205 205
-0.06070445 -0.0915373 0.4526911 205 205 205
-0.05859209 -0.09999023 0.4685176 205 205 205
0.1483159 -0.07824586 0.3537478 205 205 205
0.1515411 -0.07539262 0.3473344 205 205 205
0.152588 -0.07527599 0.3468296 205 205 205
0.1536331 -0.07515684 0.3463212 205 205 205
0.1542407 -0.07457662 0.3450348 205 205 205
0.1577947 -0.07465503 0.3442537 205 205 205
0.1608957 -0.0742523 0.3426675 205 205 205
0.1619254 -0.07411306 0.3421321 205 205 205
0.1634168 -0.07442617 0.3423535 205 205 205
0.1644461 -0.07428141 0.3418095 205 205 205
0.1650028 -0.0736802 0.3405054 205 205 205
0.1660245 -0.07353093 0.3399565 205 205 205
0.1750792 -0.07528397 0.3410538 205 205 205
0.1827564 -0.07556492 0.3396963 205 205 205
0.1832626 -0.07493152 0.3383568 205 205 205
0.1848029 -0.07518779 0.3384734 205 205 205
-0.06093963 -0.09282073 0.4520463 205 205 205
-0.05873934 -0.09482682 0.4550722 205 205 205
-0.05819688 -0.1001065 0.4651807 205 205 205
0.1528606 -0.07675849 0.3470865 205 205 205
0.154341 -0.07710098 0.3473512 205 205 205
0.1549564 -0.07651618 0.3460633 205 205 205
0.1580859 -0.07613374 0.3445028 205 205 205
0.15971 -0.0754064 0.3426816 205 205 205
0.1611981 -0.07572858 0.3429118 205 205 205
0.1647592 -0.07575859 0.3420471 205 205 205
0.1688707 -0.07515079 0.3398307 205 205 205
0.1738951 -0.07648526 0.3411077 205 205 205
0.1764504 -0.07659967 0.3406838 205 205 205
0.1810645 -0.07634018 0.3390404 205 205 205
0.1841283 -0.0757788 0.3372177 205 205 205
0.1861594 -0.07539177 0.335986 205 205 205
0.1554768 -0.07952246 0.3491431 205 205 205
0.1567212 -0.07834115 0.3465609 205 205 205
0.15733 -0.07774793 0.3452698 205 205 205
0.1589694 -0.07702014 0.343452 205 205 205
0.1620765 -0.07660631 0.3418514 205 205 205
0.1650701 -0.07724034 0.3422773 205 205 205
0.1671373 -0.07693972 0.3411725 205 205 205
0.1686442 -0.07724541 0.3413645 205 205 205
0.1742296 -0.07797425 0.3413192 205 205 205
0.1762948 -0.07763364 0.3401521 205 205 205
0.1808975 -0.07846768 0.3405727 205 205 205
0.1844945 -0.07726536 0.3374101 205 205 205
0.18706 -0.07732709 0.3368949 205 205 205
-0.06043169 -0.09660018 0.4526912 205 205 205
-0.05798724 -0.09821555 0.4548151 205 205 205
0.1548816 -0.0826765 0.3527346 205 205 205
0.1566081 -0.08196227 0.3509205 205 205 205
0.1572461 -0.08136746 0.3496261 205 205 205
0.1607535 -0.07883427 0.3439153 205 205 205
0.1649131 -0.07826203 0.341747 205 205 205
0.1689634 -0.07873248 0.3415807 205 205 205
0.1791668 -0.08032802 0.3419654 205 205 205
0.1802077 -0.08014853 0.3413659 205 205 205
0.1812464 -0.07996641 0.3407629 205 205 205
0.1838321 -0.07894823 0.3382095 205 205 205
0.1848584 -0.07875636 0.337595 205 205 205
-0.06164671 -0.09665453 0.4500813 205 205 205
0.1569911 -0.08763039 0.3588983 205 205 205
0.1572552 -0.08656143 0.3568233 205 205 205
0.1570766 -0.08501834 0.3539807 205 205 205
0.1593904 -0.08106858 0.3459682 205 205 205
0.1620921 -0.08018516 0.3436005 205 205 205
0.166727 -0.08006684 0.3421617 205 205 205
0.1805506 -0.08165273 0.3415504 205 205 205
0.1846786 -0.07868101 0.3349971 205 205 205
0.1867066 -0.07828601 0.3337602 205 205 205
0.161177 -0.08290675 0.3464095 205 205 205
0.1649412 -0.08186223 0.343476 205 205 205
0.1690211 -0.08234812 0.3433009 205 205 205
0.1726419 -0.08233556 0.3423325 205 205 205
0.1736874 -0.08216935 0.3417543 205 205 205
0.1757079 -0.08293616 0.3426457 205 205 205
0.176756 -0.08276361 0.3420568 205 205 205
0.1808912 -0.08316137 0.3417273 205 205 205
0.1845345 -0.08306468 0.3406208 205 205 205
0.1845456 -0.08194584 0.3385606 205 205 205
-0.06182769 -0.101708 0.4533149 205 205 205
-0.0626181 -0.1063467 0.4622713 205 205 205
0.1610801 -0.08926004 0.3556242 205 205 205
0.1625227 -0.08427428 0.3460743 205 205 205
0.1635837 -0.0841316 0.345529 205 205 205
0.1682748 -0.08400923 0.344059 205 205 205
0.1697999 -0.08432691 0.3442387 205 205 205
0.1728645 -0.0849513 0.3445767 205 205 205
0.1739227 -0.08478566 0.3439965 205 205 205
0.1796184 -0.08550701 0.3438336 205 205 205
0.1869703 -0.08305831 0.3374821 205 205 205
0.1884647 -0.08105964 0.333466 205 205 205
-0.06376331 -0.1093739 0.4650712 205 205 205
0.1611138 -0.08654577 0.3481124 205 205 205
0.1653906 -0.08597506 0.3459242 205 205 205
0.1679802 -0.08615224 0.3455554 205 205 205
0.1721119 -0.08663287 0.3453326 205 205 205
0.175199 -0.08725367 0.3456455 205 205 205
0.1767497 -0.08755849 0.3457912 205 205 205
0.1798649 -0.08815674 0.3460606 205 205 205
0.180935 -0.08797674 0.3454553 205 205 205
0.1820029 -0.087794 0.3448465 205 205 205
0.1830685 -0.08760863 0.3442342 205 205 205
0.1857007 -0.08770086 0.3437206 205 205 205
0.187326 -0.08570313 0.3396907 205 205 205
0.165782 -0.09020269 0.3509705 205 205 205
0.1705899 -0.09007949 0.3494562 205 205 205
0.174166 -0.09120188 0.3505236 205 205 205
0.1789985 -0.09100264 0.348884 205 205 205
0.1816569 -0.09112376 0.3484019 205 205 205
0.1828283 -0.08980308 0.3457223 205 205 205
0.1844015 -0.09009169 0.3458297 205 205 205
0.1849712 -0.08942633 0.344487 205 205 205
0.1865466 -0.08970832 0.3445835 205 205 205
0.1871049 -0.08903877 0.3432378 205 205 205
0.1887054 -0.08472862 0.3351033 205 205 205
0.1714386 -0.09758674 0.3601365 205 205 205
0.1723403 -0.09581839 0.3567301 205 205 205
0.179505 -0.09531269 0.3539048 205 205 205
0.182343 -0.09429798 0.3513412 205 205 205
0.1868821 -0.09124896 0.3447177 205 205 205
0.1890774 -0.08854436 0.3393386 205 205 205
0.1806338 -0.1017858 0.3624913 205 205 205
0.1852239 -0.09713101 0.3530284 205 205 205
0.1853502 -0.09597572 0.3509537 205 205 205
0.1899467 -0.09055001 0.3401732 205 205 205
0.1883924 -0.1056184 0.3644895 205 205 205
0.1866681 -0.1024989 0.359482 205 205 205
0.1868414 -0.1013352 0.3573956 205 205 205
0.1913595 -0.09070463 0.3376011 205 205 205
0.1895651 -0.1053914 0.3611121 205 205 205
0.1875795 -0.09941728 0.3512652 205 205 205
0.1894659 -0.09618299 0.3451487 205 205 205
0.1900865 -0.09431557 0.3417459 205 205 205
0.1911866 -0.09175044 0.3370111 205 205 205
0.1911782 -0.09057139 0.3349716 205 205 205
0.1916844 -0.1061265 0.3591752 205 205 205
0.1897946 -0.09774242 0.3452483 205 205 205
0.1904821 -0.09349201 0.3377574 205 205 205
0.1915333 -0.09209415 0.3350778 205 205 205
0.1932963 -0.1063497 0.3565082 205 205 205
0.1914352 -0.1031742 0.3515885 205 205 205
0.1907016 -0.09860696 0.3439919 205 205 205
0.1918357 -0.09720473 0.3412969 205 205 205
0.1914583 -0.1018675 0.3468327 205 205 205
0.1910916 -0.09896936 0.3420282 205 205 205
0.1916887 -0.09706211 0.3386424 205 205 205
0.198052 -0.1123834 0.360204 205 205 205
0.1923742 -0.1027365 0.3455531 205 205 205
0.1925473 -0.099107 0.3394177 205 205 205
0.1939803 -0.09922504 0.3368024 205 205 205
0.1984725 -0.1126966 0.3554072 205 205 205
0.196066 -0.1089332 0.3498533 205 205 205
0.1951455 -0.1066929 0.3464071 205 205 205
0.1969983 -0.1098102 0.3485278 205 205 205
0.196899 -0.1096575 0.3458181 205 205 205
0.1987567 -0.1127987 0.3479032 205 205 205
0.202147 -0.1175171 0.3520219 205 205 205
0.1966563 -0.1093011 0.3404257 205 205 205
0.2086011 -0.1254055 0.3602037 205 205 205
0.1975577 -0.1101359 0.3390963 205 205 205
0.2049477 -0.1216008 0.3526575 205 205 205
0.1998911 -0.1150851 0.3438362 205 205 205
0.2033123 -0.1198488 0.3478747 205 205 205
0.2098264 -0.1278317 0.3559151 205 205 205
0.2199236 -0.1394884 0.365718 205 205 205
