ply
format ascii 1.0
comment Generated by Floating Hands
element vertex 1966
property double x
property double y
property double z
property uchar red
property uchar green
property uchar blue
end_header
-0.009109952 0.05750623 0.3586484 0 0 0
-0.004276126 0.05661368 0.3492123 0 0 0
0.00413195 0.05491349 0.3430951 0 0 0
0.004882433 0.05473443 0.344167 0 0 0
0.007413149 0.05421052 0.3443764 0 0 0
0.008257476 0.05403889 0.3444397 0 0 0
0.01259547 0.05322102 0.3427113 0 0 0
0.01343445 0.05305985 0.342755 0 0 0
0.01432192 0.0529104 0.3417966 0 0 0
0.02351389 0.05122519 0.3440306 0 0 0
0.02605096 0.05080288 0.3440282 0 0 0
0.07305955 0.04444485 0.3755031 0 0 0
0.06893814 0.04587171 0.3345739 0 0 0
0.08853892 0.04512181 0.3244883 0 0 0
0.09873009 0.0451184 0.3190072 0 0 0
-0.002193963 0.0552947 0.3454418 0 0 0
0.002248128 0.05436663 0.3439163 0 0 0
0.004865816 0.05383428 0.3431579 0 0 0
0.01069062 0.05262457 0.3445954 0 0 0
0.01333495 0.05215839 0.3427394 0 0 0
0.02175968 0.05064648 0.341999 0 0 0
0.02511222 0.05001012 0.3450131 0 0 0
0.08054659 0.04110925 0.4299443 0 0 0
0.07201561 0.0434588 0.3756499 0 0 0
0.06920409 0.04432166 0.3548352 0 0 0
0.07050717 0.04499363 0.3301263 0 0 0
0.0713087 0.04494224 0.3299537 0 0 0
0.07485312 0.04480367 0.327101 0 0 0
0.08430059 0.04439837 0.3246464 0 0 0
0.08849557 0.04424283 0.3244571 0 0 0
0.1006326 0.04431624 0.317202 0 0 0
-0.008085572 0.05556585 0.3497141 0 0 0
-0.005105616 0.05496218 0.3470932 0 0 0
-0.001457346 0.05419334 0.3455261 0 0 0
0.004760034 0.05293258 0.343141 0 0 0
0.01052427 0.05170142 0.3455746 0 0 0
0.0141243 0.05111538 0.3417615 0 0 0
0.01663591 0.05064565 0.341862 0 0 0
0.02250436 0.04960214 0.3419858 0 0 0
0.07502642 0.04387758 0.3280413 0 0 0
0.08268473 0.04357652 0.3250509 0 0 0
0.08346955 0.04354945 0.3248332 0 0 0
0.08581959 0.04347725 0.3241628 0 0 0
0.08923441 0.04334767 0.3241836 0 0 0
0.09205207 0.04335069 0.322249 0 0 0
0.09282742 0.04334162 0.3219969 0 0 0
0.09873984 0.04349171 0.3167861 0 0 0
0.1154545 0.04326323 0.3208571 0 0 0
0.1166308 0.04324292 0.3214321 0 0 0
0.118589 0.04326069 0.3216542 0 0 0
-0.005219974 0.05404515 0.3470753 0 0 0
0.006941192 0.05145808 0.3463169 0 0 0
0.01139286 0.05066284 0.3436062 0 0 0
0.01905324 0.04929108 0.3419096 0 0 0
0.06655613 0.04345693 0.3318609 0 0 0
0.06858573 0.04339182 0.3294179 0 0 0
0.0695873 0.04328326 0.3302296 0 0 0
0.08444185 0.04274146 0.3224318 0 0 0
0.09015667 0.04255785 0.3217539 0 0 0
0.09794704 0.04262587 0.3170209 0 0 0
0.0987042 0.04263037 0.3167471 0 0 0
0.0994604 0.04263636 0.3164705 0 0 0
0.1005642 0.04258531 0.3171265 0 0 0
0.1016741 0.04253579 0.3177772 0 0 0
0.1043144 0.04251368 0.3178363 0 0 0
0.1092473 0.04243084 0.3190916 0 0 0
0.1103965 0.0423961 0.319698 0 0 0
0.1189249 0.04244785 0.320353 0 0 0
-0.003377946 0.05275673 0.3452843 0 0 0
-0.0006061092 0.05220943 0.3435929 0 0 0
0.01476241 0.04916398 0.3417481 0 0 0
0.02067605 0.04815841 0.3399144 0 0 0
0.02734915 0.04700127 0.3409128 0 0 0
0.06487314 0.04269568 0.3321321 0 0 0
0.06550065 0.04269034 0.3309976 0 0 0
0.06852536 0.0425151 0.3293798 0 0 0
0.09320628 0.04164965 0.3207136 0 0 0
0.09397746 0.04164371 0.3204568 0 0 0
0.1229085 0.04142827 0.3228582 0 0 0
-0.007870317 0.05282608 0.3456919 0 0 0
-0.002401807 0.05168587 0.3433749 0 0 0
0.001813739 0.05075153 0.34383 0 0 0
0.00434854 0.05020911 0.3440644 0 0 0
0.0129313 0.04855831 0.3426408 0 0 0
0.02058032 0.04726857 0.3398826 0 0 0
0.02642471 0.04620127 0.3418897 0 0 0
0.02893294 0.04583849 0.3408472 0 0 0
0.03265788 0.04479664 0.3527285 0 0 0
0.06387167 0.04170072 0.3363218 0 0 0
0.06605753 0.04181108 0.3298204 0 0 0
0.06926548 0.04158454 0.3291718 0 0 0
0.07304455 0.04139869 0.3273214 0 0 0
0.07485908 0.04124605 0.3279237 0 0 0
0.07900652 0.04082734 0.3310196 0 0 0
0.08174811 0.04098476 0.325145 0 0 0
0.08773767 0.04086445 0.3223875 0 0 0
0.08851532 0.04084799 0.3221504 0 0 0
0.09006818 0.04081962 0.3216677 0 0 0
0.09393568 0.04077505 0.3204114 0 0 0
0.09973233 0.04084882 0.3173186 0 0 0
0.1072744 0.04068787 0.3186963 0 0 0
0.1234869 0.0409046 0.3181066 0 0 0
-0.006150413 0.05152959 0.3449059 0 0 0
0.00424017 0.04930582 0.3440328 0 0 0
0.007320995 0.04848722 0.3482859 0 0 0
0.009115823 0.0481691 0.3474048 0 0 0
0.01372225 0.04753224 0.341648 0 0 0
0.01711601 0.04694102 0.3407732 0 0 0
0.01795237 0.04678849 0.3407962 0 0 0
0.02048401 0.04637925 0.3398473 0 0 0
0.02131751 0.04623339 0.3398577 0 0 0
0.06294758 0.0411224 0.3313611 0 0 0
0.07059823 0.04067122 0.3278087 0 0 0
0.07480169 0.04036993 0.3278776 0 0 0
0.08613165 0.0400335 0.3228056 0 0 0
0.08817738 0.04004997 0.3211485 0 0 0
0.09817062 0.03997422 0.3178229 0 0 0
0.101566 0.03993162 0.317638 0 0 0
0.1049735 0.03991366 0.317398 0 0 0
0.1072404 0.03980887 0.3186453 0 0 0
0.1080066 0.03982907 0.3183365 0 0 0
0.1099188 0.03980425 0.3186319 0 0 0
0.1102987 0.03989887 0.3173937 0 0 0
0.1133743 0.03984394 0.3182563 0 0 0
0.1203109 0.04000171 0.3173347 0 0 0
0.1230282 0.04007141 0.3171546 0 0 0
0.12379 0.04012051 0.316788 0 0 0
0.1314434 0.03947959 0.3263701 0 0 0
-0.003594654 0.05005511 0.3442042 0 0 0
0.01362034 0.04663793 0.3416106 0 0 0
0.01622017 0.04624375 0.3397108 0 0 0
0.0212391 0.04538836 0.3388198 0 0 0
0.02290025 0.04510188 0.3388307 0 0 0
0.03124017 0.04370828 0.3396975 0 0 0
0.07554143 0.03945196 0.3276379 0 0 0
0.08295611 0.039065 0.3267565 0 0 0
0.08764235 0.03912831 0.3222885 0 0 0
0.08997627 0.03908363 0.3215681 0 0 0
0.09276403 0.03911982 0.3196209 0 0 0
0.09693215 0.03903128 0.319254 0 0 0
0.1083585 0.0390465 0.3170483 0 0 0
0.1091197 0.03906978 0.3167353 0 0 0
0.1171602 0.03913091 0.3165166 0 0 0
0.1221344 0.0393182 0.3153017 0 0 0
0.1313142 0.03873548 0.3241325 0 0 0
-0.003583629 0.04917861 0.3431759 0 0 0
-0.0002081591 0.04841789 0.343556 0 0 0
0.008830583 0.04629877 0.3483236 0 0 0
0.0152426 0.04546925 0.3406389 0 0 0
0.01775404 0.04500543 0.3407159 0 0 0
0.01942948 0.04470376 0.3407516 0 0 0
0.03285514 0.04250855 0.3405862 0 0 0
0.06300011 0.03808393 0.3534961 0 0 0
0.06309985 0.0395178 0.3281697 0 0 0
0.06389824 0.03945469 0.3280217 0 0 0
0.0682762 0.03901368 0.3291935 0 0 0
0.07008526 0.03883144 0.3298328 0 0 0
0.07907592 0.03807571 0.3318346 0 0 0
0.08262306 0.03805995 0.3288456 0 0 0
0.08580358 0.03816349 0.324845 0 0 0
0.08631241 0.0382204 0.3236572 0 0 0
0.08944569 0.03815146 0.3227088 0 0 0
0.09722006 0.03808587 0.3201389 0 0 0
0.1106057 0.03824766 0.3160432 0 0 0
0.1132773 0.03825913 0.3159841 0 0 0
0.1151997 0.03824941 0.3162293 0 0 0
0.1186504 0.0383268 0.315764 0 0 0
-0.009044056 0.04941923 0.344448 0 0 0
-0.002854422 0.04808755 0.3432353 0 0 0
-0.0011657 0.04770647 0.3434248 0 0 0
-0.0002093567 0.04755174 0.3425216 0 0 0
0.003064469 0.04678045 0.3438425 0 0 0
0.01514104 0.0445795 0.3405941 0 0 0
0.01849212 0.04396294 0.3406896 0 0 0
0.01933047 0.04381258 0.3407056 0 0 0
0.02016904 0.04366374 0.3407186 0 0 0
0.02437651 0.04310542 0.3377406 0 0 0
0.02853435 0.04237356 0.338679 0 0 0
0.037135 0.0398135 0.3613046 0 0 0
0.06801587 0.03821776 0.3281609 0 0 0
0.07163353 0.03785119 0.3294266 0 0 0
0.07324297 0.03775512 0.3290642 0 0 0
0.0766876 0.03750102 0.3292736 0 0 0
0.07772901 0.0373808 0.3300438 0 0 0
0.07925703 0.03710058 0.332744 0 0 0
0.08364412 0.03727973 0.3264238 0 0 0
0.08575162 0.03728879 0.324787 0 0 0
0.09267359 0.03739429 0.3195075 0 0 0
0.1071495 0.03735989 0.3163167 0 0 0
0.1086681 0.03740512 0.3156961 0 0 0
0.1200313 0.03773502 0.3128422 0 0 0
0.1337597 0.03683418 0.324975 0 0 0
-0.009162837 0.04851606 0.3444056 0 0 0
0.005240561 0.04521269 0.346994 0 0 0
0.007522814 0.04450022 0.3511636 0 0 0
0.008470098 0.04436923 0.3502233 0 0 0
0.01235775 0.04402271 0.3434334 0 0 0
0.01325861 0.04390897 0.3424743 0 0 0
0.0217798 0.04259209 0.3386883 0 0 0
0.02925655 0.04141878 0.3376082 0 0 0
0.03091563 0.04116208 0.3375562 0 0 0
0.03260769 0.04084717 0.3384893 0 0 0
0.06268205 0.03545832 0.3645074 0 0 0
0.06058543 0.03694241 0.3446521 0 0 0
0.06438269 0.03774334 0.3267793 0 0 0
0.07157045 0.03697352 0.3293673 0 0 0
0.08132822 0.03595956 0.334194 0 0 0
0.08215304 0.03592497 0.3339783 0 0 0
0.08648887 0.0363936 0.3244944 0 0 0
0.0869949 0.03646014 0.323305 0 0 0
0.09060994 0.03647209 0.3211474 0 0 0
0.09262707 0.03653245 0.3194458 0 0 0
0.1090048 0.03664748 0.3143988 0 0 0
0.1097584 0.03667392 0.314083 0 0 0
0.1135681 0.03662513 0.3146146 0 0 0
0.1223736 0.03679014 0.3138525 0 0 0
0.1231262 0.03684081 0.3134878 0 0 0
0.1243217 0.03681041 0.3140124 0 0 0
0.1309882 0.03638327 0.3195913 0 0 0
0.1317629 0.03644584 0.3191948 0 0 0
-0.009282052 0.0476135 0.3443594 0 0 0
-0.003928271 0.04648582 0.3430446 0 0 0
0.0002995677 0.0455334 0.3435078 0 0 0
0.001892888 0.04511936 0.3446645 0 0 0
0.003596573 0.04475359 0.3448151 0 0 0
0.01829137 0.04218302 0.3405875 0 0 0
0.01997031 0.04188268 0.3406156 0 0 0
0.02335618 0.04148527 0.33764 0 0 0
0.02584189 0.04113359 0.3366234 0 0 0
0.03082393 0.04028039 0.337501 0 0 0
0.05929845 0.03667484 0.3367077 0 0 0
0.06529563 0.03673757 0.3275444 0 0 0
0.08512601 0.03547403 0.3258473 0 0 0
0.09429692 0.03539372 0.3219584 0 0 0
0.105941 0.03569292 0.3155677 0 0 0
0.109723 0.03581037 0.3140155 0 0 0
0.1238504 0.03601194 0.3130502 0 0 0
-0.009551177 0.04667494 0.3452977 0 0 0
7.707972E-05 0.04458923 0.3444484 0 0 0
0.01294172 0.04200304 0.3443607 0 0 0
0.02657341 0.04012287 0.3365537 0 0 0
0.02739036 0.04005805 0.3355405 0 0 0
0.02905339 0.03972685 0.3364978 0 0 0
0.03417262 0.03868252 0.3402894 0 0 0
0.0620268 0.03612427 0.3280802 0 0 0
0.06282778 0.03605931 0.3279346 0 0 0
0.07144196 0.03522011 0.3292383 0 0 0
0.07408115 0.03498616 0.3296602 0 0 0
0.07979214 0.03413096 0.3354478 0 0 0
0.08086595 0.03400027 0.3362026 0 0 0
0.08285826 0.03408181 0.3336233 0 0 0
0.08666096 0.03455321 0.3253168 0 0 0
0.08824806 0.03451546 0.3248431 0 0 0
0.09346569 0.03452678 0.322149 0 0 0
0.09724312 0.03432422 0.3229733 0 0 0
0.09802945 0.03432476 0.3226995 0 0 0
0.1032571 0.03487136 0.3154681 0 0 0
0.1040159 0.03488721 0.3151728 0 0 0
0.1047736 0.03490455 0.3148746 0 0 0
0.1138498 0.0350112 0.3132329 0 0 0
0.1156834 0.03521642 0.3113187 0 0 0
0.1191933 0.03506776 0.312988 0 0 0
0.1238223 0.03513146 0.3129767 0 0 0
0.1250207 0.03509533 0.3134962 0 0 0
0.1360639 0.03421342 0.3235202 0 0 0
0.1425057 0.0332223 0.3336378 0 0 0
-0.006120431 0.04499881 0.3447119 0 0 0
-0.004416311 0.04460227 0.3449203 0 0 0
-0.001856165 0.04401903 0.3452088 0 0 0
-0.001001778 0.04382772 0.3452984 0 0 0
0.01463601 0.04090103 0.3423732 0 0 0
0.02063068 0.04002334 0.3395099 0 0 0
0.0214848 0.03994534 0.3385181 0 0 0
0.02317124 0.03979776 0.3365253 0 0 0
0.02400352 0.03972811 0.3355242 0 0 0
0.03400248 0.03794371 0.3382331 0 0 0
0.07412592 0.02242987 0.4803619 0 0 0
0.06409395 0.02977161 0.3972779 0 0 0
0.06614712 0.0348577 0.3282329 0 0 0
0.07197047 0.0343904 0.3280162 0 0 0
0.0758627 0.03392257 0.3301761 0 0 0
0.08212984 0.03285794 0.3378427 0 0 0
0.08272112 0.03291966 0.3366593 0 0 0
0.08366492 0.03340866 0.3302212 0 0 0
0.08581066 0.03369814 0.3254775 0 0 0
0.09640725 0.03344537 0.3231707 0 0 0
0.097982 0.03344501 0.3226256 0 0 0
0.1047332 0.03404558 0.3148015 0 0 0
0.1092606 0.03418256 0.3129547 0 0 0
0.1194828 0.03433646 0.311661 0 0 0
0.1217189 0.03448314 0.3105893 0 0 0
0.126498 0.03432564 0.3126667 0 0 0
-0.005386942 0.04389743 0.3447592 0 0 0
-0.002089981 0.04306301 0.3461409 0 0 0
-0.00111771 0.04292357 0.3452386 0 0 0
0.002973223 0.04187433 0.3476249 0 0 0
0.01964318 0.03914498 0.3414318 0 0 0
0.02719279 0.03839203 0.3344184 0 0 0
0.03304022 0.03726263 0.3372111 0 0 0
0.03711399 0.0355409 0.3519601 0 0 0
0.06006683 0.03133317 0.3685808 0 0 0
0.05771899 0.03484154 0.3276444 0 0 0
0.06607832 0.03399086 0.3281614 0 0 0
0.06688181 0.03393305 0.3280002 0 0 0
0.07050205 0.03351969 0.3292733 0 0 0
0.07395221 0.03322687 0.3295162 0 0 0
0.07859703 0.03245555 0.3345394 0 0 0
0.08441858 0.03248918 0.3299198 0 0 0
0.08630419 0.03261873 0.3273143 0 0 0
0.09572192 0.03226506 0.3264586 0 0 0
0.1008167 0.03290008 0.3183382 0 0 0
0.1020041 0.03302388 0.3168314 0 0 0
0.1031732 0.03315363 0.3153188 0 0 0
0.1069621 0.03324907 0.3138136 0 0 0
0.1084702 0.03329803 0.3131924 0 0 0
0.1092225 0.03332483 0.3128777 0 0 0
0.111872 0.03331344 0.3128286 0 0 0
0.1129674 0.0334819 0.3112635 0 0 0
0.116362 0.03353534 0.3108256 0 0 0
0.1240682 0.03352522 0.3115602 0 0 0
0.1287198 0.03362648 0.3114368 0 0 0
-0.007490559 0.04329488 0.3464609 0 0 0
0.002762463 0.04090029 0.3485531 0 0 0
0.005756155 0.03978494 0.3547843 0 0 0
0.01781776 0.03848385 0.3423344 0 0 0
0.02128527 0.03818401 0.3383872 0 0 0
0.02463643 0.03792929 0.3343899 0 0 0
0.02791863 0.0373941 0.3343319 0 0 0
0.02956027 0.03713548 0.3342846 0 0 0
0.03294759 0.0363828 0.3371413 0 0 0
0.03696792 0.03468761 0.3508899 0 0 0
0.06068103 0.03380308 0.3260496 0 0 0
0.06341814 0.03340806 0.3275739 0 0 0
0.06819916 0.03270458 0.3306878 0 0 0
0.08922599 0.03146417 0.3284262 0 0 0
0.0919452 0.03131226 0.3286289 0 0 0
0.09275471 0.03130021 0.328373 0 0 0
0.09517806 0.03127356 0.3275881 0 0 0
0.09774644 0.03147358 0.3246213 0 0 0
0.09821296 0.03158085 0.3234062 0 0 0
0.09878606 0.03190659 0.3200391 0 0 0
0.1054081 0.03234864 0.314344 0 0 0
0.1132679 0.03276612 0.3099455 0 0 0
0.1258207 0.03292508 0.3094706 0 0 0
0.1313084 0.03240748 0.3144778 0 0 0
0.0009083659 0.04035962 0.3483332 0 0 0
0.001777168 0.04017106 0.3484102 0 0 0
0.00245394 0.0398543 0.3504704 0 0 0
0.003331027 0.03966733 0.3505414 0 0 0
0.00403087 0.03934901 0.3525968 0 0 0
0.008816271 0.03769302 0.3608992 0 0 0
0.01597489 0.03782558 0.3432208 0 0 0
0.0319913 0.03571589 0.3361104 0 0 0
0.03589546 0.03405824 0.3488748 0 0 0
0.05585631 0.03284789 0.332797 0 0 0
0.06044421 0.03305354 0.3249924 0 0 0
0.07057127 0.03166464 0.3300904 0 0 0
0.07809628 0.03047566 0.3365149 0 0 0
0.08402359 0.0295217 0.3421896 0 0 0
0.08973909 0.03035373 0.3302466 0 0 0
0.09493057 0.03016595 0.3296584 0 0 0
0.09574519 0.03015864 0.3293914 0 0 0
0.09655892 0.03015296 0.3291214 0 0 0
0.1011465 0.03128875 0.3169572 0 0 0
0.1026805 0.0313135 0.3163769 0 0 0
0.1030858 0.03143839 0.3151563 0 0 0
0.105749 0.03162228 0.3130362 0 0 0
0.1076205 0.03180324 0.3111958 0 0 0
0.108367 0.03183 0.3108838 0 0 0
0.1095042 0.03174909 0.3114828 0 0 0
0.1105997 0.03191954 0.309932 0 0 0
0.114298 0.03209944 0.3082918 0 0 0
0.1211851 0.03198934 0.3094504 0 0 0
0.1231127 0.03198941 0.3096137 0 0 0
0.1277356 0.03207406 0.3095053 0 0 0
0.136115 0.03092059 0.3197109 0 0 0
-0.01076735 0.04193224 0.3489395 0 0 0
-0.00454097 0.04054934 0.3487218 0 0 0
-0.003670945 0.04035007 0.3488186 0 0 0
0.003823996 0.03834684 0.3535156 0 0 0
0.005275847 0.03768791 0.3576186 0 0 0
0.01299781 0.0369443 0.3490383 0 0 0
0.02526342 0.03615052 0.3332394 0 0 0
0.03374312 0.03413007 0.3409302 0 0 0
0.03848821 0.03266634 0.3496184 0 0 0
0.03936988 0.03254583 0.3495554 0 0 0
0.06605371 0.03128473 0.3289033 0 0 0
0.0721285 0.03068692 0.3296468 0 0 0
0.07718885 0.02960949 0.336631 0 0 0
0.08050556 0.02873896 0.3429811 0 0 0
0.08382985 0.02828226 0.3452129 0 0 0
0.08970686 0.0291328 0.3332623 0 0 0
0.1003305 0.03041771 0.317157 0 0 0
0.1034007 0.03046763 0.315996 0 0 0
0.1038021 0.03059804 0.3147742 0 0 0
0.1045626 0.03061588 0.3144757 0 0 0
0.1049513 0.03074913 0.3132527 0 0 0
0.126502 0.03124822 0.3089165 0 0 0
-0.009296785 0.04053189 0.3500904 0 0 0
-0.006535788 0.03997316 0.3494331 0 0 0
-0.00216504 0.03897082 0.3499174 0 0 0
0.0003589208 0.03831753 0.3511606 0 0 0
0.009497274 0.03558133 0.3607841 0 0 0
0.01047614 0.03548105 0.3598318 0 0 0
0.01468217 0.0357763 0.3480218 0 0 0
0.0173667 0.03546223 0.3460935 0 0 0
0.02843978 0.03476078 0.3330902 0 0 0
0.06717011 0.0301309 0.330606 0 0 0
0.06837291 0.02984585 0.332388 0 0 0
0.07351869 0.02941654 0.3322842 0 0 0
0.07757233 0.02846917 0.3384745 0 0 0
0.07957023 0.02784537 0.3431002 0 0 0
0.08385081 0.02690583 0.3491965 0 0 0
0.08525385 0.0273794 0.3436973 0 0 0
0.08738822 0.02784509 0.3379613 0 0 0
0.09161382 0.02773316 0.3367262 0 0 0
0.09985369 0.02943036 0.318283 0 0 0
0.1021731 0.02946117 0.3174205 0 0 0
0.1078972 0.03025219 0.3097944 0 0 0
0.1086401 0.03028058 0.3094811 0 0 0
0.1108622 0.03037502 0.3085251 0 0 0
0.1127467 0.03032929 0.3087797 0 0 0
0.1149618 0.03044729 0.3077792 0 0 0
0.1231719 0.03071405 0.3060405 0 0 0
0.127675 0.03033055 0.3093216 0 0 0
0.1293514 0.03017032 0.310691 0 0 0
-0.009713436 0.03947977 0.3519868 0 0 0
-7.655048E-05 0.03716762 0.3540546 0 0 0
0.007469035 0.03490223 0.3615962 0 0 0
0.01245588 0.03459362 0.3548451 0 0 0
0.01345263 0.03459474 0.3528865 0 0 0
0.01540225 0.03461035 0.3489579 0 0 0
0.02089897 0.03476112 0.3370878 0 0 0
0.0391766 0.03068531 0.3493795 0 0 0
0.04127398 0.02992322 0.3542043 0 0 0
0.05573477 0.03071161 0.3275017 0 0 0
0.05704439 0.03078965 0.325283 0 0 0
0.05926978 0.03069269 0.3239033 0 0 0
0.06277864 0.03019924 0.3252888 0 0 0
0.07097303 0.02867936 0.3327454 0 0 0
0.07492875 0.02812321 0.3349074 0 0 0
0.07643056 0.02771822 0.3376143 0 0 0
0.07817992 0.02719385 0.3412795 0 0 0
0.09154992 0.02646254 0.3397375 0 0 0
0.09496439 0.02639553 0.3386931 0 0 0
0.09936643 0.02843709 0.3194049 0 0 0
0.1071106 0.02938254 0.310013 0 0 0
0.1085986 0.02943807 0.3093889 0 0 0
0.113771 0.02968086 0.3071207 0 0 0
0.1149242 0.02960192 0.3076861 0 0 0
-0.00998639 0.03848244 0.3528913 0 0 0
-0.003885825 0.0369518 0.3546138 0 0 0
0.01328897 0.03357121 0.3537926 0 0 0
0.02079654 0.03388808 0.3370035 0 0 0
0.03247518 0.03199343 0.3367409 0 0 0
0.05132342 0.02661355 0.3640821 0 0 0
0.06683438 0.02850184 0.329449 0 0 0
0.07047369 0.02760121 0.3347734 0 0 0
0.07702512 0.02643633 0.3404177 0 0 0
0.08215723 0.02493846 0.3504048 0 0 0
0.08885313 0.02524498 0.3434976 0 0 0
0.0897228 0.02521861 0.3432503 0 0 0
0.09434665 0.02498644 0.3429159 0 0 0
0.09613787 0.02630498 0.3308988 0 0 0
0.1036187 0.02776368 0.316641 0 0 0
0.1078121 0.02856756 0.309607 0 0 0
0.1141474 0.02871605 0.3079261 0 0 0
0.1152004 0.02892347 0.3063528 0 0 0
0.1238367 0.02907032 0.3054796 0 0 0
0.1278878 0.02877503 0.3078631 0 0 0
0.1303111 0.02866984 0.3088337 0 0 0
-0.0003498628 0.03434956 0.3628784 0 0 0
0.002524622 0.03383817 0.3621072 0 0 0
0.01342601 0.03310562 0.3487286 0 0 0
0.01509409 0.03258342 0.3507683 0 0 0
0.02154416 0.0329704 0.335922 0 0 0
0.04637922 0.02945437 0.3335457 0 0 0
0.05119371 0.02827412 0.3389693 0 0 0
0.05409982 0.02904074 0.3285471 0 0 0
0.06263039 0.02849816 0.3251057 0 0 0
0.06576078 0.0278156 0.328542 0 0 0
0.07332299 0.02629583 0.3360632 0 0 0
0.0811858 0.02401694 0.3505172 0 0 0
0.08345025 0.02367329 0.3519992 0 0 0
0.08554661 0.02429237 0.3453084 0 0 0
0.09426317 0.0236644 0.3459219 0 0 0
0.09628786 0.02425341 0.3401053 0 0 0
0.1031536 0.02675652 0.3177624 0 0 0
0.1062759 0.02767334 0.3101275 0 0 0
0.1129558 0.02796017 0.307258 0 0 0
0.1158945 0.0281278 0.3059136 0 0 0
0.117055 0.02804653 0.3064653 0 0 0
-0.01024223 0.03662137 0.3527148 0 0 0
-0.0007859409 0.03311763 0.3657541 0 0 0
0.004205919 0.0335819 0.3521563 0 0 0
0.005600925 0.03394432 0.3462631 0 0 0
0.00915431 0.03462798 0.3335121 0 0 0
0.01392328 0.03336616 0.3367077 0 0 0
0.01461443 0.03291172 0.3397151 0 0 0
0.02059004 0.03214405 0.3368246 0 0 0
0.02394622 0.03188823 0.3338263 0 0 0
0.02559225 0.03172148 0.3328064 0 0 0
0.02884065 0.03141349 0.3307315 0 0 0
0.03418712 0.02931655 0.3424261 0 0 0
0.03622869 0.02826961 0.3492705 0 0 0
0.04376078 0.02997896 0.3237374 0 0 0
0.04717549 0.03012624 0.3183592 0 0 0
0.06079219 0.02790534 0.3243256 0 0 0
0.06451216 0.027268 0.3266533 0 0 0
0.08379668 0.02292369 0.3497338 0 0 0
0.08748703 0.02314471 0.3456794 0 0 0
0.09447888 0.02256919 0.3467582 0 0 0
0.09769278 0.0251525 0.3248942 0 0 0
0.100672 0.02557711 0.3206815 0 0 0
0.1022448 0.02559699 0.3201007 0 0 0
0.1047212 0.02649705 0.3127736 0 0 0
0.1058584 0.02667481 0.3112481 0 0 0
0.10623 0.02683249 0.3100259 0 0 0
0.1088181 0.02707783 0.3078675 0 0 0
0.109955 0.02697702 0.308458 0 0 0
0.1121764 0.02708229 0.3074853 0 0 0
0.1187764 0.02748177 0.3044246 0 0 0
0.12213 0.02757037 0.3038784 0 0 0
0.1256905 0.02736557 0.3054059 0 0 0
0.1280911 0.02723988 0.3063939 0 0 0
-0.006163365 0.03365611 0.3621488 0 0 0
0.01453429 0.03392487 0.3227063 0 0 0
0.01517211 0.0334684 0.3257106 0 0 0
0.02221141 0.03141743 0.3327522 0 0 0
0.02875994 0.03044979 0.3316308 0 0 0
0.03037097 0.03031074 0.3305759 0 0 0
0.03121187 0.03007119 0.3315337 0 0 0
0.0350312 0.02805826 0.3442603 0 0 0
0.0425733 0.02860816 0.329736 0 0 0
0.04601698 0.02977865 0.315398 0 0 0
0.05352347 0.02840968 0.3193905 0 0 0
0.05677608 0.02798788 0.3198788 0 0 0
0.06265235 0.02666753 0.3258853 0 0 0
0.06579408 0.02595201 0.329315 0 0 0
0.08035822 0.02199798 0.3514725 0 0 0
0.08171685 0.02167988 0.353182 0 0 0
0.090322 0.02196961 0.3457777 0 0 0
0.09529503 0.0215866 0.346372 0 0 0
0.09588883 0.02170824 0.3451532 0 0 0
0.1026254 0.02487479 0.318772 0 0 0
0.1076422 0.02634859 0.3071673 0 0 0
0.1139278 0.02649833 0.3054851 0 0 0
0.1263872 0.02657782 0.3049195 0 0 0
0.1280988 0.02691159 0.302899 0 0 0
-0.0121199 0.03528024 0.3513018 0 0 0
0.008766378 0.03505254 0.3153836 0 0 0
0.01877022 0.03092036 0.334635 0 0 0
0.01957192 0.03066154 0.3356349 0 0 0
0.02620516 0.0301054 0.3306106 0 0 0
0.04064513 0.02543364 0.3517079 0 0 0
0.04374575 0.0291196 0.3165482 0 0 0
0.04669592 0.02889362 0.315212 0 0 0
0.04745564 0.0288087 0.315118 0 0 0
0.05074089 0.02821991 0.3166814 0 0 0
0.05442533 0.02797569 0.315129 0 0 0
0.06143434 0.02615142 0.3239789 0 0 0
0.06240261 0.0259516 0.3248062 0 0 0
0.06454033 0.02541808 0.3274221 0 0 0
0.07181638 0.02342099 0.3380541 0 0 0
0.09741045 0.02309924 0.3268229 0 0 0
0.09838004 0.02338456 0.3243943 0 0 0
0.1072442 0.0253475 0.3082823 0 0 0
0.112418 0.02558308 0.306041 0 0 0
0.1138859 0.02566432 0.3053769 0 0 0
0.1175344 0.02589448 0.3036708 0 0 0
0.1201541 0.02591353 0.3035006 0 0 0
0.124885 0.02559901 0.3055623 0 0 0
0.1256189 0.02566201 0.3051865 0 0 0
-0.003993243 0.0308034 0.3651848 0 0 0
-0.002606719 0.03098301 0.3613165 0 0 0
0.004297362 0.03349478 0.3289505 0 0 0
0.007249388 0.03468595 0.3142063 0 0 0
0.01827434 0.03168119 0.3216164 0 0 0
0.02286154 0.02991848 0.3295704 0 0 0
0.02932534 0.02898222 0.3284251 0 0 0
0.04221537 0.02837393 0.317597 0 0 0
0.0481349 0.0279268 0.314923 0 0 0
0.05193118 0.0275304 0.3143972 0 0 0
0.07114847 0.02345762 0.3309749 0 0 0
0.08560385 0.01981132 0.3498688 0 0 0
0.09511698 0.01924092 0.3492391 0 0 0
0.09663156 0.01977518 0.3446336 0 0 0
0.09568243 0.02106574 0.335594 0 0 0
0.09591904 0.02134902 0.3334383 0 0 0
0.09766886 0.02206161 0.3276427 0 0 0
0.09816213 0.02220751 0.3264278 0 0 0
0.1029448 0.02329977 0.3173269 0 0 0
0.1075833 0.02436802 0.3090823 0 0 0
0.1109006 0.02467411 0.3065834 0 0 0
0.113843 0.02483093 0.3052655 0 0 0
0.1167663 0.02501263 0.3039057 0 0 0
0.1193877 0.02502337 0.3037442 0 0 0
0.120115 0.0250776 0.3033883 0 0 0
0.123656 0.0248273 0.3049419 0 0 0
0.1309238 0.02494729 0.3044918 0 0 0
-0.008979542 0.0324802 0.3525396 0 0 0
-0.006049018 0.03115319 0.3578803 0 0 0
0.02357866 0.02906014 0.3284667 0 0 0
0.02438542 0.02892446 0.3284549 0 0 0
0.02679205 0.02877489 0.3264172 0 0 0
0.03079122 0.02814747 0.3262709 0 0 0
0.04059943 0.0249035 0.3405251 0 0 0
0.04136089 0.02766574 0.3175716 0 0 0
0.04729362 0.02721279 0.3149187 0 0 0
0.04805401 0.02712903 0.3148216 0 0 0
0.05033386 0.02688649 0.314514 0 0 0
0.05850695 0.02625226 0.3121993 0 0 0
0.06069905 0.02555406 0.3158197 0 0 0
0.06547929 0.02454194 0.3199181 0 0 0
0.06762409 0.02453133 0.3184513 0 0 0
0.08261669 0.01856296 0.3535466 0 0 0
0.0860179 0.01854819 0.3516567 0 0 0
0.08885638 0.01886137 0.3478149 0 0 0
0.09117566 0.01850724 0.3492151 0 0 0
0.09591677 0.01999324 0.3364122 0 0 0
0.1033102 0.02260284 0.3159903 0 0 0
0.1037218 0.02276975 0.3147708 0 0 0
0.1075348 0.02353023 0.3089677 0 0 0
0.107892 0.02370833 0.307745 0 0 0
0.1141112 0.02418869 0.3039199 0 0 0
0.1177414 0.02442714 0.3022084 0 0 0
0.120075 0.02424236 0.3032728 0 0 0
0.1262769 0.02402634 0.3045756 0 0 0
0.1277398 0.02416107 0.3038108 0 0 0
-0.01251087 0.03251348 0.3509895 0 0 0
-0.01088995 0.0319828 0.3522081 0 0 0
-0.001924513 0.03093633 0.3452016 0 0 0
0.002210535 0.03288043 0.3236147 0 0 0
0.02192723 0.02899602 0.3244082 0 0 0
0.02748364 0.02794387 0.3252969 0 0 0
0.04008709 0.02316889 0.3474022 0 0 0
0.03996737 0.0251059 0.3325032 0 0 0
0.04196246 0.02690465 0.3164046 0 0 0
0.04483109 0.02681688 0.3141041 0 0 0
0.04710356 0.02655781 0.3138304 0 0 0
0.06068885 0.02527664 0.3116727 0 0 0
0.08297893 0.0178464 0.3512655 0 0 0
0.08459918 0.01734854 0.3539134 0 0 0
0.08930076 0.017594 0.3495901 0 0 0
0.09672639 0.01681464 0.3515404 0 0 0
0.09677839 0.01815495 0.3422108 0 0 0
0.09684163 0.01981643 0.3307626 0 0 0
0.09950294 0.02012041 0.3277685 0 0 0
0.1030107 0.02077971 0.3223026 0 0 0
0.1031892 0.02142205 0.3180119 0 0 0
0.1044371 0.02193511 0.3143506 0 0 0
0.1059873 0.02230771 0.3116039 0 0 0
0.1111394 0.02319741 0.3051252 0 0 0
0.1118731 0.02323594 0.3047985 0 0 0
0.1126057 0.02327603 0.3044691 0 0 0
0.1150961 0.02360253 0.3022345 0 0 0
0.1269708 0.02324412 0.3040734 0 0 0
0.1308517 0.023235 0.3042504 0 0 0
-0.01027717 0.0307404 0.353192 0 0 0
-0.009382328 0.0305252 0.3533016 0 0 0
-0.006694234 0.02988951 0.3536104 0 0 0
0.02190844 0.02881614 0.319344 0 0 0
0.0226569 0.02842502 0.3213211 0 0 0
0.02342932 0.0281623 0.3223037 0 0 0
0.02499709 0.02763744 0.3242599 0 0 0
0.03210294 0.02665077 0.3230057 0 0 0
0.03635919 0.02524889 0.3286932 0 0 0
0.03971733 0.02611541 0.3184913 0 0 0
0.04103241 0.02634392 0.3153865 0 0 0
0.04331988 0.02606142 0.3151523 0 0 0
0.04691371 0.02591133 0.3127401 0 0 0
0.07404915 0.02178864 0.3217762 0 0 0
0.08495005 0.01664078 0.351625 0 0 0
0.08934697 0.01602906 0.3535181 0 0 0
0.09594352 0.01523941 0.3557399 0 0 0
0.09722242 0.01551538 0.3532917 0 0 0
0.09663177 0.01813401 0.3358783 0 0 0
0.1118267 0.02240842 0.3046783 0 0 0
0.1143275 0.02273344 0.3024528 0 0 0
0.1162069 0.02267318 0.3026628 0 0 0
0.1207196 0.02263045 0.3026737 0 0 0
0.1226258 0.02259528 0.302826 0 0 0
-0.01145442 0.0299249 0.3539453 0 0 0
0.0218436 0.02827949 0.317255 0 0 0
0.02490148 0.02708545 0.322168 0 0 0
0.02648466 0.02655572 0.3241109 0 0 0
0.03800583 0.02389369 0.3304313 0 0 0
0.03876355 0.02392735 0.3293775 0 0 0
0.04466363 0.02523372 0.3138881 0 0 0
0.04833957 0.02495841 0.3124349 0 0 0
0.04996915 0.02464754 0.3132091 0 0 0
0.07292746 0.02218117 0.3137801 0 0 0
0.08504201 0.01611231 0.3483793 0 0 0
0.09334872 0.01415215 0.3573569 0 0 0
0.09748492 0.01483085 0.3509786 0 0 0
0.09752446 0.01577359 0.344762 0 0 0
0.09710651 0.01736489 0.3345276 0 0 0
0.1000266 0.01800359 0.3293723 0 0 0
0.103429 0.01953163 0.3186813 0 0 0
0.1106381 0.02170244 0.3039822 0 0 0
0.1113693 0.02174108 0.3036568 0 0 0
0.1161624 0.0218473 0.3025392 0 0 0
0.1221293 0.02191537 0.3018235 0 0 0
-0.01338297 0.02943582 0.3535885 0 0 0
0.02637525 0.02601427 0.3220169 0 0 0
0.02794806 0.02576181 0.3219666 0 0 0
0.02954153 0.02537308 0.3228946 0 0 0
0.03030779 0.02539419 0.3218699 0 0 0
0.0334154 0.02506975 0.3207121 0 0 0
0.03842147 0.02367242 0.3253098 0 0 0
0.04085867 0.02475592 0.3151647 0 0 0
0.04162212 0.02466 0.3150891 0 0 0
0.04306056 0.02462402 0.3139451 0 0 0
0.04674844 0.02433658 0.3125181 0 0 0
0.09501129 0.01262849 0.3597847 205 205 205
0.0956803 0.0127691 0.3585622 205 205 205
0.0969937 0.01305649 0.3561137 205 205 205
0.09788413 0.01644056 0.3341098 0 0 0
0.1006111 0.01676881 0.3310985 0 0 0
0.1035248 0.01780871 0.3237602 0 0 0
0.1087835 0.02060901 0.3057202 0 0 0
0.1109114 0.02108234 0.3026336 0 0 0
0.1145347 0.02129854 0.3009759 0 0 0
0.1201859 0.02112643 0.3015409 0 0 0
-0.01277512 0.02817311 0.3545652 0 0 0
-0.004812427 0.02907765 0.3365138 0 0 0
0.03021151 0.02458052 0.3217531 0 0 0
0.03257285 0.02422557 0.3216301 0 0 0
0.03808233 0.02344943 0.3212434 0 0 0
0.04077091 0.02396297 0.3150491 0 0 0
0.09856187 0.01367688 0.3451277 0 0 0
0.1087324 0.01978314 0.3055908 0 0 0
0.1144883 0.02048186 0.3008473 0 0 0
0.116364 0.02041372 0.3010518 0 0 0
0.118972 0.0204075 0.3008867 0 0 0
0.121589 0.02041701 0.3006883 0 0 0
0.1265982 0.02025125 0.3014392 0 0 0
-0.01397209 0.02735011 0.3552975 0 0 0
-0.01306633 0.02712556 0.3554175 0 0 0
-0.0120072 0.0270183 0.3545527 0 0 0
-0.007595714 0.02778237 0.3430871 0 0 0
0.02310516 0.02592991 0.314924 0 0 0
0.02694077 0.02470704 0.3187912 0 0 0
0.03479409 0.02322375 0.3203736 0 0 0
0.03557783 0.0231132 0.3203184 0 0 0
0.03929049 0.02305372 0.3170445 0 0 0
0.04212758 0.0231386 0.3137922 0 0 0
0.09804743 0.01086325 0.3564638 205 205 205
0.09840469 0.01119318 0.3542938 205 205 205
0.09907359 0.01288078 0.343752 205 205 205
0.09929337 0.01373662 0.3384972 0 0 0
0.1006022 0.01442639 0.3338963 0 0 0
0.1024783 0.01478448 0.3311529 0 0 0
0.1036178 0.01550481 0.3265512 0 0 0
0.1072363 0.01814547 0.3103415 0 0 0
0.1121538 0.01991539 0.2996036 0 0 0
0.114441 0.01966592 0.3007156 0 0 0
0.1170404 0.01964573 0.3005733 0 0 0
0.1184826 0.01975357 0.2998735 0 0 0
0.1241717 0.01961287 0.300322 0 0 0
0.1282303 0.0191522 0.3026491 0 0 0
0.1246038 0.02135798 0.2911662 0 0 0
-0.01410825 0.02641478 0.3551647 0 0 0
-0.0130451 0.02630834 0.354304 0 0 0
0.02301869 0.02529589 0.3138178 0 0 0
0.0284112 0.02350689 0.3196024 0 0 0
0.0406692 0.02221745 0.3157927 0 0 0
0.04280062 0.02225765 0.3135896 0 0 0
0.04347057 0.02232978 0.3125233 0 0 0
0.07697135 0.0189124 0.3111416 0 0 0
0.08657947 0.01388795 0.337079 0 0 0
0.09597805 0.009390942 0.3599784 205 205 205
0.09861178 0.01002059 0.3550742 205 205 205
0.0995843 0.01052498 0.3516768 205 205 205
0.1013801 0.01350799 0.3334534 0 0 0
0.1064079 0.01689857 0.3126453 0 0 0
0.1103533 0.01880733 0.3013435 0 0 0
0.1158365 0.01894906 0.2998995 0 0 0
0.1169933 0.01882719 0.3004377 0 0 0
0.1210457 0.01893737 0.2995431 0 0 0
0.1241277 0.0187841 0.3001842 0 0 0
0.1260414 0.01874875 0.3002986 0 0 0
-0.01104635 0.0261407 0.3464405 0 0 0
-0.004995425 0.02852731 0.3231954 0 0 0
-0.003096095 0.02935446 0.3154271 0 0 0
0.02367053 0.02423535 0.3146735 0 0 0
0.0244318 0.02410747 0.3146582 0 0 0
0.03065561 0.02234139 0.3193713 0 0 0
0.03768268 0.02133445 0.3188999 0 0 0
0.04338359 0.02154619 0.3123992 0 0 0
0.04716694 0.02111162 0.3119403 0 0 0
0.08956308 0.01201795 0.3411675 205 205 205
0.09975063 0.008826236 0.3555596 205 205 205
0.1000938 0.009175885 0.3533898 205 205 205
0.105127 0.01373895 0.3256456 0 0 0
0.1054905 0.01525868 0.3170791 0 0 0
0.1059505 0.01584568 0.3137235 0 0 0
0.1092497 0.01774023 0.3027467 0 0 0
0.1095756 0.01795706 0.3015288 0 0 0
-0.003965973 0.02875606 0.3152238 0 0 0
0.02509406 0.02288161 0.3164907 0 0 0
0.02979912 0.02149557 0.3202679 0 0 0
0.03136905 0.02125691 0.3201878 0 0 0
0.04490798 0.02041248 0.3130765 0 0 0
0.08845252 0.01235413 0.3341444 205 205 205
0.1003067 0.007997355 0.3541588 205 205 205
0.100956 0.008718507 0.3498234 205 205 205
0.1012574 0.009082133 0.3476579 205 205 205
0.1012345 0.00963302 0.3445611 205 205 205
0.1030672 0.01111778 0.3356272 205 205 205
0.1034451 0.01187214 0.3313211 205 205 205
0.1054095 0.01265932 0.3264112 0 0 0
0.1055281 0.01304517 0.3242656 0 0 0
0.1057915 0.01421105 0.3178443 0 0 0
0.1193312 0.01759657 0.2978722 0 0 0
0.1242927 0.01737481 0.2986589 0 0 0
0.02655354 0.02134937 0.3192762 0 0 0
0.02734486 0.02105943 0.3202353 0 0 0
0.0297006 0.0206896 0.3201359 0 0 0
0.03436898 0.02015969 0.3188761 0 0 0
0.036769 0.01966079 0.3196848 0 0 0
0.04108944 0.01991242 0.3143485 0 0 0
0.04482021 0.01962621 0.3129453 0 0 0
0.08402191 0.01446726 0.31889 0 0 0
0.09258812 0.009708496 0.3419555 205 205 205
0.09658269 0.007612264 0.352032 205 205 205
0.1004555 0.006257534 0.3580303 205 205 205
0.100812 0.006622772 0.3558596 205 205 205
0.1052075 0.01136948 0.3284007 205 205 205
0.10733 0.01581966 0.3043122 0 0 0
0.1076747 0.01604056 0.3030973 0 0 0
0.1097886 0.01656269 0.3000295 0 0 0
0.1109232 0.01641671 0.300598 0 0 0
0.1159742 0.01674632 0.2982509 0 0 0
0.1181206 0.01691098 0.297207 0 0 0
0.1254354 0.01643911 0.2990007 0 0 0
-0.009290825 0.02620195 0.3273273 0 0 0
0.03038728 0.01976388 0.3199618 0 0 0
0.03889789 0.01889016 0.3173823 0 0 0
0.04320801 0.01902069 0.3129882 0 0 0
0.08041638 0.01612828 0.3064829 0 0 0
0.102311 0.006939454 0.3479488 205 205 205
0.1040724 0.007514996 0.3442473 205 205 205
0.1043203 0.007903719 0.3420855 205 205 205
0.1062104 0.01128431 0.3236392 205 205 205
0.1050511 0.01408938 0.3093329 0 0 0
0.1072733 0.0150023 0.3041647 0 0 0
0.1076187 0.01522721 0.3029505 0 0 0
0.110143 0.01556699 0.3007767 0 0 0
0.1111803 0.01584085 0.2992343 0 0 0
0.1301848 0.01587895 0.2973875 0 0 0
0.03268215 0.01843003 0.3206727 0 0 0
0.03421907 0.01837817 0.3195853 0 0 0
0.03951273 0.01817026 0.31619 0 0 0
0.04244033 0.01814586 0.3139153 0 0 0
0.08596672 0.01292656 0.3169394 0 0 0
0.1021736 0.00421263 0.3570698 205 205 205
0.1040724 0.005370458 0.3502572 205 205 205
0.1046749 0.005566247 0.3490191 205 205 205
0.1082295 0.01487628 0.3003748 0 0 0
0.116864 0.01543311 0.2963852 0 0 0
0.02702549 0.01899998 0.3178532 0 0 0
0.02859923 0.01857593 0.3187734 0 0 0
0.03261812 0.01744176 0.321513 0 0 0
0.03495422 0.01727984 0.3203689 0 0 0
0.0357947 0.01698678 0.3212914 0 0 0
0.08250925 0.014497 0.3055258 0 0 0
0.09941766 0.005011755 0.3484797 205 205 205
0.1039743 0.003187632 0.3562713 205 205 205
0.1052775 0.006407388 0.3392661 205 205 205
0.1048226 0.007218916 0.3352678 205 205 205
0.10583 0.008673034 0.3275935 205 205 205
0.1056732 0.01330723 0.3044834 0 0 0
0.1063772 0.0137687 0.3020625 0 0 0
0.1071105 0.01380217 0.3017501 0 0 0
0.1081732 0.01407261 0.3002232 0 0 0
0.1096249 0.01415014 0.2995836 0 0 0
0.111072 0.01423386 0.2989337 0 0 0
0.1123839 0.01476602 0.2961731 0 0 0
0.1210217 0.01428261 0.2974277 0 0 0
0.1229177 0.01421758 0.2975619 0 0 0
0.1281335 0.01499279 0.293674 0 0 0
0.02536509 0.01899449 0.3148116 0 0 0
0.02613702 0.0186898 0.3157707 0 0 0
0.03092897 0.01686744 0.3214603 0 0 0
0.03172351 0.01674817 0.3214147 0 0 0
0.03331262 0.0165142 0.3213151 0 0 0
0.03659758 0.01569152 0.3230435 0 0 0
0.03751403 0.0152078 0.3249387 0 0 0
0.0380794 0.01584887 0.3209476 0 0 0
0.04234115 0.0163814 0.3146091 0 0 0
0.08964181 0.01019157 0.3205638 205 205 205
0.09904544 0.00484953 0.3442748 205 205 205
0.1056087 0.006299287 0.3347794 205 205 205
0.1043843 0.01050276 0.3143213 205 205 205
0.1048689 0.01246295 0.3046343 0 0 0
0.1059697 0.01272619 0.3031168 0 0 0
0.1106022 0.01363355 0.2978914 0 0 0
0.1123303 0.01397199 0.2960197 0 0 0
0.1167609 0.01383045 0.2960781 0 0 0
0.1228674 0.01340237 0.2974037 0 0 0
0.125711 0.01294631 0.2992412 0 0 0
0.1295722 0.01285071 0.2994077 0 0 0
0.0260325 0.01808711 0.3146434 0 0 0
0.02681575 0.01759558 0.3165817 0 0 0
0.0275915 0.01747151 0.316551 0 0 0
0.02918106 0.01685704 0.3184462 0 0 0
0.03241744 0.01581989 0.3212165 0 0 0
0.03321239 0.01570347 0.3211651 0 0 0
0.03404897 0.01539977 0.322092 0 0 0
0.04000567 0.01568898 0.3156813 0 0 0
0.0450374 0.01581419 0.3111748 0 0 0
0.1074932 0.002424789 0.348436 205 205 205
0.1044285 0.01185603 0.3035727 0 0 0
0.1091043 0.01275206 0.2983812 0 0 0
0.1098257 0.01279325 0.298059 0 0 0
0.1105461 0.012836 0.2977343 0 0 0
0.0251639 0.01761832 0.3135393 0 0 0
0.02828136 0.01637091 0.3173509 0 0 0
0.03569246 0.01377799 0.3247595 0 0 0
0.03920243 0.01480085 0.316584 0 0 0
0.04360786 0.01481574 0.3131605 0 0 0
0.1081155 -0.0002657974 0.3562703 205 205 205
0.1087089 0.0005924358 0.3519274 205 205 205
0.1083255 0.001449515 0.3479179 205 205 205
0.1043663 0.01104632 0.3034106 205 205 205
0.1047257 0.01128686 0.3022048 205 205 205
0.1125052 0.01264414 0.2944912 0 0 0
0.1155015 0.01238349 0.2952308 0 0 0
0.02354182 0.01728664 0.3124504 0 0 0
0.03312096 0.01349671 0.3237954 0 0 0
0.03671341 0.01165157 0.3304082 205 205 205
0.03754688 0.01153721 0.3303391 205 205 205
0.04409572 0.0143475 0.3109671 0 0 0
0.09140117 0.008467898 0.3153093 205 205 205
0.1082726 0.002231096 0.3394054 205 205 205
0.1062306 0.004639243 0.328709 205 205 205
0.1031875 0.009967954 0.3047535 205 205 205
0.1035604 0.0102097 0.3035492 205 205 205
0.105359 0.01097493 0.2996312 205 205 205
0.1071401 0.01129495 0.2978036 0 0 0
0.1120221 0.01206928 0.2934508 0 0 0
0.1131579 0.01190707 0.2939954 0 0 0
0.1210727 0.01131557 0.295552 0 0 0
0.1277322 0.01069459 0.2975896 205 205 205
0.02809127 0.01459064 0.3180236 0 0 0
0.02970293 0.01395124 0.3199067 0 0 0
0.0313739 0.01311463 0.3227565 0 0 0
0.03221018 0.01279569 0.3236864 0 0 0
0.04265339 0.01333984 0.3129399 0 0 0
0.09477817 0.006305497 0.3201524 205 205 205
0.1051177 0.004393775 0.3257847 205 205 205
0.1020063 0.009350538 0.3039807 205 205 205
0.1052973 0.01017892 0.2994653 205 205 205
0.1067529 0.01024806 0.2988436 205 205 205
0.1070799 0.01050321 0.2976384 205 205 205
0.1205604 0.0107253 0.2945204 205 205 205
0.0256302 0.01457135 0.3159989 0 0 0
0.0264129 0.01424591 0.3169504 0 0 0
0.02800129 0.01359594 0.3188439 0 0 0
0.03919251 0.008996149 0.3327812 205 205 205
0.04255918 0.01255719 0.3127808 0 0 0
0.1012065 0.0089899 0.3020035 205 205 205
0.111055 0.01094526 0.291366 205 205 205
0.1195898 0.01036146 0.2926255 205 205 205
0.02322497 0.01477586 0.3129689 0 0 0
0.02397814 0.01424478 0.3149081 0 0 0
0.09981123 0.003234267 0.3241723 205 205 205
0.1042735 0.0007339757 0.333952 205 205 205
0.1048039 0.0009722203 0.332726 205 205 205
0.09965897 0.008146354 0.3024148 205 205 205
0.1011391 0.008670014 0.2997337 205 205 205
0.1037096 0.008526131 0.2997361 205 205 205
0.1151083 0.009712399 0.2924753 205 205 205
0.1266148 0.008670095 0.2953606 205 205 205
0.031634 0.006259574 0.3427783 205 205 205
0.03679762 0.002208255 0.3580874 205 205 205
0.04448606 0.01115948 0.3102364 205 205 205
0.09352662 0.006760805 0.3065707 205 205 205
0.0993807 0.003763293 0.3179061 205 205 205
0.09923197 0.007579484 0.3013352 205 205 205
0.1003407 0.007855284 0.2998528 205 205 205
0.1025347 0.007933785 0.2989663 205 205 205
0.1057756 0.00832597 0.2965484 205 205 205
0.107528 0.008671023 0.2947208 205 205 205
0.1088335 0.009257649 0.2919999 205 205 205
0.1120684 0.009221952 0.2915714 205 205 205
0.1171623 0.009105809 0.2912624 205 205 205
0.1183176 0.008942058 0.291773 205 205 205
0.1258401 0.00778244 0.2955628 205 205 205
0.1252937 0.009652149 0.2881082 205 205 205
0.02451474 0.01088216 0.3223799 205 205 205
0.02532044 0.009909815 0.3262637 205 205 205
0.02616065 0.008723605 0.3311211 205 205 205
0.02884782 0.005987241 0.3417571 205 205 205
0.0365839 0.00168706 0.3559326 205 205 205
0.04191739 0.004552364 0.3388001 205 205 205
0.04214297 0.008538235 0.3201472 205 205 205
0.04330582 0.009454812 0.3151094 205 205 205
0.09289175 0.006905509 0.3024647 205 205 205
0.0982663 0.005302106 0.3077418 205 205 205
0.09990744 0.007300865 0.2987754 205 205 205
0.1063494 0.008084134 0.2939748 205 205 205
0.1073628 0.008398473 0.2924625 205 205 205
0.117105 0.008323944 0.2910857 205 205 205
0.1229377 0.007509124 0.293575 205 205 205
0.01911128 0.01334185 0.3115622 0 0 0
0.02205311 0.01132643 0.3183601 205 205 205
0.02283091 0.01097936 0.319319 205 205 205
0.02699716 0.004520643 0.3455528 205 205 205
0.03454747 0.001229075 0.3548918 205 205 205
0.03548217 0.001094428 0.3548234 205 205 205
0.04275981 0.007855882 0.3189087 205 205 205
0.0939675 0.00637523 0.3008375 205 205 205
0.09870927 0.005734186 0.3021676 205 205 205
0.1012978 0.006567205 0.2980107 205 205 205
0.1027518 0.006624469 0.2974149 205 205 205
0.1140536 0.007834386 0.2902115 205 205 205
0.1240634 0.006550245 0.29387 205 205 205
0.02045964 0.01166413 0.3143075 205 205 205
0.02976754 0.0007696486 0.3559508 205 205 205
0.034462 6.502766E-05 0.3556568 205 205 205
0.04371656 0.006264662 0.3215441 205 205 205
0.04476799 0.007458808 0.3155373 205 205 205
0.04535731 0.007830963 0.3135019 205 205 205
0.09899288 0.004695663 0.302886 205 205 205
0.09938219 0.004959022 0.3016949 205 205 205
0.1026848 0.005841223 0.2972328 205 205 205
0.1181433 0.006588242 0.2912316 205 205 205
0.125911 0.005663583 0.2937732 205 205 205
0.01656783 0.01201971 0.3122042 0 0 0
0.01806471 0.01152134 0.3131795 205 205 205
0.02589543 -0.0004624795 0.3598142 205 205 205
0.03245949 -0.000601576 0.3555712 205 205 205
0.09499396 0.005589712 0.2969355 205 205 205
0.1004313 0.004456719 0.3000253 205 205 205
0.1015139 0.005275315 0.2964535 205 205 205
0.1043352 0.005929187 0.2931674 205 205 205
0.1176305 0.006046582 0.2901868 205 205 205
0.1234756 0.005187125 0.2926416 205 205 205
0.03047579 -0.001487459 0.3564426 205 205 205
0.03884717 -0.006316677 0.3714375 205 205 205
0.04783491 -0.002472585 0.3490052 205 205 205
0.1003603 0.003667163 0.2998356 205 205 205
0.1010917 0.00421946 0.2974558 205 205 205
0.1017904 0.00477702 0.2950775 205 205 205
0.1157164 0.00538964 0.2898377 205 205 205
0.1210607 0.004735284 0.2914864 205 205 205
0.01777411 0.009535939 0.3147738 205 205 205
0.01848713 0.008946836 0.3167172 205 205 205
0.01988393 0.007090088 0.3235173 205 205 205
0.02119491 0.002731485 0.3410171 205 205 205
0.02659995 -0.002987351 0.3612787 205 205 205
0.03038958 -0.002896579 0.3581663 205 205 205
0.03635896 -0.005155412 0.3636003 205 205 205
0.09810668 0.003871801 0.2963454 205 205 205
0.10065 0.003692644 0.2963718 205 205 205
0.1221743 0.00377057 0.2917753 205 205 205
0.1238239 0.003348948 0.2931002 205 205 205
0.01388493 0.009939532 0.3126274 205 205 205
0.01449824 0.009119771 0.3155559 205 205 205
0.02010195 0.001088203 0.3447192 205 205 205
0.03221979 -0.004611202 0.3597645 205 205 205
0.03324222 -0.005230181 0.3616419 205 205 205
0.03427986 -0.00584952 0.3635147 205 205 205
0.03913753 -0.01097788 0.3816218 205 205 205
0.05643918 -0.01663045 0.3942921 205 205 205
0.01511852 0.007964474 0.3163476 205 205 205
0.02192197 -0.01626343 0.4105263 205 205 205
0.03969788 -0.01544832 0.3949237 205 205 205
0.05332776 -0.004686786 0.3426487 205 205 205
0.05174179 0.003424737 0.3105993 205 205 205
0.1169312 0.003196514 0.2885609 205 205 205
0.1279808 0.002230585 0.2904004 205 205 205
0.1272121 0.003071692 0.2875099 205 205 205
0.01331877 0.007024153 0.3180852 205 205 205
0.02630218 -0.0123871 0.3867825 205 205 205
0.03222547 -0.008975736 0.3689872 205 205 205
0.04103429 -0.0239979 0.4236735 205 205 205
0.1168672 0.002426121 0.2883617 205 205 205
0.119887 0.00210783 0.2889951 205 205 205
0.1215202 0.001660764 0.2903256 205 205 205
0.1257829 0.001189759 0.291354 205 205 205
0.1271515 0.002288762 0.287307 205 205 205
0.1283448 0.002119183 0.2877489 205 205 205
0.01253268 0.006859627 0.3159378 205 205 205
0.0313128 -0.01230036 0.3784858 205 205 205
0.03338688 -0.01261245 0.3783497 205 205 205
0.03459231 -0.0140154 0.3831145 205 205 205
0.03583588 -0.01542185 0.3878728 205 205 205
0.1214557 0.0008769765 0.2901196 205 205 205
0.1250037 0.0003164946 0.2915266 205 205 205
0.1263906 0.001422402 0.2874869 205 205 205
0.02760915 -0.03540098 0.4665676 205 205 205
0.03063422 -0.02021196 0.4053811 205 205 205
0.06028689 -0.01519322 0.3681306 205 205 205
0.05680582 -0.006506055 0.336471 205 205 205
0.1185947 0.0007537027 0.2880964 205 205 205
0.1255527 0.001515827 0.2844021 205 205 205
0.008553107 -0.001813334 0.3455294 205 205 205
0.0321503 -0.02791794 0.4291797 205 205 205
0.1169176 0.0004575925 0.286546 205 205 205
0.1208596 -0.000417405 0.2888551 205 205 205
0.07160489 -0.03395024 0.4241416 205 205 205
0.06332284 -0.01620065 0.3621527 205 205 205
0.004317401 0.005624527 0.3139096 205 205 205
0.06424913 -0.01568038 0.3558365 205 205 205
0.05973115 -0.004644827 0.3176128 205 205 205
0.06274718 -0.006779566 0.3206773 205 205 205
0.06304429 -0.005985002 0.3176803 205 205 205
0.1167144 -0.00182687 0.2859083 205 205 205
0.1227626 -0.003514702 0.290354 205 205 205
0.1234791 -0.003438173 0.2899792 205 205 205
0.002298154 0.003941522 0.3153366 205 205 205
0.002125859 0.001540138 0.3240477 205 205 205
0.001610749 -0.001867716 0.3366124 205 205 205
-0.0003902033 -0.009280808 0.3645935 205 205 205
-0.003218747 -0.01948853 0.4031806 205 205 205
-0.003405031 -0.02701261 0.4302591 205 205 205
0.123409 -0.004222879 0.2897535 205 205 205
0.1284321 -0.004661906 0.2903232 205 205 205
0.1277967 -0.002334405 0.2829948 205 205 205
0.001399667 0.00141716 0.3218557 205 205 205
0.0007128526 -0.002279572 0.3353688 205 205 205
-0.00392797 -0.01883892 0.3970478 205 205 205
-0.005202911 -0.0289846 0.4337259 205 205 205
-0.004299541 -0.0302714 0.4376246 205 205 205
-0.003280747 -0.03130604 0.4405568 205 205 205
0.08169066 -0.04113692 0.4256022 205 205 205
0.06494807 -0.003817605 0.3030595 205 205 205
0.1154263 -0.003120769 0.2849739 205 205 205
0.1170265 -0.003634739 0.2863125 205 205 205
0.1290902 -0.006402092 0.292966 205 205 205
0.1302293 -0.004523697 0.286861 205 205 205
-0.005024265 -0.0291816 0.4295334 205 205 205
-0.004315623 -0.03099843 0.4353506 205 205 205
0.07981843 -0.03744036 0.4090185 205 205 205
0.06958755 -0.01428843 0.3340658 205 205 205
0.1237347 -0.006080984 0.2901267 205 205 205
-0.001083969 0.004302014 0.3077192 205 205 205
-0.001522175 -0.004102891 0.3367089 205 205 205
-0.00757735 -0.02621722 0.4165409 205 205 205
0.1296753 -0.007920841 0.2920887 205 205 205
0.07274732 -0.02007136 0.345471 205 205 205
0.07081577 -0.01438072 0.3273526 205 205 205
0.0698434 -0.01167919 0.318779 205 205 205
0.1156572 -0.005680665 0.2851386 205 205 205
0.121936 -0.007128612 0.2883625 205 205 205
0.1240762 -0.006891827 0.2872368 205 205 205
0.1303313 -0.008632198 0.2914442 205 205 205
0.1320442 -0.009133552 0.2926782 205 205 205
-0.001720209 0.0002875028 0.3159525 205 205 205
-0.008627923 -0.02403358 0.4013748 205 205 205
-0.005955232 -0.0301328 0.419805 205 205 205
0.1167343 -0.006672854 0.2853949 205 205 205
0.1211447 -0.007980165 0.2884936 205 205 205
0.1225763 -0.007826844 0.2877504 205 205 205
0.131969 -0.00994089 0.2924288 205 205 205
0.1322083 -0.009546245 0.2912044 205 205 205
-0.002507045 -3.510483E-05 0.31471 205 205 205
-0.003055959 -0.004929037 0.3310689 205 205 205
-0.004873728 -0.01100137 0.3521561 205 205 205
-0.01222352 -0.03319972 0.4297393 205 205 205
0.08313324 -0.04302054 0.4087087 205 205 205
0.0787001 -0.03373258 0.3805053 205 205 205
0.1225009 -0.008601222 0.2875082 205 205 205
0.1284805 -0.009712176 0.2897074 205 205 205
0.07623906 -0.02613224 0.3534631 205 205 205
0.07509034 -0.02148413 0.3391164 205 205 205
0.07243222 -0.01491185 0.3192678 205 205 205
0.07044061 -0.01082319 0.3070609 205 205 205
0.1259978 -0.00635822 0.2777381 205 205 205
-0.003579695 -0.007136873 0.3324707 205 205 205
-0.01261536 -0.03562036 0.4290019 205 205 205
0.08654032 -0.04777301 0.413935 205 205 205
0.07829426 -0.02907317 0.3584839 205 205 205
0.07090309 -0.01131704 0.3056953 205 205 205
0.1149084 -0.008375227 0.2833542 205 205 205
0.1160564 -0.008623933 0.2838413 205 205 205
0.1209136 -0.01030127 0.287758 205 205 205
-0.01063811 -0.03823093 0.4316153 205 205 205
0.1004272 -0.07292677 0.4821438 205 205 205
0.07135837 -0.01180031 0.3043283 205 205 205
0.1224784 -0.0116328 0.2887912 205 205 205
0.1265613 -0.0115366 0.2877037 205 205 205
-0.003878018 -0.001335793 0.3088937 205 205 205
0.07575193 -0.02043168 0.3263205 205 205 205
0.124565 -0.01216708 0.287399 205 205 205
-0.003681411 -0.00499393 0.3173194 205 205 205
-0.01040095 -0.03234651 0.4050427 205 205 205
-0.00892885 -0.03862635 0.4232886 205 205 205
-0.007492895 -0.03831506 0.4214376 205 205 205
0.09632086 -0.06254338 0.4423406 205 205 205
0.07782994 -0.02461694 0.3352103 205 205 205
0.07178659 -0.01206883 0.2997614 205 205 205
0.1190439 -0.01203448 0.2857075 205 205 205
0.1213926 -0.01253494 0.2866262 205 205 205
0.1237636 -0.01302566 0.2875209 205 205 205
0.1287557 -0.009679078 0.2771983 205 205 205
-0.004196604 -0.004721998 0.3141639 205 205 205
-0.01140765 -0.03549673 0.4113277 205 205 205
-0.01272448 -0.04218053 0.4322843 205 205 205
0.07794902 -0.02454081 0.3319349 205 205 205
0.07329701 -0.01517978 0.3059016 205 205 205
0.1168941 -0.01187677 0.2833256 205 205 205
0.1244037 -0.01371705 0.2868779 205 205 205
-0.00394093 -0.006546214 0.3168132 205 205 205
-0.007781896 -0.024328 0.372014 205 205 205
-0.01235442 -0.04192318 0.4271404 205 205 205
0.07759651 -0.02375719 0.3268406 205 205 205
0.131257 -0.01399029 0.2838756 205 205 205
0.1036268 -0.0752307 0.4632653 205 205 205
0.08147679 -0.03215135 0.3468482 205 205 205
0.07928227 -0.02737244 0.3338377 205 205 205
0.1144303 -0.01283609 0.2818564 205 205 205
0.1181389 -0.01322616 0.2820949 205 205 205
0.1230485 -0.01500988 0.2859087 205 205 205
0.1302705 -0.01648596 0.2884359 205 205 205
-0.006045849 -0.00466863 0.3075496 205 205 205
-0.004547343 -0.01296175 0.3305827 205 205 205
0.08355799 -0.03657075 0.3556338 205 205 205
0.1175994 -0.01363122 0.2810116 205 205 205
0.1187589 -0.01389596 0.2814719 205 205 205
0.1270287 -0.01687563 0.2877373 205 205 205
0.1311519 -0.01674282 0.2865458 205 205 205
-0.004424317 -0.0131833 0.328412 205 205 205
-0.01276533 -0.0415667 0.4145261 205 205 205
0.07436423 -0.01936758 0.3073426 205 205 205
0.1170598 -0.01402778 0.279928 205 205 205
0.1186759 -0.01464052 0.2812073 205 205 205
0.1274206 -0.0179979 0.2882693 205 205 205
0.1286337 -0.01824865 0.2886813 205 205 205
0.1320564 -0.01820521 0.2878674 205 205 205
0.1317925 -0.01742548 0.2858597 205 205 205
-0.00827894 -0.004967289 0.3049533 205 205 205
-0.01292086 -0.0460887 0.423625 205 205 205
0.09546554 -0.0563307 0.4000657 205 205 205
0.1202202 -0.01600061 0.2822071 205 205 205
0.1247056 -0.01748478 0.2851412 205 205 205
0.1307461 -0.01874883 0.2871919 205 205 205
-0.008996991 -0.005199173 0.3036861 205 205 205
-0.006934806 -0.02248031 0.3504951 205 205 205
-0.01335248 -0.05163998 0.4355203 205 205 205
0.1185073 -0.0161261 0.2806697 205 205 205
0.1229577 -0.01763732 0.2836244 205 205 205
0.1258163 -0.01851302 0.285283 205 205 205
0.1295419 -0.01635913 0.2789308 205 205 205
-0.005304021 -0.008613847 0.3085282 205 205 205
0.1228708 -0.01839583 0.2833448 205 205 205
0.1301562 -0.01700911 0.2782521 205 205 205
-0.010183 -0.006753362 0.3040305 205 205 205
-0.006212802 -0.009163357 0.3082001 205 205 205
-0.005152041 -0.01466456 0.3225095 205 205 205
-0.008153615 -0.02651104 0.356423 205 205 205
0.1204235 -0.01860316 0.2821915 205 205 205
0.122783 -0.01915311 0.2830625 205 205 205
0.1307205 -0.02064227 0.2851246 205 205 205
-0.009122036 -0.008494695 0.3057878 205 205 205
-0.01114054 -0.03734052 0.384282 205 205 205
0.1215119 -0.01963199 0.2823461 205 205 205
0.1257957 -0.02036513 0.2832336 205 205 205
0.1265144 -0.02027283 0.2828434 205 205 205
0.1475682 -0.02751753 0.2965935 205 205 205
-0.01101922 -0.007686195 0.3024908 205 205 205
-0.005695673 -0.01476147 0.3181271 205 205 205
-0.01632366 -0.0585492 0.4402384 205 205 205
0.1170007 -0.0187938 0.2791099 205 205 205
0.1197846 -0.01973458 0.280815 205 205 205
0.1245108 -0.02085316 0.2825295 205 205 205
0.1330189 -0.01965464 0.2777427 205 205 205
0.1370273 -0.02121698 0.2807838 205 205 205
-0.01264976 -0.04237005 0.3919336 205 205 205
0.1232307 -0.02133055 0.2818191 205 205 205
0.133113 -0.0199353 0.2762624 205 205 205
0.1402779 -0.02367177 0.2839118 205 205 205
-0.007384708 -0.02180348 0.3325314 205 205 205
-0.01412131 -0.0467639 0.4008719 205 205 205
0.0794532 -0.02877962 0.3110451 205 205 205
0.1243289 -0.022365 0.2819424 205 205 205
0.1267243 -0.02292233 0.2827579 205 205 205
0.1284144 -0.02356701 0.2839494 205 205 205
-0.008256994 -0.01212891 0.305765 205 205 205
-0.006779424 -0.01655739 0.3162572 205 205 205
-0.01521782 -0.05021676 0.4069808 205 205 205
0.1369335 -0.02620139 0.2862397 205 205 205
-0.01228824 -0.01034502 0.3013258 205 205 205
-0.01152998 -0.01054626 0.3014061 205 205 205
-0.00696606 -0.01954778 0.3215985 205 205 205
-0.007818712 -0.02380448 0.3328212 205 205 205
-0.009542575 -0.03045204 0.3505623 205 205 205
0.115487 -0.02141181 0.2775109 205 205 205
0.1316414 -0.02640718 0.285682 205 205 205
0.1373454 -0.02736465 0.2867008 205 205 205
0.1378038 -0.02638741 0.2842876 205 205 205
-0.007500833 -0.01911372 0.318444 205 205 205
-0.007543559 -0.02135897 0.3240755 205 205 205
0.1240492 -0.02462292 0.2810405 205 205 205
0.1382621 -0.02891099 0.287931 205 205 205
0.1623609 -0.04060775 0.3101822 205 205 205
-0.01254541 -0.01176691 0.3007669 205 205 205
-0.01362404 -0.04461578 0.3823959 205 205 205
-0.01716227 -0.06081166 0.4243014 205 205 205
0.1131927 -0.02307832 0.2779735 205 205 205
0.1237029 -0.02584911 0.2819118 205 205 205
0.1244264 -0.02575856 0.2815268 205 205 205
0.1268272 -0.0263418 0.2823278 205 205 205
0.1292498 -0.02691432 0.2831042 205 205 205
0.1339158 -0.02851743 0.2857813 205 205 205
0.1394244 -0.02997214 0.2879405 205 205 205
0.1411586 -0.0292307 0.2858448 205 205 205
0.1458045 -0.03124657 0.2895205 205 205 205
-0.009608295 -0.01675152 0.3092427 205 205 205
-0.008231055 -0.0217072 0.3206016 205 205 205
-0.01666394 -0.05643133 0.4098554 205 205 205
0.1043878 -0.07083809 0.3926879 205 205 205
0.1165498 -0.02475661 0.2790372 205 205 205
0.1255274 -0.02680703 0.2816184 205 205 205
0.1303716 -0.0279653 0.2831656 205 205 205
0.1368084 -0.03023444 0.2869359 205 205 205
-0.01299296 -0.01352413 0.3011176 205 205 205
-0.009909115 -0.01783942 0.3098652 205 205 205
-0.008749753 -0.02123673 0.3174493 205 205 205
-0.00852371 -0.02284272 0.3212071 205 205 205
-0.01792482 -0.06039635 0.4168015 205 205 205
0.07919005 -0.02679562 0.2927581 205 205 205
0.1157408 -0.02556398 0.2790897 205 205 205
0.1169004 -0.02588328 0.2795346 205 205 205
0.1230407 -0.02695936 0.2804962 205 205 205
0.1273592 -0.02776089 0.2813026 205 205 205
0.1332223 -0.02969155 0.2843553 205 205 205
-0.009876809 -0.01823337 0.3086383 205 205 205
-0.0102938 -0.0322209 0.3422362 205 205 205
0.1198578 -0.02717124 0.2797249 205 205 205
0.1210363 -0.02748419 0.2801464 205 205 205
0.1217564 -0.02739728 0.2797701 205 205 205
0.129686 -0.02910458 0.2817431 205 205 205
0.1326273 -0.03007454 0.2832527 205 205 205
0.1447358 -0.03381884 0.2889607 205 205 205
-0.0144045 -0.01542975 0.3022866 205 205 205
0.0890189 -0.04674228 0.33196 205 205 205
0.1209373 -0.02822581 0.2798302 205 205 205
0.1325266 -0.03084566 0.2829238 205 205 205
0.1360028 -0.03220812 0.285166 205 205 205
0.1439361 -0.03136563 0.2815101 205 205 205
-0.01295996 -0.01817565 0.3058971 205 205 205
-0.009012503 -0.02319185 0.3155683 205 205 205
0.1182182 -0.02881164 0.2798295 205 205 205
0.1263335 -0.03012213 0.2807327 205 205 205
0.1404222 -0.03371064 0.2853765 205 205 205
0.143243 -0.03517243 0.2879645 205 205 205
0.1468148 -0.03504139 0.286877 205 205 205
0.1472567 -0.03398003 0.2844468 205 205 205
0.1588202 -0.04168868 0.2988598 205 205 205
-0.01047756 -0.02281738 0.313281 205 205 205
-0.009468159 -0.02468363 0.3170797 205 205 205
-0.01619774 -0.06159429 0.4057409 205 205 205
0.08054155 -0.03015029 0.2919056 205 205 205
0.08102918 -0.02973604 0.2907978 205 205 205
0.1165042 -0.0288079 0.2782816 205 205 205
0.1323223 -0.03238356 0.2822572 205 205 205
0.1383033 -0.03434375 0.2851518 205 205 205
-0.01322905 -0.01962978 0.305277 205 205 205
0.08180015 -0.03425175 0.298757 205 205 205
0.08119252 -0.03088523 0.2913437 205 205 205
0.116403 -0.02953561 0.2779615 205 205 205
0.1175671 -0.02986912 0.2783931 205 205 205
0.1199122 -0.03052847 0.2792387 205 205 205
0.1218178 -0.03076605 0.2792748 205 205 205
0.1242006 -0.03140541 0.2800761 205 205 205
0.1254002 -0.03172108 0.2804678 205 205 205
0.1309901 -0.03285069 0.281563 205 205 205
0.1412387 -0.03609981 0.2861983 205 205 205
0.1474211 -0.0379953 0.2888826 205 205 205
0.08482475 -0.04138624 0.3116586 205 205 205
0.08248165 -0.0362867 0.3010164 205 205 205
0.08176044 -0.03034043 0.2879488 205 205 205
0.1139903 -0.02958077 0.2767609 205 205 205
0.120532 -0.03117844 0.2785379 205 205 205
0.1265014 -0.03278656 0.2805186 205 205 205
0.1313747 -0.03402403 0.2819933 205 205 205
0.1375854 -0.03550703 0.2836963 205 205 205
0.1447243 -0.03826649 0.2879508 205 205 205
0.1454929 -0.03813401 0.287489 205 205 205
0.1464955 -0.03745848 0.2858122 205 205 205
0.1520065 -0.03945722 0.2888394 205 205 205
0.1557375 -0.04076745 0.2908036 205 205 205
-0.01623933 -0.01950091 0.3024978 205 205 205
-0.01368544 -0.02144533 0.3055569 205 205 205
-0.01307692 -0.02202314 0.3065441 205 205 205
-0.01183536 -0.02317984 0.3085124 205 205 205
-0.01507393 -0.05997674 0.3923962 205 205 205
0.1131745 -0.03037312 0.2767889 205 205 205
0.11504 -0.0306442 0.2768787 205 205 205
0.134979 -0.03569629 0.2826862 205 205 205
0.1362261 -0.03599321 0.283019 205 205 205
0.1387359 -0.03657828 0.2836657 205 205 205
0.1422973 -0.0379726 0.2857909 205 205 205
0.145858 -0.03785278 0.2847073 205 205 205
0.1479059 -0.03798303 0.2845144 205 205 205
-0.01657597 -0.02058105 0.30309 205 205 205
-0.01371075 -0.04144439 0.3477941 205 205 205
0.08277243 -0.03868522 0.3020512 205 205 205
0.08194433 -0.03480014 0.2938048 205 205 205
0.08257171 -0.0322048 0.2879144 205 205 205
0.1123562 -0.03116273 0.2768117 205 205 205
0.1172573 -0.03205378 0.277412 205 205 205
0.1277137 -0.03554798 0.2821615 205 205 205
0.1291968 -0.03534382 0.2813544 205 205 205
0.1457489 -0.03865025 0.2843449 205 205 205
-0.01199643 -0.02637265 0.3115619 205 205 205
-0.01168231 -0.02771989 0.314358 205 205 205
-0.01183955 -0.03021048 0.3198837 205 205 205
-0.01227279 -0.03347231 0.327231 205 205 205
-0.01556415 -0.04654051 0.3574175 205 205 205
-0.01859201 -0.05714544 0.3820867 205 205 205
-0.01492631 -0.06054344 0.387802 205 205 205
0.08274245 -0.03335893 0.2884408 205 205 205
0.1111104 -0.03152013 0.2760326 205 205 205
0.1157101 -0.03293918 0.2778024 205 205 205
0.1218606 -0.03414032 0.2787226 205 205 205
0.1271316 -0.03588278 0.2810416 205 205 205
0.1335214 -0.03693293 0.2816456 205 205 205
0.1367569 -0.03742377 0.2818805 205 205 205
0.1521314 -0.0407971 0.2852833 205 205 205
-0.0190825 -0.05893759 0.3834441 205 205 205
0.08319394 -0.03495871 0.2898136 205 205 205
0.1102911 -0.03230038 0.276045 205 205 205
0.1172099 -0.03444649 0.27868 205 205 205
0.1229444 -0.03521435 0.2787755 205 205 205
0.1265497 -0.03620908 0.2799222 205 205 205
0.1309455 -0.0370712 0.2806025 205 205 205
0.1429651 -0.03967162 0.2830469 205 205 205
0.1460549 -0.0406592 0.2843506 205 205 205
-0.01498689 -0.02586254 0.3078737 205 205 205
-0.01264756 -0.03077973 0.3172937 205 205 205
-0.01927402 -0.0599606 0.3829748 205 205 205
0.0831482 -0.03701609 0.2922826 205 205 205
0.1171019 -0.03517617 0.2783387 205 205 205
0.1192814 -0.03492447 0.2772335 205 205 205
0.124498 -0.03672244 0.279589 205 205 205
0.1281292 -0.03771728 0.2807072 205 205 205
0.1345428 -0.03877603 0.281266 205 205 205
0.1377899 -0.03927075 0.281478 205 205 205
0.1441317 -0.04074713 0.2829627 205 205 205
0.1477641 -0.04215923 0.2849823 205 205 205
0.1485303 -0.04201666 0.2845091 205 205 205
0.1503687 -0.0427129 0.2854963 205 205 205
0.1526712 -0.04226374 0.2840419 205 205 205
-0.01677739 -0.04826996 0.3542702 205 205 205
-0.01760172 -0.05928255 0.3780336 205 205 205
0.08307472 -0.03909153 0.2947435 205 205 205
0.08372675 -0.03640506 0.2888811 205 205 205
0.0848299 -0.03459717 0.284729 205 205 205
0.1104979 -0.03415907 0.2761722 205 205 205
0.11394 -0.0352621 0.2775012 205 205 205
0.117721 -0.03582206 0.2776287 205 205 205
0.124388 -0.03746649 0.2792373 205 205 205
0.1344313 -0.03954206 0.2809038 205 205 205
0.1394458 -0.04077603 0.2821672 205 205 205
0.15342 -0.04448978 0.2863245 205 205 205
0.1496602 -0.03939542 0.2769239 205 205 205
-0.01539188 -0.02948782 0.3117788 205 205 205
-0.01427513 -0.03109685 0.3146338 205 205 205
-0.01413825 -0.0350665 0.3229026 205 205 205
-0.01639442 -0.05975498 0.3758141 205 205 205
0.08484489 -0.03666523 0.2871792 205 205 205
0.1092541 -0.0344937 0.2753804 205 205 205
0.1183385 -0.03646421 0.2769139 205 205 205
0.1190641 -0.03637807 0.2765433 205 205 205
0.1214271 -0.03707955 0.2773405 205 205 205
0.1257478 -0.03801241 0.2780975 205 205 205
0.1323323 -0.04010076 0.2806283 205 205 205
0.1330785 -0.03998743 0.2802086 205 205 205
0.1546247 -0.04557615 0.2861636 205 205 205
-0.01525867 -0.03163515 0.3142025 205 205 205
-0.0142438 -0.06087192 0.3745482 205 205 205
0.08037707 -0.03649101 0.2864 205 205 205
0.08607753 -0.03828189 0.2882561 205 205 205
0.1077093 -0.03533054 0.2757115 205 205 205
0.1137205 -0.0367014 0.2768111 205 205 205
0.1189541 -0.03710261 0.2761941 205 205 205
0.1229668 -0.03860321 0.2781454 205 205 205
0.1327073 -0.04129952 0.2810161 205 205 205
0.1384622 -0.04245454 0.2818632 205 205 205
0.1545061 -0.04639292 0.2857696 205 205 205
-0.01616622 -0.04064166 0.3311546 205 205 205
-0.01727941 -0.0456819 0.3420309 205 205 205
0.08548403 -0.03947102 0.289008 205 205 205
0.08625402 -0.03946216 0.2887443 205 205 205
0.1140383 -0.03786857 0.2772455 205 205 205
0.1151998 -0.03824074 0.2776704 205 205 205
0.1159311 -0.03816132 0.2773095 205 205 205
0.1171005 -0.03852874 0.2777244 205 205 205
0.1178327 -0.03844531 0.277357 205 205 205
0.1284226 -0.04061814 0.2788611 205 205 205
0.1345856 -0.04227192 0.2805488 205 205 205
0.1365861 -0.04247272 0.2804352 205 205 205
0.143673 -0.04388904 0.2814544 205 205 205
0.1480664 -0.04520992 0.2829761 205 205 205
-0.01883334 -0.05825682 0.3661031 205 205 205
-0.01625346 -0.05755737 0.3635287 205 205 205
0.08706935 -0.03924201 0.2861848 205 205 205
0.1075751 -0.03771289 0.2769422 205 205 205
0.1357177 -0.04336016 0.2804908 205 205 205
0.1453622 -0.04541155 0.2820693 205 205 205
-0.01756412 -0.03385435 0.3138515 205 205 205
-0.01729018 -0.03528802 0.3166165 205 205 205
-0.01901666 -0.05921216 0.3656367 205 205 205
-0.01538067 -0.05876075 0.3631235 205 205 205
0.08771103 -0.03994386 0.2855618 205 205 205
0.08785377 -0.03899937 0.28363 205 205 205
0.08829287 -0.03851756 0.2825301 205 205 205
0.1097361 -0.03920863 0.2774951 205 205 205
0.1127705 -0.03991316 0.2780255 205 205 205
0.1146681 -0.04021921 0.2780959 205 205 205
0.1195164 -0.04017583 0.2766692 205 205 205
0.1207007 -0.04054001 0.2770608 205 205 205
0.1267057 -0.04231998 0.2789287 205 205 205
0.1452431 -0.04619778 0.2816788 205 205 205
0.1465331 -0.04649875 0.2819386 205 205 205
0.147828 -0.04679647 0.2821918 205 205 205
-0.01835442 -0.03397719 0.3125057 205 205 205
-0.02166059 -0.06045159 0.3668184 205 205 205
-0.01707133 -0.06069365 0.3652916 205 205 205
0.1033079 -0.03895975 0.2770779 205 205 205
0.1040378 -0.03890463 0.2767563 205 205 205
0.1282786 -0.04386996 0.2796642 205 205 205
0.1307359 -0.04456204 0.2803495 205 205 205
0.1405237 -0.04618315 0.2809212 205 205 205
0.1445995 -0.04653597 0.2805595 205 205 205
-0.01975185 -0.03160862 0.3065327 205 205 205
-0.01873189 -0.03327918 0.309376 205 205 205
0.08997384 -0.039389 0.2801791 205 205 205
0.1013527 -0.0393002 0.2765589 205 205 205
0.1031929 -0.03966294 0.2767224 205 205 205
0.1061691 -0.04042502 0.2773339 205 205 205
0.1073012 -0.04083015 0.277792 205 205 205
0.1175181 -0.04234707 0.2778243 205 205 205
0.1245159 -0.04355055 0.2782158 205 205 205
0.1281601 -0.04461956 0.2792848 205 205 205
0.1306167 -0.04531797 0.2799669 205 205 205
0.1366154 -0.04598075 0.2796492 205 205 205
0.1462911 -0.04807227 0.2811457 205 205 205
0.152037 -0.04971479 0.2828206 205 205 205
0.1535835 -0.04940099 0.2818378 205 205 205
0.08964413 -0.04443965 0.2883365 205 205 205
0.0990439 -0.040143 0.2771336 205 205 205
0.1016133 -0.04047017 0.2770001 205 205 205
0.1339961 -0.04607122 0.278644 205 205 205
0.1369936 -0.04720087 0.2799956 205 205 205
0.1392639 -0.046818 0.278674 205 205 205
0.1521448 -0.04990904 0.2812117 205 205 205
-0.02010882 -0.04101464 0.3212316 205 205 205
-0.02267279 -0.05107858 0.3418429 205 205 205
-0.02173312 -0.05925366 0.3572872 205 205 205
-0.01910622 -0.07105912 0.3790752 205 205 205
0.09076112 -0.04464959 0.286579 205 205 205
0.0926212 -0.04165591 0.2802524 205 205 205
0.09303093 -0.04114817 0.2791523 205 205 205
0.09451105 -0.04108191 0.2785722 205 205 205
0.09524965 -0.04104612 0.2782785 205 205 205
0.09633731 -0.041485 0.278789 205 205 205
0.1037262 -0.04201351 0.2775891 205 205 205
0.1059802 -0.04284701 0.2785169 205 205 205
0.1071162 -0.04326018 0.2789723 205 205 205
0.1113121 -0.04441617 0.2799561 205 205 205
0.1177183 -0.04426753 0.2778475 205 205 205
0.1211357 -0.04438018 0.2771055 205 205 205
0.1338752 -0.04682614 0.2782545 205 205 205
0.1391424 -0.04758164 0.27828 205 205 205
0.1424353 -0.04809476 0.2783823 205 205 205
0.1437125 -0.04841247 0.2786464 205 205 205
0.1455197 -0.04918296 0.2796225 205 205 205
0.1481053 -0.04980101 0.280114 205 205 205
-0.02094219 -0.04113935 0.3198608 205 205 205
-0.0201994 -0.05873954 0.3533312 205 205 205
0.09306544 -0.04430898 0.2834269 205 205 205
0.09473477 -0.04225894 0.2790176 205 205 205
0.09990186 -0.04297357 0.2788086 205 205 205
0.1115987 -0.04561672 0.2803586 205 205 205
0.112764 -0.04602077 0.280784 205 205 205
0.1135207 -0.04594726 0.2804272 205 205 205
0.1161063 -0.0451609 0.2782061 205 205 205
0.1222112 -0.04548584 0.2770997 205 205 205
0.1249028 -0.04566035 0.2766816 205 205 205
0.1288217 -0.04617383 0.2765695 205 205 205
0.129566 -0.04606284 0.2761597 205 205 205
0.1479805 -0.05058442 0.2797059 205 205 205
0.1532084 -0.05179304 0.2806034 205 205 205
-0.02250111 -0.0448604 0.3256519 205 205 205
-0.02482678 -0.05942755 0.3543291 205 205 205
-0.02188435 -0.05783567 0.3500563 205 205 205
-0.01833424 -0.06016471 0.3529936 205 205 205
-0.01810587 -0.06257927 0.357494 205 205 205
0.1088092 -0.04606659 0.2802374 205 205 205
0.1111238 -0.04689247 0.2811067 205 205 205
0.1138122 -0.04715538 0.2808184 205 205 205
0.1145714 -0.04707942 0.2804575 205 205 205
0.1205974 -0.04640407 0.2774834 205 205 205
0.1277471 -0.04597145 0.2746962 205 205 205
0.1306714 -0.04715812 0.2760979 205 205 205
0.1348764 -0.04867791 0.2777731 205 205 205
-0.02570976 -0.05440616 0.3429865 205 205 205
-0.02584222 -0.05963409 0.3528845 205 205 205
-0.02482069 -0.05990756 0.3529696 205 205 205
-0.02206096 -0.05872777 0.3495894 205 205 205
-0.01953462 -0.06080915 0.3524565 205 205 205
0.09772051 -0.04601401 0.2816947 205 205 205
0.1015043 -0.04579087 0.2801344 205 205 205
0.1090817 -0.04727228 0.2806355 205 205 205
0.1102392 -0.04768939 0.2810696 205 205 205
0.1152813 -0.04877367 0.2816118 205 205 205
0.1171455 -0.04805124 0.2797388 205 205 205
0.1189765 -0.0473141 0.2778543 205 205 205
0.1209201 -0.04761187 0.2778536 205 205 205
0.1212225 -0.04704039 0.2767139 205 205 205
0.123456 -0.04674979 0.275552 205 205 205
0.1256767 -0.04644227 0.2743687 205 205 205
0.130066 -0.04742526 0.2749683 205 205 205
0.1360028 -0.04977794 0.2776716 205 205 205
0.1382653 -0.04939312 0.2763577 205 205 205
0.1461372 -0.05075143 0.2767536 205 205 205
-0.02342881 -0.05978472 0.3499252 205 205 205
0.09863977 -0.04819696 0.2837115 205 205 205
0.1001787 -0.04811172 0.2830859 205 205 205
0.101351 -0.04752968 0.2816572 205 205 205
0.102479 -0.04796985 0.282129 205 205 205
0.1148017 -0.05007241 0.2823525 205 205 205
0.1155719 -0.04999498 0.2819869 205 205 205
0.1299432 -0.0481604 0.2745746 205 205 205
0.1381404 -0.05014651 0.2759542 205 205 205
-0.02683269 -0.06029463 0.3500792 205 205 205
-0.022463 -0.06339615 0.3540079 205 205 205
-0.02122529 -0.07240277 0.3701582 205 205 205
0.09641954 -0.05054946 0.2869527 205 205 205
0.1065445 -0.04994861 0.2827811 205 205 205
0.1119542 -0.05054246 0.2822616 205 205 205
0.1203597 -0.04965025 0.2782048 205 205 205
0.1232104 -0.04820173 0.274771 205 205 205
0.1310466 -0.04925726 0.2744954 205 205 205
0.1400277 -0.05110537 0.2753762 205 205 205
0.1433213 -0.05163334 0.2754405 205 205 205
0.1471719 -0.05260689 0.2761621 205 205 205
0.1479296 -0.05245453 0.2756881 205 205 205
0.1518284 -0.05339014 0.2763372 205 205 205
-0.02782473 -0.06047367 0.3486307 205 205 205
-0.02479597 -0.06129516 0.3488909 205 205 205
-0.02349541 -0.06359243 0.3525655 205 205 205
0.1024024 -0.05302779 0.287853 205 205 205
0.1071469 -0.05271526 0.2858537 205 205 205
0.1227963 -0.04951187 0.2755119 205 205 205
0.1338826 -0.0511977 0.2754326 205 205 205
0.1431937 -0.05239175 0.2750267 205 205 205
0.1452266 -0.05257516 0.2748073 205 205 205
0.1470432 -0.05337432 0.2757433 205 205 205
-0.03001869 -0.06079957 0.347959 205 205 205
-0.02660158 -0.06075658 0.3464861 205 205 205
-0.02211927 -0.06931291 0.3601929 205 205 205
0.1000999 -0.05544149 0.2911168 205 205 205
0.1034469 -0.05786129 0.2944407 205 205 205
0.1246235 -0.05052457 0.275069 205 205 205
0.1258348 -0.05090922 0.2754102 205 205 205
0.1265846 -0.05080235 0.2750084 205 205 205
0.1320272 -0.0510918 0.2739985 205 205 205
0.1340121 -0.0513315 0.2738733 205 205 205
-0.0319937 -0.06067564 0.3463983 205 205 205
0.1086109 -0.05882884 0.2927577 205 205 205
0.1103169 -0.05764654 0.2901412 205 205 205
0.1179551 -0.05642651 0.2857077 205 205 205
0.1201872 -0.05400642 0.2807716 205 205 205
0.1299226 -0.0515739 0.2737001 205 205 205
0.1508922 -0.05523469 0.2743687 205 205 205
0.1108043 -0.06791583 0.306295 205 205 205
0.1230123 -0.05327494 0.2769216 205 205 205
0.1285708 -0.0519256 0.2729762 205 205 205
0.1305406 -0.05218627 0.2728755 205 205 205
0.1357475 -0.05303941 0.2729057 205 205 205
0.1428045 -0.0546562 0.2737685 205 205 205
0.1435582 -0.05451044 0.2733087 205 205 205
0.1468755 -0.05502846 0.273303 205 205 205
0.1476288 -0.05487341 0.2728295 205 205 205
-0.02792867 -0.06517846 0.3485152 205 205 205
-0.02458786 -0.06808938 0.3523282 205 205 205
0.1161553 -0.0753121 0.3156531 205 205 205
0.1139595 -0.06692073 0.3016506 205 205 205
0.1164844 -0.06078034 0.2901742 205 205 205
0.1196924 -0.0582703 0.2848521 205 205 205
0.1207837 -0.0564916 0.2814378 205 205 205
0.1223437 -0.05630485 0.2806584 205 205 205
0.1237774 -0.05500768 0.2779894 205 205 205
0.1256145 -0.05419809 0.2760553 205 205 205
0.1338772 -0.0529174 0.2714934 205 205 205
0.1356177 -0.05377585 0.272489 205 205 205
0.1447049 -0.05560149 0.2731181 205 205 205
0.1467433 -0.05578498 0.272875 205 205 205
-0.03362054 -0.06553398 0.3492686 205 205 205
0.116394 -0.07131448 0.3066185 205 205 205
0.1183838 -0.06190214 0.2897376 205 205 205
0.1196081 -0.06122833 0.2882105 205 205 205
0.125631 -0.05604148 0.277508 205 205 205
0.1337474 -0.05364571 0.2710777 205 205 205
0.1362341 -0.05437904 0.2716346 205 205 205
0.1374851 -0.05474101 0.2719035 205 205 205
0.1494078 -0.05655453 0.2717016 205 205 205
0.1171343 -0.07207771 0.3057572 205 205 205
0.1158842 -0.06782072 0.2988294 205 205 205
0.1173513 -0.06495964 0.2934807 205 205 205
0.1177916 -0.0643694 0.2923371 205 205 205
0.119879 -0.06250636 0.2885236 205 205 205
0.1202804 -0.06190888 0.2873818 205 205 205
0.1210576 -0.0607101 0.2851008 205 205 205
0.1214335 -0.06010884 0.2839616 205 205 205
0.1228525 -0.05769196 0.2794144 205 205 205
0.1291308 -0.05510332 0.2731814 205 205 205
0.119208 -0.07601707 0.3098974 205 205 205
0.117992 -0.06677561 0.2945474 205 205 205
0.1184402 -0.06618115 0.2934026 205 205 205
0.1205586 -0.0643044 0.289582 205 205 205
0.1243785 -0.05935502 0.2800626 205 205 205
0.1254924 -0.05863847 0.278524 205 205 205
0.1262684 -0.05853298 0.2781193 205 205 205
0.1268962 -0.05729767 0.2758475 205 205 205
0.1276608 -0.05718722 0.2754391 205 205 205
0.1287152 -0.05645271 0.2738931 205 205 205
0.1294718 -0.0563369 0.2734793 205 205 205
-0.03298268 -0.07319996 0.3558072 205 205 205
0.1184616 -0.07083772 0.2994205 205 205 205
0.1181646 -0.06920015 0.2967499 205 205 205
0.118237 -0.06808266 0.2948449 205 205 205
0.1315988 -0.05670475 0.2717974 205 205 205
0.1330985 -0.05645489 0.2709486 205 205 205
0.1469583 -0.0586357 0.2706625 205 205 205
-0.03317201 -0.07411039 0.3552732 205 205 205
0.1327011 -0.05781734 0.2716539 205 205 205
0.1354504 -0.0579409 0.2710675 205 205 205
0.1374542 -0.05818095 0.2708912 205 205 205
0.138712 -0.05855108 0.2711448 205 205 205
0.1468211 -0.05938256 0.2702207 205 205 205
0.1481101 -0.05972542 0.2704245 205 205 205
0.1281755 -0.06041516 0.2755828 205 205 205
0.1413453 -0.05936662 0.2700464 205 205 205
0.1441204 -0.05942574 0.2693526 205 205 205
0.12077 -0.0695833 0.2911274 205 205 205
0.1212014 -0.06896759 0.2899869 205 205 205
0.1227523 -0.06419323 0.2816925 205 205 205
0.1251415 -0.06389249 0.2804885 205 205 205
0.1254915 -0.06326383 0.2793552 205 205 205
0.1272642 -0.06126081 0.275553 205 205 205
0.1303434 -0.06079872 0.2738925 205 205 205
0.1356721 -0.05991312 0.2708937 205 205 205
0.136427 -0.05977864 0.2704557 205 205 205
0.1391903 -0.05987713 0.2698184 205 205 205
0.1424773 -0.06046577 0.2698325 205 205 205
0.143982 -0.06016297 0.2689089 205 205 205
0.121867 -0.07080565 0.2910013 205 205 205
0.1214755 -0.06912142 0.288379 205 205 205
0.1226597 -0.06609596 0.2831028 205 205 205
0.1283564 -0.06240471 0.2754132 205 205 205
0.1302037 -0.06152916 0.273449 205 205 205
0.1309698 -0.06140833 0.2730279 205 205 205
0.1360278 -0.06116116 0.2711481 205 205 205
0.1395594 -0.06112469 0.2700637 205 205 205
0.1451206 -0.06125671 0.2686739 205 205 205
0.1484454 -0.06180041 0.2685989 205 205 205
0.1313027 -0.06266292 0.2732881 205 205 205
0.1328373 -0.06241364 0.2724354 205 205 205
0.1374028 -0.06161753 0.2698196 205 205 205
0.1406849 -0.0622319 0.2698492 205 205 205
0.1442264 -0.0621488 0.2686898 205 205 205
0.1234665 -0.07738797 0.2975108 205 205 205
0.1247823 -0.06729771 0.2809735 205 205 205
0.134224 -0.06288476 0.2711229 205 205 205
0.1433292 -0.06303762 0.2687003 205 205 205
0.1239296 -0.07168104 0.2864865 205 205 205
0.1280623 -0.06578188 0.2758946 205 205 205
0.1296268 -0.0655496 0.2750594 205 205 205
0.1304067 -0.06543043 0.2746381 205 205 205
0.1307163 -0.06477582 0.2735102 205 205 205
0.1353327 -0.06400899 0.2709284 205 205 205
0.1388807 -0.06398483 0.2698439 205 205 205
0.1396413 -0.0638412 0.2693936 205 205 205
0.1404001 -0.06369556 0.2689409 205 205 205
0.1459763 -0.06382359 0.2675123 205 205 205
0.1472625 -0.06418383 0.2677054 205 205 205
0.1254014 -0.07106005 0.2833324 205 205 205
0.1435607 -0.06502941 0.2684565 205 205 205
0.1256626 -0.07832767 0.2928856 205 205 205
0.1257158 -0.07594272 0.2891478 205 205 205
0.1310426 -0.06797487 0.2751179 205 205 205
0.1390929 -0.06597594 0.2696047 205 205 205
0.1279179 -0.0715923 0.2800008 205 205 205
0.1281855 -0.06972779 0.2770379 205 205 205
0.1386776 -0.06738576 0.2702685 205 205 205
0.1409806 -0.06694826 0.2689076 205 205 205
0.1453088 -0.06671052 0.2672561 205 205 205
0.1431107 -0.1084961 0.3303159 205 205 205
0.1340854 -0.09451887 0.3116229 205 205 205
0.1274851 -0.0802609 0.291756 205 205 205
0.1278313 -0.07355168 0.2813562 205 205 205
0.1316697 -0.0705372 0.2755702 205 205 205
0.1369853 -0.06839814 0.2706923 205 205 205
0.139026 -0.06865717 0.2704761 205 205 205
0.1431597 -0.1082208 0.3277512 205 205 205
0.1348653 -0.09528537 0.3106014 205 205 205
0.1281596 -0.07607624 0.283415 205 205 205
0.1331016 -0.07102328 0.2742272 205 205 205
0.1349861 -0.07008283 0.2722279 205 205 205
0.1396488 -0.06924371 0.2695474 205 205 205
0.1416958 -0.0694897 0.2693051 205 205 205
0.1470574 -0.06838271 0.2660206 205 205 205
0.1443687 -0.07030196 0.2680949 205 205 205
0.1295868 -0.08106989 0.2870815 205 205 205
0.1349981 -0.07402624 0.2748827 205 205 205
0.1357965 -0.07389286 0.2744397 205 205 205
0.1367279 -0.07182277 0.2710612 205 205 205
0.1370214 -0.07113092 0.2699378 205 205 205
0.1449855 -0.07087439 0.2671399 205 205 205
0.1318731 -0.0889554 0.2963706 205 205 205
0.1340416 -0.07489808 0.2748291 205 205 205
0.1381355 -0.07226957 0.2696783 205 205 205
0.1432909 -0.07192151 0.267592 205 205 205
0.1448319 -0.07160392 0.2666533 205 205 205
0.1463658 -0.07127798 0.265705 205 205 205
0.1484234 -0.07148987 0.2653951 205 205 205
0.1536946 -0.1230134 0.3380132 205 205 205
0.131572 -0.07727025 0.2774495 205 205 205
0.1343503 -0.07619824 0.2750157 205 205 205
0.1384708 -0.073554 0.2698593 205 205 205
0.1467349 -0.07255557 0.2658661 205 205 205
0.1475027 -0.0723884 0.2653865 205 205 205
0.1325195 -0.08418144 0.2856148 205 205 205
0.1319414 -0.07983916 0.2794479 205 205 205
0.1346567 -0.07750262 0.2751953 205 205 205
0.1375491 -0.0776595 0.2745324 205 205 205
0.1408688 -0.0751071 0.2697845 205 205 205
0.1414318 -0.07368619 0.2675379 205 205 205
0.1434898 -0.07393245 0.2672657 205 205 205
0.1370522 -0.0791076 0.27515 205 205 205
0.1381936 -0.07826171 0.2735713 205 205 205
0.1339027 -0.09057466 0.2909889 205 205 205
0.1333404 -0.0823619 0.2793495 205 205 205
0.1401228 -0.07928132 0.2728133 205 205 205
0.1434067 -0.07666952 0.2680426 205 205 205
0.1429133 -0.1066955 0.3094397 205 205 205
0.1348348 -0.08285651 0.2779385 205 205 205
0.1352027 -0.08214913 0.2768144 205 205 205
0.1401144 -0.08131083 0.2740881 205 205 205
0.1528217 -0.1215755 0.3254924 205 205 205
0.1424255 -0.105693 0.3062577 205 205 205
0.1357308 -0.09378856 0.2914966 205 205 205
0.1335493 -0.08701918 0.2825939 205 205 205
0.1383178 -0.08234475 0.2744839 205 205 205
0.1346313 -0.08694533 0.2804808 205 205 205
0.1358649 -0.08609975 0.2789057 205 205 205
0.1412362 -0.08119678 0.2703341 205 205 205
0.1428362 -0.08088794 0.269399 205 205 205
0.2040017 -0.1960108 0.4090198 205 205 205
0.1371325 -0.09643622 0.2912703 205 205 205
0.1357554 -0.08815832 0.2801645 205 205 205
0.1361481 -0.08743965 0.2790391 205 205 205
0.1468669 -0.08212509 0.2682596 205 205 205
0.1474282 -0.08064002 0.2660137 205 205 205
0.1482149 -0.08046895 0.265528 205 205 205
0.1395466 -0.1007832 0.2947784 205 205 205
0.1521525 -0.1207567 0.3164247 205 205 205
0.1380127 -0.09058414 0.2794923 205 205 205
0.1396261 -0.08897936 0.2767788 205 205 205
0.1399946 -0.08824545 0.2756547 205 205 205
0.1510208 -0.08330499 0.2653797 205 205 205
0.1397189 -0.09903092 0.2888065 205 205 205
0.1390729 -0.09046885 0.277351 205 205 205
0.1399168 -0.09032435 0.276886 205 205 205
0.1408764 -0.08677716 0.2717495 205 205 205
0.1449497 -0.08599104 0.2693835 205 205 205
0.1473724 -0.08549266 0.267934 205 205 205
0.1481763 -0.08532207 0.2674459 205 205 205
0.1404313 -0.09968897 0.287747 205 205 205
0.139478 -0.09448844 0.2810226 205 205 205
0.1394256 -0.09315351 0.2792351 205 205 205
0.1393577 -0.0918185 0.2774525 205 205 205
0.1397398 -0.09107833 0.2763304 205 205 205
0.1501219 -0.08629287 0.2665477 205 205 205
0.1442834 -0.08821552 0.269412 205 205 205
0.1475311 -0.08755003 0.2674784 205 205 205
0.1444325 -0.1086693 0.295005 205 205 205
0.1422709 -0.1042943 0.2898758 205 205 205
0.1405057 -0.1005282 0.2854297 205 205 205
0.1434417 -0.0904643 0.2710921 205 205 205
0.143779 -0.0897077 0.2699763 205 205 205
0.1441077 -0.08895013 0.2688619 205 205 205
0.1460451 -0.08785961 0.2667868 205 205 205
0.1499909 -0.08911963 0.2671952 205 205 205
0.1594056 -0.1321471 0.3194214 205 205 205
0.1407596 -0.1005638 0.283705 205 205 205
0.1411939 -0.09981308 0.282574 205 205 205
0.1406574 -0.09649445 0.2783635 205 205 205
0.1410554 -0.09574185 0.2772414 205 205 205
0.1414449 -0.09498812 0.2761204 205 205 205
0.1425819 -0.09619468 0.2757149 205 205 205
0.1455541 -0.09145068 0.2685326 205 205 205
0.1420078 -0.097711 0.276255 205 205 205
0.1444708 -0.09586718 0.2730575 205 205 205
0.1450413 -0.09295449 0.2690812 205 205 205
0.1480095 -0.09305132 0.2682427 205 205 205
0.1493346 -0.09347948 0.2683692 205 205 205
0.1440063 -0.0987656 0.2753488 205 205 205
0.1483252 -0.09439331 0.2682936 205 205 205
0.2114507 -0.2094779 0.3936245 205 205 205
0.1449437 -0.09719639 0.2714145 205 205 205
0.1457858 -0.0970313 0.2709278 205 205 205
0.1491359 -0.09634762 0.2689551 205 205 205
0.1502956 -0.09538449 0.2673396 205 205 205
0.1509457 -0.119966 0.2968228 205 205 205
0.1447445 -0.1084794 0.2842423 205 205 205
0.1442224 -0.1036771 0.2783063 205 205 205
0.1454146 -0.1063059 0.2795984 205 205 205
0.1449067 -0.104283 0.2772115 205 205 205
0.1453143 -0.1035016 0.2760913 205 205 205
0.1472231 -0.09957762 0.2705088 205 205 205
0.1512544 -0.09728652 0.2662843 205 205 205
0.1470327 -0.1003199 0.2699158 205 205 205
0.1522065 -0.09703503 0.264082 205 205 205
0.1504474 -0.1196382 0.2912342 205 205 205
0.1468613 -0.1103548 0.2808753 205 205 205
0.1517032 -0.09856761 0.2646027 205 205 205
0.1538305 -0.1255143 0.2956185 205 205 205
0.1461283 -0.107657 0.2761298 205 205 205
0.1467622 -0.1032201 0.2704417 205 205 205
0.1496728 -0.1018951 0.267837 205 205 205
0.1505158 -0.1017145 0.267333 205 205 205
0.153675 -0.09953776 0.2635865 205 205 205
0.2148239 -0.2176477 0.3864463 205 205 205
0.1491962 -0.1171398 0.2851084 205 205 205
0.1468103 -0.1082504 0.2750114 205 205 205
0.1528394 -0.1018938 0.2652041 205 205 205
0.1539954 -0.1008885 0.2635821 205 205 205
0.1928565 -0.1854591 0.3519454 205 205 205
0.1511174 -0.1044419 0.2673243 205 205 205
0.152309 -0.1034421 0.2657064 205 205 205
0.1586559 -0.134259 0.2992332 205 205 205
0.1477589 -0.1102285 0.273872 205 205 205
0.1493341 -0.1069884 0.2694312 205 205 205
0.1501943 -0.1068087 0.2689253 205 205 205
0.1510527 -0.1066266 0.2684168 205 205 205
0.2075314 -0.2092192 0.3683002 205 205 205
0.1757058 -0.161171 0.3218605 205 205 205
0.1500643 -0.1126669 0.272801 205 205 205
0.1520005 -0.1085573 0.2672546 205 205 205
0.1523619 -0.1077323 0.2661493 205 205 205
0.1511414 -0.1124161 0.2705376 205 205 205
0.1515328 -0.1115902 0.2694291 205 205 205
0.1534397 -0.1267342 0.2849509 205 205 205
0.1518111 -0.1129793 0.2693814 205 205 205
0.1529458 -0.1104837 0.2660663 205 205 205
0.1509067 -0.1183496 0.2743577 205 205 205
0.1508618 -0.1168691 0.2726505 205 205 205
0.1520868 -0.1143713 0.269326 205 205 205
0.1507205 -0.1205966 0.2754015 205 205 205
0.1522683 -0.1142782 0.2675737 205 205 205
0.1538885 -0.1124055 0.2648519 205 205 205
0.1554511 -0.1105196 0.2621309 205 205 205
0.1522814 -0.1195006 0.2719913 205 205 205
0.1522223 -0.1180058 0.2702971 205 205 205
0.1536796 -0.1131377 0.2642085 205 205 205
0.154041 -0.1122918 0.2631121 205 205 205
0.1536961 -0.1168712 0.2669084 205 205 205
