ply
format ascii 1.0
comment Generated by Floating Hands
element vertex 1961
property double x
property double y
property double z
property uchar red
property uchar green
property uchar blue
end_header
-0.0002587466 0.06311215 0.4906656 0 0 0
0.00746188 0.06109921 0.395983 0 0 0
0.01249958 0.0603169 0.3802622 0 0 0
0.01343673 0.06013549 0.381312 0 0 0
0.1012126 0.04888273 0.4554509 0 0 0
0.09073473 0.05079385 0.3922433 0 0 0
0.09151243 0.05096626 0.3817872 0 0 0
0.008988695 0.06001388 0.3720321 0 0 0
0.01226343 0.05949593 0.3652244 0 0 0
0.08544489 0.05007968 0.3882653 0 0 0
0.08349887 0.05053012 0.3743705 0 0 0
0.001290227 0.05987914 0.4035249 0 0 0
0.00703848 0.05936695 0.3708857 0 0 0
0.008282803 0.05919997 0.3669671 0 0 0
0.0135223 0.05839316 0.3572761 0 0 0
0.07899565 0.05065493 0.3415433 0 0 0
0.08669552 0.05005781 0.3468564 0 0 0
0.09035297 0.04977717 0.3500223 0 0 0
0.09265783 0.04962509 0.3514615 0 0 0
0.1007168 0.04881144 0.3657801 0 0 0
-0.007017816 0.05922638 0.4529627 0 0 0
0.005018255 0.05872719 0.3707193 0 0 0
0.02219939 0.0555621 0.3725604 0 0 0
0.09875329 0.04393686 0.4853902 0 0 0
0.07615959 0.04991408 0.3411176 0 0 0
0.09192508 0.04900549 0.3422801 0 0 0
0.1005824 0.04816809 0.3553405 0 0 0
0.1391612 0.04275924 0.4583687 0 0 0
-0.001396674 0.05830529 0.39523 0 0 0
0.008721209 0.05731225 0.3579588 0 0 0
0.009837656 0.05717669 0.3550296 0 0 0
0.01526335 0.05618989 0.3543334 0 0 0
0.02365303 0.05341558 0.4065466 0 0 0
0.08499891 0.0458257 0.4147282 0 0 0
0.07801025 0.04774217 0.3733442 0 0 0
0.08635819 0.04858278 0.3354881 0 0 0
0.0905063 0.04831125 0.3374431 0 0 0
0.09789889 0.04776246 0.3435743 0 0 0
0.0993605 0.04764087 0.3452102 0 0 0
0.1029355 0.04729695 0.3503599 0 0 0
-0.01637682 0.05732657 0.4871462 0 0 0
-0.001429607 0.05752571 0.3841621 0 0 0
0.0005741866 0.05742883 0.3743134 0 0 0
0.01253776 0.05575334 0.3531774 0 0 0
0.02039839 0.05416734 0.3594846 0 0 0
0.0221714 0.05377834 0.3625158 0 0 0
0.02306752 0.05356994 0.3645262 0 0 0
0.02385615 0.05305715 0.3775284 0 0 0
0.08731052 0.04371222 0.4335479 0 0 0
0.0749808 0.04831462 0.3361711 0 0 0
0.07703974 0.04827404 0.3336591 0 0 0
0.08164449 0.04795154 0.334603 0 0 0
0.08521554 0.04775094 0.3347105 0 0 0
0.08604636 0.04771815 0.3344873 0 0 0
0.08687644 0.04768684 0.3342612 0 0 0
-0.007792245 0.05676164 0.4116231 0 0 0
-0.004231765 0.05680583 0.3898856 0 0 0
-0.001804142 0.05676469 0.377073 0 0 0
0.01243191 0.05480896 0.3531511 0 0 0
0.01332205 0.0546431 0.353199 0 0 0
0.07304297 0.04756584 0.3355172 0 0 0
0.08241873 0.04700169 0.334354 0 0 0
0.09402227 0.04645528 0.3342105 0 0 0
-0.01720838 0.05567591 0.4578121 0 0 0
0.07464726 0.04655417 0.3351161 0 0 0
0.0785751 0.04637837 0.3331905 0 0 0
0.08459681 0.04604684 0.3326976 0 0 0
0.08925839 0.04577194 0.3334802 0 0 0
0.1010355 0.04518213 0.3360951 0 0 0
0.102194 0.04511042 0.3367582 0 0 0
0.1196832 0.04310862 0.3633737 0 0 0
-0.01419954 0.0551656 0.4239057 0 0 0
-0.00986559 0.05534468 0.3992585 0 0 0
-0.003195734 0.05524529 0.3698453 0 0 0
-0.001681543 0.05514465 0.3649837 0 0 0
-0.0003125917 0.05503212 0.3611082 0 0 0
0.004740204 0.05420791 0.3565689 0 0 0
0.0065467 0.05384628 0.3567168 0 0 0
0.01929416 0.05155988 0.3553696 0 0 0
0.02107246 0.05121258 0.3564063 0 0 0
0.07768884 0.04552069 0.3333415 0 0 0
0.08810682 0.04495195 0.3327077 0 0 0
0.1018277 0.04423715 0.3357626 0 0 0
0.1026664 0.04423158 0.3354772 0 0 0
0.106177 0.04401855 0.337423 0 0 0
0.109229 0.04374733 0.3405674 0 0 0
-0.02777895 0.05346555 0.4926746 0 0 0
0.009293169 0.0524235 0.3548816 0 0 0
0.01019128 0.05225068 0.3549393 0 0 0
0.01211092 0.05197936 0.3530496 0 0 0
0.02459203 0.04965026 0.3564 0 0 0
0.02637392 0.0484985 0.3753772 0 0 0
0.07072853 0.04488355 0.3378598 0 0 0
0.07327442 0.04493208 0.3332528 0 0 0
0.07492774 0.04483027 0.3328892 0 0 0
0.08805249 0.04404221 0.3326571 0 0 0
0.08860664 0.04408717 0.3314627 0 0 0
0.1047976 0.04335985 0.333608 0 0 0
0.009109814 0.05143798 0.3558372 0 0 0
0.01008123 0.05130145 0.354898 0 0 0
0.01378758 0.05070449 0.3530986 0 0 0
0.09048953 0.03454379 0.4751724 0 0 0
0.06989177 0.04373831 0.3430429 0 0 0
0.07403802 0.04398366 0.3330211 0 0 0
0.08004946 0.04358936 0.3326421 0 0 0
0.08277276 0.04339939 0.3329824 0 0 0
0.1055837 0.04242827 0.3332537 0 0 0
0.004398029 0.05134299 0.3564484 0 0 0
0.006123215 0.05094086 0.3575905 0 0 0
0.01551416 0.04948047 0.3521317 0 0 0
0.01996783 0.04869215 0.3522636 0 0 0
0.02260802 0.04813619 0.3542996 0 0 0
0.02434768 0.04752702 0.3603006 0 0 0
0.03310242 0.04514603 0.3791362 0 0 0
0.06937267 0.04326996 0.3359625 0 0 0
0.07458802 0.04311403 0.3318088 0 0 0
0.08295993 0.04241618 0.3338917 0 0 0
0.1035411 0.04157672 0.3328423 0 0 0
0.1080294 0.04150872 0.3322836 0 0 0
0.1183807 0.0408103 0.3389607 0 0 0
-0.005517313 0.05210657 0.3614113 0 0 0
-0.003428409 0.05177062 0.3596473 0 0 0
0.03398938 0.04394905 0.3790424 0 0 0
0.06883188 0.04227021 0.3380279 0 0 0
0.07184723 0.0424572 0.3313141 0 0 0
0.07328083 0.04243367 0.3299845 0 0 0
0.07431087 0.04230313 0.3307769 0 0 0
0.08898938 0.04143192 0.3300953 0 0 0
0.09366418 0.04116206 0.3307743 0 0 0
0.0983896 0.04092902 0.3313555 0 0 0
0.1111831 0.04043578 0.3331421 0 0 0
0.1172123 0.04009248 0.3361226 0 0 0
-0.00896896 0.05161708 0.3649632 0 0 0
0.008847598 0.04863156 0.3546945 0 0 0
0.01274673 0.04820023 0.3499168 0 0 0
0.01362963 0.04803568 0.3499591 0 0 0
0.03270305 0.04356636 0.3710317 0 0 0
0.07528336 0.04128239 0.3315028 0 0 0
0.08620496 0.04069886 0.3297701 0 0 0
0.08729117 0.04058367 0.3305005 0 0 0
0.09443318 0.04023879 0.3304524 0 0 0
0.09720405 0.04011201 0.3306123 0 0 0
0.1184762 0.03926596 0.3344412 0 0 0
0.0004312958 0.04923404 0.3559622 0 0 0
0.007834568 0.04786115 0.3545783 0 0 0
0.01357765 0.04716299 0.348906 0 0 0
0.01805506 0.04648327 0.3470711 0 0 0
0.02775344 0.04355291 0.3670882 0 0 0
0.02870402 0.043404 0.3670729 0 0 0
0.06787068 0.04014685 0.3431256 0 0 0
0.07233182 0.04071905 0.3300376 0 0 0
0.09602323 0.03930492 0.3298611 0 0 0
0.1047201 0.03888957 0.3311123 0 0 0
0.1131227 0.03849448 0.3332807 0 0 0
0.1147922 0.03852735 0.3326204 0 0 0
0.1365879 0.03600929 0.3569106 0 0 0
0.02052089 0.04497771 0.3490612 0 0 0
0.02859687 0.04240418 0.3670049 0 0 0
0.03048485 0.04218252 0.3659659 0 0 0
0.0343645 0.04139569 0.3688312 0 0 0
0.08766793 0.02718326 0.4781126 0 0 0
0.0720601 0.0399294 0.3289954 0 0 0
0.08222341 0.03897661 0.3316993 0 0 0
0.0877258 0.03885541 0.3291705 0 0 0
0.08881832 0.03873508 0.3298919 0 0 0
0.09596925 0.03839882 0.3297884 0 0 0
0.09709758 0.03829135 0.3304695 0 0 0
0.1021831 0.0379692 0.3319123 0 0 0
0.1046701 0.03796812 0.3310373 0 0 0
-0.01200764 0.04935237 0.3634101 0 0 0
-0.007584016 0.04872805 0.3589759 0 0 0
-0.003670067 0.04801204 0.3574399 0 0 0
0.006539525 0.04603195 0.3563816 0 0 0
0.01788335 0.04471554 0.3459499 0 0 0
0.02041621 0.04405189 0.3489961 0 0 0
0.02943044 0.04133235 0.3659165 0 0 0
0.07952199 0.03028519 0.4298744 0 0 0
0.07547241 0.0387591 0.3291656 0 0 0
0.09179167 0.03757225 0.330996 0 0 0
0.09232923 0.03765331 0.3297931 0 0 0
0.1026329 0.03714669 0.3306062 0 0 0
0.1037907 0.037046 0.3312536 0 0 0
0.1086224 0.03686763 0.3316125 0 0 0
0.1102821 0.03688778 0.3309844 0 0 0
0.1188596 0.03675907 0.3307569 0 0 0
0.1217008 0.03651731 0.3327931 0 0 0
0.1233717 0.03658064 0.3320689 0 0 0
0.1258286 0.03621934 0.3353364 0 0 0
-0.00288161 0.04685791 0.357476 0 0 0
0.005602038 0.04532383 0.355253 0 0 0
0.02033844 0.04319963 0.3479304 0 0 0
0.02932295 0.04033754 0.3658407 0 0 0
0.07820638 0.03790927 0.3263751 0 0 0
0.0841208 0.03812774 0.3196687 0 0 0
0.08868936 0.03722774 0.326634 0 0 0
0.09034318 0.03689507 0.3292566 0 0 0
0.09309386 0.03673502 0.3294613 0 0 0
0.1065649 0.03603019 0.3312117 0 0 0
0.1094034 0.0359492 0.3312167 0 0 0
0.1147397 0.0359352 0.330199 0 0 0
0.1254049 0.03559846 0.3321524 0 0 0
0.129164 0.03541011 0.333726 0 0 0
-0.005737127 0.04650555 0.3570917 0 0 0
-0.003790886 0.04616011 0.3563145 0 0 0
6.35424E-05 0.04549774 0.3547138 0 0 0
0.03600376 0.0380076 0.3695076 0 0 0
0.0703371 0.03330261 0.3756801 0 0 0
0.06676126 0.03774018 0.3288014 0 0 0
0.07549024 0.0372682 0.3259133 0 0 0
0.07714383 0.03841383 0.3121912 0 0 0
0.08349629 0.03778669 0.3145845 0 0 0
0.08508226 0.0374411 0.3172319 0 0 0
0.08887923 0.03653705 0.3244064 0 0 0
0.09332765 0.03572666 0.3303291 0 0 0
0.098895 0.03543915 0.3306288 0 0 0
0.1224812 0.03489573 0.3300735 0 0 0
0.0001643618 0.04468387 0.352657 0 0 0
0.0176052 0.04205861 0.3447412 0 0 0
0.02363769 0.04067947 0.3488037 0 0 0
0.03002997 0.03837856 0.3636618 0 0 0
0.06569397 0.03703674 0.3278998 0 0 0
0.07137895 0.03663949 0.3267456 0 0 0
0.07527955 0.03748313 0.3146205 0 0 0
0.09831931 0.0344235 0.3317598 0 0 0
0.09883855 0.03452773 0.330541 0 0 0
0.1265647 0.03414319 0.3281311 0 0 0
-0.01007031 0.04524697 0.3594379 0 0 0
0.01407931 0.04186394 0.3435538 0 0 0
0.01836792 0.04099766 0.3446839 0 0 0
0.02095198 0.04045866 0.345722 0 0 0
0.02525989 0.03884521 0.3556879 0 0 0
0.02616184 0.03834169 0.359663 0 0 0
0.02709397 0.03783497 0.3636342 0 0 0
0.03463666 0.03669044 0.3634057 0 0 0
0.07581063 0.02366807 0.449106 0 0 0
0.06428552 0.03656308 0.3250343 0 0 0
0.09909418 0.03350075 0.3313924 0 0 0
0.1057232 0.03349445 0.3290774 0 0 0
0.1298687 0.03283669 0.3308637 0 0 0
-0.009133743 0.04413817 0.3584932 0 0 0
0.003590876 0.04377233 0.3348149 0 0 0
0.004421208 0.04359919 0.3348874 0 0 0
0.007516971 0.04173004 0.3481191 0 0 0
0.009131397 0.04122278 0.3502176 0 0 0
0.01488749 0.04088771 0.3425116 0 0 0
0.01747263 0.04041908 0.3425912 0 0 0
0.01913123 0.0399383 0.3446194 0 0 0
0.06485894 0.02853621 0.397342 0 0 0
0.06386956 0.03215773 0.3613051 0 0 0
0.06289928 0.0361136 0.3221608 0 0 0
0.1025276 0.03281157 0.3280004 0 0 0
0.1045055 0.03269627 0.328348 0 0 0
0.1106004 0.03264355 0.3271188 0 0 0
0.121542 0.03231388 0.3279674 0 0 0
0.1231854 0.03238419 0.3272425 0 0 0
-0.009407495 0.0431116 0.359396 0 0 0
-0.00583518 0.04291271 0.3538128 0 0 0
0.01822859 0.03936801 0.3425269 0 0 0
0.02781637 0.03571909 0.3634328 0 0 0
0.06170082 0.03557093 0.320259 0 0 0
0.09405828 0.03269331 0.3244548 0 0 0
0.09845103 0.03155707 0.3324175 0 0 0
0.1006416 0.03166243 0.3306375 0 0 0
0.106439 0.03167463 0.328579 0 0 0
0.108086 0.0316925 0.3279639 0 0 0
0.1105484 0.03173132 0.3270189 0 0 0
0.1162544 0.03187786 0.3247101 0 0 0
0.1206924 0.03162878 0.3260491 0 0 0
0.1280788 0.03141616 0.3270685 0 0 0
-0.01060783 0.04229221 0.3601715 0 0 0
-0.002118251 0.04280747 0.3381125 0 0 0
0.006226591 0.04352596 0.3148992 0 0 0
0.009863426 0.03928744 0.3491003 0 0 0
0.01075042 0.03911658 0.3491471 0 0 0
0.0147235 0.03918749 0.3413464 0 0 0
0.02322927 0.03708494 0.3474647 0 0 0
0.02676186 0.03529194 0.359372 0 0 0
0.03422651 0.03405331 0.3601363 0 0 0
0.05539617 0.03391912 0.3342355 0 0 0
0.05531542 0.03466465 0.3272255 0 0 0
0.06096648 0.03522331 0.3162548 0 0 0
0.0646392 0.03504833 0.314554 0 0 0
0.09653839 0.03140842 0.3266597 0 0 0
0.1005824 0.03074982 0.3305351 0 0 0
0.1019182 0.03087357 0.3290254 0 0 0
0.1214612 0.0307412 0.3255855 0 0 0
0.1247328 0.03060203 0.3262959 0 0 0
0.01456164 0.03819981 0.34225 0 0 0
0.0171928 0.03782675 0.3413335 0 0 0
0.01887826 0.03742173 0.3423636 0 0 0
0.0294404 0.03388837 0.3592106 0 0 0
0.05464786 0.03136238 0.3502561 0 0 0
0.06209353 0.03453503 0.3139283 0 0 0
0.09604733 0.03103648 0.3225226 0 0 0
0.1016772 0.02970294 0.3310812 0 0 0
0.1046735 0.02983939 0.328973 0 0 0
0.1125245 0.03009432 0.3249177 0 0 0
0.1254786 0.0300172 0.3236417 0 0 0
-0.01364394 0.04102141 0.3595951 0 0 0
0.01877084 0.03652563 0.3422683 0 0 0
0.02044529 0.03601472 0.3442791 0 0 0
0.02931038 0.03314451 0.3571183 0 0 0
0.032079 0.03272407 0.3570266 0 0 0
0.04401258 0.02137894 0.4439099 0 0 0
0.06226929 0.01970985 0.4371804 0 0 0
0.05343018 0.03076198 0.3482936 0 0 0
0.05281559 0.03454553 0.3153448 0 0 0
0.05345381 0.03459584 0.3142511 0 0 0
0.0610879 0.03391688 0.3129992 0 0 0
0.06283306 0.03413152 0.3096442 0 0 0
0.1009714 0.02905985 0.3290977 0 0 0
0.1057833 0.02879782 0.3294932 0 0 0
0.108849 0.02925539 0.325169 0 0 0
0.1112882 0.02930436 0.3242138 0 0 0
0.1124715 0.02918846 0.3248076 0 0 0
0.1250106 0.02923124 0.3226318 0 0 0
0.0103149 0.04004348 0.3169712 0 0 0
0.02121018 0.03496104 0.3441854 0 0 0
0.02465849 0.03381718 0.3491469 0 0 0
0.02827793 0.0323309 0.3570345 0 0 0
0.05255036 0.02979496 0.3492823 0 0 0
0.05643571 0.03350456 0.3136889 0 0 0
0.1014131 0.02829214 0.3277631 0 0 0
0.1055655 0.02759867 0.3315433 0 0 0
0.1078624 0.02804926 0.3275302 0 0 0
0.1221242 0.02833072 0.3227199 0 0 0
0.1253452 0.02849812 0.3212468 0 0 0
0.1307375 0.02800949 0.3241688 0 0 0
-0.00244616 0.04158764 0.3187238 0 0 0
0.0109817 0.03909773 0.3169275 0 0 0
0.01196175 0.03795785 0.324946 0 0 0
0.01605387 0.03541915 0.3400245 0 0 0
0.01691102 0.03526399 0.3400464 0 0 0
0.02110208 0.0340577 0.3440815 0 0 0
0.02724401 0.03152024 0.356944 0 0 0
0.02997564 0.03144659 0.3538933 0 0 0
0.03182146 0.03104976 0.3548213 0 0 0
0.03273788 0.0309135 0.3547839 0 0 0
0.03766674 0.02926618 0.3624772 0 0 0
0.05176588 0.03314428 0.3142767 0 0 0
0.09505282 0.02983739 0.3120257 0 0 0
0.1068389 0.0268338 0.3298851 0 0 0
0.1086287 0.02715207 0.3271006 0 0 0
0.1212654 0.02738211 0.3229621 0 0 0
0.01043733 0.03888298 0.312826 0 0 0
0.02011963 0.03330557 0.3439681 0 0 0
0.02354736 0.03211745 0.3489365 0 0 0
0.03079647 0.03023918 0.3547406 0 0 0
0.03171332 0.03010101 0.3547064 0 0 0
0.0353811 0.02956471 0.3545358 0 0 0
0.05483659 0.02232026 0.3916603 0 0 0
0.05308989 0.03232805 0.3129768 0 0 0
0.0538523 0.0322539 0.3128643 0 0 0
0.05523545 0.03224889 0.3116508 0 0 0
0.1067782 0.02591744 0.3297636 0 0 0
0.108924 0.02609628 0.3279035 0 0 0
0.1146927 0.02622592 0.3256232 0 0 0
0.1191913 0.02654696 0.3226486 0 0 0
0.1204002 0.02676396 0.3210365 0 0 0
0.1212028 0.02680173 0.3206786 0 0 0
0.02000999 0.03240398 0.3438573 0 0 0
0.02171519 0.03186056 0.3458502 0 0 0
0.03435679 0.02874762 0.3544643 0 0 0
0.03736375 0.02756726 0.3602529 0 0 0
0.05007102 0.03170182 0.3142798 0 0 0
0.1283201 0.02631502 0.3172022 0 0 0
-0.008404214 0.03902299 0.328744 0 0 0
0.01242906 0.03676759 0.3137501 0 0 0
0.01752333 0.03269944 0.3377569 0 0 0
0.02967141 0.02835378 0.3555226 0 0 0
0.03712858 0.02700176 0.3571568 0 0 0
0.05140398 0.03088816 0.3129845 0 0 0
0.09971289 0.02688081 0.3131166 0 0 0
0.1162188 0.02445786 0.3246909 0 0 0
0.024997 0.02892632 0.3495562 0 0 0
0.03138514 0.02725949 0.3543394 0 0 0
0.05120211 0.03024197 0.311894 0 0 0
0.1269938 0.02462092 0.3164402 0 0 0
-0.00545642 0.03874174 0.3139182 0 0 0
0.01604676 0.03241553 0.3285725 0 0 0
0.03498339 0.02563137 0.3550254 0 0 0
0.03793088 0.02466657 0.3588136 0 0 0
0.03911196 0.02381617 0.3636921 0 0 0
0.0470107 0.02807886 0.3252479 0 0 0
0.04761774 0.02940466 0.3152254 0 0 0
0.1136389 0.02256443 0.3254365 0 0 0
0.1145203 0.02293917 0.3229438 0 0 0
0.1157803 0.02351176 0.3192048 0 0 0
0.1165793 0.02354326 0.3188627 0 0 0
0.1269438 0.02372726 0.3163056 0 0 0
-0.005249447 0.03818146 0.3118524 0 0 0
0.03024408 0.02550857 0.3541113 0 0 0
0.1181024 0.02309178 0.3158851 0 0 0
0.122874 0.02296743 0.3158866 0 0 0
0.1244489 0.02306143 0.3151483 0 0 0
0.1300429 0.02305671 0.3146212 0 0 0
0.1281013 0.02409165 0.3089721 0 0 0
0.01674528 0.03086271 0.3263777 0 0 0
0.02396495 0.02859208 0.3333453 0 0 0
0.03879179 0.02215002 0.3614329 0 0 0
0.09905802 0.02561454 0.3001434 0 0 0
0.1023005 0.02443154 0.3062845 0 0 0
0.1156654 0.02173793 0.3189288 0 0 0
0.1239663 0.02234486 0.3141211 0 0 0
0.1271903 0.02216304 0.3147615 0 0 0
0.01376912 0.03146456 0.3202307 0 0 0
0.01603181 0.03074229 0.3222816 0 0 0
0.01678088 0.0304555 0.3232893 0 0 0
0.01826268 0.0297398 0.3262854 0 0 0
0.01979072 0.02902179 0.3292702 0 0 0
0.02143866 0.02873663 0.3292758 0 0 0
0.02554446 0.02760524 0.332204 0 0 0
0.03095597 0.02333038 0.3547864 0 0 0
0.03973205 0.02073168 0.3631907 0 0 0
0.04858584 0.02732431 0.3117343 0 0 0
0.1093453 0.02176415 0.3149877 0 0 0
0.1136178 0.0209674 0.318555 0 0 0
0.1195662 0.02141417 0.3149006 0 0 0
0.0124401 0.03166439 0.315109 0 0 0
0.01372687 0.03080147 0.319122 0 0 0
0.0143933 0.03036781 0.321125 0 0 0
0.01592682 0.02992864 0.3221591 0 0 0
0.01667576 0.02963771 0.3231661 0 0 0
0.02296481 0.02746414 0.3301297 0 0 0
0.03178718 0.02208897 0.3555895 0 0 0
0.03752911 0.02064848 0.3592272 0 0 0
0.04747346 0.02587196 0.3167056 0 0 0
0.05002706 0.02637482 0.3114097 0 0 0
0.105179 0.02286488 0.3048309 0 0 0
0.1175443 0.0202458 0.3167054 0 0 0
0.1202961 0.02057947 0.314399 0 0 0
0.1218652 0.02066731 0.3136782 0 0 0
0.02207336 0.02706466 0.3280269 0 0 0
0.03260166 0.0210013 0.3553968 0 0 0
0.1249335 0.01998826 0.312054 0 0 0
0.0203244 0.02650972 0.3278943 0 0 0
0.04285678 0.0129593 0.3891398 205 205 205
0.1193938 0.01878808 0.3144545 0 0 0
0.1212591 0.0195168 0.3103543 0 0 0
0.01212769 0.02931299 0.3147377 0 0 0
0.01425664 0.02840743 0.3177827 0 0 0
0.02431661 0.02481414 0.3287169 0 0 0
0.02762676 0.02411585 0.3296272 0 0 0
0.03624249 0.0178844 0.3588174 0 0 0
0.05429204 0.008791593 0.3976996 205 205 205
0.05154492 0.01561656 0.3593858 0 0 0
0.0507949 0.02239766 0.319814 0 0 0
0.05218716 0.02360145 0.3116722 0 0 0
0.1177297 0.01825145 0.3128659 0 0 0
0.1197075 0.01814473 0.3130526 0 0 0
0.1204288 0.01860919 0.3105607 0 0 0
0.1239507 0.01861676 0.3099853 0 0 0
0.1254928 0.01872421 0.3092375 0 0 0
0.1261306 0.01921033 0.3067314 0 0 0
0.0148763 0.02730671 0.3186592 0 0 0
0.03935323 0.01512055 0.3663241 0 0 0
0.05181741 0.02215143 0.3155479 0 0 0
0.117219 0.01800368 0.309685 0 0 0
0.1184043 0.01785267 0.3102261 0 0 0
0.125315 0.01829763 0.3069526 0 0 0
0.009102091 0.02883141 0.3113702 0 0 0
0.01254959 0.02727859 0.3164752 0 0 0
0.02741292 0.0225991 0.3283527 0 0 0
0.05263623 0.02108039 0.3162658 0 0 0
0.0102705 0.02727216 0.3142679 0 0 0
0.01244306 0.02648986 0.3163376 0 0 0
0.01998821 0.02368388 0.3243726 0 0 0
0.02074369 0.02319889 0.3263421 0 0 0
0.02483281 0.022334 0.3272822 0 0 0
0.02995612 0.01922824 0.3399192 0 0 0
0.0361127 0.01390422 0.3642086 0 0 0
0.04029848 0.0122643 0.369824 205 205 205
0.06015358 0.001683517 0.4131379 205 205 205
0.05328996 0.0191177 0.3219597 0 0 0
0.1255158 0.01684474 0.3053816 0 0 0
0.1264064 0.01761778 0.3016395 0 0 0
0.01016362 0.02649273 0.314129 0 0 0
0.01461552 0.02508526 0.3172571 0 0 0
0.0153442 0.02476758 0.3182607 0 0 0
0.01687256 0.02430467 0.319276 0 0 0
0.03209403 0.01366837 0.3632645 205 205 205
0.03708118 0.01222435 0.3669103 205 205 205
0.1232835 0.01536915 0.3084581 0 0 0
0.1243807 0.01567981 0.3068393 0 0 0
0.1266683 0.01585401 0.3057072 0 0 0
0.1281866 0.01597821 0.3049389 0 0 0
0.00860499 0.02619286 0.3129241 0 0 0
0.01222872 0.02491475 0.3160529 0 0 0
0.01300819 0.02476429 0.3160811 0 0 0
0.01671762 0.02332814 0.3201122 0 0 0
0.01822945 0.02268484 0.3220985 0 0 0
0.03090637 0.01395772 0.3572348 0 0 0
0.05629132 0.01488773 0.3330541 0 0 0
0.05866001 0.01903221 0.3098275 0 0 0
0.1238802 0.01503346 0.3057969 0 0 0
0.008497182 0.02541943 0.3127802 0 0 0
0.01212093 0.0241284 0.315906 0 0 0
0.01283324 0.02380117 0.316916 0 0 0
0.01507348 0.02299787 0.3189479 0 0 0
0.02698913 0.01867915 0.3306831 0 0 0
0.02975647 0.01447986 0.3502232 0 0 0
0.0330046 0.01003374 0.3706955 205 205 205
0.03493572 0.01012908 0.3686211 205 205 205
0.03884611 0.009768907 0.3673744 205 205 205
0.06177798 0.003661049 0.3825187 205 205 205
0.05833485 0.01439187 0.3295693 0 0 0
0.1143552 0.01713681 0.293901 0 0 0
0.1241372 0.01445211 0.3043814 0 0 0
0.1254929 0.0150482 0.3015198 0 0 0
0.02033775 0.02007391 0.3247423 0 0 0
0.0286893 0.01447013 0.3461564 0 0 0
0.03082073 0.01010434 0.3666754 205 205 205
0.03189971 0.008979926 0.3715312 205 205 205
0.04436699 0.005902374 0.3775163 205 205 205
0.06366338 0.0172631 0.3075249 0 0 0
0.1242362 0.01436597 0.3008566 0 0 0
0.1243486 0.01512546 0.2975159 0 0 0
0.01320632 0.02151747 0.3195776 0 0 0
0.01406341 0.02155167 0.3186193 0 0 0
0.0155423 0.02088068 0.3206171 0 0 0
0.02592479 0.0169232 0.3313567 0 0 0
0.03462396 0.008532103 0.366269 205 205 205
0.06235813 0.01230517 0.3284874 205 205 205
0.06320668 0.01325117 0.3233618 0 0 0
0.1240159 0.01276783 0.3040303 0 0 0
-0.002246417 0.0257832 0.3095109 0 0 0
0.003572615 0.02407158 0.3120244 0 0 0
0.01698835 0.01958955 0.3214607 0 0 0
0.01933536 0.01876816 0.323436 0 0 0
0.0241233 0.01634926 0.3312268 0 0 0
0.06135753 0.009256165 0.3393709 205 205 205
0.06846023 0.01496252 0.3081218 0 0 0
0.004671182 0.02242233 0.3149131 0 0 0
0.009259549 0.02126675 0.3161663 0 0 0
0.01678435 0.01838967 0.3232543 0 0 0
0.01837199 0.01789891 0.3242464 0 0 0
0.02479498 0.01394372 0.3378872 0 0 0
0.02652485 0.01101201 0.3505645 205 205 205
0.03938567 0.005441536 0.3674715 205 205 205
0.04058539 0.004461536 0.3712953 205 205 205
0.04398499 0.002787553 0.3768797 205 205 205
0.06359392 0.008576057 0.3367832 205 205 205
0.06655365 0.01003589 0.3282728 205 205 205
0.07096377 0.01295412 0.3123535 0 0 0
0.005024259 0.02091193 0.3177345 0 0 0
0.01342051 0.01818075 0.3230246 0 0 0
0.07344531 -0.02384602 0.4771185 205 205 205
0.06079455 0.003867678 0.3558355 205 205 205
0.06233979 0.006923555 0.3407564 205 205 205
0.06784551 0.008426222 0.3307836 205 205 205
0.07587657 0.01234683 0.308932 0 0 0
0.07592597 0.01301142 0.3059014 0 0 0
-0.002876845 0.02314482 0.3109902 0 0 0
-0.001350928 0.02279256 0.311147 0 0 0
0.003903106 0.01990614 0.3194656 0 0 0
0.02185944 0.01179887 0.3414795 205 205 205
0.02625456 0.006626094 0.3619004 205 205 205
0.03506993 0.004652954 0.3644033 205 205 205
0.03612231 0.004078885 0.3662889 205 205 205
0.03927595 0.002792569 0.3699686 205 205 205
0.0623859 0.005785351 0.3415187 205 205 205
0.06312938 0.005940006 0.3403977 205 205 205
0.06443083 0.006487414 0.3371909 205 205 205
0.06983578 0.006968841 0.3321407 205 205 205
0.07331783 0.008529815 0.3233894 205 205 205
0.002076264 0.01925941 0.3201527 0 0 0
0.01316924 0.01352791 0.3363715 0 0 0
0.0233463 0.008052678 0.352976 205 205 205
0.02709879 0.004639687 0.3655608 205 205 205
0.03702226 0.002728118 0.3669759 205 205 205
0.07726134 0.005877326 0.3292172 205 205 205
0.07811507 0.005835992 0.3290051 205 205 205
0.1255169 0.008991904 0.3011068 205 205 205
0.1251802 0.01006133 0.296918 205 205 205
-0.004171014 0.02141857 0.31252 0 0 0
-0.000579218 0.02014098 0.3148507 0 0 0
0.003736302 0.0149637 0.3338389 0 0 0
0.0122033 0.009736383 0.3498451 205 205 205
0.01875215 0.009202641 0.3469719 205 205 205
0.02503326 0.005065456 0.3605272 205 205 205
0.02598909 0.004252238 0.3634243 205 205 205
0.06200353 0.002854707 0.3460673 205 205 205
0.06397081 0.00381421 0.340784 205 205 205
0.07329123 0.00474948 0.3319296 205 205 205
0.07652929 0.004801394 0.3301707 205 205 205
0.08071181 0.005541557 0.3251054 205 205 205
0.08253831 0.006885965 0.3185761 205 205 205
0.0809938 0.0104814 0.3038895 205 205 205
0.123279 0.01020041 0.2933042 205 205 205
-0.008954736 0.02270528 0.3078268 0 0 0
-0.00566793 0.02120807 0.3112073 0 0 0
0.0004770164 0.01364824 0.3383411 0 0 0
0.03174176 0.002141784 0.3639203 205 205 205
0.04364038 -0.003542899 0.3805917 205 205 205
0.06196445 0.0003208696 0.3527311 205 205 205
0.06852806 0.003471376 0.3357118 205 205 205
0.06940779 0.003410162 0.335529 205 205 205
0.07097527 0.00353774 0.3342034 205 205 205
0.08218846 0.00390243 0.3274926 205 205 205
0.08235168 0.01039151 0.3002462 205 205 205
0.1214896 0.00897094 0.2950719 205 205 205
0.124134 0.008915538 0.2948222 205 205 205
-0.007315136 0.0208156 0.3108513 0 0 0
0.001759265 0.005346847 0.3685824 205 205 205
0.007895023 0.001370862 0.3805562 205 205 205
0.01836158 0.006503704 0.3504565 205 205 205
0.02290296 0.004360015 0.3562399 205 205 205
0.02572136 0.002079061 0.3639522 205 205 205
0.02670207 0.00146729 0.3658656 205 205 205
0.02769127 0.001310778 0.3658274 205 205 205
0.0286733 0.001384593 0.3648122 205 205 205
0.0336545 0.000179093 0.3664964 205 205 205
0.03467813 -0.0001969586 0.3674055 205 205 205
0.06700604 0.002211167 0.3377643 205 205 205
0.07416491 0.002684642 0.3322619 205 205 205
0.07930694 0.003382706 0.3270174 205 205 205
-0.002147322 0.01290187 0.3358004 0 0 0
-0.004025109 0.002041799 0.3826813 205 205 205
-0.003083869 0.00160612 0.3837222 205 205 205
-0.001927154 0.001594927 0.3828163 205 205 205
0.0002690031 0.001369437 0.3819638 205 205 205
0.003326613 0.0005115343 0.3830869 205 205 205
0.00719018 -0.001415147 0.388101 205 205 205
0.009460076 -0.001385748 0.3862062 205 205 205
0.0108166 -0.0004812315 0.3813587 205 205 205
0.0181976 0.005358413 0.3512145 205 205 205
0.02274051 0.002958666 0.3579647 205 205 205
0.02367431 0.00234104 0.3598879 205 205 205
0.03354874 -0.001045002 0.3672343 205 205 205
0.039876 -0.003555176 0.3735884 205 205 205
0.04448494 -0.0060157 0.3809656 205 205 205
0.06617849 0.001127711 0.3386766 205 205 205
0.06707184 0.001060359 0.3385006 205 205 205
0.07134148 0.001002262 0.3366249 205 205 205
0.07709845 0.002123225 0.3293341 205 205 205
0.08091007 0.002442352 0.3263627 205 205 205
0.08395144 0.001838124 0.3275424 205 205 205
0.08797254 0.002720305 0.3223618 205 205 205
-0.006501976 0.01831206 0.3135799 0 0 0
-0.005881315 0.01792145 0.3146349 0 0 0
-0.004262604 0.01633435 0.3197226 0 0 0
-0.003886282 0.01552574 0.3227057 0 0 0
-0.003664405 0.01139738 0.3394013 205 205 205
-0.005575362 0.0005886124 0.3852735 205 205 205
-0.002602581 -0.0005248379 0.3874248 205 205 205
0.007977339 -0.003132282 0.3898213 205 205 205
0.01981776 0.003188387 0.3548693 205 205 205
0.02941409 -0.001200395 0.3662437 205 205 205
0.03140225 -0.001502702 0.3661415 205 205 205
0.03876189 -0.004677092 0.3743955 205 205 205
0.07231756 -0.0002099149 0.3371574 205 205 205
0.07700049 0.001246977 0.3291185 205 205 205
0.0857219 -0.0001037919 0.3308168 205 205 205
-0.008006955 0.01812367 0.3122467 0 0 0
-0.006160056 0.006677398 0.3566169 205 205 205
-0.005122119 -0.001562209 0.3889731 205 205 205
0.004580087 -0.003568978 0.3894679 205 205 205
0.01764702 0.001651099 0.3585452 205 205 205
0.03030085 -0.002820392 0.3678943 205 205 205
0.0386264 -0.005699074 0.3741448 205 205 205
0.04280081 -0.006495421 0.3747525 205 205 205
0.07008179 -0.001714332 0.3403538 205 205 205
0.07240555 -0.001372034 0.3378786 205 205 205
0.0737934 -0.0009594853 0.3355885 205 205 205
0.07427137 -0.0004888635 0.3334978 205 205 205
0.0762564 0.0001534142 0.330051 205 205 205
0.0840096 -0.0001765605 0.3280387 205 205 205
0.09481871 -0.007658053 0.3530475 205 205 205
0.1188325 0.008530909 0.284661 205 205 205
-0.009494792 0.01794709 0.3109035 0 0 0
-0.006525306 0.00876099 0.3446221 205 205 205
0.009771813 -0.005915518 0.3903137 205 205 205
0.02815513 -0.003259426 0.3667744 205 205 205
0.03019089 -0.004302322 0.3695866 205 205 205
0.03225232 -0.005098552 0.3714128 205 205 205
0.06977724 -0.003615896 0.3441045 205 205 205
0.07051607 -0.003416605 0.3429656 205 205 205
0.0719694 -0.003011099 0.3406831 205 205 205
0.07457525 -0.001907958 0.3351572 205 205 205
0.07550175 -0.0009445737 0.3309771 205 205 205
0.08628333 -0.002684979 0.3331568 205 205 205
0.08895373 -0.004582165 0.3394123 205 205 205
0.09576466 -0.009712402 0.3565037 205 205 205
0.09753961 -0.01053885 0.3589956 205 205 205
0.09160297 -0.0004538771 0.3225313 205 205 205
-0.008586982 0.0161673 0.3137972 0 0 0
-0.007276629 0.008515574 0.3423859 205 205 205
4.107074E-05 -0.004597445 0.3877918 205 205 205
0.003185857 -0.00548634 0.3889006 205 205 205
0.005347713 -0.005915922 0.3889745 205 205 205
0.0131221 -0.00640249 0.3852305 205 205 205
0.0192722 -0.0008288602 0.3590242 205 205 205
0.0202392 -0.000995871 0.3590102 205 205 205
0.02311241 -0.001974706 0.3608868 205 205 205
0.03002889 -0.004803567 0.367397 205 205 205
0.03831045 -0.007486259 0.3726648 205 205 205
0.04374946 -0.009445233 0.3770304 205 205 205
0.06966659 -0.004541864 0.3438661 205 205 205
0.07276812 -0.003983874 0.3402489 205 205 205
0.08099794 -0.001566756 0.3273528 205 205 205
-0.01026961 0.01578362 0.3134072 0 0 0
-0.008287408 0.01348776 0.3205245 0 0 0
-0.009000954 0.005187077 0.3527702 205 205 205
-0.009081553 -0.004493299 0.3898797 205 205 205
-0.005260797 -0.004061093 0.3852808 205 205 205
-0.004195157 -0.004290897 0.3853499 205 205 205
-0.0001173913 -0.005656665 0.3875232 205 205 205
0.004108997 -0.00676673 0.388669 205 205 205
0.006200187 -0.007430852 0.3897032 205 205 205
0.01544239 -0.0058954 0.3772132 205 205 205
0.02299167 -0.002687992 0.3596719 205 205 205
0.04135988 -0.00943267 0.3740676 205 205 205
0.04373508 -0.01099862 0.3786905 205 205 205
0.06691416 -0.01961432 0.3989504 205 205 205
0.08113503 -0.002712995 0.3280556 205 205 205
0.09888427 -0.01124247 0.3529766 205 205 205
-0.008723749 0.01093676 0.3271439 205 205 205
-0.00978263 0.004934335 0.350517 205 205 205
-0.002427307 -0.006264829 0.387139 205 205 205
-0.001352103 -0.006490698 0.3871967 205 205 205
-0.0002763834 -0.006714553 0.3872505 205 205 205
0.003950895 -0.007829976 0.3883942 205 205 205
0.0165264 -0.005863659 0.3721035 205 205 205
0.02091198 -0.003317041 0.3594688 205 205 205
0.02479269 -0.004217628 0.36033 205 205 205
0.0287584 -0.006882867 0.3679017 205 205 205
0.03697105 -0.009111318 0.3712537 205 205 205
0.08040441 -0.003830662 0.328981 205 205 205
0.0996059 -0.01306849 0.3554699 205 205 205
-0.009271595 0.00809582 0.3347101 205 205 205
-0.014587 -0.009130636 0.402542 205 205 205
-0.00664625 -0.005923753 0.3846651 205 205 205
-0.00569569 -0.00639303 0.3857023 205 205 205
0.005810369 -0.009810383 0.3901133 205 205 205
0.007992176 -0.01023315 0.3901627 205 205 205
0.01368644 -0.01000259 0.3853825 205 205 205
0.016342 -0.007117584 0.372806 205 205 205
0.01761323 -0.005532634 0.366029 205 205 205
0.03584337 -0.01023842 0.3720267 205 205 205
0.04004965 -0.01133644 0.3736202 205 205 205
0.06479894 -0.01040328 0.3567242 205 205 205
0.0651638 -0.009377982 0.3527508 205 205 205
0.06689134 -0.007663887 0.3455785 205 205 205
0.06765403 -0.00745651 0.3444491 205 205 205
0.0691551 -0.0070346 0.3421853 205 205 205
0.0781398 -0.005154538 0.3312768 205 205 205
-0.009319063 -0.007210416 0.3871204 205 205 205
0.003469954 -0.01044748 0.3897632 205 205 205
0.02253302 -0.006331908 0.36181 205 205 205
0.02548156 -0.007077875 0.3626778 205 205 205
0.02646766 -0.007760153 0.3645683 205 205 205
0.02746922 -0.00844295 0.3664545 205 205 205
0.03058046 -0.01075857 0.3730518 205 205 205
0.04391582 -0.01682474 0.3874657 205 205 205
0.09165666 -0.01180565 0.3462229 205 205 205
0.0880809 0.002083755 0.2981976 205 205 205
-0.01148286 0.01179322 0.3164307 205 205 205
-0.003119312 -0.009920965 0.388224 205 205 205
0.0001337509 -0.01060108 0.3883843 205 205 205
0.01209643 -0.01293782 0.3886714 205 205 205
0.02940626 -0.01161232 0.3728308 205 205 205
0.03986659 -0.01391852 0.374986 205 205 205
0.06611663 -0.02142212 0.3880356 205 205 205
0.06682192 -0.009805293 0.3460108 205 205 205
0.06892799 -0.008868587 0.3416787 205 205 205
0.07925276 -0.007539724 0.3324279 205 205 205
0.08691927 -0.009516435 0.3363255 205 205 205
-0.00857008 -0.009557665 0.386628 205 205 205
-0.004365763 -0.01074884 0.3878721 205 205 205
-0.003282113 -0.01098002 0.387933 205 205 205
-2.806324E-05 -0.01166138 0.3880925 205 205 205
0.00105765 -0.01188445 0.3881379 205 205 205
0.007446474 -0.01369573 0.3902558 205 205 205
0.0107367 -0.01432011 0.3902985 205 205 205
0.01183415 -0.01452407 0.3903049 205 205 205
0.01298023 -0.01446444 0.3893435 205 205 205
0.01537235 -0.01354595 0.3845169 205 205 205
0.0211835 -0.009157936 0.3651599 205 205 205
0.06747327 -0.01051721 0.344621 205 205 205
0.08541978 -0.009812027 0.3344691 205 205 205
0.1025216 -0.0185577 0.3583187 205 205 205
0.08911444 -0.0006306006 0.3013903 205 205 205
-0.0119166 0.009996233 0.3169574 205 205 205
-0.01080343 -0.0001063687 0.351209 205 205 205
0.0008047778 -0.0132009 0.3888038 205 205 205
0.006117277 -0.01481321 0.3908969 205 205 205
0.008317954 -0.01523787 0.3909369 205 205 205
0.02603655 -0.01177832 0.3676029 205 205 205
0.02909246 -0.01280555 0.3693806 205 205 205
0.03641574 -0.0152538 0.3737109 205 205 205
0.03862526 -0.01638249 0.3764187 205 205 205
0.07369474 -0.04629109 0.462722 205 205 205
0.06583349 -0.02360448 0.3874163 205 205 205
0.06628175 -0.01276095 0.3494361 205 205 205
0.0697935 -0.01105606 0.3419061 205 205 205
0.07145224 -0.01088562 0.3405746 205 205 205
0.07471735 -0.01051976 0.3378832 205 205 205
0.07653082 -0.01062017 0.3374561 205 205 205
0.0774366 -0.01066768 0.3372379 205 205 205
0.08620737 -0.01074429 0.3339599 205 205 205
0.08710144 -0.01077148 0.333708 205 205 205
0.09752081 -0.01743579 0.3525389 205 205 205
0.09600042 -0.01005501 0.3280084 205 205 205
0.0924189 -0.005585587 0.3141164 205 205 205
-0.01306487 -0.01043214 0.3847383 205 205 205
-0.01238653 -0.01369316 0.3954605 205 205 205
-0.009024946 -0.01191332 0.3869973 205 205 205
0.003835052 -0.01518731 0.3895755 205 205 205
0.02178592 -0.01292445 0.370348 205 205 205
0.02282492 -0.01282039 0.3693558 205 205 205
0.03735143 -0.01669902 0.3742939 205 205 205
0.06566934 -0.01451509 0.3521715 205 205 205
0.06678926 -0.01318492 0.3470951 205 205 205
0.07480379 -0.01172441 0.3385523 205 205 205
0.07865895 -0.01221873 0.3386112 205 205 205
0.0802611 -0.01200511 0.3372272 205 205 205
0.09907199 -0.01516659 0.340747 205 205 205
-0.01127036 0.007046665 0.3205263 205 205 205
-0.009922509 0.003251414 0.3323543 205 205 205
-0.01105176 -0.003667629 0.3565168 205 205 205
-0.0139481 -0.01503285 0.3969735 205 205 205
-0.006669611 -0.01266848 0.383967 205 205 205
0.006823377 -0.01743712 0.3912653 205 205 205
0.009095279 -0.01759002 0.3903358 205 205 205
0.02263264 -0.01464952 0.371948 205 205 205
0.0384622 -0.01929989 0.3786934 205 205 205
0.06527138 -0.02289676 0.3771457 205 205 205
0.06536292 -0.01889568 0.3635642 205 205 205
0.08219245 -0.0132965 0.3374155 205 205 205
0.08310232 -0.01333332 0.3371762 205 205 205
0.08443943 -0.0127919 0.3348447 205 205 205
0.0868859 -0.01257417 0.3331765 205 205 205
-0.0124821 0.007404872 0.3172407 205 205 205
-0.01109937 0.00529679 0.3232501 205 205 205
-0.01026386 0.00362835 0.3282038 205 205 205
-0.01001496 -0.00080757 0.342787 205 205 205
-0.01109238 -0.01507425 0.3910929 205 205 205
-0.002748809 -0.01516708 0.385825 205 205 205
-0.0007767778 -0.01615594 0.3878426 205 205 205
0.003427031 -0.01758661 0.3899158 205 205 205
0.01102887 -0.01962526 0.3919563 205 205 205
0.01436174 -0.02023533 0.3919492 205 205 205
0.02129323 -0.01773413 0.379358 205 205 205
0.03728857 -0.02048 0.3794312 205 205 205
0.04216708 -0.03085484 0.4116241 205 205 205
0.06715309 -0.03339659 0.407424 205 205 205
0.06535007 -0.02222445 0.3709892 205 205 205
0.0699689 -0.01471762 0.343903 205 205 205
0.07497155 -0.01415262 0.3398734 205 205 205
0.08139376 -0.0144766 0.3383023 205 205 205
0.08208001 -0.01420739 0.3371415 205 205 205
0.08588182 -0.01344656 0.3331575 205 205 205
0.09050613 -0.01478061 0.3357874 205 205 205
0.09885221 -0.01704878 0.3401825 205 205 205
0.117746 -0.0009025219 0.2832971 205 205 205
0.1179937 -0.0005350614 0.2821044 205 205 205
-0.008441024 -0.01530837 0.3861535 205 205 205
0.01081029 -0.02098067 0.3925942 205 205 205
0.0152714 -0.02179413 0.3925758 205 205 205
0.02849646 -0.01591116 0.3653435 205 205 205
0.02951728 -0.01635733 0.3662442 205 205 205
0.06512929 -0.02529843 0.3774574 205 205 205
0.06535427 -0.02355537 0.3716201 205 205 205
0.06785969 -0.01697907 0.3488829 205 205 205
0.07190033 -0.01607704 0.344156 205 205 205
0.08127969 -0.01538998 0.3380238 205 205 205
0.0889716 -0.01504625 0.3339458 205 205 205
-0.01003442 0.002757571 0.3248603 205 205 205
-0.006089905 -0.01602248 0.3831102 205 205 205
-0.004903546 -0.01598419 0.382217 205 205 205
-0.00394228 -0.01648711 0.3832316 205 205 205
-0.001893823 -0.01721766 0.384294 205 205 205
0.008479463 -0.0213569 0.3912964 205 205 205
0.02090196 -0.02095136 0.3825655 205 205 205
0.02210104 -0.01910301 0.3758338 205 205 205
0.025298 -0.01757813 0.3690187 205 205 205
0.02734582 -0.0173186 0.3670105 205 205 205
0.06941369 -0.04190704 0.4255596 205 205 205
0.07626117 -0.01697256 0.3418824 205 205 205
0.0809086 -0.01720707 0.3407455 205 205 205
0.117143 -0.002096456 0.2819913 205 205 205
-0.012063 0.004854733 0.3166412 205 205 205
-0.009201255 -0.001321389 0.3343851 205 205 205
-0.01054368 -0.007356756 0.3545434 205 205 205
-0.003887568 -0.01697279 0.3810051 205 205 205
0.003874273 -0.0215645 0.390893 205 205 205
0.01704533 -0.02551127 0.3957083 205 205 205
0.02822932 -0.01905775 0.368563 205 205 205
0.03392811 -0.02673679 0.3901717 205 205 205
0.07193803 -0.04971111 0.4449385 205 205 205
0.06824198 -0.0219401 0.3578448 205 205 205
0.06956498 -0.02082664 0.3537119 205 205 205
0.08669466 -0.01648485 0.3329859 205 205 205
0.1196175 -0.002957318 0.2815199 205 205 205
-0.009028177 -0.001630805 0.3322231 205 205 205
-0.009373116 -0.004001081 0.3399107 205 205 205
-0.01218972 -0.01313339 0.3705145 205 205 205
-0.007494012 -0.01785891 0.3824075 205 205 205
-0.006302668 -0.01781698 0.3815202 205 205 205
-0.0002524267 -0.02031854 0.3856519 205 205 205
0.01132449 -0.02500085 0.3935143 205 205 205
0.02284838 -0.0213109 0.3751671 205 205 205
0.06659865 -0.03288154 0.3896194 205 205 205
0.08459247 -0.01826641 0.3361982 205 205 205
0.08823989 -0.01838024 0.3351786 205 205 205
0.08940635 -0.018728 0.3358263 205 205 205
0.09868831 -0.02112203 0.3399121 205 205 205
0.09642833 -0.01755861 0.3297087 205 205 205
0.09349814 -0.01334363 0.3177305 205 205 205
0.1183837 -0.003457438 0.2808064 205 205 205
-0.01039873 -0.008382503 0.351119 205 205 205
-0.006586436 -0.01912919 0.3821491 205 205 205
0.002513887 -0.02318999 0.3892431 205 205 205
0.004572935 -0.02421192 0.3912028 205 205 205
0.009976227 -0.02616696 0.3941265 205 205 205
0.01444669 -0.02729169 0.3950582 205 205 205
0.01766346 -0.02968618 0.4007219 205 205 205
0.02265006 -0.02323042 0.3777057 205 205 205
0.03022741 -0.02747474 0.3868593 205 205 205
0.03306465 -0.03763414 0.4171628 205 205 205
0.06659997 -0.02719034 0.3680825 205 205 205
0.06759921 -0.02510246 0.3611526 205 205 205
0.07062489 -0.02346598 0.354761 205 205 205
0.07614391 -0.02163348 0.3467747 205 205 205
0.07921474 -0.02211545 0.3470175 205 205 205
0.1001804 -0.02500506 0.3480194 205 205 205
0.1210839 -0.005024463 0.2823271 205 205 205
-0.009370668 -0.001719953 0.3268718 205 205 205
-0.003419616 -0.02057276 0.3810423 205 205 205
0.001417272 -0.02344411 0.3869678 205 205 205
0.004404443 -0.02528206 0.390861 205 205 205
0.006356691 -0.02690107 0.394708 205 205 205
0.07130817 -0.02417407 0.3533122 205 205 205
0.07333272 -0.02272837 0.3480449 205 205 205
0.1005926 -0.02893765 0.3564309 205 205 205
0.09146164 -0.01205189 0.3088426 205 205 205
0.1198389 -0.005525216 0.2816157 205 205 205
-0.01338741 0.001948526 0.3155653 205 205 205
-0.009862146 -0.001495617 0.3236847 205 205 205
-0.009284385 -0.003865933 0.3304789 205 205 205
-0.01264487 -0.01831722 0.376298 205 205 205
-0.01381004 -0.02311796 0.3915571 205 205 205
-0.01131993 -0.02305327 0.3898223 205 205 205
-0.009703798 -0.02215288 0.3861003 205 205 205
0.002347839 -0.0247196 0.3866585 205 205 205
0.01179364 -0.02935722 0.3953285 205 205 205
0.02308529 -0.03350577 0.4017222 205 205 205
0.06763443 -0.027737 0.3623697 205 205 205
0.07100566 -0.02480377 0.3520677 205 205 205
0.07163252 -0.02420776 0.3500063 205 205 205
0.07896546 -0.02400237 0.3463982 205 205 205
0.08066631 -0.02376335 0.3450083 205 205 205
-0.01332947 0.001450102 0.3143712 205 205 205
-0.01122049 -0.01391925 0.3588418 205 205 205
-0.01384606 -0.02389691 0.3902612 205 205 205
-0.007207188 -0.02251511 0.3820998 205 205 205
-0.0007248599 -0.02390437 0.3824101 205 205 205
0.01266527 -0.03126835 0.3968631 205 205 205
0.0688955 -0.0275512 0.3579238 205 205 205
0.07289501 -0.02427627 0.3464954 205 205 205
0.07385307 -0.02433626 0.3462819 205 205 205
0.07672353 -0.02450439 0.3456213 205 205 205
0.08339775 -0.02482781 0.3439644 205 205 205
0.09352684 -0.02846862 0.3509305 205 205 205
0.0958005 -0.03018726 0.3551664 205 205 205
0.09939363 -0.03226388 0.3599852 205 205 205
0.1007872 -0.03027497 0.3536526 205 205 205
0.09992924 -0.0269008 0.3440576 205 205 205
0.08982669 -0.008574105 0.2938873 205 205 205
0.1180629 -0.006428123 0.2798188 205 205 205
-0.01240271 -0.0191681 0.3718525 205 205 205
-0.01374151 -0.0243748 0.3880175 205 205 205
0.005011136 -0.02870317 0.3898296 205 205 205
0.01037118 -0.03101094 0.3936636 205 205 205
0.07515933 -0.05861309 0.4435353 205 205 205
0.06806716 -0.02912585 0.3596488 205 205 205
0.07074334 -0.02671403 0.3514255 205 205 205
0.07544643 -0.02504627 0.3446074 205 205 205
0.08136921 -0.02568155 0.3441367 205 205 205
0.0901676 -0.008978331 0.2924839 205 205 205
0.1221672 -0.007884322 0.2805766 205 205 205
-0.01439226 0.0001191845 0.3137602 205 205 205
-0.01278695 -0.0002956062 0.3139588 205 205 205
-0.01024069 -0.005567994 0.327686 205 205 205
-0.01199024 -0.0189797 0.3677418 205 205 205
-0.01047554 -0.0258855 0.3869529 205 205 205
-0.002141097 -0.02574382 0.3816775 205 205 205
0.0009255463 -0.02703222 0.3836858 205 205 205
0.007005601 -0.03051336 0.390445 205 205 205
0.06862732 -0.03871278 0.3840522 205 205 205
0.07044058 -0.02732457 0.350175 205 205 205
0.08504949 -0.02677364 0.342822 205 205 205
0.08994968 -0.01216831 0.299213 205 205 205
0.1190523 -0.008176304 0.2797735 205 205 205
0.1227872 -0.008556101 0.2799441 205 205 205
-0.01137988 -0.003131331 0.3186769 205 205 205
-0.01031814 -0.008072487 0.3322003 205 205 205
-0.003391063 -0.0265447 0.3812809 205 205 205
0.009077037 -0.03200871 0.3900903 205 205 205
0.06826428 -0.03678215 0.3751255 205 205 205
0.07111023 -0.02799308 0.348717 205 205 205
0.07269001 -0.02742696 0.346454 205 205 205
0.0734676 -0.02714018 0.34532 205 205 205
0.07442599 -0.02719833 0.3451029 205 205 205
0.07879231 -0.02676251 0.3421398 205 205 205
0.0827986 -0.02728334 0.3420902 205 205 205
0.08374632 -0.02732148 0.3418411 205 205 205
0.09365031 -0.03208429 0.3517304 205 205 205
0.0959252 -0.03385861 0.3559448 205 205 205
0.1006787 -0.03359569 0.3535238 205 205 205
0.1011191 -0.03290568 0.3514217 205 205 205
0.09711423 -0.0245111 0.329098 205 205 205
0.09146034 -0.01574803 0.3063065 205 205 205
0.1241064 -0.009144106 0.2789297 205 205 205
-0.01404226 -0.001914166 0.3142759 205 205 205
-0.01357537 -0.02869631 0.3898548 205 205 205
-0.01082264 -0.02798265 0.3862347 205 205 205
0.0005883109 -0.02910867 0.3829725 205 205 205
0.006732301 -0.03232709 0.3887659 205 205 205
0.01317384 -0.04446001 0.4199254 205 205 205
0.06914108 -0.04026077 0.3812412 205 205 205
0.06829224 -0.03582091 0.3690026 205 205 205
0.07068306 -0.03026824 0.3522774 205 205 205
0.07352226 -0.02842278 0.3459103 205 205 205
0.07961228 -0.02773298 0.3415791 205 205 205
0.09934958 -0.03562026 0.3564804 205 205 205
0.09981933 -0.03492742 0.3543796 205 205 205
0.101133 -0.03283491 0.3480844 205 205 205
0.09982082 -0.03000714 0.3406476 205 205 205
0.08991452 -0.01300218 0.2966377 205 205 205
0.08975395 -0.01193467 0.2937255 205 205 205
0.1174769 -0.009796289 0.2799647 205 205 205
0.1219143 -0.01012729 0.2797872 205 205 205
-0.0110091 -0.006914761 0.3239393 205 205 205
-0.01277113 -0.03032027 0.3905048 205 205 205
-0.002542345 -0.02851557 0.3796678 205 205 205
0.001422377 -0.0306864 0.3835831 205 205 205
0.01070884 -0.03618523 0.3940613 205 205 205
0.01234275 -0.04117446 0.4072556 205 205 205
0.07005417 -0.03221391 0.3549059 205 205 205
0.07216978 -0.03065008 0.3496776 205 205 205
0.08254484 -0.02913849 0.3414322 205 205 205
0.08657078 -0.02963621 0.3413194 205 205 205
0.09588843 -0.03479518 0.3522492 205 205 205
0.1199569 -0.01067345 0.2794386 205 205 205
0.1258414 -0.01202604 0.2816258 205 205 205
-0.01213442 -0.00608974 0.3197314 205 205 205
-0.01058048 -0.01027719 0.3303876 205 205 205
-0.00847145 -0.02931004 0.3818693 205 205 205
-0.003898469 -0.02962544 0.3802032 205 205 205
0.0002491675 -0.03117865 0.3822429 205 205 205
0.07008047 -0.03353628 0.3554777 205 205 205
0.07139935 -0.0322467 0.3513835 205 205 205
0.07422197 -0.03034784 0.3450231 205 205 205
0.07614625 -0.03045886 0.3445767 205 205 205
0.08454243 -0.03049867 0.3415004 205 205 205
0.0862067 -0.03020451 0.3400813 205 205 205
0.08953674 -0.03101119 0.3410828 205 205 205
0.09982459 -0.03727318 0.3545577 205 205 205
0.101439 -0.0354978 0.3491635 205 205 205
0.123802 -0.0101582 0.274956 205 205 205
-0.01047954 -0.01256128 0.33392 205 205 205
-0.01327035 -0.02998202 0.3830996 205 205 205
-0.01285578 -0.03181151 0.3878712 205 205 205
-0.0040685 -0.03064914 0.3798358 205 205 205
0.005173558 -0.03495503 0.3866863 205 205 205
0.06957681 -0.03587185 0.3590069 205 205 205
0.07305863 -0.03296814 0.349691 205 205 205
0.08081479 -0.03163256 0.3430625 205 205 205
0.08273003 -0.03171549 0.3425697 205 205 205
0.1018703 -0.03720328 0.3505808 205 205 205
0.1165089 -0.01207783 0.2795113 205 205 205
0.1254209 -0.01397937 0.2822604 205 205 205
0.1266153 -0.01425106 0.2826795 205 205 205
-0.01476413 -0.00528781 0.3141215 205 205 205
-0.006169162 -0.03055446 0.3774872 205 205 205
0.009041695 -0.03921066 0.3929006 205 205 205
0.01007242 -0.04009666 0.3947749 205 205 205
0.01080635 -0.04300299 0.4022864 205 205 205
0.07061813 -0.03729131 0.3593524 205 205 205
0.07097263 -0.03590575 0.3554745 205 205 205
0.07163832 -0.0352456 0.3534301 205 205 205
0.07228813 -0.03458235 0.3513855 205 205 205
0.08164176 -0.0326048 0.3424737 205 205 205
0.08474026 -0.03308798 0.3426211 205 205 205
0.08689659 -0.03208089 0.3391393 205 205 205
0.09471335 -0.03662573 0.3484945 205 205 205
0.09058555 -0.01641281 0.2961395 205 205 205
0.09066587 -0.01380563 0.2892137 205 205 205
0.1157123 -0.01287995 0.2795881 205 205 205
0.11783 -0.01267585 0.2785263 205 205 205
-0.01096052 -0.01882667 0.3456175 205 205 205
-0.01307431 -0.03358991 0.3861679 205 205 205
-0.00440995 -0.03269144 0.379089 205 205 205
0.007979848 -0.03871754 0.3887501 205 205 205
0.08915073 -0.03380011 0.3400493 205 205 205
0.09232256 -0.03570802 0.3439609 205 205 205
0.1021638 -0.0399082 0.3516186 205 205 205
0.09466092 -0.02538493 0.3159961 205 205 205
0.1130627 -0.01343774 0.2795253 205 205 205
-0.0148366 -0.006509272 0.3126274 205 205 205
-0.01237111 -0.0104018 0.3214686 205 205 205
-0.01095988 -0.01939237 0.3443534 205 205 205
-0.01160671 -0.03357961 0.3821101 205 205 205
-0.004581317 -0.03371015 0.3787096 205 205 205
0.07597481 -0.03673332 0.3497775 205 205 205
0.09470225 -0.03892956 0.3486571 205 205 205
0.1021276 -0.04238959 0.3551014 205 205 205
0.1011617 -0.03713967 0.3417872 205 205 205
0.09097867 -0.01679173 0.2924091 205 205 205
0.112971 -0.01416819 0.2792462 205 205 205
0.1260879 -0.01698651 0.2830059 205 205 205
-0.01435312 -0.007798652 0.3133673 205 205 205
-0.01268549 -0.01151801 0.3221007 205 205 205
-0.01105732 -0.01592872 0.3326778 205 205 205
-0.01287755 -0.02892562 0.367499 205 205 205
0.07633642 -0.05449529 0.3929209 205 205 205
0.07613885 -0.04026323 0.3559952 205 205 205
0.08253517 -0.03765509 0.3468219 205 205 205
0.08599429 -0.03705042 0.3439927 205 205 205
0.09281588 -0.03873492 0.3459098 205 205 205
0.1007506 -0.04450331 0.3580116 205 205 205
0.1252295 -0.01399393 0.2736129 205 205 205
-0.01529919 -0.00835037 0.3129807 205 205 205
-0.0115989 -0.01556723 0.3294877 205 205 205
-0.01141825 -0.02148776 0.3446169 205 205 205
-0.01227756 -0.02568286 0.3558711 205 205 205
-0.0119582 -0.03563543 0.3813314 205 205 205
0.002332594 -0.03871141 0.3818978 205 205 205
0.09145012 -0.03928157 0.3449366 205 205 205
0.09596647 -0.04315817 0.3532363 205 205 205
0.09271046 -0.02367926 0.3048449 205 205 205
0.09199879 -0.02175554 0.3002067 205 205 205
0.1149066 -0.01543437 0.2776455 205 205 205
0.1225889 -0.01717878 0.2799699 205 205 205
0.1266263 -0.01842514 0.2820237 205 205 205
0.1607022 -0.03702237 0.3192811 205 205 205
-0.01562997 -0.009435824 0.3136137 205 205 205
-0.01456397 -0.01083672 0.3165843 205 205 205
0.08154044 -0.04364413 0.3567309 205 205 205
0.08790096 -0.03937528 0.3436177 205 205 205
0.09865519 -0.04687039 0.3587401 205 205 205
0.1004653 -0.04651592 0.3572247 205 205 205
0.09197164 -0.01783638 0.2881297 205 205 205
0.1281878 -0.0172315 0.2765921 205 205 205
-0.01378248 -0.03547813 0.3757451 205 205 205
-0.008022144 -0.0356759 0.3732791 205 205 205
-0.004931251 -0.03672769 0.3743583 205 205 205
0.003005453 -0.04134624 0.3820442 205 205 205
0.004034168 -0.04192091 0.3829883 205 205 205
0.09925845 -0.09620573 0.4789657 205 205 205
0.09328961 -0.08040312 0.4415771 205 205 205
0.08489745 -0.04554763 0.3573588 205 205 205
0.08686382 -0.04372282 0.3520819 205 205 205
0.09954934 -0.04789526 0.3580249 205 205 205
0.1017529 -0.04520602 0.3505878 205 205 205
0.1024796 -0.0448211 0.3493876 205 205 205
0.1002204 -0.03778886 0.3326906 205 205 205
0.09208011 -0.01975554 0.2906987 205 205 205
0.1133046 -0.01701514 0.2777602 205 205 205
0.118622 -0.01821109 0.2792442 205 205 205
0.120961 -0.01882699 0.280123 205 205 205
0.1228606 -0.01905154 0.2801772 205 205 205
0.1240462 -0.01935136 0.2805974 205 205 205
0.1300517 -0.01948765 0.2794377 205 205 205
-0.0171192 -0.0114059 0.3147621 205 205 205
-0.01586006 -0.01250267 0.3168063 205 205 205
0.005653062 -0.04554687 0.388174 205 205 205
0.08909994 -0.04708984 0.3567632 205 205 205
0.1180781 -0.01856164 0.2781396 205 205 205
0.1314221 -0.02138927 0.2814846 205 205 205
-0.01271375 -0.01796252 0.3262663 205 205 205
-0.01178639 -0.02010613 0.3310501 205 205 205
-0.009433162 -0.03742321 0.3724326 205 205 205
0.003762909 -0.04362817 0.3812349 205 205 205
0.004718984 -0.04457105 0.383101 205 205 205
0.09642762 -0.06312872 0.3904633 205 205 205
0.0948724 -0.05840522 0.3794769 205 205 205
0.1019999 -0.04239601 0.3380422 205 205 205
0.1139713 -0.01924593 0.2787992 205 205 205
0.1172678 -0.01936616 0.2781995 205 205 205
0.1238511 -0.02085105 0.2799872 205 205 205
0.1293776 -0.02195936 0.2811957 205 205 205
0.1548384 -0.03518645 0.3059477 205 205 205
-0.01215334 -0.0389832 0.3746853 205 205 205
-0.008538338 -0.03865435 0.3720881 205 205 205
-0.00351498 -0.04090207 0.3750938 205 205 205
0.006085449 -0.04971058 0.3919617 205 205 205
0.00665468 -0.05324071 0.4003068 205 205 205
0.1159814 -0.09204248 0.4501359 205 205 205
0.1021349 -0.06443969 0.3883731 205 205 205
0.09537543 -0.03085924 0.3098819 205 205 205
0.1164548 -0.02016815 0.278254 205 205 205
0.1261386 -0.02221105 0.2804916 205 205 205
0.1341517 -0.02525272 0.2855434 205 205 205
0.1331321 -0.02173972 0.2776572 205 205 205
0.1457781 -0.02862946 0.2905324 205 205 205
-0.01384492 -0.01741807 0.3208337 205 205 205
-0.01229688 -0.02015248 0.3266094 205 205 205
-0.01265815 -0.02747145 0.3443671 205 205 205
-0.0144825 -0.03947998 0.3741373 205 205 205
-0.01218985 -0.03962611 0.3733527 205 205 205
-0.005504787 -0.04035364 0.3718284 205 205 205
0.1002343 -0.05071884 0.3531219 205 205 205
0.1018058 -0.04304065 0.3343516 205 205 205
0.09381706 -0.0235004 0.2906431 205 205 205
0.1182311 -0.02115246 0.2780347 205 205 205
0.1229277 -0.02242821 0.2797459 205 205 205
0.1253095 -0.02305125 0.2805653 205 205 205
0.1362962 -0.02572665 0.2839468 205 205 205
0.1354826 -0.02306226 0.2780461 205 205 205
-0.0144697 -0.0172949 0.3185818 205 205 205
-0.006626826 -0.04074378 0.3704507 205 205 205
0.003234312 -0.04670614 0.3799722 205 205 205
0.09853899 -0.05411502 0.358907 205 205 205
0.1030564 -0.05009753 0.3479276 205 205 205
0.1005372 -0.04109104 0.3276038 205 205 205
0.09381735 -0.02341039 0.2883429 205 205 205
0.1164092 -0.02250096 0.2796066 205 205 205
0.117133 -0.02243086 0.2792487 205 205 205
0.1185768 -0.02228556 0.2785258 205 205 205
0.1601342 -0.03980284 0.3078842 205 205 205
-0.01718414 -0.01580309 0.3142169 205 205 205
0.003851927 -0.04945331 0.3832433 205 205 205
0.1084206 -0.07731216 0.4068102 205 205 205
0.1024591 -0.05189053 0.3495768 205 205 205
0.09892204 -0.03867496 0.3200288 205 205 205
0.09443149 -0.02706645 0.2945591 205 205 205
0.09436244 -0.02497087 0.2897307 205 205 205
0.1186372 -0.02390353 0.2801762 205 205 205
0.1193656 -0.0238291 0.27981 205 205 205
-0.01493753 -0.01921374 0.3188416 205 205 205
-0.01472534 -0.03373008 0.3524482 205 205 205
-0.008844709 -0.04149391 0.3676839 205 205 205
-0.005067674 -0.04392041 0.3715494 205 205 205
0.0008437778 -0.04754533 0.3772421 205 205 205
0.002630407 -0.04988522 0.3818756 205 205 205
0.003355247 -0.05200647 0.3864912 205 205 205
0.1023118 -0.0528671 0.3491572 205 205 205
0.1027654 -0.05203789 0.347098 205 205 205
0.1032029 -0.05120644 0.3450404 205 205 205
0.09510911 -0.0248407 0.2871469 205 205 205
0.1072989 -0.02293271 0.2791422 205 205 205
0.1199898 -0.02449273 0.2791223 205 205 205
0.1367126 -0.02937995 0.285686 205 205 205
0.1384806 -0.02865136 0.2836201 205 205 205
0.1389603 -0.02762507 0.2812212 205 205 205
0.1409561 -0.02779217 0.2811014 205 205 205
-0.01746193 -0.01733292 0.3135682 205 205 205
-0.01393212 -0.02353969 0.3260822 205 205 205
-0.01356518 -0.02484823 0.3289101 205 205 205
-0.01520965 -0.03537274 0.3538923 205 205 205
-0.0162454 -0.04037551 0.3658929 205 205 205
-0.01611242 -0.04283004 0.3714744 205 205 205
-0.01099286 -0.04161271 0.3662372 205 205 205
-0.00690193 -0.04293901 0.3673655 205 205 205
-0.002221631 -0.046356 0.3730639 205 205 205
0.101146 -0.05383643 0.3490601 205 205 205
0.103595 -0.05006289 0.3396595 205 205 205
0.09511866 -0.02771141 0.2916318 205 205 205
0.09523367 -0.02685289 0.2896508 205 205 205
0.1219653 -0.02638584 0.2808061 205 205 205
0.1238926 -0.02663206 0.2808351 205 205 205
0.12509 -0.02695687 0.2812366 205 205 205
0.1289842 -0.02741399 0.2812225 205 205 205
-0.01433663 -0.02919488 0.3368663 205 205 205
-0.01704728 -0.04281776 0.3691395 205 205 205
-0.008006112 -0.04329656 0.365981 205 205 205
-0.007074557 -0.04390953 0.3669453 205 205 205
-0.004341859 -0.04612613 0.3707356 205 205 205
0.1170136 -0.09446878 0.432787 205 205 205
0.1012693 -0.05523278 0.3494969 205 205 205
0.1017378 -0.05439136 0.3474438 205 205 205
0.1196447 -0.02736696 0.2815974 205 205 205
0.1264588 -0.02753395 0.2801229 205 205 205
0.128403 -0.02776203 0.2801096 205 205 205
0.1330318 -0.02952379 0.28276 205 205 205
0.1372542 -0.03084656 0.2845644 205 205 205
-0.01475634 -0.02626533 0.3281166 205 205 205
-0.01631263 -0.04442352 0.3697044 205 205 205
-0.01133838 -0.04354171 0.365398 205 205 205
-0.01015087 -0.04340507 0.3645396 205 205 205
-0.005592156 -0.04687656 0.3702689 205 205 205
0.106702 -0.07617977 0.3918138 205 205 205
0.1001346 -0.05959262 0.3569535 205 205 205
0.1029018 -0.05279933 0.3408736 205 205 205
0.09987861 -0.04166239 0.3170555 205 205 205
0.09766942 -0.03738183 0.308244 205 205 205
0.1044236 -0.02481385 0.2783391 205 205 205
0.1085096 -0.02588043 0.2794922 205 205 205
0.114863 -0.02671948 0.2795192 205 205 205
0.1164519 -0.02749185 0.2807641 205 205 205
0.1401629 -0.03264349 0.2856289 205 205 205
0.1439697 -0.03204824 0.2833836 205 205 205
-0.01522719 -0.02991935 0.3342157 205 205 205
-0.01059438 -0.04512798 0.3659438 205 205 205
-0.009537154 -0.04536914 0.3659973 205 205 205
-0.007420975 -0.04584509 0.3660932 205 205 205
-0.003725166 -0.0487119 0.3708168 205 205 205
-0.00176609 -0.04994988 0.3727001 205 205 205
0.001736867 -0.05477607 0.3819165 205 205 205
0.1102596 -0.08377343 0.4043178 205 205 205
0.1023322 -0.05460594 0.3424924 205 205 205
0.1041418 -0.05287259 0.3380775 205 205 205
0.09522469 -0.02950666 0.2895042 205 205 205
0.09958643 -0.02624454 0.281004 205 205 205
0.1014146 -0.02570193 0.2792657 205 205 205
0.1065481 -0.0262823 0.2790099 205 205 205
0.1084026 -0.02660309 0.2791673 205 205 205
0.1225438 -0.02946682 0.2813844 205 205 205
0.1323293 -0.03064799 0.2813004 205 205 205
0.1352918 -0.03169032 0.2827619 205 205 205
-0.01883874 -0.02184955 0.3158614 205 205 205
-0.01707824 -0.02400797 0.319775 205 205 205
-0.01659619 -0.02497773 0.3216814 205 205 205
-0.01709961 -0.04459792 0.3651155 205 205 205
0.101085 -0.05858533 0.3490475 205 205 205
0.1021835 -0.05555532 0.3420622 205 205 205
0.09831493 -0.02835837 0.284065 205 205 205
0.1124462 -0.02837718 0.2799059 205 205 205
0.1236298 -0.03055873 0.2814457 205 205 205
0.1282812 -0.03096113 0.2810406 205 205 205
0.1307231 -0.03161338 0.2817764 205 205 205
0.1451712 -0.03187706 0.278608 205 205 205
-0.01741713 -0.02516876 0.3203273 205 205 205
-0.01628067 -0.02886552 0.327848 205 205 205
-0.01291184 -0.04617607 0.3640503 205 205 205
-0.007894134 -0.04816497 0.3661375 205 205 205
0.00119682 -0.05763068 0.3828156 205 205 205
0.09966435 -0.06085368 0.3518293 205 205 205
0.1001704 -0.05998825 0.3497864 205 205 205
0.1031589 -0.05518424 0.33841 205 205 205
0.1019086 -0.04638343 0.3198115 205 205 205
0.09709504 -0.03716732 0.301474 205 205 205
0.100446 -0.02898224 0.282827 205 205 205
0.1071157 -0.02858462 0.2799776 205 205 205
0.1101235 -0.02928727 0.2805967 205 205 205
0.1193366 -0.03128031 0.2822017 205 205 205
0.1227721 -0.03139409 0.2814838 205 205 205
0.1251752 -0.03208102 0.2822757 205 205 205
0.1313606 -0.0322779 0.2810147 205 205 205
0.1330743 -0.03302532 0.2821333 205 205 205
0.1456866 -0.03760644 0.288462 205 205 205
0.1469841 -0.03790063 0.2887452 205 205 205
-0.01822896 -0.02535082 0.3189715 205 205 205
-0.01727028 -0.0273213 0.3227737 205 205 205
-0.008872475 -0.04810208 0.3638315 205 205 205
-0.003388201 -0.05268867 0.3713321 205 205 205
0.1007757 -0.06052868 0.3481534 205 205 205
0.1014402 -0.05833048 0.343225 205 205 205
0.09829246 -0.03206789 0.2881426 205 205 205
0.09948196 -0.03156716 0.2867091 205 205 205
0.1062687 -0.02935812 0.2799691 205 205 205
0.1297483 -0.03323798 0.2814794 205 205 205
0.1329612 -0.03379428 0.2817762 205 205 205
0.1460783 -0.0388422 0.2888337 205 205 205
-0.01903161 -0.02552395 0.3176139 205 205 205
-0.01760959 -0.02850107 0.3233103 205 205 205
-0.01747911 -0.03026575 0.3270143 205 205 205
-0.007304235 -0.05072927 0.3662019 205 205 205
0.09987279 -0.06370396 0.3526311 205 205 205
0.1045325 -0.05659242 0.336026 205 205 205
0.09783531 -0.03555084 0.2936859 205 205 205
0.0984145 -0.03416762 0.290587 205 205 205
0.09851605 -0.03325209 0.2886253 205 205 205
0.1161014 -0.03306314 0.2829666 205 205 205
0.1226865 -0.03384813 0.2827308 205 205 205
0.127373 -0.03428324 0.2823315 205 205 205
0.1308609 -0.03433328 0.2814809 205 205 205
0.1348411 -0.03478099 0.2813343 205 205 205
0.1522115 -0.03858705 0.2846447 205 205 205
-0.01824703 -0.02829787 0.3210446 205 205 205
-0.007603963 -0.05209707 0.3666584 205 205 205
-0.00226905 -0.05797508 0.3768122 205 205 205
0.1009445 -0.06157272 0.345213 205 205 205
0.1011339 -0.06023046 0.3423327 205 205 205
0.09821726 -0.03812525 0.2969589 205 205 205
0.09817702 -0.03583888 0.292194 205 205 205
0.1057058 -0.03223182 0.2823699 205 205 205
0.1186759 -0.03403581 0.2823094 205 205 205
0.1265008 -0.03513504 0.2823693 205 205 205
0.1364633 -0.03630744 0.2820546 205 205 205
-0.01940579 -0.04727438 0.3591419 205 205 205
-0.01122692 -0.0496736 0.3605872 205 205 205
-0.009396722 -0.05096282 0.3624963 205 205 205
-0.00682978 -0.05370824 0.3671455 205 205 205
-0.003255253 -0.05751441 0.3735998 205 205 205
-0.001917735 -0.06168868 0.3817882 205 205 205
0.09954135 -0.06387397 0.347962 205 205 205
0.1007881 -0.06253046 0.3447564 205 205 205
0.1012551 -0.06162932 0.3427296 205 205 205
0.1053565 -0.05432497 0.3262399 205 205 205
0.1050451 -0.05250034 0.3225578 205 205 205
0.1034361 -0.04886913 0.3155462 205 205 205
0.1082283 -0.03325641 0.2818409 205 205 205
0.1154528 -0.03410789 0.2814662 205 205 205
0.1221375 -0.03588125 0.2831763 205 205 205
0.1268414 -0.03633572 0.2827785 205 205 205
0.1411264 -0.03891564 0.2841189 205 205 205
-0.01734165 -0.04832124 0.3579518 205 205 205
-0.01393162 -0.04826399 0.3563539 205 205 205
-0.003437603 -0.05850836 0.3731257 205 205 205
0.1004149 -0.04191851 0.3000554 205 205 205
0.1011767 -0.03628663 0.288288 205 205 205
0.1016015 -0.03579717 0.2871563 205 205 205
0.1073715 -0.03499456 0.2837634 205 205 205
0.1224588 -0.03708356 0.2835912 205 205 205
0.1236657 -0.03744741 0.2839838 205 205 205
0.1251976 -0.0372758 0.2832024 205 205 205
0.1279444 -0.03744912 0.2827802 205 205 205
0.1294687 -0.03725831 0.2819701 205 205 205
0.1315384 -0.03597103 0.2788045 205 205 205
0.1484694 -0.04055871 0.283467 205 205 205
0.1475763 -0.03754508 0.2776788 205 205 205
0.1461731 -0.03567659 0.2743136 205 205 205
-0.02105109 -0.03137756 0.3224216 205 205 205
-0.01941693 -0.03629095 0.3317642 205 205 205
-0.01751562 -0.04925201 0.3575041 205 205 205
-0.01482113 -0.04813007 0.3540435 205 205 205
-0.0132228 -0.04984169 0.3568706 205 205 205
-0.00439568 -0.05801392 0.3699176 205 205 205
0.1049847 -0.0588901 0.3310643 205 205 205
0.1037976 -0.03641962 0.2858447 205 205 205
0.1064775 -0.03674066 0.2856787 205 205 205
0.1168885 -0.03739492 0.2839026 205 205 205
0.1247584 -0.03857243 0.283998 205 205 205
0.1290512 -0.03856466 0.2827698 205 205 205
0.1293501 -0.03802054 0.2815983 205 205 205
0.1319015 -0.03717049 0.2791925 205 205 205
0.1424272 -0.04024718 0.2824529 205 205 205
0.1467962 -0.04162483 0.2840199 205 205 205
0.1480934 -0.04193092 0.2842823 205 205 205
0.1504228 -0.04151894 0.282851 205 205 205
-0.02275192 -0.03129714 0.3209413 205 205 205
-0.01995911 -0.04017555 0.3377225 205 205 205
-0.01974091 -0.04203271 0.3413956 205 205 205
-0.02020924 -0.04551176 0.3486558 205 205 205
-0.01736158 -0.04936523 0.3552563 205 205 205
-0.01221707 -0.05060002 0.3555778 205 205 205
-0.01084178 -0.05315026 0.3601801 205 205 205
-0.006289526 -0.05684422 0.3657827 205 205 205
0.101795 -0.06446932 0.3410175 205 205 205
0.1022415 -0.06354229 0.3390016 205 205 205
0.1071012 -0.05600541 0.3222577 205 205 205
0.1024423 -0.04199009 0.2955532 205 205 205
0.1033712 -0.04099886 0.2932754 205 205 205
0.1039111 -0.03954123 0.2901851 205 205 205
0.1043424 -0.03904051 0.2890487 205 205 205
0.1327421 -0.03882395 0.2803285 205 205 205
0.1440942 -0.0417948 0.2830856 205 205 205
0.1453811 -0.04211008 0.2833596 205 205 205
0.1466731 -0.0424223 0.283627 205 205 205
0.14797 -0.04273144 0.2838878 205 205 205
0.15083 -0.04275903 0.2831815 205 205 205
0.1502343 -0.04071532 0.2793293 205 205 205
0.147214 -0.03750056 0.2738205 205 205 205
-0.0203783 -0.04640624 0.3482169 205 205 205
-0.01327072 -0.05086404 0.3541705 205 205 205
-0.01164281 -0.05259669 0.3569739 205 205 205
0.1052817 -0.06163741 0.3318329 205 205 205
0.1062549 -0.06162154 0.3314893 205 205 205
0.1072658 -0.06018702 0.3283059 205 205 205
0.10791 -0.05969944 0.3271291 205 205 205
0.1075914 -0.05781437 0.3234737 205 205 205
0.1048057 -0.04982712 0.3084452 205 205 205
0.1043999 -0.04219113 0.2933848 205 205 205
0.1104725 -0.03940138 0.2860001 205 205 205
0.1199312 -0.04157645 0.2874935 205 205 205
0.1211404 -0.04195962 0.2878959 205 205 205
0.1414127 -0.04193852 0.2821283 205 205 205
0.1532584 -0.04253699 0.2801175 205 205 205
-0.02369716 -0.03407799 0.3228358 205 205 205
-0.02274714 -0.03617899 0.326602 205 205 205
-0.02123274 -0.04163146 0.3367934 205 205 205
-0.01958886 -0.0502805 0.3533025 205 205 205
-0.01344341 -0.05178037 0.3537158 205 205 205
0.1063109 -0.05299283 0.312133 205 205 205
0.1194342 -0.0428807 0.2882676 205 205 205
0.1260574 -0.04168512 0.2840049 205 205 205
0.1279204 -0.04094879 0.282037 205 205 205
0.1322158 -0.04090636 0.2807387 205 205 205
0.139519 -0.04193706 0.280706 205 205 205
0.1537388 -0.04541069 0.2835621 205 205 205
-0.02311015 -0.037396 0.3270863 205 205 205
-0.02195146 -0.04140953 0.3344953 205 205 205
-0.02158752 -0.04289145 0.3372595 205 205 205
-0.02107995 -0.04901806 0.3491124 205 205 205
-0.01636773 -0.05111505 0.351281 205 205 205
-0.007189027 -0.06101234 0.3670377 205 205 205
-0.006681527 -0.06339941 0.3715442 205 205 205
-0.006134999 -0.06579264 0.376048 205 205 205
0.1177211 -0.04379345 0.2886257 205 205 205
-0.02305398 -0.04199886 0.3339763 205 205 205
-0.01857205 -0.05151748 0.3506805 205 205 205
-0.007334656 -0.06611589 0.3746205 205 205 205
0.1024451 -0.0687013 0.3396251 205 205 205
0.1057919 -0.06435184 0.3301075 205 205 205
0.1107625 -0.04558726 0.292266 205 205 205
0.120009 -0.04535758 0.2890439 205 205 205
0.1208076 -0.04528223 0.2886627 205 205 205
0.1259161 -0.04423442 0.2851555 205 205 205
0.1273571 -0.04302682 0.2824266 205 205 205
0.1347384 -0.04256516 0.2794414 205 205 205
0.1367519 -0.04279881 0.279321 205 205 205
0.1495469 -0.04609515 0.2820501 205 205 205
0.1508538 -0.04640777 0.2822868 205 205 205
-0.02306511 -0.04475532 0.3371914 205 205 205
-0.01172493 -0.05783064 0.3578335 205 205 205
-0.01081019 -0.05850563 0.3587709 205 205 205
-0.008039768 -0.06468627 0.3696218 205 205 205
-0.007875774 -0.06842104 0.3767869 205 205 205
-0.007422271 -0.07129235 0.3821655 205 205 205
0.1041594 -0.06769812 0.3348024 205 205 205
0.1053349 -0.06477863 0.3288157 205 205 205
0.109479 -0.06077226 0.3198119 205 205 205
0.1090883 -0.05882482 0.3162016 205 205 205
0.1084155 -0.05393293 0.3070394 205 205 205
0.1082171 -0.04998753 0.2995479 205 205 205
0.1101104 -0.04789216 0.2949567 205 205 205
0.1109332 -0.0478411 0.2946069 205 205 205
0.1146668 -0.0460688 0.2900885 205 205 205
0.1158658 -0.04647976 0.2905109 205 205 205
0.1174754 -0.04634586 0.2897722 205 205 205
0.1182782 -0.04627603 0.289399 205 205 205
0.1206785 -0.04605503 0.2882635 205 205 205
0.1214758 -0.04597755 0.2878797 205 205 205
0.1246514 -0.04564842 0.2863187 205 205 205
0.1254417 -0.04556137 0.285922 205 205 205
0.128136 -0.04472497 0.2835509 205 205 205
0.1296936 -0.0445307 0.2827328 205 205 205
0.1330843 -0.04354599 0.2798977 205 205 205
0.1373893 -0.04344559 0.2784908 205 205 205
0.1475957 -0.04611206 0.2806776 205 205 205
0.1533521 -0.04782714 0.2823249 205 205 205
-0.01280845 -0.05808153 0.3564145 205 205 205
-0.01126321 -0.06031057 0.3600677 205 205 205
-0.00715961 -0.07055406 0.3780746 205 205 205
0.1062141 -0.06272106 0.3223893 205 205 205
0.1140793 -0.04839727 0.2927742 205 205 205
0.1157113 -0.04827338 0.2920452 205 205 205
0.1276753 -0.0460576 0.2843153 205 205 205
0.1308049 -0.04566627 0.2826724 205 205 205
0.1397837 -0.04489836 0.2786757 205 205 205
0.1418179 -0.04511278 0.278506 205 205 205
0.1500675 -0.04754027 0.2807452 205 205 205
-0.02468614 -0.04467402 0.3334695 205 205 205
-0.02076005 -0.05284638 0.3473616 205 205 205
-0.01446477 -0.05676813 0.3522753 205 205 205
0.104835 -0.07295505 0.3399607 205 205 205
0.1048327 -0.06952731 0.3334954 205 205 205
0.1050803 -0.06510066 0.3250703 205 205 205
0.1248256 -0.04766443 0.2862766 205 205 205
0.1317635 -0.04575109 0.2806868 205 205 205
0.1325357 -0.04564486 0.2802667 205 205 205
0.1381216 -0.04590776 0.2791578 205 205 205
0.1442435 -0.04655584 0.2786324 205 205 205
-0.02652094 -0.04457014 0.331946 205 205 205
-0.02526355 -0.04635911 0.3347925 205 205 205
-0.01637594 -0.05630404 0.3499066 205 205 205
-0.01054328 -0.06622501 0.366256 205 205 205
0.1045391 -0.07192699 0.3358204 205 205 205
0.111663 -0.05773498 0.3070883 205 205 205
0.1114827 -0.05622512 0.3043336 205 205 205
0.116225 -0.05079773 0.2927882 205 205 205
0.1207222 -0.04988979 0.2897464 205 205 205
0.1441138 -0.04732924 0.2782213 205 205 205
0.1487534 -0.04818431 0.2784884 205 205 205
-0.0273301 -0.0466781 0.3341413 205 205 205
-0.02610952 -0.05089206 0.3414818 205 205 205
-0.01527945 -0.05990814 0.3539661 205 205 205
-0.008281038 -0.07107273 0.3720333 205 205 205
0.1070091 -0.06581578 0.3214599 205 205 205
0.1127541 -0.05900677 0.3070797 205 205 205
0.1146667 -0.05427221 0.2977624 205 205 205
0.1246236 -0.05025906 0.2873749 205 205 205
0.128519 -0.04874086 0.2834397 205 205 205
0.1308759 -0.04844074 0.2821994 205 205 205
0.1316584 -0.04833685 0.2817809 205 205 205
0.135548 -0.04778846 0.2796502 205 205 205
0.1419361 -0.04788933 0.2780033 205 205 205
0.1452666 -0.04843932 0.27806 205 205 205
-0.02529796 -0.05445733 0.3456018 205 205 205
-0.02448744 -0.0551582 0.3465728 205 205 205
-0.02044869 -0.05620154 0.346907 205 205 205
-0.01561251 -0.06126748 0.3543572 205 205 205
-0.01157648 -0.07040131 0.369642 205 205 205
0.1061772 -0.06872512 0.3249298 205 205 205
0.114563 -0.06126932 0.3086439 205 205 205
0.1147372 -0.06022897 0.3066888 205 205 205
0.1192135 -0.05313583 0.2923729 205 205 205
0.1280435 -0.05008885 0.2841849 205 205 205
0.1291735 -0.04940755 0.2826147 205 205 205
0.1338651 -0.04877675 0.2800968 205 205 205
-0.025471 -0.05533785 0.3451249 205 205 205
-0.01978587 -0.05778767 0.3473803 205 205 205
-0.01876985 -0.05804254 0.3474516 205 205 205
-0.01610318 -0.06308025 0.3556208 205 205 205
-0.01274365 -0.07066778 0.3681932 205 205 205
0.111608 -0.06482915 0.3139973 205 205 205
0.1144136 -0.06210634 0.3081868 205 205 205
0.1177576 -0.0556131 0.2954067 205 205 205
0.1306102 -0.04996751 0.2813689 205 205 205
0.1396324 -0.04919483 0.2773506 205 205 205
0.1442291 -0.05011901 0.2776839 205 205 205
0.1530429 -0.05135482 0.2773871 205 205 205
0.1543578 -0.05167479 0.2775876 205 205 205
-0.02564425 -0.0562164 0.3446446 205 205 205
-0.02464016 -0.05648227 0.344736 205 205 205
-0.01492016 -0.06677373 0.3596167 205 205 205
0.1132926 -0.06559461 0.3127939 205 205 205
0.1149743 -0.06394367 0.3093044 205 205 205
0.1168582 -0.06015785 0.3019281 205 205 205
0.119733 -0.05569725 0.2930538 205 205 205
0.1226309 -0.05381878 0.2888131 205 205 205
0.1325061 -0.05100737 0.2808473 205 205 205
0.1394992 -0.04995567 0.276931 205 205 205
0.1515971 -0.05181207 0.2767496 205 205 205
-0.02782357 -0.05655403 0.3439679 205 205 205
-0.02280328 -0.05788554 0.3444237 205 205 205
0.1095444 -0.07127008 0.3220483 205 205 205
0.1167945 -0.06361015 0.3061368 205 205 205
0.1184509 -0.06084693 0.3007133 205 205 205
0.118935 -0.06027816 0.2995539 205 205 205
0.1237262 -0.05501051 0.2887457 205 205 205
0.1253124 -0.0537518 0.2860371 205 205 205
0.1411326 -0.05156517 0.277492 205 205 205
0.1431853 -0.05179084 0.2772931 205 205 205
0.1540839 -0.05324588 0.2767172 205 205 205
-0.02899901 -0.05715466 0.3433798 205 205 205
-0.02252482 -0.06037808 0.3466338 205 205 205
-0.02186818 -0.06154561 0.3484575 205 205 205
0.1090109 -0.07475889 0.3262819 205 205 205
0.1100176 -0.07316938 0.3231536 205 205 205
0.1139 -0.06724638 0.3114733 205 205 205
0.1159294 -0.06607585 0.308775 205 205 205
0.120585 -0.05986641 0.2963975 205 205 205
0.1451077 -0.05277526 0.2766443 205 205 205
-0.03105635 -0.05496711 0.3382302 205 205 205
-0.02716868 -0.05857049 0.3430884 205 205 205
-0.01746048 -0.06859501 0.3570754 205 205 205
0.1129989 -0.07130214 0.3168416 205 205 205
0.1230403 -0.05715246 0.2890218 205 205 205
0.1238625 -0.05706817 0.2886246 205 205 205
0.1242613 -0.0564762 0.2874723 205 205 205
0.1270797 -0.0556084 0.2851081 205 205 205
0.1309816 -0.05400261 0.281143 205 205 205
0.1421351 -0.05345469 0.2768876 205 205 205
0.1509369 -0.0547839 0.2766206 205 205 205
-0.02977239 -0.05979808 0.3441293 205 205 205
-0.02573037 -0.06088908 0.3445143 205 205 205
-0.02324896 -0.06306142 0.3473729 205 205 205
-0.02033568 -0.06734327 0.3537529 205 205 205
-0.01796311 -0.07045032 0.3582911 205 205 205
-0.01581118 -0.07851385 0.3715606 205 205 205
0.1135071 -0.07319834 0.3179246 205 205 205
0.1146238 -0.07048223 0.3128642 205 205 205
0.1152019 -0.06991689 0.3117031 205 205 205
0.1177925 -0.06815173 0.3078355 205 205 205
0.1183313 -0.06757739 0.3066732 205 205 205
0.1209942 -0.06358504 0.2989387 205 205 205
0.1233114 -0.05843882 0.2893317 205 205 205
0.1265624 -0.05697846 0.2858208 205 205 205
0.1328851 -0.05505114 0.2805924 205 205 205
0.1379 -0.05373105 0.2768264 205 205 205
0.1391669 -0.05410635 0.2770962 205 205 205
0.1414956 -0.05371952 0.2757435 205 205 205
0.1435472 -0.0539487 0.2755331 205 205 205
0.14432 -0.0538113 0.2750701 205 205 205
-0.02792867 -0.06122215 0.3438275 205 205 205
-0.025088 -0.06249226 0.3449661 205 205 205
-0.02331504 -0.06652738 0.3512786 205 205 205
-0.01785257 -0.07398809 0.362158 205 205 205
0.1145592 -0.07293881 0.3150993 205 205 205
0.122292 -0.0615167 0.2930912 205 205 205
0.1243966 -0.0585322 0.2873343 205 205 205
0.1272313 -0.05765418 0.2849681 205 205 205
0.1413565 -0.05447725 0.2753063 205 205 205
-0.03169685 -0.06007098 0.3411883 205 205 205
-0.03091458 -0.06080698 0.3421577 205 205 205
-0.02584955 -0.06475911 0.3470521 205 205 205
0.1159269 -0.0731771 0.3130575 205 205 205
0.1192896 -0.06970144 0.3060888 205 205 205
0.1194463 -0.06859626 0.3041596 205 205 205
0.1209748 -0.06683146 0.3006831 205 205 205
0.1229882 -0.06222624 0.2922341 205 205 205
0.1326032 -0.05657138 0.2797114 205 205 205
0.135444 -0.05673921 0.2791398 205 205 205
0.1417161 -0.05573778 0.2755703 205 205 205
-0.03209377 -0.06139222 0.341545 205 205 205
-0.0313084 -0.062133 0.3425126 205 205 205
-0.01976224 -0.07344086 0.3574876 205 205 205
0.1158603 -0.07565847 0.315272 205 205 205
0.1209377 -0.07040153 0.3048111 205 205 205
0.1249451 -0.06111299 0.2879218 205 205 205
0.137184 -0.05662664 0.2766626 205 205 205
0.1151818 -0.08199874 0.3240949 205 205 205
0.1155055 -0.08089599 0.3221456 205 205 205
0.1164446 -0.0792142 0.319033 205 205 205
0.1264497 -0.06170546 0.2866493 205 205 205
0.1276634 -0.06099389 0.2850898 205 205 205
0.1414318 -0.05725043 0.2746779 205 205 205
-0.02697759 -0.06882551 0.3480674 205 205 205
-0.01889432 -0.07507191 0.3555897 205 205 205
0.118999 -0.07385061 0.3072967 205 205 205
0.1239314 -0.07010304 0.299545 205 205 205
0.124418 -0.06949486 0.2983863 205 205 205
0.1303309 -0.06083499 0.2822321 205 205 205
0.1524412 -0.06078806 0.2754653 205 205 205
0.1534801 -0.05996183 0.2737953 205 205 205
-0.03385179 -0.06415917 0.3407528 205 205 205
-0.02157468 -0.07642402 0.356637 205 205 205
0.1187254 -0.08193148 0.3187408 205 205 205
0.1231575 -0.07266968 0.3021214 205 205 205
0.1247389 -0.06969385 0.2967402 205 205 205
0.1282604 -0.06473719 0.2875132 205 205 205
0.1345423 -0.06040682 0.2784856 205 205 205
0.1434221 -0.06017167 0.2754003 205 205 205
0.1454984 -0.06040728 0.2751576 205 205 205
0.1483663 -0.0604838 0.2744174 205 205 205
-0.0251911 -0.07700656 0.3567283 205 205 205
-0.02407348 -0.08047212 0.3620085 205 205 205
0.1236969 -0.09422641 0.3352053 205 205 205
0.1199105 -0.0788094 0.3112522 205 205 205
0.1236218 -0.07571149 0.3050379 205 205 205
0.1242815 -0.07395125 0.3019637 205 205 205
0.1243971 -0.07280188 0.3000552 205 205 205
0.1276973 -0.06614331 0.2881883 205 205 205
0.1332585 -0.06191977 0.2796051 205 205 205
0.1396292 -0.06094577 0.2760732 205 205 205
-0.02447578 -0.07869262 0.3570918 205 205 205
0.1214368 -0.08687817 0.3218623 205 205 205
0.1236726 -0.07823883 0.3071917 205 205 205
0.1316629 -0.06524532 0.2837266 205 205 205
0.139481 -0.0617009 0.2756098 205 205 205
0.1420424 -0.06248632 0.2760902 205 205 205
0.1470061 -0.06282787 0.2751248 205 205 205
0.149372 -0.06237829 0.2736821 205 205 205
-0.02842767 -0.07702303 0.3536574 205 205 205
-0.02630774 -0.08080562 0.3590061 205 205 205
0.124587 -0.07784484 0.3043473 205 205 205
0.1259384 -0.0731029 0.2963285 205 205 205
0.1273693 -0.07004438 0.2909848 205 205 205
0.1484344 -0.06329332 0.2736931 205 205 205
-0.03121272 -0.07288496 0.3459428 205 205 205
0.1235909 -0.08621868 0.3160698 205 205 205
0.1254689 -0.07742805 0.3015096 205 205 205
0.1260868 -0.0756271 0.2984551 205 205 205
0.1265778 -0.07499658 0.2972998 205 205 205
0.1280407 -0.07191778 0.2919534 205 205 205
0.128921 -0.07064175 0.2896528 205 205 205
0.1325494 -0.06602446 0.2811971 205 205 205
0.1398339 -0.0649342 0.2772124 205 205 205
0.1446151 -0.06411473 0.2744405 205 205 205
0.1495878 -0.06442828 0.2734091 205 205 205
0.1530042 -0.06500503 0.2732747 205 205 205
-0.02722345 -0.0808889 0.3552263 205 205 205
0.1384218 -0.1136562 0.3526463 205 205 205
0.1243844 -0.08702449 0.3151015 205 205 205
0.1252263 -0.0823319 0.3074405 205 205 205
0.1259377 -0.08052684 0.3043724 205 205 205
0.1268135 -0.07635438 0.2975244 205 205 205
0.1304519 -0.07003723 0.2864388 205 205 205
0.1364591 -0.06619979 0.2785303 205 205 205
0.1388778 -0.0658231 0.2771872 205 205 205
-0.03469645 -0.07377093 0.3445326 205 205 205
0.1264313 -0.07954209 0.3007875 205 205 205
0.1335088 -0.06797638 0.2805096 205 205 205
0.1343267 -0.06786037 0.2800731 205 205 205
0.1388646 -0.06778975 0.2785476 205 205 205
0.1519026 -0.06669911 0.2728019 205 205 205
-0.0364882 -0.07307155 0.3420759 205 205 205
-0.03096914 -0.08514065 0.3589607 205 205 205
0.1272924 -0.08322149 0.3043596 205 205 205
0.129717 -0.0734462 0.2884535 205 205 205
0.1318433 -0.07258285 0.2864486 205 205 205
0.1330942 -0.07181525 0.2848676 205 205 205
0.1448496 -0.06814257 0.2755094 205 205 205
0.1483339 -0.06686231 0.2724456 205 205 205
0.150433 -0.06708702 0.2721404 205 205 205
0.1530641 -0.06783481 0.2724786 205 205 205
-0.03146027 -0.08376294 0.3549119 205 205 205
0.1281822 -0.08277001 0.301501 205 205 205
0.1293886 -0.07906224 0.2954231 205 205 205
0.1299558 -0.07599279 0.2905289 205 205 205
0.1365667 -0.07023697 0.2796105 205 205 205
0.1386733 -0.07053468 0.2794062 205 205 205
0.1438871 -0.06904638 0.2754886 205 205 205
0.1542281 -0.06897062 0.2721422 205 205 205
-0.02896171 -0.08091715 0.3476935 205 205 205
0.1286961 -0.08890626 0.3088332 205 205 205
0.1300355 -0.08098745 0.2963406 205 205 205
0.1306574 -0.07668178 0.2895835 205 205 205
0.1310974 -0.07602085 0.2884375 205 205 205
0.1360426 -0.07167349 0.2802557 205 205 205
0.1389808 -0.07185017 0.2795993 205 205 205
0.1413033 -0.07022236 0.2763903 205 205 205
0.1425979 -0.07063356 0.2766092 205 205 205
-0.03021132 -0.08151623 0.3470292 205 205 205
0.1304216 -0.08958567 0.3073989 205 205 205
0.1307607 -0.08170106 0.2953733 205 205 205
0.1501946 -0.07060593 0.2724734 205 205 205
-0.03909928 -0.08053412 0.3464807 205 205 205
0.1699731 -0.1590741 0.3971138 205 205 205
0.131212 -0.08609849 0.3000172 205 205 205
0.1350147 -0.07579603 0.2833659 205 205 205
0.1414622 -0.07229149 0.2760706 205 205 205
0.1542725 -0.0718052 0.2712899 205 205 205
0.1317918 -0.09233611 0.3072695 205 205 205
0.1322418 -0.08863135 0.3016164 205 205 205
0.1321363 -0.08435164 0.2952855 205 205 205
0.133609 -0.07860746 0.2862749 205 205 205
0.1434112 -0.07332668 0.2753071 205 205 205
0.1489701 -0.07425117 0.2749157 205 205 205
0.1538313 -0.07328472 0.2719359 205 205 205
-0.03656447 -0.08658056 0.350702 205 205 205
0.1331026 -0.08812025 0.2987368 205 205 205
0.1332774 -0.08562837 0.2950051 205 205 205
0.1333894 -0.08313393 0.2912896 205 205 205
0.1351734 -0.08040928 0.2867013 205 205 205
0.1372706 -0.07822978 0.2828174 205 205 205
0.1419498 -0.07366481 0.2745916 205 205 205
0.1484862 -0.07572795 0.2755509 205 205 205
0.136018 -0.104031 0.3192618 205 205 205
0.1323776 -0.0939462 0.305668 205 205 205
0.1335154 -0.08701352 0.2951593 205 205 205
0.1345263 -0.08439405 0.2910027 205 205 205
0.1354272 -0.08050621 0.285025 205 205 205
0.1366986 -0.07969598 0.2834327 205 205 205
0.1383386 -0.07818405 0.2806955 205 205 205
0.1422664 -0.07498111 0.2747515 205 205 205
0.1515882 -0.07586192 0.2730579 205 205 205
0.1327929 -0.09720823 0.3083955 205 205 205
0.1331458 -0.09469673 0.3046368 205 205 205
0.133751 -0.0884027 0.2953061 205 205 205
0.1390821 -0.08009394 0.2815338 205 205 205
0.1403133 -0.07926154 0.2799301 205 205 205
0.1507967 -0.07807143 0.2748363 205 205 205
0.1353887 -0.08899569 0.2938421 205 205 205
0.1354465 -0.08772523 0.2919937 205 205 205
0.1359166 -0.08703217 0.2908445 205 205 205
0.1389104 -0.08086618 0.281 205 205 205
0.1501224 -0.07827326 0.2736528 205 205 205
0.1517605 -0.07794996 0.2726586 205 205 205
0.1542035 -0.07744861 0.2711479 205 205 205
-0.03603098 -0.08992007 0.347525 205 205 205
0.1601917 -0.1448389 0.3638607 205 205 205
0.1352187 -0.09549163 0.3013963 205 205 205
0.1355489 -0.09166508 0.2958229 205 205 205
0.1360476 -0.09097013 0.2946695 205 205 205
0.1392769 -0.08478202 0.2847857 205 205 205
0.1392427 -0.08349774 0.2829612 205 205 205
0.1456744 -0.07851464 0.2737601 205 205 205
0.15322 -0.07837874 0.2711239 205 205 205
0.1553658 -0.07860206 0.2707483 205 205 205
0.1349477 -0.100756 0.3071078 205 205 205
0.1350298 -0.09632909 0.3008075 205 205 205
0.1367027 -0.09295473 0.295485 205 205 205
0.1427883 -0.08172621 0.2775947 205 205 205
0.1341374 -0.09914663 0.3032298 205 205 205
0.1364244 -0.09506422 0.2967506 205 205 205
0.13716 -0.08918876 0.2882487 205 205 205
0.1397904 -0.08621798 0.2832166 205 205 205
0.1429794 -0.08176756 0.2759176 205 205 205
0.1446467 -0.08147717 0.2749665 205 205 205
0.151244 -0.08022785 0.2710582 205 205 205
0.1361265 -0.09718364 0.298008 205 205 205
0.1400607 -0.08758391 0.2833334 205 205 205
0.1420637 -0.0839765 0.2776438 205 205 205
0.1429086 -0.08383536 0.2771713 205 205 205
0.1441162 -0.08296383 0.2755601 205 205 205
0.1548447 -0.08087808 0.2691363 205 205 205
0.1859798 -0.186651 0.4038619 205 205 205
0.1384053 -0.09575944 0.2934946 205 205 205
0.1385541 -0.09183329 0.2880094 205 205 205
0.1390107 -0.09111536 0.2868665 205 205 205
0.138639 -0.09716946 0.2935851 205 205 205
0.1414379 -0.08887212 0.2812681 205 205 205
0.142709 -0.08800315 0.2796571 205 205 205
0.1450777 -0.08491902 0.2746381 205 205 205
0.1509047 -0.08381744 0.2712051 205 205 205
-0.03995459 -0.09315956 0.3418367 205 205 205
-0.03888414 -0.09346835 0.3419393 205 205 205
-0.03644297 -0.09050737 0.3371961 205 205 205
0.1393719 -0.09786028 0.2925189 205 205 205
0.1399508 -0.09448745 0.2877311 205 205 205
0.1474071 -0.08521599 0.2726291 205 205 205
0.150726 -0.08457182 0.2706528 205 205 205
0.1448535 -0.119583 0.3183392 205 205 205
0.1384618 -0.1066359 0.3029236 205 205 205
0.1401022 -0.09854558 0.2914472 205 205 205
0.149879 -0.08683316 0.2723655 205 205 205
0.1502169 -0.08607895 0.2712309 205 205 205
0.1527022 -0.08557607 0.269724 205 205 205
0.1551706 -0.08505315 0.2681938 205 205 205
-0.04081275 -0.09597091 0.3421645 205 205 205
0.144488 -0.1185497 0.3150989 205 205 205
0.1406825 -0.1111314 0.3063936 205 205 205
0.1396426 -0.103363 0.2963128 205 205 205
0.139747 -0.1020273 0.2944861 205 205 205
0.1426976 -0.09359312 0.2821916 205 205 205
0.1442662 -0.08927427 0.2758697 205 205 205
0.1505322 -0.08742546 0.2713037 205 205 205
0.1400638 -0.1021115 0.2927245 205 205 205
0.1405694 -0.1013757 0.2915781 205 205 205
0.1486759 -0.08850595 0.2717327 205 205 205
0.1445096 -0.1176444 0.3100264 205 205 205
0.1418477 -0.1119987 0.303445 205 205 205
0.1401909 -0.1048858 0.2945941 205 205 205
0.139866 -0.1029242 0.2921093 205 205 205
0.1418698 -0.09860498 0.2857382 205 205 205
0.1441098 -0.09622128 0.281843 205 205 205
0.145302 -0.09260434 0.27666 205 205 205
0.1556541 -0.08848934 0.2677423 205 205 205
0.1904111 -0.1935024 0.3924209 205 205 205
0.1463613 -0.09245583 0.274462 205 205 205
0.1479515 -0.09077273 0.2717173 205 205 205
0.1501263 -0.09105092 0.2713535 205 205 205
-0.04510035 -0.1046697 0.3473711 205 205 205
0.1586358 -0.1417176 0.3328885 205 205 205
0.1407334 -0.1063945 0.2928612 205 205 205
0.1490943 -0.09196838 0.2712738 205 205 205
0.1504291 -0.09240993 0.2714007 205 205 205
0.1430383 -0.1034408 0.2865297 205 205 205
0.1425421 -0.1097581 0.293086 205 205 205
0.1435833 -0.1082418 0.2907959 205 205 205
0.1549277 -0.09505565 0.270042 205 205 205
0.1440258 -0.1041205 0.283664 205 205 205
0.1440413 -0.1027304 0.2818892 205 205 205
0.1444922 -0.1019621 0.2807593 205 205 205
0.1480204 -0.09995848 0.2770176 205 205 205
0.1483551 -0.09778491 0.2741332 205 205 205
0.1499795 -0.09606054 0.2713829 205 205 205
0.1503455 -0.09527785 0.2702597 205 205 205
0.1547338 -0.09581158 0.2694467 205 205 205
0.1436797 -0.1090936 0.2883763 205 205 205
0.1437917 -0.1063025 0.2848141 205 205 205
0.1460559 -0.101039 0.2773992 205 205 205
0.1445067 -0.1069475 0.283691 205 205 205
0.1458836 -0.1032118 0.2785405 205 205 205
0.1493061 -0.0997611 0.2730453 205 205 205
0.1496942 -0.09897318 0.271923 205 205 205
0.1500736 -0.0981842 0.2708018 205 205 205
0.1529959 -0.0968753 0.2681555 205 205 205
0.1478894 -0.1028849 0.2758011 205 205 205
0.1734638 -0.1664729 0.3440147 205 205 205
0.1452083 -0.1146737 0.2896402 205 205 205
0.1449265 -0.1112045 0.2854537 205 205 205
0.1459144 -0.1039638 0.2761738 205 205 205
0.1499253 -0.1039538 0.2747918 205 205 205
0.1569945 -0.09888097 0.2660707 205 205 205
0.1909198 -0.1951184 0.3709565 205 205 205
0.1534449 -0.1332066 0.3078212 205 205 205
0.1481555 -0.1234498 0.2976634 205 205 205
0.1501308 -0.1039188 0.2730443 205 205 205
0.1473535 -0.1201419 0.2921213 205 205 205
0.1464053 -0.1110579 0.2813976 205 205 205
0.156553 -0.1387011 0.3096307 205 205 205
0.1466401 -0.1124814 0.2813702 205 205 205
0.1471286 -0.1102446 0.2785011 205 205 205
0.1475825 -0.1094454 0.2773798 205 205 205
0.149781 -0.1068749 0.273515 205 205 205
