ply
format ascii 1.0
comment Generated by Floating Hands
element vertex 2013
property double x
property double y
property double z
property uchar red
property uchar green
property uchar blue
end_header
0.01276904 0.05729711 0.4510528 0 0 0
0.01376986 0.05704328 0.4580921 0 0 0
0.1103702 0.04754049 0.4215321 0 0 0
0.1140366 0.04779099 0.409022 0 0 0
0.1185902 0.04783751 0.4044592 0 0 0
0.125054 0.0478303 0.4022964 0 0 0
0.008200498 0.05691044 0.4408334 0 0 0
0.01553566 0.05500158 0.4811407 0 0 0
0.1128455 0.04573975 0.435311 0 0 0
0.1126219 0.04634042 0.4166864 0 0 0
0.1257478 0.04665755 0.4009462 0 0 0
0.1342687 0.04663698 0.401024 0 0 0
-0.005319827 0.05815047 0.4418496 0 0 0
-2.662007E-05 0.0572252 0.4362828 0 0 0
0.005655858 0.05606185 0.4406824 0 0 0
0.1161146 0.04529602 0.4082817 0 0 0
0.1169119 0.04532801 0.4069863 0 0 0
0.1260998 0.04554022 0.3986485 0 0 0
0.1271611 0.04555043 0.3982697 0 0 0
0.1328031 0.04558806 0.3972507 0 0 0
-0.0001726631 0.05595394 0.4362619 0 0 0
0.006656436 0.0545366 0.4417264 0 0 0
0.01092879 0.05345518 0.4549419 0 0 0
0.1200284 0.04194153 0.4570396 0 0 0
0.11501 0.04390299 0.412738 0 0 0
0.1249874 0.04432616 0.3989813 0 0 0
0.1285436 0.0444684 0.395583 0 0 0
0.1377563 0.0442136 0.4006322 0 0 0
0.005305608 0.05346746 0.4416297 0 0 0
0.1163533 0.04258765 0.4133077 0 0 0
0.1256667 0.04318191 0.3976184 0 0 0
0.1351909 0.04316645 0.3972792 0 0 0
-0.002925425 0.05386624 0.4370081 0 0 0
0.002677368 0.05261102 0.4424441 0 0 0
0.1163234 0.04092355 0.4215888 0 0 0
0.1165815 0.04128182 0.4142108 0 0 0
0.1192268 0.04157527 0.4071027 0 0 0
0.1212439 0.0417899 0.4022387 0 0 0
0.1266759 0.04199205 0.3971891 0 0 0
-0.002054944 0.05231706 0.4390632 0 0 0
0.003607289 0.05103982 0.4444783 0 0 0
0.007970707 0.04987132 0.4547258 0 0 0
0.0893017 0.03933476 0.4598799 0 0 0
0.09602694 0.03854325 0.4666963 0 0 0
0.1201488 0.0385801 0.439116 0 0 0
0.1210452 0.04039769 0.4053847 0 0 0
0.1269617 0.04073204 0.3980723 0 0 0
0.1343757 0.04086457 0.3953083 0 0 0
0.1464573 0.03994999 0.4098376 0 0 0
-0.01124154 0.05263526 0.4441969 0 0 0
-0.006992924 0.0520032 0.4385993 0 0 0
-0.0001193646 0.0504643 0.4431923 0 0 0
0.007560936 0.04837569 0.4596705 0 0 0
0.009967339 0.04654988 0.4947787 0 0 0
0.08670421 0.03736637 0.4765024 0 0 0
0.08989009 0.03836132 0.4495167 0 0 0
0.09317848 0.03795882 0.452929 0 0 0
0.09570768 0.03780694 0.4524022 0 0 0
0.1265719 0.03959366 0.397072 0 0 0
-0.004753426 0.05023832 0.4387735 0 0 0
-0.0003493183 0.04913923 0.4441409 0 0 0
0.1234266 0.03788184 0.405475 0 0 0
0.1268551 0.03832711 0.3979454 0 0 0
0.1332236 0.03843613 0.3955868 0 0 0
0.1349701 0.03855703 0.393841 0 0 0
-0.003708403 0.04871999 0.438825 0 0 0
0.00750207 0.04459954 0.4805748 0 0 0
0.08348811 0.03563709 0.4586445 0 0 0
0.09245545 0.03574579 0.4437267 0 0 0
0.1256539 0.03688825 0.4014542 0 0 0
0.1260664 0.03704227 0.3991947 0 0 0
0.1271368 0.03705336 0.3988138 0 0 0
0.1282059 0.03706647 0.398429 0 0 0
0.1296176 0.03700935 0.3989766 0 0 0
0.1306875 0.03702671 0.3985827 0 0 0
0.1317561 0.03704618 0.398185 0 0 0
0.1324689 0.03713993 0.3968509 0 0 0
0.1480874 0.03654576 0.4045721 0 0 0
-0.01586501 0.04941048 0.4476034 0 0 0
-0.00625979 0.04792887 0.438559 0 0 0
-0.005154957 0.04765046 0.4396609 0 0 0
0.0003380938 0.04619145 0.4471039 0 0 0
0.085879 0.03220072 0.4905199 0 0 0
0.08884201 0.03456493 0.4453791 0 0 0
0.09584864 0.03426597 0.4418823 0 0 0
0.09895562 0.03391426 0.4442533 0 0 0
0.1333656 0.03051887 0.4701593 0 0 0
0.1264789 0.03264208 0.4430691 0 0 0
0.1235521 0.03369937 0.4293606 0 0 0
0.1237858 0.0350474 0.4104246 0 0 0
0.1251664 0.03551538 0.4036388 0 0 0
0.1334573 0.0362136 0.3931744 0 0 0
0.147956 0.03556321 0.4012801 0 0 0
-0.01528767 0.04829386 0.4415919 0 0 0
-0.01086816 0.04775649 0.4350471 0 0 0
-0.009682438 0.04750609 0.4351706 0 0 0
-0.005310239 0.04637118 0.4395992 0 0 0
-0.004197152 0.04608898 0.4406967 0 0 0
0.003040487 0.04360097 0.4602294 0 0 0
0.04262946 0.03609333 0.4811806 0 0 0
0.09554493 0.03300689 0.4408241 0 0 0
0.1126064 0.0305181 0.462391 0 0 0
0.1284336 0.03457804 0.3992105 0 0 0
-0.0002776329 0.04338975 0.4509534 0 0 0
0.03165729 0.035747 0.4885244 0 0 0
0.03533896 0.03628406 0.4704364 0 0 0
0.0439042 0.03438969 0.4820116 0 0 0
0.0866974 0.03180537 0.4486293 0 0 0
0.1005721 0.03134302 0.4405933 0 0 0
0.104482 0.03109655 0.440677 0 0 0
0.1247185 0.03196907 0.4172513 0 0 0
0.1333531 0.03383264 0.3930099 0 0 0
0.1393514 0.03382636 0.3927742 0 0 0
0.03132461 0.03499344 0.4774575 0 0 0
0.03391401 0.03493194 0.4723895 0 0 0
0.03788543 0.03443164 0.4712362 0 0 0
0.08354811 0.02982493 0.4612434 0 0 0
0.1027005 0.02998314 0.438944 0 0 0
0.1068456 0.02965947 0.4399674 0 0 0
0.1261415 0.03123269 0.4103557 0 0 0
0.1282484 0.03188624 0.4022354 0 0 0
0.1297337 0.03209263 0.3995805 0 0 0
0.1304638 0.03219882 0.3982511 0 0 0
0.1318984 0.03241719 0.3955883 0 0 0
0.1393009 0.03262997 0.392684 0 0 0
0.1566952 0.03078723 0.4123735 0 0 0
-0.01995352 0.04507512 0.4448963 0 0 0
-0.0180665 0.04501388 0.4400996 0 0 0
-0.01026512 0.04367879 0.4359537 0 0 0
-0.002086325 0.04082868 0.4536958 0 0 0
0.08442427 0.02790413 0.4670367 0 0 0
0.08774361 0.02901187 0.448196 0 0 0
0.1267182 0.02980215 0.4121434 0 0 0
0.1307774 0.03119835 0.3958938 0 0 0
-0.02911302 0.04306383 0.4798959 0 0 0
-0.01930146 0.04405054 0.4388786 0 0 0
-0.01624846 0.04375035 0.4342247 0 0 0
-0.01387649 0.04323101 0.4345006 0 0 0
0.02695675 0.03274055 0.4773462 0 0 0
0.03904334 0.03119115 0.4739671 0 0 0
0.09434111 0.0275663 0.4426554 0 0 0
0.0955775 0.02749756 0.4423861 0 0 0
0.1047224 0.02731641 0.4371703 0 0 0
0.1410271 0.02218829 0.4764741 0 0 0
0.1272929 0.02835649 0.4139251 0 0 0
0.1288725 0.02956288 0.4007139 0 0 0
0.1384406 0.03043032 0.3906479 0 0 0
0.1391053 0.03056445 0.3893009 0 0 0
0.1490816 0.02965639 0.3980589 0 0 0
-0.01189193 0.0413547 0.4366576 0 0 0
-0.004484824 0.03896312 0.4483584 0 0 0
0.02677936 0.03176563 0.4712578 0 0 0
0.0294128 0.03159075 0.4682157 0 0 0
0.04527332 0.02746743 0.4924659 0 0 0
0.08829527 0.02269205 0.49136 0 0 0
0.09091178 0.02625702 0.4452795 0 0 0
0.09215874 0.02618077 0.445022 0 0 0
0.09874544 0.02616523 0.4394995 0 0 0
0.1141882 0.02530971 0.4386557 0 0 0
0.1159474 0.02507843 0.4402307 0 0 0
0.1401614 0.0213703 0.4692779 0 0 0
0.1299755 0.02548444 0.4296871 0 0 0
0.128032 0.02720297 0.4124885 0 0 0
0.1382901 0.02958098 0.3873595 0 0 0
-0.01538712 0.04097973 0.4341922 0 0 0
-0.01432255 0.04066356 0.435318 0 0 0
-0.003067503 0.03644418 0.4593852 0 0 0
0.02394578 0.03053902 0.474171 0 0 0
0.02793227 0.03047631 0.4671378 0 0 0
0.03599857 0.02889106 0.4718764 0 0 0
0.04030002 0.02773418 0.4786559 0 0 0
0.08844122 0.02244591 0.4760215 0 0 0
0.08788048 0.02344131 0.4649957 0 0 0
0.09225217 0.02473682 0.445882 0 0 0
0.1057559 0.02462074 0.4366375 0 0 0
0.1069737 0.02457567 0.4363258 0 0 0
0.1367668 0.02144745 0.4545324 0 0 0
0.1287569 0.02531578 0.4184111 0 0 0
0.1305671 0.02727987 0.3987772 0 0 0
0.1348133 0.02805763 0.3907728 0 0 0
0.1371994 0.02836903 0.3876761 0 0 0
0.1421218 0.0283317 0.3877884 0 0 0
-0.02191736 0.04089174 0.4363205 0 0 0
-0.0156774 0.0396665 0.4350882 0 0 0
-0.009460554 0.03755342 0.4447633 0 0 0
-0.006239999 0.03646135 0.45005 0 0 0
0.09147409 0.02315339 0.4489466 0 0 0
0.09589922 0.0231751 0.4449583 0 0 0
0.129921 0.02017236 0.4555084 0 0 0
0.128864 0.02436914 0.4150777 0 0 0
0.1416775 0.02725885 0.386762 0 0 0
-0.01489697 0.03801985 0.4371041 0 0 0
-0.004318008 0.03293807 0.4701023 0 0 0
-0.004424594 0.03135354 0.4880858 0 0 0
0.03575756 0.02588378 0.4736267 0 0 0
0.09321981 0.0213926 0.4514819 0 0 0
0.1001228 0.02190583 0.4407907 0 0 0
0.1080057 0.02188844 0.4357627 0 0 0
0.1294172 0.02368475 0.4094754 0 0 0
0.153172 0.02497856 0.3957078 0 0 0
-0.02479964 0.03886241 0.4367755 0 0 0
-0.01518655 0.03668777 0.4379886 0 0 0
-0.01213647 0.03555461 0.4433239 0 0 0
0.09335116 0.01780015 0.4736038 205 205 205
0.09337424 0.01920218 0.4594104 0 0 0
0.09797659 0.02046711 0.4431712 0 0 0
0.1042508 0.02070282 0.4365679 0 0 0
0.1301331 0.0225699 0.4080165 0 0 0
0.1339673 0.02399459 0.3949464 0 0 0
0.1374065 0.0247393 0.3882474 0 0 0
0.1429997 0.02484386 0.3869959 0 0 0
-0.02817686 0.0378474 0.4412432 0 0 0
-0.01946873 0.03683743 0.43237 0 0 0
-0.0102758 0.03344454 0.4474098 0 0 0
0.01935581 0.02599476 0.4687118 0 0 0
0.0259976 0.0252201 0.4656768 0 0 0
0.09591036 0.01544394 0.4800122 205 205 205
0.09661954 0.01855513 0.4494193 0 0 0
0.100932 0.01930258 0.4392631 0 0 0
0.1080637 0.0191286 0.4364567 0 0 0
0.1306971 0.01936816 0.4244817 0 0 0
0.1627996 0.03337517 0.3214011 0 0 0
0.164147 0.03339908 0.321712 0 0 0
-0.02602404 0.03675761 0.434413 0 0 0
-0.01779683 0.03476247 0.4364988 0 0 0
-0.009613874 0.03155902 0.4513655 0 0 0
0.1030631 0.0179913 0.4375594 0 0 0
0.1301553 0.01681778 0.4349539 0 0 0
0.1298607 0.01970755 0.4109527 0 0 0
0.1311072 0.02010839 0.4073495 0 0 0
0.1352702 0.02151317 0.3951982 0 0 0
0.1359755 0.02166865 0.3938574 0 0 0
0.1464067 0.02252817 0.3862976 0 0 0
0.1478535 0.02246388 0.3867441 0 0 0
0.1646827 0.0323193 0.3224272 0 0 0
-0.01902862 0.03384934 0.4352479 0 0 0
-0.01104256 0.03050364 0.4511258 0 0 0
-0.00822884 0.02737932 0.4753509 0 0 0
0.01161574 0.02229114 0.4892505 0 0 0
0.01777004 0.02373225 0.465447 0 0 0
0.01908885 0.0235137 0.4654514 0 0 0
0.02042224 0.02339881 0.4644561 0 0 0
0.0256882 0.0222496 0.4673896 0 0 0
0.09723693 0.01385279 0.4661995 205 205 205
0.1068871 0.01639986 0.4374475 205 205 205
0.1107654 0.01675203 0.4323142 0 0 0
0.1276262 0.0159925 0.4314262 205 205 205
0.1313957 0.01690074 0.4228507 0 0 0
0.1373471 0.0203836 0.3942206 0 0 0
0.1403556 0.02134769 0.3865706 0 0 0
0.1467549 0.02122433 0.3870678 0 0 0
0.1492503 0.02121658 0.387047 0 0 0
0.1614904 0.01911394 0.4021824 0 0 0
-0.03427385 0.0340954 0.4511252 0 0 0
-0.02925324 0.03460084 0.43677 0 0 0
-0.0273967 0.03461322 0.4330156 0 0 0
-0.02144573 0.03321889 0.4338386 0 0 0
-0.01142987 0.02901147 0.4529735 0 0 0
0.01023769 0.02157138 0.4840963 0 0 0
0.01763119 0.02245846 0.4643079 0 0 0
0.02157943 0.02181072 0.4643055 0 0 0
0.02553071 0.02086173 0.4672423 0 0 0
0.09773249 0.01356696 0.4557604 205 205 205
0.09862114 0.01446691 0.4474338 205 205 205
0.1060347 0.01485885 0.4395339 205 205 205
0.1266252 0.01506511 0.4284418 205 205 205
0.1314126 0.01506961 0.4268549 205 205 205
0.1413361 0.02022396 0.3859948 0 0 0
0.1516978 0.02003023 0.386863 0 0 0
0.164943 0.03000974 0.3243666 0 0 0
-0.03080229 0.03355419 0.4374398 0 0 0
0.01749251 0.02119359 0.4631641 0 0 0
0.01880531 0.02097552 0.4631679 0 0 0
0.1018633 0.01319701 0.4444585 205 205 205
0.1069285 0.01361655 0.4380982 205 205 205
0.1079165 0.01370847 0.4368184 205 205 205
0.1354015 0.0169197 0.4020755 0 0 0
0.1361444 0.01708408 0.4007313 0 0 0
0.1441479 0.01888706 0.3867824 0 0 0
0.145192 0.01894073 0.3863314 0 0 0
0.1462344 0.01899654 0.3858767 0 0 0
0.1483143 0.01911466 0.3849559 0 0 0
0.1549012 0.03032504 0.3141466 0 0 0
-0.0426452 0.02972827 0.4798443 0 0 0
-0.02552002 0.03147133 0.4340825 0 0 0
-0.01177244 0.02494436 0.4646794 0 0 0
0.01473544 0.02038049 0.4619943 0 0 0
0.01733085 0.0198259 0.4630092 0 0 0
0.01864436 0.01960742 0.4630127 0 0 0
0.02934207 0.01595479 0.4797493 205 205 205
0.03080777 0.01504223 0.4856651 205 205 205
0.09781542 0.009771482 0.46347 205 205 205
0.1045022 0.01160306 0.4446473 205 205 205
0.1070682 0.01215113 0.4388953 205 205 205
0.1162507 0.01282697 0.4291859 205 205 205
0.1234513 0.01273576 0.426999 205 205 205
0.1379004 0.01607065 0.3988073 0 0 0
0.1393352 0.01642183 0.3961088 0 0 0
0.1419924 0.01761001 0.387524 0 0 0
0.1486667 0.01780273 0.3857079 0 0 0
0.1583434 0.01712554 0.3899811 0 0 0
0.1607071 0.01679681 0.3921487 0 0 0
-0.03046712 0.03136941 0.4332434 0 0 0
-0.02656506 0.03068156 0.4318102 0 0 0
-0.01664493 0.02642177 0.4490859 0 0 0
-0.01248136 0.02307533 0.4694711 0 0 0
0.0223754 0.01688955 0.4687907 205 205 205
0.09973107 0.008633713 0.4598044 205 205 205
0.1008369 0.008706758 0.4585406 205 205 205
0.1161557 0.01152543 0.4290194 205 205 205
0.1281392 0.01142147 0.4252874 205 205 205
0.1298835 0.01171701 0.4226156 205 205 205
0.1381945 0.01471564 0.3995694 205 205 205
0.1517288 0.01682035 0.3841394 0 0 0
0.1640148 0.02756917 0.3209959 0 0 0
0.0002781644 0.01573638 0.4970362 205 205 205
0.01437632 0.01753961 0.4626629 0 0 0
0.01958569 0.01629537 0.465662 205 205 205
0.02088683 0.01583622 0.4676403 205 205 205
0.09045859 0.006722198 0.4696149 205 205 205
0.09126704 0.007062557 0.466432 205 205 205
0.09565032 0.007451318 0.4604849 205 205 205
0.1052076 0.008320672 0.4481484 205 205 205
0.1070456 0.008659352 0.4446306 205 205 205
0.1078256 0.008906409 0.4423895 205 205 205
0.1294788 0.01057334 0.4215073 205 205 205
0.1336681 0.01030713 0.4221548 205 205 205
0.1365295 0.01219954 0.4084909 205 205 205
0.1369513 0.01252204 0.4062176 205 205 205
0.1377149 0.01269917 0.4048679 205 205 205
0.139954 0.01324296 0.4008114 205 205 205
0.1403114 0.01357506 0.3985403 205 205 205
0.1410285 0.01376222 0.3971861 205 205 205
0.1493782 0.01601036 0.3817638 0 0 0
0.1510109 0.01629035 0.3799253 0 0 0
0.1590325 0.01529932 0.3859862 0 0 0
0.1648417 0.02608191 0.3238531 0 0 0
-0.0236464 0.02716564 0.4339764 0 0 0
-0.01448398 0.0218246 0.460013 0 0 0
-0.01440194 0.02037011 0.4709999 0 0 0
0.01162164 0.01675312 0.4614615 205 205 205
0.01289634 0.01640298 0.4624753 205 205 205
0.1003899 0.006058933 0.4572054 205 205 205
0.1148832 0.008217455 0.4341252 205 205 205
0.1273395 0.009126917 0.4230604 205 205 205
0.1538585 0.01498076 0.3805882 0 0 0
0.1566226 0.01446775 0.3836558 205 205 205
0.1661434 0.01304401 0.3922288 205 205 205
-0.03428922 0.02775182 0.4373224 0 0 0
-0.03236748 0.02783416 0.4335978 0 0 0
-0.01997849 0.02408068 0.4413072 0 0 0
-0.01829946 0.02288977 0.4474956 0 0 0
0.00632396 0.01657968 0.4591702 205 205 205
0.01657656 0.01385708 0.4663019 205 205 205
0.08969986 0.002087072 0.4824028 205 205 205
0.1128437 0.006648296 0.4365359 205 205 205
0.1176254 0.007295161 0.4300316 205 205 205
0.1203927 0.00771363 0.4261025 205 205 205
0.1389899 0.009612154 0.4082071 205 205 205
0.1405236 0.009989942 0.405495 205 205 205
0.1444775 0.01322645 0.384636 205 205 205
0.1492562 0.0136843 0.3814354 205 205 205
0.1651888 0.01211762 0.3902898 205 205 205
-0.02742445 0.02562705 0.4321949 0 0 0
-0.02029161 0.02269705 0.4421284 0 0 0
-0.01602624 0.01952206 0.4585613 0 0 0
0.01771962 0.01212467 0.4671112 205 205 205
0.02166628 0.01066626 0.4730342 205 205 205
0.02297906 0.009508629 0.479953 205 205 205
0.04262762 0.00596422 0.4841148 205 205 205
0.04398394 0.005921037 0.4830314 205 205 205
0.09930646 0.003903189 0.4529566 205 205 205
0.1094252 0.003612558 0.449491 205 205 205
0.1188121 0.006593828 0.425337 205 205 205
0.1288956 0.006876665 0.420029 205 205 205
0.1381334 0.006502772 0.4199127 205 205 205
0.1387391 0.00735039 0.4144241 205 205 205
0.1422254 0.01054229 0.3939617 205 205 205
0.1436047 0.01095491 0.3912494 205 205 205
0.1557932 0.01280623 0.3792721 205 205 205
0.1600617 0.01219895 0.3826926 205 205 205
-0.03604923 0.02543466 0.4377814 0 0 0
-0.0196383 0.02080076 0.4450515 0 0 0
-0.01644732 0.01794637 0.4603544 0 0 0
-0.006490196 0.01289917 0.4820412 205 205 205
0.004502039 0.01373995 0.4617333 205 205 205
0.009851196 0.0130479 0.4599047 205 205 205
0.09325796 0.00137218 0.4641322 205 205 205
0.1017837 0.002400929 0.4521564 205 205 205
0.1096797 0.001152546 0.4563242 205 205 205
0.1119139 0.002929105 0.4435047 205 205 205
0.119911 0.005292334 0.4247811 205 205 205
0.1410434 0.006663174 0.4101583 205 205 205
0.1414584 0.007024504 0.4078798 205 205 205
0.141827 0.008974608 0.3960473 205 205 205
0.1497414 0.01159013 0.3797253 205 205 205
0.1513666 0.01189143 0.3778862 205 205 205
0.1647243 0.0214708 0.3267944 0 0 0
-0.03410193 0.02439946 0.4329232 0 0 0
-0.03117885 0.02412889 0.4303624 0 0 0
-0.02281802 0.02093697 0.4395294 0 0 0
-0.01995132 0.01939495 0.4458594 0 0 0
-0.01909574 0.01876022 0.4489478 0 0 0
-0.0168711 0.01635654 0.46214 205 205 205
-0.00396349 0.01324925 0.4661137 205 205 205
0.01467889 0.009677553 0.4677072 205 205 205
0.01726983 0.008666426 0.4716751 205 205 205
0.09635605 0.0003780649 0.4592108 205 205 205
0.1029622 0.0009672826 0.4516432 205 205 205
0.1077806 0.0001381008 0.4545279 205 205 205
0.1120199 0.0006183244 0.4493655 205 205 205
0.1133246 0.001375614 0.4439106 205 205 205
0.1140768 0.001675343 0.4416596 205 205 205
0.1201004 0.003837982 0.4255283 205 205 205
0.1210089 0.003994462 0.4242158 205 205 205
0.1337501 0.004198228 0.4189423 205 205 205
0.1391387 0.00394868 0.4190877 205 205 205
0.1413162 0.008479454 0.3917778 205 205 205
0.1449169 0.00995216 0.3827548 205 205 205
0.1523244 0.01081473 0.3772292 205 205 205
0.1543604 0.0109695 0.3762616 205 205 205
0.1650019 0.009877274 0.3820168 205 205 205
0.1563104 0.02108105 0.3225236 0 0 0
0.1638035 0.01964817 0.3306848 0 0 0
0.163874 0.02106168 0.3236464 0 0 0
0.1632861 0.02191916 0.3193267 0 0 0
-0.03135659 0.0228977 0.430192 0 0 0
-0.0009500035 0.01229564 0.4591451 205 205 205
0.01197897 0.009323291 0.4635219 205 205 205
0.04191278 0.002364943 0.4785481 205 205 205
0.09161189 -0.003693666 0.4790588 205 205 205
0.1061225 -0.001027244 0.4536792 205 205 205
0.1107591 -0.001688949 0.4555616 205 205 205
0.1120739 -0.001734497 0.4552211 205 205 205
0.1126465 -0.001265812 0.4520143 205 205 205
0.1142309 -0.0006603171 0.4475082 205 205 205
0.1173686 0.001246788 0.4343407 205 205 205
0.1218111 0.00287176 0.422701 205 205 205
0.1314988 0.003416538 0.4163682 205 205 205
0.137187 0.002978244 0.417471 205 205 205
0.1403486 0.003231046 0.4152433 205 205 205
0.1409206 0.006906012 0.3938503 205 205 205
0.1419311 0.007508923 0.3902386 205 205 205
0.149192 0.009448453 0.3784704 205 205 205
-0.03603679 0.02199336 0.4343335 0 0 0
-0.03290374 0.02184752 0.4308107 0 0 0
-0.01896572 0.0151132 0.4546081 205 205 205
-0.01033684 0.01064722 0.4722724 205 205 205
-0.001125878 0.01095187 0.4589465 205 205 205
0.007981239 0.009094742 0.4602771 205 205 205
0.01299413 0.007147096 0.4672887 205 205 205
0.01421111 0.006331812 0.4712546 205 205 205
0.01678388 0.004988102 0.4771945 205 205 205
0.0964989 -0.002756905 0.4607061 205 205 205
0.1073097 -0.002463082 0.4531361 205 205 205
0.1117125 -0.002954947 0.4540452 205 205 205
0.1159022 -0.00156933 0.4437334 205 205 205
0.1172623 -7.325722E-05 0.4341298 205 205 205
0.1397917 0.00157718 0.4173175 205 205 205
0.1408824 0.004017663 0.4031873 205 205 205
0.1408923 0.004580691 0.4000058 205 205 205
0.1447776 0.007634629 0.3823823 205 205 205
0.1464483 0.007928906 0.3805706 205 205 205
0.1480985 0.008231065 0.3787504 205 205 205
-0.02759936 0.01878691 0.4344369 0 0 0
-0.0184021 0.011237 0.4694184 205 205 205
0.01522702 0.003802437 0.4769752 205 205 205
0.01648719 0.002813409 0.481917 205 205 205
0.01770401 0.001213101 0.4908063 205 205 205
0.03602106 0.0002634439 0.4784341 205 205 205
0.0415854 -0.000501562 0.4781048 205 205 205
0.04592395 -0.001536955 0.4807603 205 205 205
0.09932382 -0.003489217 0.454785 205 205 205
0.1224946 -0.0002257385 0.4251019 205 205 205
0.1254474 0.0008406106 0.417949 205 205 205
0.1404028 0.002393211 0.4052526 205 205 205
0.1411729 0.003761525 0.3975389 205 205 205
0.1444594 0.00606592 0.3844418 205 205 205
0.1636503 0.007722981 0.374291 205 205 205
0.1632617 0.008337461 0.3711656 205 205 205
0.1648594 0.01781541 0.3248088 0 0 0
-0.03602513 0.01974326 0.4320152 0 0 0
-0.03105086 0.01866886 0.431782 0 0 0
-0.006705367 0.009304285 0.4582353 205 205 205
-0.002624694 0.008813261 0.4564939 205 205 205
0.01376481 0.00308307 0.4737831 205 205 205
0.09757422 -0.005632246 0.4599569 205 205 205
0.125086 -0.0009762839 0.4209258 205 205 205
0.1398292 0.0001741287 0.4105002 205 205 205
0.1417705 0.003371116 0.392812 205 205 205
0.1495931 0.006254044 0.3765353 205 205 205
0.1506145 0.006326822 0.3760621 205 205 205
0.1538039 0.006995453 0.3723723 205 205 205
0.1553673 0.007341107 0.3705158 205 205 205
0.1693309 0.01305147 0.3427126 0 0 0
0.1682461 0.01461458 0.3352898 0 0 0
0.1661693 0.01604148 0.3284523 0 0 0
0.1648207 0.01683502 0.3246398 0 0 0
-0.02933408 0.01645906 0.4348654 205 205 205
-0.02722891 0.01561378 0.4371503 205 205 205
-0.02632021 0.01505924 0.4392663 205 205 205
-0.006792773 0.00811271 0.4570371 205 205 205
-0.001657359 0.006928149 0.458319 205 205 205
-0.000348825 0.006674631 0.4583814 205 205 205
0.01464027 -0.0002963527 0.4844176 205 205 205
0.02737223 -0.002676493 0.4862083 205 205 205
0.03008967 -0.001455808 0.4762489 205 205 205
0.0399012 -0.003343524 0.4787143 205 205 205
0.09784561 -0.007399339 0.4616435 205 205 205
0.1181084 -0.005683632 0.4423316 205 205 205
0.1191087 -0.005520714 0.4410197 205 205 205
0.1279204 -0.001867036 0.4176619 205 205 205
0.1456021 0.004227085 0.3813342 205 205 205
0.1508549 0.006067132 0.3713728 205 205 205
0.1528593 0.00622628 0.3704142 205 205 205
0.1669079 0.01440485 0.3312754 0 0 0
0.1666715 0.01487692 0.3290991 0 0 0
-0.0305553 0.01564072 0.4335193 205 205 205
0.00308746 0.003807214 0.4632473 205 205 205
0.02284026 -0.005625107 0.498892 205 205 205
0.1050552 -0.007550779 0.4506189 205 205 205
0.119988 -0.006697468 0.4394693 205 205 205
0.1301786 -0.003114262 0.416633 205 205 205
0.1388472 -0.002557531 0.4114137 205 205 205
0.1416515 0.0003743774 0.3955562 205 205 205
0.1513552 0.00520742 0.3698131 205 205 205
0.1626112 0.005094849 0.3696982 205 205 205
0.167824 0.01226374 0.3362864 205 205 205
-0.03212059 0.01456134 0.4341168 205 205 205
-0.02715652 0.01211415 0.4417885 205 205 205
-0.02225869 0.007631336 0.4612753 205 205 205
-0.02225452 0.005874875 0.4712156 205 205 205
-0.02102813 0.003502305 0.4832536 205 205 205
-0.01902455 0.003940155 0.4784741 205 205 205
-0.01490183 0.005148241 0.4669256 205 205 205
-0.005670172 0.005494609 0.4547089 205 205 205
0.006796889 0.001387231 0.4651037 205 205 205
0.02122529 -0.006216702 0.4947195 205 205 205
0.04460155 -0.009792794 0.494644 205 205 205
0.09932538 -0.01446304 0.4838635 205 205 205
0.09879062 -0.01262711 0.4739419 205 205 205
0.1081256 -0.008488285 0.4465369 205 205 205
0.1117428 -0.00841982 0.4445732 205 205 205
0.1330913 -0.004739543 0.4174301 205 205 205
0.1396936 -0.002350903 0.4034719 205 205 205
0.143309 9.445027E-05 0.3903758 205 205 205
0.1442837 0.0007817275 0.386769 205 205 205
0.1449512 0.001031672 0.3854154 205 205 205
0.1471237 0.00224137 0.379103 205 205 205
0.1552733 0.004424913 0.3676691 205 205 205
0.1631592 0.005201378 0.363623 205 205 205
0.1691884 0.009902323 0.3421448 205 205 205
0.1695534 0.01021278 0.3407747 205 205 205
0.1652435 0.01372333 0.3249293 0 0 0
0.03519963 -0.007051688 0.4782163 205 205 205
0.102388 -0.01149079 0.4577614 205 205 205
0.1050293 -0.01048422 0.4510784 205 205 205
0.124898 -0.00865016 0.4333205 205 205 205
0.1283036 -0.006864213 0.4229481 205 205 205
0.1336502 -0.00640867 0.4190409 205 205 205
0.1457792 0.0005739491 0.381596 205 205 205
-0.03057061 0.01104715 0.4369628 205 205 205
-0.0280014 0.009128414 0.4442827 205 205 205
0.008477156 -0.004223706 0.4784543 205 205 205
0.02523879 -0.0061274 0.4734335 205 205 205
0.1068189 -0.01135283 0.4473162 205 205 205
0.1138119 -0.01099051 0.4424292 205 205 205
0.1150901 -0.01102189 0.4420745 205 205 205
0.1158416 -0.01064611 0.4398285 205 205 205
0.1294407 -0.008961811 0.4264199 205 205 205
0.1394541 -0.005447581 0.4061842 205 205 205
0.1421468 -0.003626847 0.3966956 205 205 205
0.143834 -0.00201667 0.3885778 205 205 205
0.1501454 0.001774189 0.3696607 205 205 205
0.1610711 0.002765448 0.3642325 205 205 205
0.165472 0.002997848 0.363008 205 205 205
0.1674811 0.009697182 0.3335255 205 205 205
-0.001550853 -0.0006854783 0.4611582 205 205 205
0.02644031 -0.007561504 0.4721515 205 205 205
0.1069251 -0.01291504 0.4480077 205 205 205
0.1090442 -0.01259583 0.4454429 205 205 205
0.1103349 -0.01263764 0.4451043 205 205 205
0.111377 -0.01247112 0.4438143 205 205 205
0.1258421 -0.01211992 0.4365527 205 205 205
0.1332294 -0.00960034 0.4217394 205 205 205
0.1337759 -0.00917061 0.4194739 205 205 205
0.1343064 -0.008738696 0.4172093 205 205 205
0.1416937 -0.005288231 0.3987191 205 205 205
0.1438306 -0.003861419 0.3914997 205 205 205
0.1441396 -0.003397993 0.3892471 205 205 205
0.1466691 -0.001668618 0.3806899 205 205 205
0.1516385 0.001020688 0.3676114 205 205 205
0.1536283 0.001190066 0.3666453 205 205 205
0.1565997 0.001460349 0.3651699 205 205 205
0.1629333 0.001360438 0.3652178 205 205 205
0.1728404 0.004908234 0.3495552 205 205 205
0.1659047 0.01008629 0.3273424 205 205 205
0.008895604 -0.009820119 0.4917103 205 205 205
0.01356325 -0.008762173 0.4819085 205 205 205
0.02765414 -0.009546322 0.4738069 205 205 205
0.02903895 -0.009755657 0.4737556 205 205 205
0.03475456 -0.01189958 0.4803704 205 205 205
0.1054828 -0.02039098 0.4792477 205 205 205
0.1091581 -0.01415694 0.446127 205 205 205
0.1102096 -0.01398928 0.4448403 205 205 205
0.1135681 -0.01367941 0.4419087 205 205 205
0.1279469 -0.01325305 0.4345599 205 205 205
0.1333444 -0.01024006 0.4183004 205 205 205
0.1340497 -0.009148126 0.4128592 205 205 205
0.1712169 0.004415462 0.3468492 205 205 205
-0.004231643 -0.002155594 0.4566042 205 205 205
-0.002072978 -0.003733743 0.4626164 205 205 205
-0.000810956 -0.004170215 0.4636541 205 205 205
0.03462721 -0.01372226 0.4820549 205 205 205
0.1076148 -0.02278673 0.4824378 205 205 205
0.1079694 -0.01567975 0.4471406 205 205 205
0.1134445 -0.0150218 0.4416407 205 205 205
0.1278326 -0.01458287 0.434293 205 205 205
0.1303398 -0.01458069 0.4334778 205 205 205
0.1327741 -0.01283161 0.4244127 205 205 205
0.1330188 -0.01217417 0.4212266 205 205 205
0.1376712 -0.008976741 0.4049775 205 205 205
0.1411282 -0.008180859 0.4004905 205 205 205
0.1418824 -0.00792323 0.3991382 205 205 205
0.1439684 -0.005755975 0.3887742 205 205 205
0.1462647 -0.004457462 0.3824701 205 205 205
0.1488105 -0.003341776 0.3770526 205 205 205
0.1598843 -0.0006710128 0.3640771 205 205 205
0.1623612 -0.0001536784 0.3616783 205 205 205
0.1681135 0.001579071 0.3540631 205 205 205
0.1668526 0.003561416 0.3457551 205 205 205
0.1673295 0.006659627 0.3329168 205 205 205
-0.02907363 0.003688016 0.4452914 205 205 205
-0.02590916 0.0003366063 0.4585647 205 205 205
-0.0246602 -0.001946986 0.468605 205 205 205
-0.01596146 -0.0006924555 0.4535952 205 205 205
-0.01065561 -0.001622571 0.4530159 205 205 205
-0.00796124 -0.001982209 0.4522073 205 205 205
0.003717643 -0.008570565 0.4743599 205 205 205
0.004657677 -0.01030674 0.4822421 205 205 205
0.0204421 -0.01030481 0.4685389 205 205 205
0.1093803 -0.01729819 0.4474749 205 205 205
0.1135737 -0.01658041 0.44231 205 205 205
0.1187789 -0.01476656 0.4316806 205 205 205
0.1330035 -0.01189621 0.4136871 205 205 205
0.1410341 -0.009397875 0.4002395 205 205 205
0.1436213 -0.008122373 0.3939278 205 205 205
0.1468315 -0.005334024 0.380878 205 205 205
0.1544959 -0.001533208 0.3632544 205 205 205
0.1583643 -0.001670059 0.3634921 205 205 205
0.1686237 0.002762091 0.3444645 205 205 205
0.165756 0.00712298 0.3267365 205 205 205
-0.03748237 0.007754119 0.4279464 205 205 205
-0.03111429 0.003673912 0.4408306 205 205 205
-0.03019689 0.003040214 0.4429379 205 205 205
-0.02651889 0.0003238457 0.4523136 205 205 205
-0.01912975 -0.001962814 0.4560391 205 205 205
-0.01332372 -0.002210924 0.4515911 205 205 205
-0.01084077 -0.002936091 0.4527579 205 205 205
-0.008144761 -0.003292895 0.4519495 205 205 205
-0.00369829 -0.005991494 0.4610478 205 205 205
-0.001332075 -0.007253455 0.4650832 205 205 205
0.01343374 -0.0105455 0.4683229 205 205 205
0.1094886 -0.01887831 0.4481386 205 205 205
0.1226781 -0.01633482 0.4312065 205 205 205
0.1310259 -0.01790188 0.4357066 205 205 205
0.1327009 -0.01383762 0.4165972 205 205 205
0.141695 -0.01034786 0.398633 205 205 205
0.152782 -0.003545261 0.3670904 205 205 205
0.1582927 -0.002774789 0.3632581 205 205 205
0.162727 -0.000970757 0.3554038 205 205 205
0.166474 0.00538932 0.3295049 205 205 205
0.1649196 0.007767388 0.3200776 205 205 205
-0.03747276 0.006700427 0.4267402 205 205 205
-0.03481224 0.004962633 0.4321328 205 205 205
-0.03113409 0.002577513 0.4396093 205 205 205
-0.03022103 0.001936556 0.4417143 205 205 205
-0.0285055 0.0004795362 0.4468887 205 205 205
-0.01503752 -0.003602647 0.4531813 205 205 205
-0.01362325 -0.003699784 0.4523061 205 205 205
-0.006187361 -0.006060767 0.4567284 205 205 205
0.01467721 -0.01176221 0.4660805 205 205 205
0.01737237 -0.01241816 0.4670407 205 205 205
0.02145126 -0.01328715 0.4679541 205 205 205
0.02555704 -0.01535091 0.4746986 205 205 205
0.03293848 -0.02070764 0.4949595 205 205 205
0.1097377 -0.0230682 0.4608299 205 205 205
0.1185397 -0.01738161 0.4311305 205 205 205
0.1210299 -0.0174093 0.4303792 205 205 205
0.1315631 -0.01787006 0.4290445 205 205 205
0.1318556 -0.01718203 0.4258602 205 205 205
0.150554 -0.005345664 0.3700404 205 205 205
0.1532621 -0.004347136 0.365496 205 205 205
0.1592061 -0.003778015 0.3625143 205 205 205
0.1631272 -0.001724166 0.3538036 205 205 205
0.164078 -0.001608841 0.3532815 205 205 205
0.1640369 -0.001062865 0.351072 205 205 205
0.1676951 -2.387095E-05 0.3467489 205 205 205
0.1675398 0.002526463 0.3366235 205 205 205
0.166632 0.003840784 0.3314548 205 205 205
-0.03149313 0.001145009 0.440325 205 205 205
-0.02546311 -0.002416983 0.4509591 205 205 205
-0.007690609 -0.007121812 0.456382 205 205 205
-0.006464747 -0.007578616 0.4574331 205 205 205
-0.003137279 -0.00990482 0.4654506 205 205 205
-0.002011989 -0.01074743 0.4684412 205 205 205
0.000171408 -0.01282703 0.4763673 205 205 205
0.01857428 -0.01381459 0.4657586 205 205 205
0.02537583 -0.01675777 0.4744049 205 205 205
0.02968625 -0.01968229 0.4850052 205 205 205
0.1116615 -0.0252137 0.4630144 205 205 205
0.1111277 -0.02343016 0.455109 205 205 205
0.1120874 -0.02191049 0.4478084 205 205 205
0.1126511 -0.0212601 0.4446321 205 205 205
0.1206275 -0.01848486 0.429165 205 205 205
0.1231066 -0.01850209 0.4283982 205 205 205
0.1255805 -0.01850923 0.427614 205 205 205
0.1336927 -0.01469592 0.4083831 205 205 205
0.1368241 -0.01437864 0.4061875 205 205 205
0.1384185 -0.01385012 0.4034997 205 205 205
0.1447741 -0.0111394 0.3904544 205 205 205
0.146854 -0.01027599 0.3863913 205 205 205
0.1507378 -0.007216743 0.3728996 205 205 205
0.153068 -0.005986218 0.3674775 205 205 205
0.1669532 0.001717097 0.335576 205 205 205
0.1662406 0.002490392 0.3325823 205 205 205
-0.03364462 0.001020327 0.4368218 205 205 205
-0.02872965 -0.001916223 0.4453909 205 205 205
-0.02191421 -0.004792122 0.4520634 205 205 205
-0.01171996 -0.007440233 0.45488 205 205 205
-0.003648622 -0.01205121 0.4690736 205 205 205
0.001244271 -0.01489453 0.4780693 205 205 205
0.002895366 -0.01435872 0.474195 205 205 205
0.005946529 -0.01386562 0.4693635 205 205 205
0.02110342 -0.0158351 0.4663961 205 205 205
0.0238069 -0.01752615 0.4721933 205 205 205
0.1325773 -0.01691274 0.4126055 205 205 205
0.141782 -0.01346283 0.3955928 205 205 205
0.1421434 -0.01294898 0.3933468 205 205 205
0.1596146 -0.005098171 0.3584442 205 205 205
0.1601119 -0.004767486 0.3570823 205 205 205
0.1615615 -0.00432543 0.3552069 205 205 205
0.1634082 -0.002976482 0.3497568 205 205 205
0.1659836 0.002052057 0.3301913 205 205 205
-0.03277272 -0.0007134163 0.4376968 205 205 205
-0.03112616 -0.002225361 0.4428683 205 205 205
0.1138776 -0.02538109 0.4496683 205 205 205
0.1187212 -0.02176833 0.4321316 205 205 205
0.1250466 -0.02086934 0.4261095 205 205 205
0.1262791 -0.02086886 0.4257119 205 205 205
0.1378593 -0.01605996 0.4020465 205 205 205
0.1600111 -0.006414057 0.3590485 205 205 205
0.1685237 -0.003644116 0.3476966 205 205 205
0.1657121 0.001630726 0.3278051 205 205 205
0.1654843 0.002206288 0.3256519 205 205 205
-0.0386128 0.001510895 0.4276671 205 205 205
-0.03760458 0.001022095 0.4288186 205 205 205
-0.03658792 0.000533649 0.4299669 205 205 205
-0.02445866 -0.00624215 0.4483289 205 205 205
-0.01969965 -0.007988825 0.4517473 205 205 205
-0.005404248 -0.01453056 0.4684181 205 205 205
-0.004604502 -0.01622692 0.4753082 205 205 205
0.009909035 -0.01630951 0.4639301 205 205 205
0.01666886 -0.01769059 0.464889 205 205 205
0.02625277 -0.02402306 0.4861287 205 205 205
0.116815 -0.03104545 0.4666212 205 205 205
0.1188698 -0.02331831 0.4327633 205 205 205
0.1258599 -0.02192017 0.4244925 205 205 205
0.1310333 -0.02115514 0.4196951 205 205 205
0.1356968 -0.01834338 0.4066921 205 205 205
0.1561759 -0.009837889 0.3683307 205 205 205
0.1609117 -0.007396543 0.358283 205 205 205
0.1684562 -0.004707037 0.3474494 205 205 205
-0.02772005 -0.005676564 0.4427761 205 205 205
0.005600303 -0.01714769 0.4645545 205 205 205
0.01780543 -0.01971824 0.4665154 205 205 205
0.1000356 -0.03365789 0.4783185 205 205 205
0.1300188 -0.02268881 0.4207285 205 205 205
0.1314854 -0.0219243 0.4171492 205 205 205
0.1387926 -0.01845372 0.4010413 205 205 205
0.1454038 -0.01501661 0.3857845 205 205 205
0.1521006 -0.01267817 0.3753572 205 205 205
0.1598137 -0.009171149 0.3607515 205 205 205
0.1613333 -0.008139548 0.3566632 205 205 205
0.1651323 -0.006504858 0.3501658 205 205 205
0.1671486 -0.004123273 0.3411664 205 205 205
-0.03918857 -0.001097984 0.4280964 205 205 205
-0.03527518 -0.003277852 0.4336404 205 205 205
-0.01878254 -0.0108873 0.4512797 205 205 205
-0.007344073 -0.01741864 0.4696843 205 205 205
-0.005165423 -0.01944614 0.4766275 205 205 205
0.008276926 -0.01834676 0.4613562 205 205 205
0.01619955 -0.02130363 0.4681699 205 205 205
0.01888428 -0.0226519 0.4720259 205 205 205
0.09106749 -0.03435484 0.4788209 205 205 205
0.09538232 -0.0311086 0.4630826 205 205 205
0.1188879 -0.02618799 0.433077 205 205 205
0.1221085 -0.02572652 0.4300766 205 205 205
0.1344945 -0.02185803 0.4105988 205 205 205
0.137191 -0.01945955 0.4002893 205 205 205
0.1398741 -0.01883844 0.3971671 205 205 205
0.1439108 -0.01679677 0.3882017 205 205 205
0.1459935 -0.01587282 0.3841562 205 205 205
0.154415 -0.01249787 0.3696539 205 205 205
0.1549939 -0.01216442 0.3682956 205 205 205
0.1655046 -0.007210809 0.3485464 205 205 205
0.1671967 -0.005759811 0.3431002 205 205 205
0.1669504 -0.004560322 0.3387379 205 205 205
-0.03957761 -0.002500127 0.4287834 205 205 205
-0.03669483 -0.004201318 0.4331844 205 205 205
-0.0155315 -0.01387652 0.4551778 205 205 205
-0.01075474 -0.01604965 0.4603931 205 205 205
-0.005116345 -0.02020438 0.473384 205 205 205
0.00533559 -0.01942403 0.4619823 205 205 205
0.01460469 -0.02267181 0.4688375 205 205 205
0.08935802 -0.03357816 0.4698932 205 205 205
0.1343815 -0.02310266 0.4102972 205 205 205
0.1445159 -0.01765958 0.3865696 205 205 205
0.1639443 -0.003191044 0.3300635 205 205 205
0.1637524 -0.002585586 0.3279108 205 205 205
0.1644633 -0.0008655509 0.3217702 205 205 205
-0.03390605 -0.007153733 0.4372684 205 205 205
-0.03192123 -0.008367468 0.4404866 205 205 205
-0.0273398 -0.01018912 0.4439843 205 205 205
0.01973693 -0.02820453 0.4820422 205 205 205
0.1049217 -0.03465222 0.4611462 205 205 205
0.137329 -0.02213232 0.4005978 205 205 205
0.1422765 -0.01976345 0.3903159 205 205 205
0.1639931 -0.01042984 0.3521075 205 205 205
0.1640544 -0.004796121 0.3319721 205 205 205
0.1641035 -0.002205635 0.322859 205 205 205
-0.02053221 -0.01428858 0.4492866 205 205 205
0.006365066 -0.02213844 0.4603872 205 205 205
0.08886973 -0.03421047 0.4603596 205 205 205
0.09223653 -0.03343574 0.4557166 205 205 205
0.1010564 -0.03315134 0.4507622 205 205 205
0.1066273 -0.03513349 0.4563649 205 205 205
0.1098058 -0.03725943 0.4635333 205 205 205
0.1219682 -0.03221725 0.4391367 205 205 205
0.1270342 -0.02990524 0.4284512 205 205 205
0.1372194 -0.02334243 0.4002942 205 205 205
0.1391936 -0.0221779 0.3953834 205 205 205
0.1446215 -0.01941511 0.3837586 205 205 205
0.1491862 -0.01855665 0.3796538 205 205 205
0.1529634 -0.01653832 0.3715316 205 205 205
0.1576634 -0.01582309 0.3681839 205 205 205
0.1603491 -0.01465789 0.3635836 205 205 205
0.161971 -0.01296426 0.3572834 205 205 205
0.1619956 -0.01173537 0.3528805 205 205 205
0.1624706 -0.01136938 0.3515227 205 205 205
0.1634638 -0.005550266 0.3309026 205 205 205
-0.01837785 -0.01659617 0.4511291 205 205 205
0.008785322 -0.02443452 0.4620247 205 205 205
0.09802718 -0.03412482 0.4501023 205 205 205
0.1004839 -0.03398769 0.4485362 205 205 205
0.1185811 -0.04408916 0.4807969 205 205 205
0.124036 -0.0356691 0.4461919 205 205 205
0.1251413 -0.03305454 0.4357656 205 205 205
0.1291209 -0.02986667 0.4223135 205 205 205
0.1312133 -0.02850296 0.4165049 205 205 205
0.1370083 -0.02537958 0.4031201 205 205 205
0.1383181 -0.02367856 0.3964164 205 205 205
0.1485633 -0.02089274 0.3838166 205 205 205
0.1571268 -0.01668399 0.3670409 205 205 205
0.1637438 -0.006162523 0.3293113 205 205 205
-0.03267576 -0.01235412 0.440541 205 205 205
-0.02194442 -0.01614383 0.4466066 205 205 205
-0.02065217 -0.01643547 0.4467227 205 205 205
-0.01844577 -0.01767572 0.4498414 205 205 205
0.1361981 -0.02606377 0.4010074 205 205 205
0.1369967 -0.02575835 0.3996731 205 205 205
0.1408581 -0.02419846 0.392984 205 205 205
0.1445006 -0.02258629 0.3862702 205 205 205
0.1452028 -0.02225781 0.3849249 205 205 205
0.1627461 -0.01249002 0.3474288 205 205 205
0.1633251 -0.007535785 0.3303878 205 205 205
-0.03177422 -0.01413849 0.4413445 205 205 205
0.006993844 -0.02712573 0.4623075 205 205 205
0.1008709 -0.03593775 0.444704 205 205 205
0.1063675 -0.03641354 0.4443289 205 205 205
0.1300912 -0.04330757 0.4616624 205 205 205
0.1318553 -0.03073445 0.4145189 205 205 205
0.1332746 -0.02987314 0.4109528 205 205 205
0.1346443 -0.02900263 0.407386 205 205 205
0.138867 -0.02575195 0.3944565 205 205 205
0.1550381 -0.01847535 0.3652462 205 205 205
0.1612662 -0.01531631 0.3533991 205 205 205
0.1631143 -0.01315866 0.3457985 205 205 205
0.1621517 -0.009688534 0.3341312 205 205 205
0.1628951 -0.008915015 0.3314594 205 205 205
0.001617722 -0.02649999 0.4580044 205 205 205
0.01057153 -0.03117295 0.4697182 205 205 205
0.05361898 -0.03638932 0.4633803 205 205 205
0.05830213 -0.03843857 0.468654 205 205 205
0.09179779 -0.03918867 0.4552485 205 205 205
0.09394103 -0.03852459 0.4518335 205 205 205
0.1007218 -0.03727511 0.44435 205 205 205
0.1259395 -0.04632435 0.4684864 205 205 205
0.127891 -0.03759033 0.4357422 205 205 205
0.1299458 -0.03257741 0.4168374 205 205 205
0.1355037 -0.02906788 0.4025949 205 205 205
0.1367692 -0.02816825 0.3990335 205 205 205
0.147968 -0.02499031 0.3851229 205 205 205
0.1621281 -0.01497439 0.3482184 205 205 205
0.1628131 -0.012253 0.3390012 205 205 205
0.1635326 -0.009122699 0.3285252 205 205 205
0.1654594 -0.006741135 0.3205504 205 205 205
0.1662988 -0.006596019 0.3200217 205 205 205
-0.0243769 -0.0182516 0.4405718 205 205 205
-0.01665784 -0.02260033 0.4509797 205 205 205
-0.01545862 -0.02312041 0.4520378 205 205 205
-0.002377542 -0.02632448 0.4546449 205 205 205
0.01236551 -0.03906638 0.492555 205 205 205
0.05274656 -0.03535841 0.4543705 205 205 205
0.09493697 -0.03967871 0.45023 205 205 205
0.09813659 -0.0387696 0.4455569 205 205 205
0.1202681 -0.041911 0.4486995 205 205 205
0.1261928 -0.04530273 0.4589695 205 205 205
0.1280461 -0.03920052 0.4362969 205 205 205
0.1273373 -0.03611872 0.4254265 205 205 205
0.1412776 -0.02742047 0.3906949 205 205 205
0.1423936 -0.02736549 0.39024 205 205 205
0.1598154 -0.02081982 0.3643292 205 205 205
0.1627468 -0.009184188 0.3253097 205 205 205
0.1631674 -0.007725207 0.3205343 205 205 205
-0.03887939 -0.01304117 0.4277242 205 205 205
-0.03092535 -0.01800154 0.4395607 205 205 205
-0.02965624 -0.01830803 0.4397059 205 205 205
-0.02854545 -0.01884157 0.4408067 205 205 205
-0.02742624 -0.01937445 0.4419038 205 205 205
-0.002490631 -0.02739358 0.45333 205 205 205
0.002516043 -0.02966212 0.458297 205 205 205
0.0993094 -0.04016819 0.4448792 205 205 205
0.1028382 -0.03977049 0.4420466 205 205 205
0.1327109 -0.04789687 0.4605611 205 205 205
0.1279074 -0.04053322 0.4359308 205 205 205
0.1444635 -0.02752006 0.3858918 205 205 205
0.1612867 -0.02143479 0.3621451 205 205 205
0.1605123 -0.01890821 0.3538751 205 205 205
0.1622415 -0.0146884 0.33978 205 205 205
0.1626556 -0.01429182 0.338439 205 205 205
0.1625122 -0.01122468 0.3285024 205 205 205
-0.02985225 -0.01956246 0.4393712 205 205 205
-0.0285818 -0.0198671 0.4395115 205 205 205
-0.02378061 -0.02153467 0.4419484 205 205 205
-0.02263923 -0.0220664 0.4430276 205 205 205
-0.01199134 -0.02681568 0.4525577 205 205 205
-0.0107667 -0.0273389 0.4535956 205 205 205
-0.002763881 -0.02895429 0.4539414 205 205 205
0.04815446 -0.03673517 0.4511988 205 205 205
0.05501614 -0.03805998 0.4523726 205 205 205
0.1004813 -0.04156239 0.4441916 205 205 205
0.1068608 -0.04152605 0.4416063 205 205 205
0.1079405 -0.04128134 0.4403338 205 205 205
0.142171 -0.02971771 0.3895854 205 205 205
0.1487436 -0.02841065 0.3836802 205 205 205
0.1529378 -0.02716857 0.3786486 205 205 205
0.1538084 -0.02615009 0.3750751 205 205 205
0.1638671 -0.009492588 0.3194791 205 205 205
-0.02052728 -0.02440323 0.4448268 205 205 205
-0.01936095 -0.02493691 0.4458927 205 205 205
-0.01495753 -0.02780458 0.4530016 205 205 205
0.002062351 -0.03257914 0.4585369 205 205 205
0.09849589 -0.04393345 0.4481867 205 205 205
0.1025358 -0.04242563 0.4413045 205 205 205
0.1122784 -0.04187507 0.4357716 205 205 205
0.1300163 -0.03701383 0.4132168 205 205 205
0.1450154 -0.0304216 0.3869875 205 205 205
0.1613575 -0.02526426 0.3667717 205 205 205
0.1612691 -0.01821551 0.3440456 205 205 205
0.1616328 -0.01400294 0.3305998 205 205 205
0.1634904 -0.01085851 0.3205254 205 205 205
0.163795 -0.01044481 0.3192064 205 205 205
-0.04189951 -0.01602128 0.4263842 205 205 205
-0.0398571 -0.01712454 0.4286522 205 205 205
-0.02897424 -0.02237207 0.4388267 205 205 205
-0.02801646 -0.02315828 0.4408769 205 205 205
0.0004394032 -0.03391327 0.4591024 205 205 205
0.04900953 -0.0389751 0.4484049 205 205 205
0.06162829 -0.04585132 0.4662 205 205 205
0.1014982 -0.04428469 0.4431132 205 205 205
0.1173086 -0.04328229 0.433918 205 205 205
0.1217306 -0.04391354 0.4345928 205 205 205
0.1230255 -0.04392209 0.4341967 205 205 205
0.1307759 -0.03794602 0.4115367 205 205 205
0.1434385 -0.0322978 0.3893326 205 205 205
0.1518032 -0.03049904 0.3815609 205 205 205
0.1533059 -0.03070714 0.3819318 205 205 205
0.1538022 -0.0293771 0.3774948 205 205 205
0.155909 -0.02756737 0.3712145 205 205 205
0.1597891 -0.02114357 0.3499465 205 205 205
0.1606927 -0.01896799 0.3429205 205 205 205
0.1608997 -0.01649858 0.3351154 205 205 205
0.1607905 -0.01580999 0.332969 205 205 205
0.1610397 -0.0147114 0.3295017 205 205 205
-0.04005258 -0.01833569 0.428315 205 205 205
-0.02466135 -0.02581396 0.4428189 205 205 205
-0.01391152 -0.03044481 0.4513949 205 205 205
-0.01269171 -0.03098245 0.4524333 205 205 205
0.04350181 -0.03963088 0.4485557 205 205 205
0.05306916 -0.04160921 0.4504496 205 205 205
0.1028873 -0.04596529 0.4433296 205 205 205
0.1259918 -0.04315737 0.4258272 205 205 205
0.1266593 -0.04255518 0.4236036 205 205 205
0.1309655 -0.03948574 0.4120735 205 205 205
0.1339531 -0.03666358 0.4018722 205 205 205
0.1429512 -0.03412349 0.3912061 205 205 205
0.1606503 -0.02277239 0.3512985 205 205 205
0.1605556 -0.01930274 0.3404576 205 205 205
0.164488 -0.01220043 0.3181273 205 205 205
0.1658733 -0.01233082 0.3183915 205 205 205
-0.03587843 -0.02153828 0.4315047 205 205 205
-0.01042635 -0.03336695 0.4541214 205 205 205
0.00353596 -0.04004142 0.4680176 205 205 205
0.03177179 -0.04692953 0.4749863 205 205 205
0.03304382 -0.04487346 0.4672257 205 205 205
0.03674981 -0.04091245 0.451604 205 205 205
0.03802355 -0.04052538 0.449586 205 205 205
0.04194278 -0.04048205 0.4473388 205 205 205
0.04465847 -0.04110733 0.4480506 205 205 205
0.05592551 -0.04439348 0.4535537 205 205 205
0.05746385 -0.04512343 0.4552882 205 205 205
0.119328 -0.04563121 0.4314702 205 205 205
0.1218991 -0.04565049 0.4306889 205 205 205
0.1237478 -0.04626062 0.4321124 205 205 205
0.1324756 -0.0388408 0.4050518 205 205 205
0.1343142 -0.03723406 0.3992996 205 205 205
0.1600644 -0.02143777 0.3436479 205 205 205
-0.04146936 -0.02018877 0.4264976 205 205 205
-0.03607489 -0.02275942 0.4311532 205 205 205
-0.03376141 -0.02363288 0.4324184 205 205 205
-0.02505772 -0.02834271 0.4420932 205 205 205
-0.02172445 -0.03026211 0.446257 205 205 205
-0.008034397 -0.03549562 0.4548222 205 205 205
0.0008018204 -0.03979668 0.4637407 205 205 205
0.02584118 -0.05258559 0.4921401 205 205 205
0.04039056 -0.04132167 0.446114 205 205 205
0.04299369 -0.04137365 0.4449238 205 205 205
0.04721186 -0.04303508 0.4483554 205 205 205
0.0544702 -0.04587302 0.4542767 205 205 205
0.1015203 -0.05478659 0.4633684 205 205 205
0.1030107 -0.04923842 0.444394 205 205 205
0.1039025 -0.04867903 0.4422074 205 205 205
0.1338478 -0.03812823 0.3980496 205 205 205
0.1485888 -0.03450095 0.3828482 205 205 205
0.1492859 -0.03412301 0.3815017 205 205 205
0.1514721 -0.0339646 0.3805292 205 205 205
0.1585764 -0.03133754 0.3708906 205 205 205
0.1619901 -0.02961136 0.3649291 205 205 205
0.1594493 -0.02146556 0.3403568 205 205 205
0.1595285 -0.01820634 0.3304555 205 205 205
0.1626513 -0.01438417 0.3185999 205 205 205
-0.04288994 -0.02106577 0.4259643 205 205 205
-0.04166563 -0.02139069 0.4261473 205 205 205
-0.0398051 -0.02277402 0.4293463 205 205 205
-0.03732662 -0.02341315 0.4296843 205 205 205
-0.03627172 -0.02397888 0.4307969 205 205 205
-0.0337797 -0.02460549 0.431109 205 205 205
-0.02849032 -0.02766725 0.437531 205 205 205
-0.02295226 -0.03072142 0.4438621 205 205 205
-0.005537066 -0.0373524 0.4545376 205 205 205
0.02836953 -0.0446959 0.4590002 205 205 205
0.03102916 -0.04336252 0.4531014 205 205 205
0.0543723 -0.04750795 0.4548269 205 205 205
0.1107217 -0.0490127 0.4360365 205 205 205
0.1325623 -0.03935762 0.3981148 205 205 205
0.1353404 -0.03862637 0.3950438 205 205 205
0.1433304 -0.03630838 0.385721 205 205 205
0.1589107 -0.03276703 0.3713905 205 205 205
0.160128 -0.03195387 0.36867 205 205 205
0.1619953 -0.03000711 0.3623932 205 205 205
0.1596866 -0.01804483 0.3267081 205 205 205
0.1609201 -0.01748408 0.3248799 205 205 205
-0.03876371 -0.0243077 0.4291581 205 205 205
-0.03415513 -0.02607965 0.4316973 205 205 205
-0.03307873 -0.02664709 0.4327973 205 205 205
-0.02996262 -0.02860489 0.4370275 205 205 205
-0.02545583 -0.03086441 0.4413473 205 205 205
-0.01950316 -0.03340503 0.4457036 205 205 205
-0.01712299 -0.03452048 0.4477989 205 205 205
0.0281253 -0.04398998 0.4519007 205 205 205
0.03078131 -0.04350758 0.4488789 205 205 205
0.03737594 -0.0435592 0.4455504 205 205 205
0.04412326 -0.04502261 0.4468789 205 205 205
0.1060137 -0.05111443 0.4397959 205 205 205
0.1103238 -0.05001163 0.4347151 205 205 205
0.1167967 -0.04858336 0.427933 205 205 205
0.1234587 -0.04893648 0.4268906 205 205 205
0.1276971 -0.04671336 0.4185287 205 205 205
0.1324345 -0.04055016 0.397746 205 205 205
0.1439404 -0.03709324 0.384027 205 205 205
0.1472563 -0.03688633 0.3826144 205 205 205
0.1540954 -0.035701 0.377479 205 205 205
0.1615193 -0.03327221 0.3686402 205 205 205
0.1619858 -0.03038493 0.3598614 205 205 205
0.1641802 -0.01598383 0.3169726 205 205 205
-0.0432842 -0.02346328 0.4252499 205 205 205
-0.02306834 -0.03272046 0.4411947 205 205 205
0.0001252761 -0.04412394 0.4634822 205 205 205
0.02790917 -0.04411845 0.4476775 205 205 205
0.0384476 -0.04442972 0.4431405 205 205 205
0.05134455 -0.05017708 0.4552768 205 205 205
0.05294644 -0.05125013 0.4579664 205 205 205
0.1065528 -0.05523819 0.4480202 205 205 205
0.1095831 -0.05223547 0.4374159 205 205 205
0.1189298 -0.04957704 0.4258567 205 205 205
0.1259524 -0.04894829 0.4216579 205 205 205
0.1284884 -0.04636082 0.412814 205 205 205
0.1314761 -0.04209093 0.3986866 205 205 205
0.1438214 -0.03824756 0.3836642 205 205 205
0.153982 -0.0368451 0.3771188 205 205 205
0.1587265 -0.02494207 0.3407366 205 205 205
0.1589754 -0.02231524 0.332988 205 205 205
0.1598797 -0.01954781 0.3247871 205 205 205
-0.04246281 -0.02524201 0.4260118 205 205 205
-0.03935458 -0.02698716 0.4293707 205 205 205
-0.03129708 -0.03024537 0.4342374 205 205 205
-0.02441594 -0.03340894 0.4397459 205 205 205
0.02099204 -0.04556837 0.4513954 205 205 205
0.03568356 -0.04596104 0.4448524 205 205 205
0.1093437 -0.05887812 0.4536795 205 205 205
0.1095692 -0.05732017 0.4487254 205 205 205
0.1177762 -0.05116917 0.426743 205 205 205
0.1274132 -0.04923861 0.4177329 205 205 205
0.128659 -0.04792446 0.4133145 205 205 205
0.1414632 -0.04155781 0.3903667 205 205 205
0.144084 -0.03971843 0.3841644 205 205 205
0.1581907 -0.03760847 0.3747274 205 205 205
0.1581062 -0.02491152 0.3374503 205 205 205
0.1586768 -0.02182243 0.3284187 205 205 205
0.1603086 -0.02081467 0.3252807 205 205 205
0.1625466 -0.01890634 0.3195155 205 205 205
0.1640193 -0.01786726 0.3163739 205 205 205
-0.04143045 -0.0267666 0.4258189 205 205 205
-0.03456779 -0.02947045 0.4296324 205 205 205
-0.0174776 -0.03780763 0.4447117 205 205 205
-0.01121194 -0.04006707 0.4479459 205 205 205
0.02085333 -0.04567348 0.4471688 205 205 205
0.02751778 -0.04579827 0.4440073 205 205 205
0.04238904 -0.04968025 0.4486366 205 205 205
0.04389388 -0.0507811 0.4513574 205 205 205
0.1134992 -0.06640979 0.4706864 205 205 205
0.115071 -0.05402821 0.4320115 205 205 205
0.1155877 -0.05307302 0.4289068 205 205 205
0.1290681 -0.04718084 0.4067214 205 205 205
0.1315446 -0.04479945 0.3988099 205 205 205
0.1323795 -0.04444157 0.3974969 205 205 205
0.1576447 -0.03842983 0.373515 205 205 205
0.1632917 -0.03640946 0.3665118 205 205 205
0.1580121 -0.02591604 0.3371249 205 205 205
0.157885 -0.02442092 0.3328579 205 205 205
-0.03955645 -0.02914204 0.427672 205 205 205
-0.03278766 -0.03212027 0.4323817 205 205 205
-0.02852582 -0.0347244 0.4376551 205 205 205
-0.01395721 -0.04050447 0.4464506 205 205 205
-0.01263236 -0.04078567 0.446521 205 205 205
-0.006178792 -0.04273367 0.4487078 205 205 205
-0.003422867 -0.04297322 0.4478352 205 205 205
0.01932705 -0.04674886 0.4468033 205 205 205
0.02335493 -0.0464706 0.4437923 205 205 205
0.03537351 -0.04915788 0.4459329 205 205 205
0.04867288 -0.05701228 0.4637782 205 205 205
0.1300369 -0.04703739 0.4019273 205 205 205
0.1434819 -0.04274321 0.385612 205 205 205
0.1460626 -0.04188814 0.3824737 205 205 205
0.1471718 -0.04181544 0.3819977 205 205 205
0.1511842 -0.04117573 0.3792019 205 205 205
0.1587981 -0.03871667 0.3704328 205 205 205
0.1611053 -0.03442279 0.3576331 205 205 205
0.1575109 -0.02886517 0.3424006 205 205 205
0.1574994 -0.02811167 0.3402566 205 205 205
0.1574723 -0.02735775 0.3381169 205 205 205
0.157993 -0.02345414 0.3269793 205 205 205
-0.03389256 -0.03247992 0.4299574 205 205 205
-0.03206548 -0.03420613 0.4340226 205 205 205
-0.02872678 -0.03596696 0.4372577 205 205 205
-0.006287856 -0.04372773 0.4473417 205 205 205
0.01253054 -0.04631018 0.4446475 205 205 205
0.02051569 -0.0473292 0.4434853 205 205 205
0.02581768 -0.04784801 0.4423018 205 205 205
0.03797111 -0.05176093 0.4481471 205 205 205
0.03936025 -0.05225656 0.4489817 205 205 205
0.04973311 -0.06475738 0.4822475 205 205 205
0.118482 -0.06880099 0.4663669 205 205 205
0.1167367 -0.06451964 0.4541278 205 205 205
0.1204281 -0.05569584 0.4265213 205 205 205
0.1270037 -0.05166981 0.4125156 205 205 205
0.1376608 -0.04523731 0.3905754 205 205 205
0.1403486 -0.04441514 0.3874777 205 205 205
0.148157 -0.04289048 0.3811365 205 205 205
0.1499646 -0.04240408 0.3793113 205 205 205
0.1595604 -0.04049092 0.3717355 205 205 205
0.1606309 -0.04038448 0.3712142 205 205 205
0.1609206 -0.02356729 0.3238181 205 205 205
0.1610992 -0.02234504 0.3204064 205 205 205
0.1622909 -0.02174647 0.3185825 205 205 205
0.1643095 -0.02099291 0.316231 205 205 205
0.001451858 -0.04687665 0.4480543 205 205 205
0.002856893 -0.04682577 0.4471172 205 205 205
0.004193844 -0.04707452 0.4471261 205 205 205
0.006975501 -0.04695373 0.4452282 205 205 205
0.01634976 -0.04795438 0.4431933 205 205 205
0.03098576 -0.05117295 0.4453702 205 205 205
0.1242457 -0.05563844 0.4208945 205 205 205
0.1297617 -0.04944175 0.4011274 205 205 205
0.1302938 -0.04874132 0.3989359 205 205 205
0.1311402 -0.04837406 0.3976279 205 205 205
0.136386 -0.04645615 0.3906282 205 205 205
0.141351 -0.04551797 0.3866303 205 205 205
0.1620471 -0.03910184 0.3637438 205 205 205
0.1604277 -0.03625792 0.3560857 205 205 205
0.1582208 -0.03309226 0.3476498 205 205 205
0.15675 -0.02827455 0.334502 205 205 205
0.1594385 -0.02434584 0.3232114 205 205 205
0.1642235 -0.02193191 0.3159145 205 205 205
-0.02412577 -0.03994783 0.4378579 205 205 205
-0.02167612 -0.0408318 0.4390095 205 205 205
-0.01828312 -0.04288068 0.4430727 205 205 205
-0.0157687 -0.0437517 0.444182 205 205 205
-0.007733645 -0.0451186 0.4436069 205 205 205
-0.00650405 -0.04568812 0.4446017 205 205 205
-0.002685385 -0.04708635 0.4466102 205 205 205
0.006833923 -0.04792262 0.4438548 205 205 205
0.009534703 -0.04808799 0.4428898 205 205 205
0.014833 -0.0490048 0.4428034 205 205 205
0.1239973 -0.07580391 0.4754903 205 205 205
0.121682 -0.05860815 0.4261596 205 205 205
0.1226877 -0.05827008 0.4248601 205 205 205
0.1231135 -0.05724975 0.4217664 205 205 205
0.1258004 -0.05312777 0.4090116 205 205 205
0.1296224 -0.05064124 0.4007206 205 205 205
0.1616388 -0.04175822 0.3677357 205 205 205
0.1603186 -0.03733232 0.3557194 205 205 205
0.1599318 -0.03622585 0.3527332 205 205 205
0.1575726 -0.02914078 0.3336598 205 205 205
0.1579197 -0.0279087 0.3302271 205 205 205
0.1582187 -0.02667384 0.326805 205 205 205
0.1586034 -0.02621732 0.3254976 205 205 205
0.1605756 -0.02470234 0.3210683 205 205 205
0.1623099 -0.02441801 0.3200348 205 205 205
0.1655258 -0.02303531 0.315845 205 205 205
-0.02432711 -0.04119056 0.4374433 205 205 205
-0.02071285 -0.04266908 0.4396342 205 205 205
-0.007933239 -0.04638594 0.4431822 205 205 205
0.00531141 -0.04895253 0.4434282 205 205 205
0.009340681 -0.04935721 0.442463 205 205 205
0.01198996 -0.04982163 0.4424285 205 205 205
0.01464057 -0.05027551 0.4423755 205 205 205
0.02391281 -0.052743 0.4448854 205 205 205
0.02525164 -0.05294911 0.444819 205 205 205
0.02929089 -0.05419761 0.4464842 205 205 205
0.03344476 -0.05640319 0.4509409 205 205 205
0.04111231 -0.06388033 0.4692666 205 205 205
0.1208279 -0.06569561 0.442613 205 205 205
0.125334 -0.05539677 0.41167 205 205 205
0.1265665 -0.05399174 0.407291 205 205 205
0.1356693 -0.04952206 0.3920173 205 205 205
0.1433502 -0.04770929 0.384911 205 205 205
0.1568345 -0.04485745 0.3738025 205 205 205
0.1613494 -0.04365866 0.3695364 205 205 205
0.1565941 -0.0310399 0.3359455 205 205 205
-0.03541261 -0.03847498 0.4321194 205 205 205
-0.03414188 -0.03879249 0.4322631 205 205 205
-0.01438729 -0.04535527 0.43962 205 205 205
-0.01177124 -0.04591184 0.4397512 205 205 205
-0.009253406 -0.04676529 0.4408102 205 205 205
-0.00292205 -0.04902248 0.4438526 205 205 205
0.02505906 -0.05455687 0.4453263 205 205 205
0.02775885 -0.05561546 0.447069 205 205 205
0.03186705 -0.05719141 0.4496444 205 205 205
0.03619348 -0.06040069 0.4568904 205 205 205
0.127318 -0.07778285 0.4704919 205 205 205
0.123211 -0.05874162 0.4178074 205 205 205
0.1261135 -0.05486347 0.4059811 205 205 205
0.1293405 -0.05303467 0.3998933 205 205 205
0.1350649 -0.05143119 0.3937952 205 205 205
0.1570016 -0.0339544 0.340665 205 205 205
-0.04344669 -0.03596907 0.4258949 205 205 205
-0.03670043 -0.03908225 0.4306164 205 205 205
-0.03324592 -0.04062266 0.4329247 205 205 205
-0.03179935 -0.04064114 0.4321194 205 205 205
-0.02797494 -0.04156523 0.4324952 205 205 205
-0.01327988 -0.04688552 0.4392582 205 205 205
-0.003121746 -0.0502914 0.4434156 205 205 205
0.004977502 -0.05117094 0.4416127 205 205 205
0.01690723 -0.05325578 0.4414324 205 205 205
0.01821343 -0.05379994 0.4423344 205 205 205
0.02894716 -0.05809988 0.4493709 205 205 205
0.1271619 -0.07541493 0.4592302 205 205 205
0.1250354 -0.05786247 0.4108078 205 205 205
0.1606801 -0.04282677 0.3605667 205 205 205
-0.04075593 -0.03724152 0.4239512 205 205 205
-0.03990963 -0.03815058 0.4259849 205 205 205
-0.03310053 -0.04124868 0.4306245 205 205 205
-0.009449443 -0.04864562 0.4380541 205 205 205
-0.005797671 -0.05039654 0.441019 205 205 205
-0.002071826 -0.05213756 0.4439441 205 205 205
0.0154448 -0.05364352 0.4391397 205 205 205
0.02195572 -0.0576995 0.447392 205 205 205
0.03336623 -0.06839081 0.4721794 205 205 205
0.1248844 -0.05909243 0.4103696 205 205 205
0.1383627 -0.05252909 0.3885711 205 205 205
0.146678 -0.05018302 0.3800877 205 205 205
0.1485077 -0.04967543 0.3782735 205 205 205
0.1496148 -0.04959327 0.3777865 205 205 205
0.1542875 -0.04844744 0.3736182 205 205 205
0.1575502 -0.04815003 0.3720891 205 205 205
0.1572638 -0.0355139 0.3386274 205 205 205
0.1576582 -0.03342908 0.3330741 205 205 205
0.1575993 -0.03261939 0.3309619 205 205 205
0.1579333 -0.03133868 0.3275488 205 205 205
0.158333 -0.03086677 0.3262443 205 205 205
0.1650658 -0.02808983 0.3179075 205 205 205
0.1653907 -0.02760328 0.3166017 205 205 205
-0.03673407 -0.04090936 0.4279 205 205 205
-0.02484006 -0.04552593 0.4338562 205 205 205
-0.02083858 -0.04610213 0.4332098 205 205 205
-0.01605519 -0.04818805 0.4363622 205 205 205
-0.004764463 -0.0522389 0.4415531 205 205 205
0.01912111 -0.0572217 0.4432765 205 205 205
0.02175922 -0.0589901 0.4469337 205 205 205
0.03012324 -0.06631734 0.4634186 205 205 205
0.1264013 -0.07396377 0.4466338 205 205 205
0.1224586 -0.06537137 0.424397 205 205 205
0.1223344 -0.06357845 0.419541 205 205 205
0.1227457 -0.06249926 0.4164694 205 205 205
0.1297733 -0.05622263 0.3973179 205 205 205
0.1323131 -0.05504347 0.3934096 205 205 205
0.1343045 -0.05460261 0.3916668 205 205 205
0.1354654 -0.05455692 0.3912255 205 205 205
0.1545788 -0.04992818 0.3740468 205 205 205
0.1574235 -0.03278074 0.3285017 205 205 205
-0.04156121 -0.04021221 0.4249805 205 205 205
-0.01948554 -0.04698554 0.4309829 205 205 205
-0.01846587 -0.04790371 0.4329459 205 205 205
0.008361867 -0.05567389 0.440254 205 205 205
0.01370344 -0.05626481 0.4392201 205 205 205
0.01758546 -0.05827638 0.4428678 205 205 205
0.02707523 -0.06793457 0.4649885 205 205 205
0.1249088 -0.06044579 0.4064202 205 205 205
0.1258252 -0.06006612 0.4051263 205 205 205
0.1282055 -0.05855026 0.4003583 205 205 205
0.1333387 -0.05617545 0.392546 205 205 205
0.1392346 -0.05479605 0.3872723 205 205 205
0.1411847 -0.05317546 0.3824616 205 205 205
0.1456828 -0.05289852 0.3805845 205 205 205
0.1562116 -0.05050545 0.3717811 205 205 205
0.1623014 -0.05149706 0.3730104 205 205 205
0.1594197 -0.04538756 0.3577445 205 205 205
0.1570287 -0.03916946 0.3421418 205 205 205
0.1570067 -0.03587664 0.3336627 205 205 205
0.1627955 -0.03077147 0.3195735 205 205 205
0.1666009 -0.029667 0.3161525 205 205 205
-0.04176367 -0.04140324 0.4245527 205 205 205
-0.03732627 -0.04361838 0.4279748 205 205 205
-0.03461804 -0.04394959 0.4273274 205 205 205
-0.03226558 -0.04488682 0.4285305 205 205 205
-0.02750413 -0.04674225 0.4308875 205 205 205
-0.01968513 -0.04820058 0.4305442 205 205 205
-0.01853586 -0.04880672 0.4315658 205 205 205
-0.01503784 -0.05061984 0.4346061 205 205 205
-0.01004966 -0.05237318 0.4367219 205 205 205
-0.005255489 -0.0550832 0.4415876 205 205 205
0.0269793 -0.07929214 0.491715 205 205 205
0.1244248 -0.06277061 0.409027 205 205 205
0.1250573 -0.06202414 0.4068528 205 205 205
0.1268905 -0.06125445 0.4042638 205 205 205
0.1277939 -0.06086575 0.4029669 205 205 205
0.1363432 -0.05684337 0.3899211 205 205 205
0.1481139 -0.0530825 0.3770253 205 205 205
0.151434 -0.05282591 0.3755537 205 205 205
0.1575981 -0.05188562 0.3716805 205 205 205
0.1610778 -0.05274604 0.3731191 205 205 205
0.1626114 -0.05299204 0.3734128 205 205 205
-0.03355823 -0.04546463 0.4270262 205 205 205
-0.02514766 -0.04855949 0.4306602 205 205 205
-0.02258547 -0.04915289 0.4308579 205 205 205
-0.008942164 -0.05388286 0.4363157 205 205 205
-0.002797471 -0.05686786 0.4411809 205 205 205
0.00519675 -0.05838225 0.4412338 205 205 205
0.01187037 -0.05957027 0.4411501 205 205 205
0.01969737 -0.06505096 0.4521565 205 205 205
0.1297314 -0.08138523 0.4526868 205 205 205
0.1253077 -0.07363132 0.4336239 205 205 205
0.1242694 -0.06399269 0.40857 205 205 205
0.1249032 -0.06323873 0.4063986 205 205 205
0.1322159 -0.0589245 0.3929777 205 205 205
0.1373597 -0.05795633 0.3890358 205 205 205
0.1381618 -0.05753477 0.3877234 205 205 205
0.1613822 -0.05424352 0.3735174 205 205 205
0.1587266 -0.0471815 0.3561237 205 205 205
0.1568246 -0.04036561 0.3392615 205 205 205
0.1572746 -0.0382055 0.3337255 205 205 205
0.1638128 -0.03201343 0.317042 205 205 205
0.1669469 -0.03189411 0.3162161 205 205 205
-0.03376063 -0.04666283 0.4265839 205 205 205
-0.03249722 -0.04697633 0.4267151 205 205 205
-0.02519915 -0.04944953 0.4292772 205 205 205
-0.01777975 -0.05185245 0.4316848 205 205 205
-0.01295534 -0.05396604 0.434764 205 205 205
0.008953038 -0.06070786 0.4416659 205 205 205
0.01421633 -0.06267481 0.4443638 205 205 205
0.1243392 -0.0670902 0.4129194 205 205 205
0.1315543 -0.06087832 0.3947018 205 205 205
0.1355841 -0.05996267 0.3912139 205 205 205
0.1407725 -0.05659885 0.3811783 205 205 205
0.1434043 -0.05683383 0.3810968 205 205 205
0.1489547 -0.05526101 0.3756849 205 205 205
0.1507624 -0.05471842 0.3738636 205 205 205
0.1609888 -0.05212251 0.3649293 205 205 205
0.1569903 -0.04511278 0.3481836 205 205 205
0.1571275 -0.03834566 0.3312473 205 205 205
0.161401 -0.03510819 0.322406 205 205 205
0.1617747 -0.03460868 0.3211054 205 205 205
0.1630193 -0.03395975 0.3192827 205 205 205
0.1633704 -0.03345659 0.3179831 205 205 205
0.1659814 -0.032994 0.3163936 205 205 205
-0.04172534 -0.04623604 0.4261861 205 205 205
-0.03920134 -0.04689367 0.4264978 205 205 205
-0.02427115 -0.05128176 0.4298589 205 205 205
-0.01564254 -0.05430205 0.4332414 205 205 205
-0.005684484 -0.05817342 0.4383154 205 205 205
0.002060167 -0.06074792 0.44123 205 205 205
0.006018669 -0.06183556 0.4421566 205 205 205
0.01637298 -0.06932113 0.4568991 205 205 205
0.1254905 -0.06679118 0.4081063 205 205 205
0.1258188 -0.06564324 0.4050622 205 205 205
0.1267374 -0.06524557 0.4037698 205 205 205
0.1382304 -0.06022445 0.3876971 205 205 205
0.146989 -0.05692662 0.377063 205 205 205
0.1596894 -0.05127369 0.359898 205 205 205
0.157075 -0.04103374 0.3350743 205 205 205
0.1620369 -0.03505393 0.3194416 205 205 205
0.1629168 -0.03490518 0.3189188 205 205 205
-0.04631839 -0.04514237 0.4222853 205 205 205
-0.04507225 -0.04548 0.4224594 205 205 205
-0.02688043 -0.05156042 0.4282642 205 205 205
-0.02447383 -0.05249088 0.4294004 205 205 205
-0.02062424 -0.05337399 0.4296739 205 205 205
-0.01454582 -0.05580677 0.4328415 205 205 205
-0.01075042 -0.05697516 0.4339427 205 205 205
-0.009444783 -0.05724687 0.4339894 205 205 205
-0.003157016 -0.05959967 0.4369594 205 205 205
-0.0006661793 -0.0608054 0.4388641 205 205 205
0.137277 -0.06181605 0.3885573 205 205 205
0.1380853 -0.06138267 0.3872477 205 205 205
0.1609204 -0.03838894 0.3250486 205 205 205
0.1663145 -0.03523087 0.3164308 205 205 205
0.1671849 -0.03507099 0.3158934 205 205 205
-0.02947131 -0.05182124 0.426652 205 205 205
-0.01838527 -0.05549797 0.430301 205 205 205
-0.009646754 -0.05847404 0.4335171 205 205 205
0.01057525 -0.0688767 0.4504433 205 205 205
0.1298492 -0.08232873 0.4386631 205 205 205
0.1399484 -0.06083231 0.3820144 205 205 205
0.147434 -0.05872345 0.374859 205 205 205
0.1514575 -0.05799199 0.3720599 205 205 205
0.1608504 -0.05667562 0.3666149 205 205 205
0.156301 -0.046118 0.3419286 205 205 205
0.1578034 -0.04375718 0.3358913 205 205 205
0.1606999 -0.03847493 0.3225907 205 205 205
-0.04277883 -0.04818446 0.4209632 205 205 205
-0.04173503 -0.04883937 0.4220467 205 205 205
-0.03728687 -0.05112518 0.42542 205 205 205
0.1271791 -0.07667303 0.4214964 205 205 205
0.1338211 -0.06467104 0.3898395 205 205 205
0.1349927 -0.06462336 0.3893956 205 205 205
0.1524203 -0.05901496 0.3711159 205 205 205
0.1535187 -0.05891773 0.3706126 205 205 205
0.1546153 -0.05881795 0.3701057 205 205 205
0.1596088 -0.06002354 0.3718414 205 205 205
0.1573206 -0.05088657 0.3502997 205 205 205
0.1636454 -0.03846667 0.3193455 205 205 205
0.166828 -0.03836623 0.3185124 205 205 205
-0.04817911 -0.04833272 0.4207427 205 205 205
-0.04298276 -0.04935798 0.4205037 205 205 205
-0.0335129 -0.05293978 0.4244308 205 205 205
-0.01503543 -0.05911748 0.430488 205 205 205
-0.004997421 -0.06269711 0.4345573 205 205 205
0.008498839 -0.08563413 0.4857231 205 205 205
0.1302612 -0.06755801 0.3945577 205 205 205
0.1533808 -0.06003277 0.3701642 205 205 205
0.1590425 -0.06076809 0.3705694 205 205 205
0.1589118 -0.04332918 0.3290958 205 205 205
0.1602664 -0.04267686 0.3272792 205 205 205
-0.04297967 -0.05019878 0.4191189 205 205 205
-0.02753651 -0.05601483 0.4254649 205 205 205
-0.02385814 -0.05725992 0.4266866 205 205 205
-0.01886301 -0.05877562 0.4279462 205 205 205
-0.006517701 -0.06366243 0.4340391 205 205 205
0.002048906 -0.06908372 0.443431 205 205 205
0.1293126 -0.08077806 0.423526 205 205 205
0.1277734 -0.07361472 0.4065922 205 205 205
0.1335178 -0.06698977 0.3889037 205 205 205
0.13794 -0.06515189 0.3832535 205 205 205
0.1466759 -0.06294881 0.3756596 205 205 205
0.1477964 -0.06286558 0.3751739 205 205 205
0.1503416 -0.06182125 0.3720381 205 205 205
0.1543391 -0.06104546 0.3692048 205 205 205
0.1558554 -0.06133045 0.3695145 205 205 205
0.1606432 -0.0591135 0.3631258 205 205 205
0.1570677 -0.05297789 0.3494534 205 205 205
-0.04129758 -0.05303293 0.4217239 205 205 205
-0.02519063 -0.05780854 0.4251866 205 205 205
-0.02278112 -0.05875158 0.4262949 205 205 205
0.002696066 -0.07353859 0.4503393 205 205 205
0.1279306 -0.07361098 0.4030724 205 205 205
0.1302714 -0.07030089 0.39446 205 205 205
0.1345372 -0.06809776 0.3879854 205 205 205
0.1416418 -0.06524236 0.3792508 205 205 205
0.1450465 -0.06502157 0.3778299 205 205 205
0.1487716 -0.06390318 0.3742228 205 205 205
0.1501998 -0.06293687 0.3715795 205 205 205
0.1531014 -0.06225698 0.3692548 205 205 205
0.1582685 -0.04669504 0.3316821 205 205 205
0.1652521 -0.04190034 0.3191901 205 205 205
-0.04275874 -0.05387644 0.4210922 205 205 205
-0.0368421 -0.05619872 0.4236625 205 205 205
-0.0341263 -0.05649315 0.4230036 205 205 205
-0.01926995 -0.06117588 0.4269738 205 205 205
-0.01681846 -0.06210522 0.4280373 205 205 205
-0.0156465 -0.06274673 0.4290254 205 205 205
-0.00579008 -0.06711065 0.4349236 205 205 205
-0.003220992 -0.06800315 0.4358905 205 205 205
0.1301876 -0.07311518 0.3978394 205 205 205
0.1352106 -0.06880014 0.3862096 205 205 205
0.1414936 -0.06637286 0.3787814 205 205 205
0.1467738 -0.06559263 0.3755631 205 205 205
0.1478987 -0.06550856 0.3750761 205 205 205
0.1486269 -0.06502457 0.3737569 205 205 205
0.1504587 -0.06444722 0.371942 205 205 205
0.1566721 -0.06345005 0.3680785 205 205 205
0.1577129 -0.05584525 0.3501947 205 205 205
0.1581621 -0.04949469 0.3354502 205 205 205
0.1622639 -0.04567381 0.3258174 205 205 205
0.1679814 -0.0432893 0.3192376 205 205 205
-0.04650922 -0.05369707 0.4192058 205 205 205
-0.03831577 -0.05705705 0.4230391 205 205 205
-0.03196858 -0.05865339 0.4236821 205 205 205
-0.03069633 -0.05896494 0.4237973 205 205 205
-0.02814909 -0.05958036 0.4240144 205 205 205
-0.02559842 -0.06018545 0.4242136 205 205 205
-0.01572922 -0.06358967 0.4276043 205 205 205
-0.01455307 -0.06423337 0.4285862 205 205 205
-0.01076171 -0.06542687 0.4296576 205 205 205
0.0007934141 -0.08472669 0.4705555 205 205 205
0.1488754 -0.06654482 0.3741135 205 205 205
0.1569493 -0.05336289 0.3418318 205 205 205
0.1570504 -0.05153449 0.3376363 205 205 205
0.1612912 -0.0477075 0.3280091 205 205 205
0.1617233 -0.04717421 0.3267096 205 205 205
-0.04943513 -0.05451629 0.4192883 205 205 205
-0.04085639 -0.05723169 0.4213448 205 205 205
-0.02096611 -0.06327712 0.4259073 205 205 205
-0.01593356 -0.06478941 0.4271039 205 205 205
-0.007432686 -0.06892984 0.4329524 205 205 205
-0.005052108 -0.07058071 0.4357714 205 205 205
-0.003801685 -0.0712185 0.4367124 205 205 205
-0.002703357 -0.0726046 0.4394963 205 205 205
0.1355812 -0.08991534 0.4286767 205 205 205
0.1330511 -0.07328104 0.3908206 205 205 205
0.1347507 -0.07236908 0.3882309 205 205 205
0.1392749 -0.06916995 0.3795965 205 205 205
0.1449811 -0.06881008 0.3772408 205 205 205
0.1568092 -0.0660694 0.3679539 205 205 205
0.1602966 -0.06705023 0.369336 205 205 205
0.1617136 -0.05000203 0.3304476 205 205 205
0.1621621 -0.04946502 0.3291453 205 205 205
-0.02600763 -0.06255382 0.4232218 205 205 205
-0.0112789 -0.06821481 0.4295654 205 205 205
-0.00640953 -0.07079517 0.4333844 205 205 205
0.1366044 -0.07300586 0.3859879 205 205 205
0.1467153 -0.06936558 0.3749617 205 205 205
0.1485791 -0.06878452 0.3731573 205 205 205
0.1589702 -0.06151642 0.3541707 205 205 205
0.1582403 -0.05380166 0.3370561 205 205 205
-0.04859958 -0.05719263 0.4184813 205 205 205
-0.04734748 -0.05753705 0.4186523 205 205 205
-0.04232807 -0.05888947 0.4192922 205 205 205
-0.0239505 -0.06506839 0.4247349 205 205 205
-0.02008856 -0.06595062 0.4249723 205 205 205
-0.01751012 -0.06652562 0.4251082 205 205 205
-0.006802776 -0.07277803 0.4347027 205 205 205
-0.003530223 -0.07700876 0.4430391 205 205 205
-0.002779705 -0.08033553 0.4504122 205 205 205
0.1450504 -0.07015686 0.3741331 205 205 205
0.1480363 -0.06948964 0.3718506 205 205 205
0.1498729 -0.0688956 0.3700425 205 205 205
0.1592782 -0.06298488 0.3545069 205 205 205
0.1585828 -0.05520421 0.3374069 205 205 205
0.1619581 -0.05236285 0.3303741 205 205 205
0.1619171 -0.05141762 0.3283014 205 205 205
0.1649481 -0.04851952 0.3212839 205 205 205
0.1676732 -0.04803958 0.3196637 205 205 205
0.1700113 -0.0481019 0.3193187 205 205 205
-0.01887321 -0.06705311 0.4236123 205 205 205
0.1430111 -0.07184666 0.3754272 205 205 205
0.1448984 -0.07127234 0.3736441 205 205 205
0.1523533 -0.07022304 0.3693712 205 205 205
0.1545763 -0.07001845 0.3683529 205 205 205
0.157942 -0.06187594 0.3495435 205 205 205
0.1572634 -0.05917092 0.3437551 205 205 205
0.1667741 -0.05011386 0.3218414 205 205 205
-0.04607736 -0.05948757 0.4159987 205 205 205
-0.04461792 -0.05946725 0.4152503 205 205 205
-0.0421279 -0.06013455 0.4155572 205 205 205
-0.03983093 -0.06115449 0.4167574 205 205 205
-0.02436342 -0.06743967 0.4237077 205 205 205
-0.01222663 -0.07298186 0.4307556 205 205 205
-0.006518397 -0.078213 0.44008 205 205 205
0.1376487 -0.07680899 0.3848619 205 205 205
0.1413137 -0.07395339 0.3775344 205 205 205
0.1417193 -0.07303954 0.3754053 205 205 205
0.1587011 -0.0637456 0.3506657 205 205 205
0.1626864 -0.05513773 0.3310501 205 205 205
0.1631481 -0.05458345 0.3297489 205 205 205
-0.04357919 -0.06095164 0.4149013 205 205 205
-0.04108671 -0.06161495 0.4151988 205 205 205
-0.03082632 -0.06671766 0.4217943 205 205 205
-0.02457042 -0.06862197 0.423187 205 205 205
-0.01132704 -0.07524633 0.4320911 205 205 205
-0.007005045 -0.08063489 0.4422763 205 205 205
0.1443063 -0.1040109 0.4397067 205 205 205
0.1365888 -0.09160328 0.4146154 205 205 205
0.1337523 -0.08602058 0.403142 205 205 205
0.1378349 -0.07837965 0.385185 205 205 205
0.1411565 -0.07507635 0.3770318 205 205 205
0.143083 -0.07315431 0.3723087 205 205 205
0.1471897 -0.07239418 0.3695589 205 205 205
0.1490225 -0.07178832 0.3677593 205 205 205
0.1512398 -0.07159427 0.3667627 205 205 205
0.1591466 -0.06425116 0.3488825 205 205 205
0.1634739 -0.05500431 0.3280105 205 205 205
0.1634189 -0.05403427 0.3259491 205 205 205
0.1657112 -0.05316185 0.3235801 205 205 205
-0.04129238 -0.06276332 0.4146889 205 205 205
-0.02492675 -0.07018401 0.4235737 205 205 205
-0.02220221 -0.07039664 0.4228219 205 205 205
-0.01164444 -0.07685441 0.4324625 205 205 205
0.1354766 -0.08804733 0.4038287 205 205 205
0.1343777 -0.08322988 0.3936513 205 205 205
0.1352628 -0.08275135 0.3923572 205 205 205
0.1363258 -0.08092875 0.3880916 205 205 205
0.1397747 -0.07762086 0.3799469 205 205 205
0.1402116 -0.07669608 0.3778215 205 205 205
0.1409982 -0.07619714 0.376525 205 205 205
0.1559216 -0.07269307 0.3650329 205 205 205
0.1632918 -0.05500139 0.325511 205 205 205
0.1680515 -0.05519655 0.3248644 205 205 205
-0.04025013 -0.06423841 0.4143158 205 205 205
-0.0288432 -0.07006649 0.4218586 205 205 205
-0.02771539 -0.07075728 0.422864 205 205 205
-0.02369788 -0.07127892 0.4222137 205 205 205
-0.02098219 -0.07148107 0.4214533 205 205 205
-0.01185599 -0.07807233 0.4319134 205 205 205
0.135912 -0.08834931 0.401132 205 205 205
0.1369782 -0.08473518 0.3930389 205 205 205
0.1385477 -0.0819678 0.3866408 205 205 205
0.1431473 -0.07579423 0.3721248 205 205 205
0.1491142 -0.07440896 0.3675737 205 205 205
0.1535584 -0.07400658 0.3655601 205 205 205
0.1600653 -0.06857972 0.3523951 205 205 205
0.1598967 -0.06620485 0.3474088 205 205 205
0.1627855 -0.05850251 0.330481 205 205 205
-0.04756134 -0.06519658 0.4166561 205 205 205
-0.009901332 -0.08184128 0.4359774 205 205 205
0.1369887 -0.08950519 0.4001141 205 205 205
0.1365815 -0.08727201 0.3954657 205 205 205
0.1406121 -0.07980854 0.3784416 205 205 205
0.1414075 -0.07930155 0.3771455 205 205 205
0.1482368 -0.0760321 0.3683727 205 205 205
0.1575635 -0.07563096 0.3651025 205 205 205
0.1605217 -0.06907985 0.3505917 205 205 205
0.166422 -0.05787596 0.3258173 205 205 205
-0.05119302 -0.06714547 0.4193928 205 205 205
-0.04211492 -0.06657422 0.4140342 205 205 205
-0.03259053 -0.07031121 0.4177585 205 205 205
-0.02781677 -0.07232956 0.4199745 205 205 205
-0.01338887 -0.07941751 0.4289447 205 205 205
0.1373042 -0.08796231 0.3936169 205 205 205
0.149917 -0.07650201 0.3660593 205 205 205
0.1576666 -0.07574716 0.3624736 205 205 205
0.1618556 -0.06602104 0.3412157 205 205 205
0.1643976 -0.05916106 0.3264454 205 205 205
-0.04378203 -0.06776462 0.4142596 205 205 205
-0.0349748 -0.07005634 0.4151876 205 205 205
-0.03008772 -0.07170114 0.4165261 205 205 205
-0.0228897 -0.07470004 0.4197653 205 205 205
-0.01260254 -0.08211713 0.4311451 205 205 205
0.1397089 -0.09085611 0.3959171 205 205 205
0.1392402 -0.08858135 0.3912967 205 205 205
0.1395844 -0.08579927 0.3853904 205 205 205
0.1400738 -0.0848482 0.3832688 205 205 205
0.1624458 -0.06990893 0.3464487 205 205 205
0.1621802 -0.06747101 0.3415073 205 205 205
0.1657855 -0.06242138 0.3303093 205 205 205
0.1667523 -0.06226469 0.3297637 205 205 205
-0.04002361 -0.06951932 0.4132468 205 205 205
-0.03770367 -0.07056069 0.4144071 205 205 205
-0.03156373 -0.07254318 0.4158833 205 205 205
-0.0304623 -0.07324959 0.4168882 205 205 205
-0.01622054 -0.0804394 0.4259208 205 205 205
-0.01314617 -0.08455543 0.4332932 205 205 205
0.1412191 -0.09427829 0.3994945 205 205 205
0.1404305 -0.09153832 0.3940484 205 205 205
0.1397621 -0.08739477 0.385668 205 205 205
0.140837 -0.08406782 0.378495 205 205 205
0.1562531 -0.07803995 0.3619652 205 205 205
0.160628 -0.07511114 0.3548597 205 205 205
-0.04377937 -0.06927227 0.4113894 205 205 205
-0.02923267 -0.07431271 0.4155369 205 205 205
-0.02073301 -0.07761768 0.4188039 205 205 205
-0.01361256 -0.09225486 0.4463127 205 205 205
0.1395895 -0.08854529 0.3851152 205 205 205
0.1422003 -0.08556803 0.3782957 205 205 205
0.1442325 -0.08210999 0.3706753 205 205 205
0.1576739 -0.07699569 0.3567188 205 205 205
0.1623331 -0.07445645 0.3504022 205 205 205
0.1626097 -0.07242239 0.3462281 205 205 205
0.1628229 -0.07038558 0.3420691 205 205 205
0.1633748 -0.06980419 0.3407625 205 205 205
0.1634453 -0.06878386 0.3386911 205 205 205
0.1664999 -0.06628471 0.3329311 205 205 205
-0.04838958 -0.07055113 0.4130733 205 205 205
0.1452067 -0.08312438 0.369656 205 205 205
0.1485602 -0.08140313 0.3652751 205 205 205
0.1519122 -0.08109875 0.3637678 205 205 205
0.1630376 -0.07287662 0.344415 205 205 205
0.1772122 -0.06750551 0.3303328 205 205 205
-0.04565648 -0.07159038 0.4110478 205 205 205
-0.04024749 -0.07213364 0.4098242 205 205 205
-0.03794376 -0.07318454 0.410976 205 205 205
-0.02026664 -0.08147317 0.4204468 205 205 205
0.1454211 -0.08467686 0.3699234 205 205 205
0.1491193 -0.08193745 0.3634458 205 205 205
0.154938 -0.08038698 0.3588111 205 205 205
0.1573606 -0.07912945 0.3556771 205 205 205
0.1616817 -0.07861823 0.3535506 205 205 205
0.1629288 -0.07745244 0.3509211 205 205 205
0.1671713 -0.07019864 0.3355224 205 205 205
0.1681706 -0.07004087 0.3349687 205 205 205
0.1726494 -0.06982441 0.3334664 205 205 205
0.1775892 -0.06894557 0.330575 205 205 205
-0.03256991 -0.0775372 0.4145716 205 205 205
0.1460124 -0.08522863 0.3680866 205 205 205
0.1519917 -0.08372317 0.3634919 205 205 205
0.1554518 -0.08088742 0.3569767 205 205 205
0.1679947 -0.07209571 0.336529 205 205 205
0.1705125 -0.0711664 0.3341007 205 205 205
-0.03585089 -0.07608631 0.410105 205 205 205
-0.03260507 -0.07826903 0.4131122 205 205 205
-0.0289568 -0.07961528 0.4142951 205 205 205
-0.02414329 -0.08166055 0.4164106 205 205 205
-0.02170878 -0.08267243 0.4174432 205 205 205
0.1583366 -0.08009076 0.3520115 205 205 205
0.1758652 -0.07282602 0.3335302 205 205 205
0.1787365 -0.07014038 0.3276697 205 205 205
-0.05150876 -0.07398616 0.4096336 205 205 205
-0.040466 -0.07468588 0.4063812 205 205 205
-0.02143865 -0.1121278 0.4727039 205 205 205
0.1527797 -0.0857811 0.3618924 205 205 205
0.153769 -0.0841712 0.3585062 205 205 205
0.1564537 -0.08185307 0.3533067 205 205 205
0.1696318 -0.07592458 0.33851 205 205 205
0.1771975 -0.07303053 0.3311169 205 205 205
-0.03819085 -0.07644819 0.4060729 205 205 205
-0.02729206 -0.08378062 0.4159955 205 205 205
-0.02255346 -0.0862632 0.4189631 205 205 205
-0.02061219 -0.08899678 0.4235491 205 205 205
0.1653392 -0.08229359 0.3492417 205 205 205
0.1665487 -0.08107995 0.346614 205 205 205
0.1677224 -0.07985966 0.3439871 205 205 205
0.1689357 -0.0775609 0.3392999 205 205 205
-0.02095912 -0.1003103 0.4426744 205 205 205
0.1479677 -0.09439544 0.3743339 205 205 205
0.1503071 -0.091181 0.3675524 205 205 205
0.1529349 -0.08992491 0.3644419 205 205 205
0.1657882 -0.08273526 0.3473883 205 205 205
0.1718543 -0.07809138 0.3370762 205 205 205
0.174909 -0.07757744 0.3353488 205 205 205
0.179271 -0.07293273 0.3255572 205 205 205
-0.04587521 -0.07909374 0.4087 205 205 205
-0.03140996 -0.08471673 0.4136714 205 205 205
0.1509156 -0.09322554 0.3685606 205 205 205
0.1611605 -0.08542519 0.3510988 205 205 205
0.1626851 -0.08575641 0.3513215 205 205 205
0.1694971 -0.08161563 0.3417931 205 205 205
0.1716476 -0.08020031 0.3385998 205 205 205
0.1752657 -0.0779577 0.3335058 205 205 205
0.1787279 -0.07566891 0.3283885 205 205 205
-0.04005241 -0.07944618 0.4042425 205 205 205
-0.03881083 -0.07977176 0.4043651 205 205 205
-0.03545048 -0.08158713 0.4064773 205 205 205
-0.02824449 -0.08808828 0.4159997 205 205 205
0.1541293 -0.09246486 0.3635701 205 205 205
0.1603493 -0.08708417 0.3518499 205 205 205
0.1629634 -0.08728284 0.35153 205 205 205
0.1659216 -0.08529338 0.3470523 205 205 205
0.1692351 -0.08374082 0.3433102 205 205 205
0.1719747 -0.0816887 0.338803 205 205 205
0.1800232 -0.07582572 0.325958 205 205 205
-0.05309616 -0.07797717 0.4039617 205 205 205
-0.05185765 -0.07833134 0.4041277 205 205 205
0.1516387 -0.1015031 0.3783956 205 205 205
0.1536187 -0.09462335 0.3650737 205 205 205
0.1566609 -0.08960783 0.354954 205 205 205
0.1595265 -0.08874656 0.352593 205 205 205
0.1606184 -0.08861327 0.3520558 205 205 205
0.1684858 -0.08540578 0.344072 205 205 205
0.1754557 -0.08044244 0.3331699 205 205 205
0.17941 -0.07747212 0.3267438 205 205 205
0.1798705 -0.07681723 0.3254326 205 205 205
-0.05159583 -0.07859215 0.4017929 205 205 205
-0.03711921 -0.08348651 0.4051979 205 205 205
-0.03516138 -0.0854298 0.4080586 205 205 205
-0.03013245 -0.09051098 0.4155912 205 205 205
-0.027998 -0.09245688 0.4184024 205 205 205
0.1704354 -0.08612321 0.3423847 205 205 205
0.1742543 -0.08274695 0.3352514 205 205 205
0.1773208 -0.08108755 0.3314574 205 205 205
0.1787851 -0.07912274 0.3275228 205 205 205
-0.04753176 -0.08235605 0.4044529 205 205 205
-0.04253338 -0.08371342 0.405004 205 205 205
-0.03644953 -0.085788 0.4064756 205 205 205
-0.03428559 -0.08730467 0.4084435 205 205 205
0.1718961 -0.08634966 0.3399442 205 205 205
0.1791459 -0.08058709 0.327701 205 205 205
-0.04853773 -0.08225124 0.4019621 205 205 205
-0.04627581 -0.08336985 0.4031273 205 205 205
-0.0334026 -0.08918394 0.408816 205 205 205
-0.02990576 -0.09490304 0.4179614 205 205 205
0.158944 -0.09460049 0.3557693 205 205 205
0.1644595 -0.09120391 0.3481709 205 205 205
0.1677014 -0.09075212 0.3464978 205 205 205
-0.05198353 -0.08143259 0.3991591 205 205 205
-0.04274599 -0.08548124 0.4029334 205 205 205
-0.04084692 -0.08746708 0.4058062 205 205 205
-0.03488895 -0.08998446 0.4081083 205 205 205
-0.03224758 -0.09407433 0.4145298 205 205 205
-0.03060842 -0.09740975 0.4199655 205 205 205
0.1591915 -0.09615614 0.3559454 205 205 205
0.1598827 -0.09553393 0.3546458 205 205 205
0.1669068 -0.09243675 0.3472304 205 205 205
0.1720433 -0.08888502 0.3395538 205 205 205
-0.04872919 -0.08399725 0.3998975 205 205 205
-0.03745836 -0.0900066 0.4064126 205 205 205
-0.03341983 -0.09399281 0.4120606 205 205 205
0.1582532 -0.1037945 0.3672138 205 205 205
0.1595705 -0.09932954 0.3589354 205 205 205
0.1605585 -0.09758347 0.3555725 205 205 205
0.1781812 -0.08423918 0.327367 205 205 205
-0.05338482 -0.08280376 0.3969368 205 205 205
-0.04871047 -0.08464128 0.3984272 205 205 205
-0.04624537 -0.08532637 0.3987136 205 205 205
-0.04398837 -0.08644558 0.3998533 205 205 205
0.1592374 -0.1047768 0.3660539 205 205 205
0.159913 -0.1025285 0.3619158 205 205 205
0.1617519 -0.09738295 0.3523774 205 205 205
0.1726613 -0.09191391 0.3398696 205 205 205
0.1775229 -0.08590614 0.3281144 205 205 205
0.1800194 -0.08484352 0.325619 205 205 205
-0.04041743 -0.09156521 0.4049529 205 205 205
-0.03625691 -0.09514964 0.4097362 205 205 205
-0.03143356 -0.1013495 0.4189041 205 205 205
0.1613861 -0.1056236 0.364338 205 205 205
0.1626825 -0.09829842 0.3512324 205 205 205
0.1661995 -0.09671312 0.3475206 205 205 205
0.1738242 -0.0869684 0.3285967 205 205 205
-0.05331288 -0.0840621 0.3940048 205 205 205
-0.0468831 -0.08793233 0.398365 205 205 205
-0.03975235 -0.09391195 0.4061781 205 205 205
0.1745094 -0.09244966 0.3355136 205 205 205
0.1741267 -0.08961903 0.3307578 205 205 205
0.1781994 -0.08769968 0.3263947 205 205 205
-0.03498875 -0.1003608 0.4129902 205 205 205
0.1658598 -0.1016259 0.3511461 205 205 205
-0.04931447 -0.08848687 0.3951232 205 205 205
-0.04853858 -0.0897411 0.3969896 205 205 205
-0.04005758 -0.09923922 0.4102055 205 205 205
0.1752079 -0.09429581 0.3337558 205 205 205
0.1752651 -0.09311183 0.3317423 205 205 205
-0.05393347 -0.08723899 0.3921746 205 205 205
-0.04177086 -0.1004907 0.4103041 205 205 205
0.1683076 -0.1084956 0.3571298 205 205 205
0.1685738 -0.1015843 0.3454482 205 205 205
0.1718543 -0.1010907 0.3437219 205 205 205
0.1740305 -0.1007477 0.3425536 205 205 205
0.1759296 -0.09750524 0.336606 205 205 205
0.1750915 -0.09411419 0.3311551 205 205 205
0.1751343 -0.09292293 0.3291502 205 205 205
0.1756749 -0.09104143 0.325858 205 205 205
0.1771913 -0.09135199 0.3259715 205 205 205
-0.03975189 -0.1068737 0.4177164 205 205 205
0.1705841 -0.1109688 0.3581224 205 205 205
0.1739841 -0.100591 0.3399154 205 205 205
0.1754876 -0.0932228 0.3272713 205 205 205
0.1721101 -0.1024821 0.341188 205 205 205
0.1753136 -0.09420943 0.3266831 205 205 205
0.1793613 -0.0922222 0.3223214 205 205 205
-0.0520846 -0.09377876 0.3950318 205 205 205
-0.04783772 -0.09975438 0.4034222 205 205 205
0.1707362 -0.1078155 0.3479396 205 205 205
0.1740918 -0.1031627 0.3393981 205 205 205
0.1758735 -0.1010734 0.3354932 205 205 205
0.1776846 -0.09410436 0.3236211 205 205 205
-0.04675997 -0.1044032 0.408138 205 205 205
-0.04587037 -0.1057077 0.4099692 205 205 205
0.1763161 -0.1186202 0.3615281 205 205 205
0.1725663 -0.1126945 0.352951 205 205 205
0.1718599 -0.1074888 0.3446954 205 205 205
0.172041 -0.1062753 0.3426755 205 205 205
0.1775093 -0.09508137 0.3230283 205 205 205
0.1790139 -0.09417039 0.3211445 205 205 205
-0.05267079 -0.0990965 0.3989867 205 205 205
-0.05105019 -0.1017103 0.4026738 205 205 205
-0.05021553 -0.1030194 0.4045134 205 205 205
-0.04761394 -0.1069551 0.410015 205 205 205
0.1735753 -0.1064382 0.3401569 205 205 205
-0.0508806 -0.1050778 0.4055349 205 205 205
-0.05068151 -0.1078393 0.4099152 205 205 205
0.1738543 -0.1079935 0.3402312 205 205 205
0.1768697 -0.1044502 0.3337384 205 205 205
0.1747144 -0.1160977 0.3504989 205 205 205
0.1765782 -0.1067042 0.3351042 205 205 205
0.1779381 -0.1015346 0.3265508 205 205 205
0.1779868 -0.09779771 0.3206326 205 205 205
-0.0547305 -0.1052202 0.4020458 205 205 205
-0.05199456 -0.108739 0.4066961 205 205 205
-0.04894041 -0.1188737 0.4217193 205 205 205
0.1994356 -0.1502209 0.3947201 205 205 205
0.1767799 -0.1198412 0.3533927 205 205 205
0.1747446 -0.1159201 0.3478073 205 205 205
-0.05755844 -0.1027803 0.3966927 205 205 205
-0.05375194 -0.109968 0.4066996 205 205 205
0.1759355 -0.1112442 0.3378109 205 205 205
-0.05724575 -0.1056798 0.3986839 205 205 205
0.1770796 -0.1095508 0.3325808 205 205 205
0.1789453 -0.0997487 0.3169278 205 205 205
-0.05246821 -0.1148984 0.4089146 205 205 205
-0.05110279 -0.1186211 0.4142118 205 205 205
0.1766084 -0.1174544 0.3425813 205 205 205
-0.05402037 -0.115643 0.4080557 205 205 205
0.1857444 -0.1343706 0.3633747 205 205 205
0.178299 -0.1090483 0.3248085 205 205 205
0.1784027 -0.105182 0.3189521 205 205 205
0.204321 -0.1598939 0.3912289 205 205 205
0.1860697 -0.1358785 0.3605478 205 205 205
0.179195 -0.1085288 0.3216041 205 205 205
0.1787177 -0.106687 0.318987 205 205 205
0.1790302 -0.1081957 0.3190143 205 205 205
0.17955 -0.1061348 0.3158074 205 205 205
-0.06135641 -0.1118415 0.3949788 205 205 205
-0.05913716 -0.1194434 0.4055175 205 205 205
0.1770551 -0.1198305 0.3346028 205 205 205
0.1775588 -0.1145993 0.3267516 205 205 205
-0.06076661 -0.1172245 0.4003432 205 205 205
0.2185693 -0.1803231 0.4086899 205 205 205
0.177793 -0.1219634 0.3352779 205 205 205
0.1790608 -0.1133052 0.3222566 205 205 205
0.2019356 -0.1593669 0.3802263 205 205 205
0.178366 -0.1208973 0.3313346 205 205 205
0.178862 -0.1142774 0.3215916 205 205 205
-0.06304543 -0.1170671 0.3960846 205 205 205
0.2162963 -0.1787781 0.4012833 205 205 205
0.1786 -0.1270217 0.3378826 205 205 205
0.1776818 -0.1213351 0.3299698 205 205 205
0.178021 -0.1173458 0.3241305 205 205 205
0.1787474 -0.1253744 0.3332445 205 205 205
0.1784274 -0.1234685 0.3306179 205 205 205
0.1778176 -0.1183226 0.323451 205 205 205
0.1783905 -0.1175513 0.3221811 205 205 205
0.2149018 -0.1782806 0.3952965 205 205 205
0.1786932 -0.1250401 0.3305849 205 205 205
0.178146 -0.1241153 0.3272705 205 205 205
-0.06354844 -0.1298657 0.4049233 205 205 205
0.1844791 -0.1378558 0.3424052 205 205 205
0.1785417 -0.1243214 0.3252952 205 205 205
0.180989 -0.1184556 0.3163826 205 205 205
0.1784444 -0.1239373 0.3226654 205 205 205
0.1807831 -0.1194093 0.3156968 205 205 205
0.1808161 -0.1180406 0.3137919 205 205 205
0.1811142 -0.1195625 0.3137497 205 205 205
0.1791864 -0.1242869 0.3187327 205 205 205
0.1803678 -0.1213082 0.3143148 205 205 205
-0.06587374 -0.1276446 0.3932501 205 205 205
-0.06456916 -0.1280397 0.3934101 205 205 205
-0.06422297 -0.1336908 0.4009382 205 205 205
0.1931657 -0.1524578 0.3505484 205 205 205
0.1801053 -0.1236418 0.3155135 205 205 205
0.2018106 -0.1648276 0.3621789 205 205 205
0.1799988 -0.1307605 0.3230624 205 205 205
0.1797369 -0.1273804 0.318603 205 205 205
0.1814915 -0.1235608 0.3129394 205 205 205
0.1807407 -0.1329234 0.323622 205 205 205
0.1800992 -0.1275296 0.3166295 205 205 205
0.1801741 -0.1261274 0.3147375 205 205 205
0.1873084 -0.1456943 0.3364024 205 205 205
0.1814786 -0.1350952 0.3241689 205 205 205
0.181251 -0.1316775 0.3197183 205 205 205
0.1829424 -0.1394657 0.325224 205 205 205
0.180942 -0.1365976 0.3200245 205 205 205
0.1867768 -0.1469166 0.3293944 205 205 205
0.1814412 -0.1352953 0.3161364 205 205 205
0.1831063 -0.1342357 0.3142585 205 205 205
0.1833665 -0.1421921 0.3222904 205 205 205
0.1824262 -0.1370701 0.3120114 205 205 205
0.182508 -0.1356106 0.3101531 205 205 205
0.1866649 -0.1486008 0.3230434 205 205 205
0.1888258 -0.1526967 0.3253333 205 205 205
0.1820515 -0.1374718 0.3086477 205 205 205
0.1828081 -0.1396426 0.3091048 205 205 205
0.1894819 -0.1544434 0.3230421 205 205 205
0.2186873 -0.1986394 0.3576144 205 205 205
