ply
format ascii 1.0
comment Generated by Floating Hands
element vertex 1995
property double x
property double y
property double z
property uchar red
property uchar green
property uchar blue
end_header
0.121726 0.04875591 0.4399824 0 0 0
0.132375 0.04900748 0.4281369 0 0 0
0.1229157 0.04752068 0.4353907 0 0 0
0.1244016 0.04761844 0.4317838 0 0 0
0.1252793 0.04765221 0.4304547 0 0 0
-0.009262849 0.05887292 0.4950583 0 0 0
0.1240508 0.04519073 0.4621105 0 0 0
0.1225441 0.04557783 0.4521428 0 0 0
0.1243486 0.04628699 0.4317462 0 0 0
0.1296171 0.0463758 0.4279198 0 0 0
0.1383225 0.04625387 0.4301673 0 0 0
-0.006758792 0.05721094 0.4802103 0 0 0
-0.005571608 0.05694037 0.4823135 0 0 0
0.1295678 0.04505358 0.4278765 0 0 0
-0.007735013 0.05608749 0.4740928 0 0 0
-0.005080961 0.0555833 0.4743131 0 0 0
0.1230408 0.04344301 0.4362163 0 0 0
0.1346896 0.04389293 0.4239166 0 0 0
-0.00181264 0.0532794 0.482551 0 0 0
0.1254299 0.04077797 0.4625379 0 0 0
0.1226486 0.04194856 0.4393984 0 0 0
0.123276 0.04204467 0.437117 0 0 0
0.1259793 0.04218824 0.4331256 0 0 0
0.1268635 0.04224067 0.4317909 0 0 0
0.1297844 0.04235831 0.4287207 0 0 0
0.1318099 0.04243014 0.4269748 0 0 0
0.1329801 0.04244299 0.4265684 0 0 0
0.1388094 0.0425404 0.4244722 0 0 0
0.1429034 0.0423332 0.4282715 0 0 0
-0.01457456 0.05457059 0.472394 0 0 0
-0.01294086 0.05435212 0.4695474 0 0 0
0.1231678 0.04047805 0.4412496 0 0 0
0.127424 0.04079439 0.4336312 0 0 0
0.1309086 0.04104276 0.4282628 0 0 0
0.1395746 0.04130417 0.4230455 0 0 0
0.1407318 0.04133264 0.4226103 0 0 0
0.1261729 0.03921406 0.4381419 0 0 0
0.1323579 0.0396696 0.4287385 0 0 0
0.1357047 0.03997825 0.4233227 0 0 0
0.1388267 0.04011097 0.4211118 0 0 0
-0.01958289 0.05243921 0.4778226 0 0 0
-0.009228444 0.05080162 0.4688385 0 0 0
-0.007827296 0.05057398 0.4679577 0 0 0
0.1297009 0.03812234 0.4327109 0 0 0
0.1356546 0.03866848 0.4232534 0 0 0
0.1376259 0.03877926 0.4214709 0 0 0
0.1392229 0.03896298 0.4187436 0 0 0
-0.02422253 0.0512527 0.4913299 0 0 0
-0.01190685 0.04994993 0.467547 0 0 0
-0.01069827 0.04966287 0.4686656 0 0 0
-0.008075578 0.04915176 0.4688993 0 0 0
0.1272083 0.03595845 0.4459976 0 0 0
0.1275683 0.03643355 0.4385595 0 0 0
0.1332252 0.03681137 0.431423 0 0 0
0.1364206 0.0374503 0.4218209 0 0 0
0.1429677 0.03769771 0.4182823 0 0 0
-0.008416638 0.04768843 0.4708302 0 0 0
-0.007271108 0.04736472 0.472931 0 0 0
-0.006110109 0.04704043 0.475028 0 0 0
0.1281131 0.03493048 0.4403782 0 0 0
0.1298974 0.03537473 0.4335018 0 0 0
0.1399142 0.0364742 0.4172246 0 0 0
0.1410541 0.03650731 0.4167872 0 0 0
0.1421925 0.03654267 0.4163456 0 0 0
0.1493789 0.03620558 0.4209979 0 0 0
0.157082 0.03530574 0.432929 0 0 0
0.1348296 0.03432227 0.4285456 0 0 0
0.1363161 0.03484304 0.4216572 0 0 0
0.1371269 0.03494417 0.4202977 0 0 0
0.137579 0.03512372 0.418003 0 0 0
0.1708106 0.03187296 0.4584199 0 0 0
0.1307463 0.03212432 0.4403513 0 0 0
0.1374202 0.03356546 0.421143 0 0 0
0.137877 0.03375322 0.4188474 0 0 0
0.1405958 0.03400735 0.4156846 0 0 0
0.1500317 0.03427508 0.4129634 0 0 0
-0.02064811 0.04592823 0.468423 0 0 0
-0.006231639 0.04195702 0.486856 0 0 0
0.1321839 0.03102465 0.4366049 0 0 0
0.1420833 0.0329639 0.4128532 0 0 0
0.1435871 0.03321315 0.41011 0 0 0
-0.01807037 0.04403231 0.4676524 0 0 0
-0.01555853 0.04344704 0.468925 0 0 0
-0.009526936 0.04183684 0.4755062 0 0 0
-0.008452605 0.04142562 0.4786002 0 0 0
-0.006726259 0.04028573 0.49075 0 0 0
0.1337275 0.02886434 0.4454159 0 0 0
0.1384682 0.03099089 0.4205196 0 0 0
0.1420334 0.03168823 0.4127548 0 0 0
0.1427905 0.03181607 0.411384 0 0 0
0.1581076 0.03083286 0.4222867 0 0 0
-0.02506158 0.04394698 0.4687616 0 0 0
-0.01572493 0.04205524 0.4688388 0 0 0
-0.009785735 0.04036527 0.476411 0 0 0
0.1345913 0.02902067 0.4281519 0 0 0
0.1351073 0.02922462 0.4258569 0 0 0
0.1400127 0.02993739 0.4176841 0 0 0
0.1510245 0.0304701 0.4121887 0 0 0
0.151757 0.0306171 0.4107952 0 0 0
0.154474 0.03031397 0.4139639 0 0 0
0.165258 0.02854888 0.4320779 0 0 0
-0.02509602 0.04260455 0.4676828 0 0 0
-0.01611681 0.04055647 0.4707314 0 0 0
-0.01357034 0.03996453 0.4719852 0 0 0
-0.01129898 0.03920821 0.4762011 0 0 0
0.1382317 0.02807605 0.4235345 0 0 0
0.1407456 0.02877725 0.4162075 0 0 0
0.1415254 0.02890947 0.4148387 0 0 0
0.1501941 0.02937509 0.4102483 0 0 0
-0.02081617 0.04059059 0.4641115 0 0 0
0.1426956 0.02219101 0.4682266 0 0 0
0.1401603 0.02692482 0.4216173 0 0 0
0.144135 0.02795007 0.4115331 0 0 0
0.1486338 0.02814408 0.4096901 0 0 0
-0.03299851 0.04020198 0.4815727 0 0 0
-0.02516375 0.03994599 0.4655101 0 0 0
-0.01679482 0.03757688 0.4735049 0 0 0
0.137795 0.02357234 0.4413649 0 0 0
0.1374524 0.02488565 0.4288284 0 0 0
0.1379619 0.02511838 0.4265291 0 0 0
0.1504298 0.02708647 0.4077124 0 0 0
0.1541732 0.02716723 0.4071757 0 0 0
0.1580451 0.02689462 0.409811 0 0 0
0.1624921 0.02615545 0.4165368 0 0 0
-0.03000705 0.03914731 0.4698147 0 0 0
-0.01387215 0.03474569 0.4827102 0 0 0
-0.01299278 0.03412965 0.4877947 0 0 0
-0.01245666 0.03323118 0.4968493 0 0 0
0.1147371 0.01926349 0.479215 0 0 0
0.1389661 0.02221397 0.4407996 0 0 0
0.1395693 0.02406969 0.4236694 0 0 0
0.1403921 0.02420853 0.4223006 0 0 0
0.1451474 0.02508535 0.4140559 0 0 0
0.1470438 0.02528664 0.4122152 0 0 0
0.1582914 0.02589198 0.4073726 0 0 0
-0.03378173 0.03799324 0.4752375 0 0 0
0.1068409 0.01907985 0.4707489 0 0 0
0.1159181 0.01835453 0.4725857 0 0 0
0.1196532 0.01783312 0.4757099 205 205 205
0.1402032 0.02253467 0.4253991 0 0 0
0.1539659 0.02502518 0.403713 0 0 0
-0.03914888 0.03626662 0.4894757 0 0 0
-0.03316911 0.03689835 0.4701932 0 0 0
-0.01663712 0.03263852 0.4792362 0 0 0
0.1055576 0.01693408 0.4780191 205 205 205
0.1069471 0.0181485 0.4654458 0 0 0
0.115174 0.0177737 0.4643915 0 0 0
0.1258437 0.01588115 0.4769157 205 205 205
0.1434063 0.01832161 0.4494348 0 0 0
0.1406769 0.02060707 0.4303569 0 0 0
0.1417933 0.02151364 0.4225185 0 0 0
0.1446299 0.02224774 0.4160914 0 0 0
0.146174 0.02256907 0.4133333 0 0 0
0.1502763 0.02329243 0.407328 0 0 0
0.1704743 0.02120979 0.4244336 0 0 0
-0.03733734 0.03558883 0.4775424 0 0 0
-0.03467627 0.03580964 0.4698742 0 0 0
-0.03124368 0.03554505 0.4653356 0 0 0
-0.0296297 0.03538787 0.4635478 0 0 0
-0.02847542 0.03502573 0.4647124 0 0 0
-0.0273128 0.03466424 0.4658729 0 0 0
-0.02004089 0.03258655 0.4717621 0 0 0
-0.01725873 0.03089806 0.4830695 0 0 0
0.02292066 0.02251297 0.4977019 0 0 0
0.104799 0.01580873 0.474958 205 205 205
0.1079475 0.01678419 0.4640062 205 205 205
0.1214474 0.01630932 0.4614667 205 205 205
0.1241301 0.01568565 0.4658629 205 205 205
0.1414647 0.01942001 0.4288383 0 0 0
0.1420843 0.02008533 0.4233038 0 0 0
0.14572 0.02100432 0.4154936 0 0 0
0.1476269 0.02162695 0.4104314 0 0 0
0.1494939 0.02185388 0.408577 0 0 0
0.1564869 0.02253774 0.4033596 0 0 0
-0.02236365 0.03206672 0.4673797 0 0 0
-0.01911831 0.03074816 0.4737509 0 0 0
0.01843361 0.02166948 0.497578 0 0 0
0.01987527 0.02144572 0.4975744 0 0 0
0.1139806 0.01539408 0.4602418 205 205 205
0.146817 0.02018262 0.4116696 0 0 0
0.1542226 0.02114185 0.4042062 0 0 0
-0.04199943 0.03273546 0.4856872 0 0 0
-0.03855198 0.0332819 0.4741187 0 0 0
-0.03275059 0.03317363 0.4639045 0 0 0
-0.02867992 0.03236283 0.4634673 0 0 0
-0.02503874 0.03133677 0.4659442 0 0 0
-0.02266966 0.03060433 0.4682326 0 0 0
-0.01829052 0.02749896 0.48873 0 0 0
0.01971153 0.01994057 0.497418 0 0 0
0.1059797 0.01352007 0.4681966 205 205 205
0.1125657 0.01401039 0.4604264 205 205 205
0.1212239 0.01406459 0.4560004 205 205 205
0.1455527 0.01800493 0.4184188 0 0 0
0.1467571 0.01890907 0.411521 0 0 0
0.1486414 0.0191407 0.4096709 0 0 0
0.1493807 0.01932284 0.408286 0 0 0
0.1512303 0.01956691 0.4064218 0 0 0
-0.03146626 0.03158756 0.4629707 0 0 0
-0.02653016 0.03025071 0.4656416 0 0 0
-0.01948974 0.02522763 0.4974851 0 0 0
0.01666064 0.01888846 0.4972591 0 0 0
0.1052314 0.01016233 0.4844594 205 205 205
0.1049086 0.01114471 0.4763984 205 205 205
0.106994 0.01215595 0.4667412 205 205 205
0.1145967 0.01278472 0.4576472 205 205 205
0.1247546 0.0127376 0.4537396 205 205 205
0.1507167 0.01130718 0.4576379 205 205 205
0.1447207 0.01510048 0.4302524 205 205 205
0.14745 0.01781875 0.4099866 0 0 0
0.1503794 0.01856705 0.4044522 0 0 0
-0.03572285 0.03104715 0.4632365 0 0 0
-0.02111794 0.02672681 0.4741661 0 0 0
0.01940624 0.01715746 0.4951004 205 205 205
0.1064383 0.01023094 0.4707506 205 205 205
0.1071157 0.01058311 0.4675322 205 205 205
0.1093397 0.01075653 0.4649475 205 205 205
0.1220665 0.0113615 0.4543335 205 205 205
0.1262461 0.01118453 0.4541263 205 205 205
0.1362426 0.008982541 0.4676188 205 205 205
0.1472984 0.01223226 0.4407341 205 205 205
0.1547586 0.01757933 0.402355 0 0 0
0.1573842 0.01759185 0.4022594 0 0 0
0.1600164 0.01761444 0.4021416 0 0 0
0.1630866 0.01751557 0.4028939 0 0 0
0.1689791 0.01615755 0.4121673 0 0 0
-0.03573552 0.0297688 0.4621074 0 0 0
-0.03182537 0.02886339 0.4626805 0 0 0
-0.02966715 0.0280029 0.4659914 0 0 0
-0.02225966 0.02589108 0.4709033 0 0 0
0.01065674 0.0171605 0.4938841 205 205 205
0.01634607 0.01600036 0.4959248 205 205 205
0.1059816 0.007368204 0.4818374 205 205 205
0.1130019 0.009337628 0.4627888 205 205 205
0.1151583 0.009546312 0.4601716 205 205 205
0.1222473 0.009816569 0.4551078 205 205 205
0.1319456 0.009476781 0.4542242 205 205 205
0.1439364 0.005840437 0.4773979 205 205 205
0.1477653 0.01116563 0.4382369 205 205 205
0.1473073 0.01435069 0.4160897 205 205 205
0.1473279 0.01481714 0.4128754 205 205 205
0.152486 0.01619399 0.4031722 0 0 0
0.1584348 0.01641615 0.4015927 0 0 0
0.1671864 0.01539267 0.4084369 205 205 205
-0.03574774 0.02849932 0.4609738 0 0 0
-0.02404259 0.02459111 0.4725671 0 0 0
0.007578661 0.01604156 0.4946415 205 205 205
0.1075805 0.007274384 0.4700579 205 205 205
0.1244776 0.008523894 0.4532079 205 205 205
0.1325502 0.008352429 0.4517389 205 205 205
0.1338437 0.008356732 0.4513197 205 205 205
0.1463914 0.01239481 0.4205201 205 205 205
0.1513155 0.01488068 0.4034895 205 205 205
0.1561652 0.01501413 0.4024316 205 205 205
0.1583793 0.0151653 0.4014259 205 205 205
-0.03250574 0.02595271 0.4643334 0 0 0
-0.029303 0.02456952 0.4697835 0 0 0
-0.02677242 0.02387817 0.4711017 0 0 0
0.01315369 0.01359599 0.4945532 205 205 205
0.1090611 0.005627001 0.4704972 205 205 205
0.1194409 0.007042091 0.4554865 205 205 205
0.1251113 0.007407286 0.4507358 205 205 205
0.1312461 0.007539776 0.4477846 205 205 205
0.1363387 0.00696775 0.4502777 205 205 205
0.1392183 0.00623904 0.4545267 205 205 205
0.1484988 0.008607009 0.4364739 205 205 205
0.1479532 0.01197049 0.4143597 205 205 205
0.1491027 0.01251762 0.410678 205 205 205
-0.03284825 0.02448756 0.4651503 0 0 0
-0.03082116 0.02348277 0.4694412 0 0 0
0.004358375 0.0135625 0.4941923 205 205 205
0.005794687 0.01331354 0.494234 205 205 205
0.1166869 0.004956231 0.461157 205 205 205
0.1222313 0.005445464 0.4554925 205 205 205
0.1242867 0.005720523 0.4528265 205 205 205
0.1282941 0.006301778 0.4474648 205 205 205
0.1305493 0.006455448 0.4457107 205 205 205
0.1346793 0.006324292 0.4453969 205 205 205
0.1479844 0.008534438 0.4279742 205 205 205
0.1519915 0.01208819 0.4049521 205 205 205
0.1531115 0.01215422 0.4044656 205 205 205
0.1615764 0.01291231 0.3995394 205 205 205
0.1622422 0.01314566 0.3981299 205 205 205
-0.04167739 0.02559075 0.460639 0 0 0
0.009933067 0.01109592 0.4941325 205 205 205
0.01278134 0.01049154 0.4951592 205 205 205
0.01560192 0.009634812 0.4981473 205 205 205
0.1165824 0.003532267 0.4609557 205 205 205
0.12055 0.004211744 0.4547213 205 205 205
0.1249205 0.004622123 0.4503454 205 205 205
0.1358636 0.004953257 0.4447719 205 205 205
0.1559349 0.001953033 0.4596207 205 205 205
0.1508411 0.004788481 0.4425342 205 205 205
0.1488618 0.006226825 0.4337704 205 205 205
0.1484682 0.008068175 0.4222518 205 205 205
0.1508052 0.01077113 0.4052531 205 205 205
0.153761 0.01112273 0.4028927 205 205 205
0.1570968 0.01134155 0.4014017 205 205 205
-0.03000389 0.02030331 0.4702436 0 0 0
0.009721402 0.009479365 0.4949223 205 205 205
0.1156461 0.001821971 0.4630175 205 205 205
0.1186148 0.002373839 0.4581131 205 205 205
0.133559 0.004038915 0.4421883 205 205 205
0.136726 0.003746068 0.4432032 205 205 205
0.1559126 -0.0001867554 0.4635985 205 205 205
0.1569075 1.277614E-05 0.4621702 205 205 205
0.1525429 0.002601169 0.4469313 205 205 205
0.1505843 0.004075603 0.4381657 205 205 205
0.1537893 0.00933562 0.4059014 205 205 205
0.1581444 0.01017249 0.4007109 205 205 205
0.1596752 0.01009708 0.4010943 205 205 205
0.1614605 0.0104198 0.3991721 205 205 205
0.1632245 0.0107506 0.3972406 205 205 205
0.1669496 0.0108779 0.3965286 205 205 205
-0.02899425 0.01850194 0.4712085 0 0 0
-0.001717258 0.01053136 0.49041 205 205 205
0.00261694 0.009895039 0.4895889 205 205 205
0.005265891 0.008862756 0.4936342 205 205 205
0.1187721 0.0007966267 0.4588528 205 205 205
0.1242716 0.001360416 0.4531595 205 205 205
0.1260184 0.001833844 0.4495404 205 205 205
0.1270191 0.001992519 0.4482001 205 205 205
0.1505829 0.0007844743 0.4495344 205 205 205
0.152254 0.007622541 0.4084928 205 205 205
0.1609703 0.009334096 0.3980927 205 205 205
-0.03927176 0.02112768 0.458571 0 0 0
-0.03258149 0.0184863 0.4665741 0 0 0
-0.03140694 0.01806681 0.4677314 0 0 0
-0.006891175 0.008669962 0.4988792 205 205 205
0.007925691 0.006749213 0.4944771 205 205 205
0.009292995 0.006226863 0.4964809 205 205 205
0.1186279 -0.001431078 0.4637607 205 205 205
0.1259195 0.0004455677 0.4493264 205 205 205
0.1396858 0.001389518 0.4396046 205 205 205
0.1502808 0.004956936 0.4165752 205 205 205
0.1506817 0.005345752 0.4142765 205 205 205
0.1521847 0.006356864 0.4082945 205 205 205
0.1547838 0.006889484 0.4050182 205 205 205
0.1550916 0.00729023 0.4027254 205 205 205
0.1564924 0.007768228 0.3999353 205 205 205
0.1668355 0.008392874 0.396142 205 205 205
0.1685661 0.008754307 0.3941808 205 205 205
0.1687369 0.009178627 0.391885 205 205 205
-0.04186195 0.02052941 0.456989 0 0 0
-0.03159288 0.01669061 0.467536 205 205 205
-0.008536411 0.007447629 0.4985771 205 205 205
-0.006595717 0.007986099 0.492736 205 205 205
0.1183235 -0.004517531 0.4737952 205 205 205
0.1198866 -0.002058115 0.4580397 205 205 205
0.1209448 -0.001907342 0.4567144 205 205 205
0.122267 -0.001925514 0.4563331 205 205 205
0.1268222 -0.0007748088 0.4477677 205 205 205
0.1354924 0.000134612 0.4397684 205 205 205
0.1389345 0.000366536 0.4375311 205 205 205
0.1426827 0.000449393 0.4361854 205 205 205
0.150862 -0.0009424088 0.4425977 205 205 205
0.151223 0.00202487 0.4255266 205 205 205
0.1725234 0.007072005 0.3963726 205 205 205
0.1408127 0.02760319 0.2895586 0 0 0
-0.04186 0.01931054 0.4558212 0 0 0
-0.03444684 0.01592829 0.4669779 205 205 205
-0.03193513 0.0151916 0.468315 205 205 205
-0.03074828 0.01476314 0.469467 205 205 205
-0.02970132 0.01420964 0.471596 205 205 205
0.0008443166 0.006189184 0.4859319 205 205 205
0.1262919 -0.00267874 0.4507657 205 205 205
0.1347704 -0.001593135 0.4418388 205 205 205
0.1516522 0.001677561 0.4197887 205 205 205
0.1551242 0.003618123 0.4087005 205 205 205
0.1618842 0.00570668 0.3969744 205 205 205
0.1669292 0.01974725 0.3266225 0 0 0
0.1236516 -0.004938488 0.4564297 205 205 205
0.1290865 -0.004258073 0.4506674 205 205 205
0.1313907 -0.004075415 0.4489044 205 205 205
0.1440975 -0.002408102 0.4362007 205 205 205
0.148003 -0.003049325 0.4389447 205 205 205
0.1496193 -0.003186785 0.4393844 205 205 205
0.152441 -0.001927229 0.431952 205 205 205
0.1529287 -0.001518109 0.4296381 205 205 205
0.1526467 -0.0007514883 0.4255075 205 205 205
0.1543365 0.001505484 0.4130808 205 205 205
0.1618198 0.004470794 0.3967652 205 205 205
0.166 0.004402683 0.3969426 205 205 205
0.1690204 0.005325417 0.392148 205 205 205
0.1721115 0.005197894 0.3927849 205 205 205
-0.03925622 0.01507644 0.4609117 205 205 205
-0.03615728 0.01349588 0.4663756 205 205 205
-0.009669532 0.004701106 0.487947 205 205 205
-0.002341822 0.003807886 0.4853646 205 205 205
-0.0009282036 0.003549438 0.4854239 205 205 205
0.1266571 -0.00582928 0.4521784 205 205 205
0.129277 -0.005836436 0.4513679 205 205 205
0.1315903 -0.005649631 0.449603 205 205 205
0.1370782 -0.00354023 0.4363638 205 205 205
0.1424143 -0.003616015 0.4355047 205 205 205
0.1456058 -0.003912637 0.4364238 205 205 205
0.153681 -0.004605487 0.4385963 205 205 205
0.1540713 -0.002806654 0.4289122 205 205 205
0.1711244 0.004312791 0.3908333 205 205 205
-0.04057326 0.01417452 0.459523 205 205 205
0.004135733 -0.000159734 0.4932626 205 205 205
0.119598 -0.01170816 0.4794633 205 205 205
0.1235831 -0.01161164 0.477358 205 205 205
0.1242578 -0.01015997 0.4690019 205 205 205
0.1281519 -0.007419082 0.4524705 205 205 205
0.1294656 -0.007421264 0.4520617 205 205 205
0.1330938 -0.007224662 0.4498734 205 205 205
0.1360698 -0.005864788 0.441637 205 205 205
0.1379055 -0.004679314 0.4347634 205 205 205
0.1553699 -0.005505436 0.4355339 205 205 205
0.1545182 -0.00310384 0.4231495 205 205 205
0.154948 -0.002671188 0.4208426 205 205 205
0.1553659 -0.001616014 0.4153337 205 205 205
0.1603307 0.001462258 0.3991401 205 205 205
0.1715271 0.002906929 0.3914831 205 205 205
0.1610479 0.01814421 0.3192726 0 0 0
-0.03451346 0.009582451 0.4702098 205 205 205
-0.01441041 0.002482792 0.4881675 205 205 205
0.003900305 -0.001796986 0.4940009 205 205 205
0.1255192 -0.01163762 0.4683459 205 205 205
0.1319839 -0.008817477 0.4509803 205 205 205
0.1556399 -0.004362525 0.4224109 205 205 205
0.1564613 -0.002840711 0.4145976 205 205 205
0.157233 -0.002581294 0.4131943 205 205 205
0.1598352 0.0004080633 0.3980298 205 205 205
0.1622849 0.001047389 0.3947054 205 205 205
0.1651221 0.001519538 0.3922415 205 205 205
0.1677475 0.001538165 0.392039 205 205 205
0.1683777 0.001827006 0.3906235 205 205 205
0.1751843 0.001840109 0.3904353 205 205 205
-0.03788937 0.009847394 0.4645458 205 205 205
-0.008545336 0.000543383 0.484358 205 205 205
0.002207697 -0.003184368 0.4946932 205 205 205
0.1220427 -0.01361639 0.4720941 205 205 205
0.127877 -0.01292877 0.466332 205 205 205
0.1307158 -0.01119606 0.456237 205 205 205
0.1341908 -0.01000619 0.448943 205 205 205
0.137767 -0.008169363 0.4384149 205 205 205
0.1392952 -0.007534951 0.4347571 205 205 205
0.1405454 -0.007506367 0.4343094 205 205 205
0.1417941 -0.007475259 0.4338572 205 205 205
0.143592 -0.007016524 0.4311048 205 205 205
0.1496136 -0.007429157 0.4319634 205 205 205
0.1549421 -0.007410965 0.4309058 205 205 205
0.1571758 -0.004517187 0.4161538 205 205 205
0.1596303 -0.001949211 0.4032638 205 205 205
0.1622162 -0.0001794974 0.3944781 205 205 205
0.1650556 0.0002974517 0.3920149 205 205 205
0.1783618 0.000976945 0.3884805 205 205 205
0.1626249 0.01571082 0.3213714 0 0 0
-0.04037733 0.009407629 0.4619763 205 205 205
-0.00873157 -0.0008951952 0.4841071 205 205 205
0.1147247 -0.01587345 0.4788144 205 205 205
0.1193842 -0.01522666 0.4735345 205 205 205
0.1202718 -0.01485883 0.4712609 205 205 205
0.1230512 -0.01490965 0.4704873 205 205 205
0.1301378 -0.01320831 0.4591971 205 205 205
0.1370446 -0.009945597 0.4404506 205 205 205
0.1413586 -0.008621507 0.4326858 205 205 205
0.144385 -0.008116224 0.4294759 205 205 205
0.1472055 -0.008229399 0.4294525 205 205 205
0.159251 -0.003675162 0.4053178 205 205 205
0.1602654 -0.002924765 0.4016238 205 205 205
0.1605415 -0.002450118 0.399336 205 205 205
0.1621461 -0.001405166 0.3942461 205 205 205
0.1662574 -0.0003359309 0.3889672 205 205 205
0.1688702 -0.0003151086 0.3887512 205 205 205
-0.03942519 0.0075919 0.4629108 205 205 205
-0.03627587 0.005902042 0.4683461 205 205 205
0.001661541 -0.00665931 0.4971178 205 205 205
0.124625 -0.01560036 0.4656516 205 205 205
0.1298593 -0.01645063 0.4681893 205 205 205
0.1320444 -0.01605654 0.4654754 205 205 205
0.1328599 -0.01382056 0.4539273 205 205 205
0.1338837 -0.01361133 0.4525683 205 205 205
0.1388326 -0.01085826 0.4374589 205 205 205
0.1418205 -0.009522508 0.4301394 205 205 205
0.1442911 -0.009447452 0.4292207 205 205 205
0.1511751 -0.00961836 0.4286631 205 205 205
0.1527785 -0.009765318 0.4290789 205 205 205
0.1577928 -0.006840575 0.4142548 205 205 205
0.1606112 -0.004371911 0.4022677 205 205 205
0.160892 -0.003888919 0.3999797 205 205 205
0.1620747 -0.002629604 0.3940095 205 205 205
0.1677241 -0.001637334 0.3890614 205 205 205
0.1486261 0.01805023 0.3018995 0 0 0
-0.03798848 0.004693013 0.4688888 205 205 205
-0.03663666 0.004374798 0.4690739 205 205 205
-0.03429354 0.001724742 0.480329 205 205 205
-0.03518383 -0.0009378208 0.4951372 205 205 205
-0.01595685 -0.002037722 0.4811608 205 205 205
-0.01465634 -0.002487837 0.4822445 205 205 205
-0.007860543 -0.004380828 0.4856296 205 205 205
-0.006437188 -0.004651484 0.4857028 205 205 205
0.000190952 -0.007362585 0.4938525 205 205 205
0.1168174 -0.01851144 0.4756152 205 205 205
0.124775 -0.01725266 0.4663117 205 205 205
0.1350963 -0.01500805 0.4518631 205 205 205
0.1441958 -0.0107773 0.4289604 205 205 205
0.1454293 -0.01073579 0.4284944 205 205 205
0.148613 -0.01105632 0.4293689 205 205 205
0.1510827 -0.0109549 0.428401 205 205 205
0.1526865 -0.01110552 0.428816 205 205 205
0.1547743 -0.01078362 0.4269165 205 205 205
0.1585094 -0.008539535 0.415788 205 205 205
0.1688895 -0.002235314 0.3859989 205 205 205
-0.03818346 0.00331691 0.4686368 205 205 205
-0.03683111 0.002998087 0.4688216 205 205 205
0.1274049 -0.01872861 0.4652179 205 205 205
0.1320975 -0.0191715 0.4658392 205 205 205
0.1477968 -0.011973 0.4272839 205 205 205
0.1490261 -0.01192363 0.4268049 205 205 205
0.1587584 -0.008648512 0.4100431 205 205 205
0.1595117 -0.008362144 0.4086388 205 205 205
0.1625895 -0.004774995 0.3921213 205 205 205
0.1632421 -0.004473621 0.3907199 205 205 205
0.164331 -0.004374502 0.39019 205 205 205
0.1678969 -0.003034652 0.3840294 205 205 205
0.1828145 -0.004132542 0.3883003 205 205 205
0.1765333 0.007441495 0.3395785 205 205 205
-0.04054274 0.003062024 0.4650825 205 205 205
-0.03528321 1.812262E-05 0.4747588 205 205 205
-0.02711327 -0.006163315 0.4974868 205 205 205
-0.02256981 -0.00457301 0.485052 205 205 205
-0.0108054 -0.006182964 0.4819844 205 205 205
-0.009483045 -0.006635065 0.4830468 205 205 205
0.01723565 -0.01440924 0.4993427 205 205 205
0.1177232 -0.02128209 0.4737082 205 205 205
0.1202815 -0.02112973 0.4720044 205 205 205
0.1327728 -0.02019741 0.4632526 205 205 205
0.1355088 -0.02019208 0.4623871 205 205 205
0.1373211 -0.01953188 0.4587198 205 205 205
0.137125 -0.01844675 0.4536421 205 205 205
0.1505266 -0.0134109 0.4269562 205 205 205
0.1521276 -0.01356894 0.4273709 205 205 205
0.1609291 -0.007106812 0.3969493 205 205 205
0.1631685 -0.005685905 0.3904708 205 205 205
0.1721694 -0.003237557 0.3793095 205 205 205
0.1854108 -0.005290463 0.387685 205 205 205
-0.02227001 -0.005313661 0.4808662 205 205 205
-0.01501822 -0.00641197 0.479473 205 205 205
-0.01108892 -0.007790279 0.4826854 205 205 205
0.01558624 -0.01548205 0.4980808 205 205 205
0.1154816 -0.02459622 0.4830355 205 205 205
0.1244069 -0.02159198 0.465435 205 205 205
0.1266087 -0.02118271 0.4627556 205 205 205
0.1376301 -0.02029635 0.4552008 205 205 205
0.1374056 -0.01918933 0.4501319 205 205 205
0.1377762 -0.01851674 0.4469169 205 205 205
0.1381233 -0.01784177 0.4437047 205 205 205
0.1384471 -0.01716454 0.4404954 205 205 205
0.142794 -0.0157066 0.4327246 205 205 205
0.1446005 -0.01519395 0.4299718 205 205 205
0.1602957 -0.009369599 0.4012527 205 205 205
0.1777579 -0.004534365 0.3793317 205 205 205
-0.04418232 0.001976539 0.4600796 205 205 205
-0.04129555 1.153483E-05 0.4664959 205 205 205
-0.02790452 -0.007410053 0.4889615 205 205 205
-0.01137405 -0.009403797 0.483379 205 205 205
-0.005245529 -0.01320607 0.4964685 205 205 205
0.01098662 -0.01606012 0.4968159 205 205 205
0.0168832 -0.01721288 0.4977626 205 205 205
0.1160499 -0.02676289 0.4855602 205 205 205
0.1262097 -0.02239588 0.4615186 205 205 205
0.129439 -0.02174894 0.4574854 205 205 205
0.1351304 -0.02195989 0.4567087 205 205 205
0.1382303 -0.02125566 0.452607 205 205 205
0.1393096 -0.01919509 0.4429664 205 205 205
0.1408473 -0.01755803 0.435185 205 205 205
0.1439449 -0.01700911 0.431978 205 205 205
0.1457429 -0.01648339 0.4292207 205 205 205
0.1503331 -0.01606651 0.4263978 205 205 205
0.1524202 -0.01573292 0.4245142 205 205 205
0.1588493 -0.01195812 0.4069558 205 205 205
0.1597935 -0.01039818 0.400106 205 205 205
0.1614558 -0.009259589 0.3950303 205 205 205
0.143894 0.01500479 0.295759 0 0 0
-0.0438098 -0.0003607805 0.4638877 205 205 205
-0.04185555 -0.001691984 0.468161 205 205 205
-0.02742462 -0.007964647 0.4837975 205 205 205
-0.02228523 -0.007608546 0.4773721 205 205 205
-0.01529453 -0.009057073 0.4779277 205 205 205
-0.007968583 -0.01318279 0.4911431 205 205 205
0.01378315 -0.01783267 0.4955238 205 205 205
0.1178202 -0.02613457 0.4746711 205 205 205
0.1198921 -0.02551883 0.4710836 205 205 205
0.1236189 -0.02402504 0.46295 205 205 205
0.1279665 -0.02316331 0.4575952 205 205 205
0.1290315 -0.02294092 0.45625 205 205 205
0.1320173 -0.02316669 0.4563384 205 205 205
0.1387396 -0.02311754 0.454149 205 205 205
0.1401395 -0.02217452 0.4495594 205 205 205
0.1420776 -0.01980775 0.4385549 205 205 205
0.1481245 -0.01772051 0.4279823 205 205 205
0.1564857 -0.01486774 0.4140559 205 205 205
0.1588205 -0.01397046 0.409854 205 205 205
0.1601299 -0.01186046 0.4007166 205 205 205
0.1604175 -0.01132948 0.3984381 205 205 205
0.1665454 -0.007917322 0.3835608 205 205 205
0.1710083 -0.006354755 0.3768477 205 205 205
0.1808203 -0.005375497 0.372536 205 205 205
0.1579376 0.008787769 0.3167579 205 205 205
-0.04515317 -0.001213934 0.4624395 205 205 205
-0.04123215 -0.003912468 0.4709806 205 205 205
-0.01933039 -0.009041642 0.4743932 205 205 205
-0.01548624 -0.01046641 0.4776359 205 205 205
-0.01418827 -0.01093921 0.4787078 205 205 205
0.007566398 -0.01894351 0.498141 205 205 205
0.1203491 -0.02878702 0.4786742 205 205 205
0.122045 -0.02656906 0.4681104 205 205 205
0.1345913 -0.02457147 0.4551666 205 205 205
0.1439239 -0.02159416 0.4396199 205 205 205
0.1487411 -0.01950656 0.4294994 205 205 205
0.1538275 -0.01854141 0.4243384 205 205 205
0.158731 -0.01524573 0.409572 205 205 205
0.1622042 -0.01084409 0.3908258 205 205 205
0.167386 -0.009550983 0.3850189 205 205 205
0.1719806 -0.007403855 0.3760301 205 205 205
0.1761305 -0.006886743 0.3737649 205 205 205
0.1766642 -0.006534694 0.3723502 205 205 205
-0.04058797 -0.006158091 0.4737874 205 205 205
-0.03502642 -0.0113984 0.4923079 205 205 205
-0.02533409 -0.009632564 0.4755565 205 205 205
0.005980948 -0.01977251 0.4958519 205 205 205
0.0104545 -0.02031529 0.4949023 205 205 205
0.1211421 -0.02983885 0.4760753 205 205 205
0.125008 -0.02713745 0.4628531 205 205 205
0.1398451 -0.0259292 0.4530705 205 205 205
0.140866 -0.02567431 0.4516952 205 205 205
0.1478953 -0.02210051 0.4346902 205 205 205
0.1488092 -0.02182103 0.4333019 205 205 205
0.1511311 -0.02073617 0.4282258 205 205 205
0.1590739 -0.01751996 0.4133444 205 205 205
0.1597437 -0.01566518 0.4056005 205 205 205
0.1723909 -0.008797769 0.3766129 205 205 205
0.1729507 -0.008448601 0.3752045 205 205 205
0.1618345 0.002445763 0.3333218 205 205 205
-0.02400705 -0.01113969 0.4744141 205 205 205
-0.02261716 -0.01143721 0.4745389 205 205 205
-0.01488542 -0.01435573 0.4810292 205 205 205
-0.01386851 -0.01543447 0.4850197 205 205 205
0.001352198 -0.02047931 0.495454 205 205 205
0.005882745 -0.02083803 0.4935754 205 205 205
0.1265298 -0.02882048 0.4630546 205 205 205
0.1276302 -0.02859183 0.4617124 205 205 205
0.1284399 -0.02812257 0.4594381 205 205 205
0.1367327 -0.02713825 0.4527277 205 205 205
0.1430907 -0.02679459 0.4495341 205 205 205
0.1447463 -0.02602115 0.4458549 205 205 205
0.1466922 -0.02547497 0.4430829 205 205 205
0.1545489 -0.02011235 0.4191583 205 205 205
0.1603955 -0.01660629 0.4039111 205 205 205
0.1646795 -0.01329208 0.3900821 205 205 205
0.1672314 -0.01194232 0.3844738 205 205 205
0.1684542 -0.01125744 0.3816676 205 205 205
0.1723944 -0.009391443 0.3740903 205 205 205
0.1775712 -0.008138629 0.368993 205 205 205
0.1805889 -0.001620792 0.3444244 205 205 205
-0.04708448 -0.004921308 0.4613742 205 205 205
-0.04283781 -0.007351947 0.4679758 205 205 205
-0.03421594 -0.01279399 0.4839211 205 205 205
-0.01757889 -0.01459861 0.4776006 205 205 205
-0.0003212381 -0.02169427 0.495091 205 205 205
0.004321163 -0.02163297 0.4912772 205 205 205
0.01010968 -0.02305968 0.4932749 205 205 205
0.1240951 -0.03190226 0.4704677 205 205 205
0.12556 -0.03072716 0.4649941 205 205 205
0.1293925 -0.02930801 0.457764 205 205 205
0.1325805 -0.02857669 0.453713 205 205 205
0.1366112 -0.02854563 0.452402 205 205 205
0.1376408 -0.0282882 0.4510364 205 205 205
0.1399917 -0.02800686 0.4492153 205 205 205
0.1413203 -0.02798282 0.4487573 205 205 205
0.1522942 -0.02256484 0.4239303 205 205 205
0.1535255 -0.02250313 0.4234323 205 205 205
0.1560478 -0.02158581 0.4192404 205 205 205
0.1580922 -0.02041081 0.4141511 205 205 205
0.1588592 -0.01930071 0.4095802 205 205 205
0.1623284 -0.01607675 0.3962682 205 205 205
0.1645968 -0.01450234 0.3897991 205 205 205
0.1656955 -0.01439757 0.3892621 205 205 205
0.1667923 -0.01429044 0.3887212 205 205 205
0.1723214 -0.01055553 0.3738174 205 205 205
0.1759586 -0.009797863 0.3707091 205 205 205
0.1800336 -0.008634533 0.3661434 205 205 205
-0.04480349 -0.007120213 0.4624552 205 205 205
-0.04402511 -0.008012915 0.4655476 205 205 205
-0.04185699 -0.009240772 0.4688314 205 205 205
-0.03927357 -0.01194551 0.4780819 205 205 205
-0.03711059 -0.01337566 0.4823024 205 205 205
-0.03395908 -0.01363913 0.4806976 205 205 205
-0.03224277 -0.01356847 0.4789172 205 205 205
-0.030394 -0.01329508 0.4761605 205 205 205
-0.01331471 -0.01962535 0.4893355 205 205 205
0.004180547 -0.02288114 0.4899714 205 205 205
0.005641948 -0.02313459 0.4899903 205 205 205
0.008484984 -0.02406818 0.4919628 205 205 205
0.1295495 -0.03097164 0.4583573 205 205 205
0.140236 -0.02864465 0.445684 205 205 205
0.1474834 -0.02897317 0.44516 205 205 205
0.1509567 -0.02394195 0.4241121 205 205 205
0.1539655 -0.02247445 0.417655 205 205 205
0.1555607 -0.02264842 0.4180413 205 205 205
0.1625004 -0.01673017 0.3937075 205 205 205
0.1660584 -0.01584415 0.3898371 205 205 205
0.1667094 -0.01549858 0.3884336 205 205 205
0.1753532 -0.01132363 0.371842 205 205 205
0.1753892 -0.01072299 0.3695972 205 205 205
0.1799382 -0.00917489 0.3636319 205 205 205
0.1785032 -0.005680833 0.350881 205 205 205
0.1803989 -0.00536904 0.3497137 205 205 205
-0.03897001 -0.01276689 0.4748664 205 205 205
-0.03510346 -0.01413829 0.4773124 205 205 205
-0.02876521 -0.01440294 0.4730814 205 205 205
-0.02206102 -0.01632284 0.4756666 205 205 205
-0.01600019 -0.01965833 0.4849363 205 205 205
0.002638748 -0.02364531 0.4876636 205 205 205
0.009726646 -0.02600412 0.4926019 205 205 205
0.1273613 -0.03683419 0.4768213 205 205 205
0.1280708 -0.03362936 0.4634885 205 205 205
0.1330774 -0.03088096 0.4507714 205 205 205
0.1594372 -0.02151775 0.4075719 205 205 205
0.1609493 -0.02085555 0.4047711 205 205 205
0.1612738 -0.02027712 0.4024944 205 205 205
0.1615824 -0.0196973 0.4002201 205 205 205
0.1639642 -0.01809374 0.3937487 205 205 205
0.1666253 -0.0167053 0.3881415 205 205 205
0.1703499 -0.01457163 0.3797192 205 205 205
0.1710434 -0.01360897 0.3760643 205 205 205
0.1731392 -0.01335506 0.3749431 205 205 205
0.17684 -0.01197281 0.3695775 205 205 205
0.1778713 -0.01121975 0.3667585 205 205 205
0.1809641 -0.00506238 0.34446 205 205 205
-0.04634919 -0.009284937 0.460679 205 205 205
-0.03794666 -0.01468951 0.4756866 205 205 205
-0.03483038 -0.01493703 0.4740896 205 205 205
-0.02632072 -0.01660951 0.4740017 205 205 205
-0.02250843 -0.01813879 0.4772824 205 205 205
-0.006509307 -0.02415596 0.4899923 205 205 205
0.01236537 -0.02886918 0.4961399 205 205 205
0.1332503 -0.03252927 0.4513517 205 205 205
0.1363416 -0.03172957 0.4472802 205 205 205
0.137668 -0.03171069 0.4468338 205 205 205
0.141645 -0.03059668 0.4413615 205 205 205
0.1529957 -0.02456461 0.4152463 205 205 205
0.1593404 -0.02278399 0.4072609 205 205 205
0.1608543 -0.02211358 0.404462 205 205 205
0.1622083 -0.02059794 0.3985156 205 205 205
0.1638754 -0.0193156 0.3934481 205 205 205
0.1645548 -0.01896699 0.3920481 205 205 205
0.1663328 -0.01851021 0.390107 205 205 205
0.1690618 -0.01647813 0.3822348 205 205 205
0.1713333 -0.01562936 0.3788716 205 205 205
0.1729746 -0.01513501 0.3769039 205 205 205
0.1751504 -0.01425859 0.3735196 205 205 205
0.1807997 -0.01129964 0.3624863 205 205 205
0.1817621 -0.00762063 0.3493979 205 205 205
0.1809029 -0.006134832 0.3441951 205 205 205
-0.03609919 -0.01559575 0.4716687 205 205 205
-0.02512421 -0.01830379 0.4738026 205 205 205
-0.02012399 -0.02056524 0.4791136 205 205 205
-0.01693284 -0.02360939 0.4891156 205 205 205
-0.01341244 -0.02645576 0.4981139 205 205 205
-0.01164308 -0.02608889 0.4952779 205 205 205
0.1300089 -0.03599866 0.4600933 205 205 205
0.1474186 -0.03233192 0.4409449 205 205 205
0.1487239 -0.03228828 0.4404598 205 205 205
0.1502693 -0.03142556 0.4367763 205 205 205
0.1501262 -0.0284549 0.4254267 205 205 205
0.1618168 -0.02243182 0.4004761 205 205 205
0.1635274 -0.02113766 0.395408 205 205 205
0.1688197 -0.01827825 0.3841923 205 205 205
0.1733747 -0.01655478 0.3774518 205 205 205
0.1808699 -0.009506523 0.3519206 205 205 205
0.181288 -0.009109518 0.350522 205 205 205
-0.04655382 -0.01176249 0.4590895 205 205 205
-0.04388272 -0.01242969 0.4594887 205 205 205
-0.04273171 -0.01296241 0.4606422 205 205 205
-0.03427593 -0.01646194 0.4676431 205 205 205
-0.00666553 -0.02638705 0.4863824 205 205 205
-0.002375701 -0.02742658 0.4875003 205 205 205
0.006147754 -0.03013933 0.4925114 205 205 205
0.1315308 -0.04159007 0.475374 205 205 205
0.1310086 -0.03846887 0.4634256 205 205 205
0.1315403 -0.03768642 0.4602295 205 205 205
0.1556082 -0.02640354 0.4113201 205 205 205
0.1648131 -0.02165196 0.3922971 205 205 205
0.1750898 -0.01532341 0.3684527 205 205 205
0.1809079 -0.01124626 0.3538494 205 205 205
0.18094 -0.00891813 0.3458448 205 205 205
-0.04195562 -0.01504463 0.4624277 205 205 205
-0.03584729 -0.01750799 0.4671503 205 205 205
-0.02941843 -0.01972564 0.470801 205 205 205
-0.02088088 -0.02405046 0.4813327 205 205 205
-0.01820163 -0.02830201 0.4961595 205 205 205
0.0002824442 -0.02963489 0.4881857 205 205 205
0.004471283 -0.03135101 0.4921362 205 205 205
0.1402972 -0.03499397 0.4416943 205 205 205
0.1428876 -0.03383919 0.4366785 205 205 205
0.1502662 -0.03135567 0.4256474 205 205 205
0.1530616 -0.02867911 0.4151565 205 205 205
0.1594484 -0.02683393 0.407175 205 205 205
0.1620447 -0.02517553 0.4007095 205 205 205
0.1651587 -0.02312681 0.3928439 205 205 205
0.1689253 -0.02154812 0.3866868 205 205 205
0.1692698 -0.02029083 0.3821784 205 205 205
0.169884 -0.01991577 0.3807765 205 205 205
0.1749134 -0.01775026 0.3726297 205 205 205
0.1804747 -0.01340336 0.357177 205 205 205
0.1811531 -0.01129535 0.3499596 205 205 205
0.1810211 -0.0106449 0.3477603 205 205 205
-0.04768422 -0.01346777 0.4553621 205 205 205
-0.0467578 -0.01421862 0.4574822 205 205 205
-0.04581527 -0.01497077 0.4595998 205 205 205
-0.04234058 -0.01660053 0.4630561 205 205 205
-0.03483796 -0.01940675 0.4679365 205 205 205
-0.0148245 -0.02900148 0.4901625 205 205 205
-0.002700728 -0.03008048 0.4858125 205 205 205
-0.001311895 -0.03058269 0.4868197 205 205 205
0.1346187 -0.04107027 0.4604578 205 205 205
0.1349804 -0.03890254 0.4522438 205 205 205
0.1384919 -0.03721943 0.4449766 205 205 205
0.1440583 -0.03515346 0.4358563 205 205 205
0.1528757 -0.03082936 0.4179791 205 205 205
0.1537776 -0.0296282 0.4134343 205 205 205
0.1619462 -0.0264192 0.4003832 205 205 205
0.1673071 -0.02413109 0.3914371 205 205 205
0.1681866 -0.02312555 0.3877745 205 205 205
0.1694751 -0.02237395 0.3849671 205 205 205
0.1719449 -0.02085081 0.3793493 205 205 205
0.1740845 -0.02059377 0.3782179 205 205 205
0.1754281 -0.01787003 0.3686845 205 205 205
0.1759577 -0.01747516 0.3672817 205 205 205
0.1785002 -0.01613452 0.3624937 205 205 205
0.1799881 -0.01558054 0.3605042 205 205 205
0.1804624 -0.01517535 0.3590999 205 205 205
-0.02981973 -0.02247755 0.4701123 205 205 205
-0.02857442 -0.02301184 0.4712127 205 205 205
-0.01297541 -0.02934184 0.4840698 205 205 205
-0.0001761177 -0.03277088 0.4884213 205 205 205
0.001173506 -0.03351647 0.4903859 205 205 205
0.1359489 -0.0438643 0.4646612 205 205 205
0.1383635 -0.03859783 0.4446119 205 205 205
0.1468617 -0.03669028 0.4354443 205 205 205
0.152166 -0.03360397 0.4230713 205 205 205
0.1560902 -0.02987522 0.4089319 205 205 205
0.1651467 -0.02646514 0.3953194 205 205 205
0.1695547 -0.02292553 0.3823974 205 205 205
0.1713858 -0.02176941 0.3781922 205 205 205
0.1752377 -0.0203303 0.3728472 205 205 205
0.1769013 -0.01847573 0.3663999 205 205 205
0.1789353 -0.01752114 0.3630109 205 205 205
0.1802523 -0.0149671 0.3543755 205 205 205
0.1812268 -0.01480828 0.3537855 205 205 205
-0.04661159 -0.0180683 0.4608397 205 205 205
-0.04428916 -0.01917659 0.4631446 205 205 205
-0.03540412 -0.02235967 0.4682046 205 205 205
-0.03140892 -0.02353804 0.4696188 205 205 205
-0.02653168 -0.02592385 0.4749714 205 205 205
-0.01135262 -0.03010202 0.4799078 205 205 205
-0.00991893 -0.0303819 0.4799753 205 205 205
-0.003168854 -0.03319832 0.4860406 205 205 205
0.1363243 -0.04447683 0.4610789 205 205 205
0.1362154 -0.04308467 0.4560621 205 205 205
0.1364984 -0.04084481 0.4478715 205 205 205
0.1402413 -0.03936948 0.4415143 205 205 205
0.1425189 -0.03789162 0.4356048 205 205 205
0.1519036 -0.03580078 0.4258818 205 205 205
0.1590897 -0.02971877 0.4030299 205 205 205
0.1739112 -0.02295127 0.3775833 205 205 205
0.1796486 -0.01581396 0.3532669 205 205 205
0.1784855 -0.01219661 0.3415098 205 205 205
-0.04869526 -0.01785091 0.4562667 205 205 205
-0.02585455 -0.0285612 0.4785819 205 205 205
-0.02387536 -0.03397894 0.4972365 205 205 205
-0.01452113 -0.03118687 0.4803517 205 205 205
-0.00859643 -0.0318291 0.4786999 205 205 205
-0.0008319289 -0.03665918 0.49153 205 205 205
0.0005923283 -0.03717471 0.4925237 205 205 205
0.1375786 -0.04590115 0.4602353 205 205 205
0.1369801 -0.04279095 0.4493122 205 205 205
0.1373958 -0.04193159 0.4461344 205 205 205
0.1417567 -0.03983371 0.4375055 205 205 205
0.1642409 -0.02929627 0.3960488 205 205 205
0.1688078 -0.02727924 0.3884969 205 205 205
0.1696574 -0.02623067 0.3848422 205 205 205
0.1787181 -0.01842792 0.3579611 205 205 205
-0.04197741 -0.02253636 0.4628114 205 205 205
-0.03304605 -0.02572847 0.4677929 205 205 205
-0.02903589 -0.02690383 0.4691739 205 205 205
-0.02693861 -0.02870607 0.4742381 205 205 205
-0.006330153 -0.03502959 0.4832572 205 205 205
-0.00364169 -0.03632391 0.4862422 205 205 205
0.1381946 -0.04416294 0.4484735 205 205 205
0.1481305 -0.04097718 0.4347459 205 205 205
0.1496557 -0.04002724 0.4310866 205 205 205
0.1569386 -0.03266381 0.4042458 205 205 205
0.1607972 -0.0317512 0.4004248 205 205 205
0.1619578 -0.03165647 0.3998957 205 205 205
0.1680431 -0.02887761 0.3895618 205 205 205
0.1697396 -0.02675728 0.3822624 205 205 205
0.1753832 -0.02476168 0.3749537 205 205 205
0.1760287 -0.02367201 0.3713136 205 205 205
0.1776573 -0.02243344 0.3671016 205 205 205
-0.03672608 -0.0251894 0.4631315 205 205 205
-0.03415237 -0.02606441 0.4644008 205 205 205
-0.02909332 -0.02803298 0.4678448 205 205 205
-0.02308136 -0.03448901 0.4868244 205 205 205
-0.01042699 -0.03436612 0.4778799 205 205 205
-0.002585005 -0.03879708 0.4887807 205 205 205
0.1227474 -0.05131033 0.472851 205 205 205
0.1426299 -0.0524888 0.4707904 205 205 205
0.1401192 -0.04492943 0.4453551 205 205 205
0.1424856 -0.04339955 0.4394488 205 205 205
0.1495315 -0.04136609 0.430709 205 205 205
0.1500974 -0.04073884 0.4284361 205 205 205
0.1564469 -0.03456238 0.4061503 205 205 205
0.1572307 -0.0341957 0.4047639 205 205 205
0.157601 -0.03354396 0.4025069 205 205 205
0.1670194 -0.03115183 0.392873 205 205 205
0.1677096 -0.03076057 0.3914711 205 205 205
0.1683908 -0.03036749 0.3900688 205 205 205
0.1692728 -0.02929732 0.3864162 205 205 205
0.1694667 -0.02862102 0.3841695 205 205 205
0.175379 -0.02524293 0.3723884 205 205 205
0.1785074 -0.01995955 0.3551292 205 205 205
0.1781528 -0.01717941 0.3463576 205 205 205
0.1771808 -0.01482834 0.3390332 205 205 205
-0.04703324 -0.02294736 0.4575162 205 205 205
-0.02693358 -0.03074636 0.4706039 205 205 205
-0.01053517 -0.03551605 0.47653 205 205 205
-0.001770569 -0.04233088 0.4951562 205 205 205
0.1440018 -0.04501422 0.4394854 205 205 205
0.1496158 -0.04177859 0.4271677 205 205 205
0.1501631 -0.04114162 0.4248995 205 205 205
0.1519459 -0.0404398 0.4221344 205 205 205
0.1541735 -0.03908117 0.4170969 205 205 205
0.155473 -0.0380688 0.4134449 205 205 205
0.1555191 -0.03712786 0.4103073 205 205 205
0.1559353 -0.0364733 0.4080478 205 205 205
0.1594779 -0.03527202 0.4033656 205 205 205
0.160654 -0.03518096 0.4028398 205 205 205
0.1621638 -0.03441962 0.4000517 205 205 205
0.1636377 -0.03365033 0.3972604 205 205 205
0.1676082 -0.03197733 0.3911214 205 205 205
0.1764511 -0.02486632 0.3670272 205 205 205
0.1790232 -0.02274194 0.360032 205 205 205
-0.04703882 -0.02403632 0.4561988 205 205 205
-0.04454891 -0.024946 0.4575343 205 205 205
-0.01481072 -0.03555201 0.4740037 205 205 205
-0.007017138 -0.03956317 0.4830391 205 205 205
-0.002176641 -0.04459338 0.4976298 205 205 205
0.1127365 -0.0546051 0.4765854 205 205 205
0.1140125 -0.05262316 0.4693466 205 205 205
0.1198974 -0.05129217 0.4627999 205 205 205
0.126241 -0.05370199 0.4689355 205 205 205
0.1284822 -0.05459806 0.471265 205 205 205
0.1307444 -0.05549128 0.4735828 205 205 205
0.1509361 -0.04210386 0.4231364 205 205 205
0.1549029 -0.04000822 0.415335 205 205 205
0.1589599 -0.03623009 0.4021361 205 205 205
0.163531 -0.03488216 0.3969014 205 205 205
0.1783435 -0.02216411 0.3544892 205 205 205
0.1782801 -0.02145349 0.3522939 205 205 205
0.17631 -0.01593263 0.3354762 205 205 205
-0.047243 -0.0253542 0.4558287 205 205 205
-0.04590257 -0.02569279 0.4560222 205 205 205
-0.04321832 -0.02636235 0.4563945 205 205 205
-0.04052983 -0.02702164 0.4567475 205 205 205
-0.03716652 -0.02897308 0.4610586 205 205 205
-0.03492301 -0.03035536 0.4642325 205 205 205
-0.03386182 -0.03117056 0.4662919 205 205 205
-0.03278456 -0.03198661 0.4683478 205 205 205
-0.02480026 -0.03461182 0.4719837 205 205 205
-0.02222554 -0.03572759 0.4741167 205 205 205
-0.00607547 -0.04232207 0.4865238 205 205 205
0.03695948 -0.0502777 0.4894266 205 205 205
0.1169227 -0.05266906 0.4631639 205 205 205
0.1264477 -0.05397216 0.4644252 205 205 205
0.1284109 -0.05457762 0.4658327 205 205 205
0.1329373 -0.05637743 0.4704444 205 205 205
0.1569015 -0.03891134 0.4067951 205 205 205
0.1664422 -0.03550284 0.394056 205 205 205
0.1671474 -0.0351008 0.3926564 205 205 205
0.1678436 -0.03469687 0.3912562 205 205 205
0.1743124 -0.03056095 0.3772343 205 205 205
0.1781193 -0.02182702 0.3497816 205 205 205
-0.04858356 -0.02608768 0.4543064 205 205 205
-0.04323301 -0.02743575 0.455067 205 205 205
-0.0405512 -0.02809441 0.4554183 205 205 205
-0.03617187 -0.03088102 0.4617861 205 205 205
-0.03034737 -0.03423778 0.4691854 205 205 205
-0.01947176 -0.03745162 0.4729549 205 205 205
0.1160801 -0.05497035 0.4658908 205 205 205
0.1179304 -0.05381474 0.4614332 205 205 205
0.1238162 -0.05418869 0.4607518 205 205 205
0.1498059 -0.05608111 0.4593507 205 205 205
0.1479305 -0.05177299 0.4458408 205 205 205
0.149022 -0.04670388 0.4291478 205 205 205
0.149593 -0.04604553 0.4268836 205 205 205
0.1524567 -0.04399194 0.4195976 205 205 205
0.1587685 -0.03969786 0.4045128 205 205 205
0.1595485 -0.03931008 0.4031243 205 205 205
0.1677379 -0.03591241 0.3908915 205 205 205
0.1721946 -0.03371921 0.3833256 205 205 205
0.173461 -0.03287607 0.3805187 205 205 205
0.1740807 -0.03245198 0.379115 205 205 205
0.1764699 -0.03073961 0.3734992 205 205 205
0.1767432 -0.02640564 0.3602003 205 205 205
0.1770654 -0.02306816 0.3500357 205 205 205
0.1766392 -0.02016645 0.3413356 205 205 205
-0.04209543 -0.02907943 0.4548641 205 205 205
-0.02238602 -0.03797363 0.4713995 205 205 205
0.04054694 -0.05028296 0.4767455 205 205 205
0.1131536 -0.06023251 0.4789785 205 205 205
0.115922 -0.05640257 0.4654595 205 205 205
0.117102 -0.05612488 0.4641533 205 205 205
0.1245338 -0.05500692 0.458084 205 205 205
0.1267771 -0.05440617 0.4554262 205 205 205
0.1448465 -0.0613795 0.4726542 205 205 205
0.1477598 -0.05062955 0.4373149 205 205 205
0.1488913 -0.0480338 0.4287447 205 205 205
0.1507391 -0.04730847 0.4259861 205 205 205
0.1509229 -0.04633354 0.4228434 205 205 205
0.1529347 -0.04363208 0.4138149 205 205 205
0.1570639 -0.04172634 0.4069044 205 205 205
0.1609683 -0.03976727 0.3999681 205 205 205
0.165079 -0.0380574 0.3938627 205 205 205
0.1698969 -0.03689212 0.3894106 205 205 205
0.1719037 -0.03563196 0.3852017 205 205 205
0.1725547 -0.03520844 0.3837981 205 205 205
0.1756746 -0.0330655 0.3767767 205 205 205
0.1774389 -0.03176046 0.3725629 205 205 205
0.1771552 -0.02708099 0.3584696 205 205 205
0.1770989 -0.02561582 0.3540789 205 205 205
-0.04248468 -0.03064353 0.4554274 205 205 205
-0.03658061 -0.03355549 0.4610024 205 205 205
-0.03431883 -0.03497369 0.4641569 205 205 205
-0.02400403 -0.03904684 0.4708872 205 205 205
-0.01594029 -0.04190406 0.4752639 205 205 205
0.03304809 -0.05016959 0.4749513 205 205 205
0.04190619 -0.05247122 0.4781032 205 205 205
0.0455347 -0.05668051 0.4902332 205 205 205
0.1169438 -0.05755134 0.4637176 205 205 205
0.1274567 -0.05519051 0.4527562 205 205 205
0.1418379 -0.05850613 0.4591166 205 205 205
0.1444928 -0.05971995 0.4622327 205 205 205
0.1519901 -0.05857387 0.456569 205 205 205
0.1483055 -0.05260634 0.4386731 205 205 205
0.1511574 -0.04795018 0.4233205 205 205 205
0.1541072 -0.04383903 0.4097928 205 205 205
0.1642461 -0.03968819 0.3948794 205 205 205
0.1722575 -0.03713145 0.3856679 205 205 205
0.1780282 -0.03100139 0.3663655 205 205 205
-0.04268881 -0.03195663 0.4550349 205 205 205
-0.04035326 -0.0331323 0.4572739 205 205 205
-0.01901019 -0.04270751 0.4746802 205 205 205
-0.01132703 -0.04721213 0.4846752 205 205 205
0.03288195 -0.05187171 0.4754774 205 205 205
0.0357811 -0.05225779 0.4752751 205 205 205
0.04181043 -0.05449244 0.4795746 205 205 205
0.1151225 -0.06048366 0.4686406 205 205 205
0.119374 -0.05870949 0.4615752 205 205 205
0.1202778 -0.05810112 0.4593471 205 205 205
0.1273057 -0.05658407 0.4523238 205 205 205
0.1344861 -0.05686076 0.4510524 205 205 205
0.1418495 -0.05865984 0.4546061 205 205 205
0.1459068 -0.05985378 0.4572263 205 205 205
0.1485076 -0.05428349 0.4391349 205 205 205
0.1488051 -0.05329521 0.4359824 205 205 205
0.1490791 -0.05230493 0.4328335 205 205 205
0.1645602 -0.04121846 0.3953476 205 205 205
0.1664384 -0.04069405 0.393407 205 205 205
0.167588 -0.04058162 0.392856 205 205 205
0.1734541 -0.03746662 0.3824858 205 205 205
0.1753129 -0.02617018 0.3488082 205 205 205
0.1755715 -0.0242227 0.3430972 205 205 205
-0.04878682 -0.03055028 0.4499247 205 205 205
-0.04404808 -0.03267458 0.4535132 205 205 205
-0.04173004 -0.03386032 0.4557571 205 205 205
-0.0285111 -0.04059334 0.4687625 205 205 205
-0.01645949 -0.04496284 0.4753739 205 205 205
0.02399172 -0.05234698 0.4764832 205 205 205
0.1180457 -0.06042337 0.4624394 205 205 205
0.1224072 -0.05890607 0.4562728 205 205 205
0.1235376 -0.0585985 0.4549533 205 205 205
0.1257719 -0.05797445 0.4523065 205 205 205
0.1268758 -0.05765804 0.4509795 205 205 205
0.1445836 -0.05871335 0.4491476 205 205 205
0.1523185 -0.04949075 0.4188666 205 205 205
0.1534072 -0.04707059 0.411245 205 205 205
0.1558928 -0.04589096 0.4071093 205 205 205
0.1610331 -0.04378593 0.3996661 205 205 205
0.1774165 -0.03705256 0.3767383 205 205 205
0.1778718 -0.03252534 0.3634398 205 205 205
0.1757723 -0.02406217 0.3392397 205 205 205
-0.03566062 -0.0376073 0.4589882 205 205 205
-0.02983328 -0.04109586 0.4663163 205 205 205
-0.02857623 -0.04168295 0.4673897 205 205 205
-0.0259019 -0.04257786 0.4685717 205 205 205
-0.02073684 -0.04490361 0.4727842 205 205 205
-0.01295528 -0.05376963 0.4961972 205 205 205
0.02234777 -0.05323836 0.4751524 205 205 205
0.02955525 -0.05337732 0.4719252 205 205 205
0.03543083 -0.05537683 0.4753498 205 205 205
0.03995965 -0.05716321 0.4788101 205 205 205
0.1171968 -0.06467981 0.4710094 205 205 205
0.1193058 -0.06186584 0.4615917 205 205 205
0.1370841 -0.05830519 0.4452206 205 205 205
0.1384419 -0.05828013 0.4447613 205 205 205
0.1425055 -0.05818741 0.4433555 205 205 205
0.151125 -0.05219539 0.422956 205 205 205
0.1545617 -0.04722865 0.4072195 205 205 205
0.1601444 -0.04543399 0.4006554 205 205 205
0.1613263 -0.04533757 0.4001243 205 205 205
0.1673615 -0.04302024 0.3920779 205 205 205
0.1717213 -0.04148016 0.3867613 205 205 205
0.1727759 -0.0395367 0.3808962 205 205 205
0.1783019 -0.03319602 0.3616833 205 205 205
0.1757566 -0.0231103 0.3332562 205 205 205
-0.04919605 -0.0331317 0.4491262 205 205 205
-0.03723369 -0.03860984 0.4584243 205 205 205
-0.03128903 -0.04185773 0.4648156 205 205 205
-0.02638 -0.04450072 0.4700446 205 205 205
-0.02379938 -0.04567756 0.4721581 205 205 205
0.02216794 -0.05372817 0.4718495 205 205 205
0.0250409 -0.05354326 0.4698132 205 205 205
0.02647868 -0.05405575 0.4706924 205 205 205
0.03228587 -0.05578046 0.4732035 205 205 205
0.03375859 -0.05628346 0.4740555 205 205 205
0.03993108 -0.05982726 0.4821561 205 205 205
0.1192036 -0.06521148 0.4670073 205 205 205
0.1205645 -0.06330305 0.4607336 205 205 205
0.1257357 -0.06107715 0.4523206 205 205 205
0.1273848 -0.05977564 0.44786 205 205 205
0.1325555 -0.0594137 0.4452271 205 205 205
0.1480824 -0.05837617 0.4378258 205 205 205
0.1506291 -0.05318094 0.4216567 205 205 205
0.1515315 -0.05279249 0.4202809 205 205 205
0.1525646 -0.05136355 0.4157846 205 205 205
0.1534326 -0.05096842 0.4144076 205 205 205
0.1635649 -0.04637366 0.3986475 205 205 205
0.1683953 -0.04412081 0.3911273 205 205 205
0.1747074 -0.04121514 0.3815915 205 205 205
0.1784028 -0.03848823 0.3731696 205 205 205
0.1791811 -0.03571088 0.3651319 205 205 205
0.178204 -0.03431984 0.3613169 205 205 205
0.1745232 -0.02907995 0.3469747 205 205 205
0.1744483 -0.02831001 0.3448107 205 205 205
0.1743578 -0.02754004 0.3426512 205 205 205
-0.04714588 -0.0356383 0.4509854 205 205 205
-0.03999541 -0.03900368 0.4567473 205 205 205
-0.0303958 -0.04408326 0.4664101 205 205 205
-0.02503859 -0.04589388 0.4687673 205 205 205
0.01615439 -0.05514602 0.4744626 205 205 205
0.02198473 -0.05450118 0.4694997 205 205 205
0.03066305 -0.05729088 0.4737974 205 205 205
0.03359109 -0.05799703 0.4745532 205 205 205
0.1200235 -0.06796475 0.4701838 205 205 205
0.1211639 -0.06570545 0.4629993 205 205 205
0.1264129 -0.06180972 0.4496379 205 205 205
0.1538645 -0.0504664 0.4086376 205 205 205
0.1591204 -0.04832632 0.4012282 205 205 205
0.1599011 -0.04790792 0.3998457 205 205 205
0.1637774 -0.04685881 0.3960027 205 205 205
0.1675657 -0.04577287 0.3921221 205 205 205
0.1682792 -0.0453353 0.3907267 205 205 205
0.1763409 -0.04181066 0.3792162 205 205 205
0.1783915 -0.03887434 0.3705703 205 205 205
0.1749489 -0.03045571 0.3474196 205 205 205
0.1750422 -0.02484174 0.3318064 205 205 205
-0.02793512 -0.04635107 0.4671597 205 205 205
-0.01872977 -0.05021916 0.4735362 205 205 205
0.006632414 -0.0593847 0.4874829 205 205 205
0.01157255 -0.05614787 0.4750603 205 205 205
0.01458193 -0.05538632 0.4711939 205 205 205
0.01894069 -0.05513431 0.4682112 205 205 205
0.02036854 -0.05535281 0.468158 205 205 205
0.1311803 -0.06249809 0.4456605 205 205 205
0.1477561 -0.05971808 0.4329135 205 205 205
0.148035 -0.05867079 0.4297841 205 205 205
0.1693098 -0.04642861 0.3897631 205 205 205
0.1734246 -0.04560242 0.3866612 205 205 205
0.1764808 -0.03404009 0.3537965 205 205 205
0.1743367 -0.03120897 0.3462668 205 205 205
0.1731263 -0.02901205 0.3403701 205 205 205
0.1735438 -0.02854002 0.3390141 205 205 205
0.1739526 -0.02806688 0.3376589 205 205 205
-0.04848456 -0.03733318 0.4480824 205 205 205
-0.04602281 -0.03828914 0.4493934 205 205 205
-0.04294585 -0.04068851 0.4546246 205 205 205
-0.03802458 -0.04285637 0.458093 205 205 205
-0.031761 -0.04560833 0.4625685 205 205 205
-0.02926437 -0.04681564 0.4647067 205 205 205
-0.02673381 -0.04801882 0.4668276 205 205 205
-0.02262321 -0.04922881 0.4680803 205 205 205
-0.02132755 -0.04982381 0.4691201 205 205 205
-0.01648734 -0.05338082 0.4770289 205 205 205
0.03174634 -0.06060488 0.4737305 205 205 205
0.1249989 -0.07026392 0.4657517 205 205 205
0.1254808 -0.06725375 0.4567737 205 205 205
0.1277567 -0.06490144 0.4491921 205 205 205
0.1302314 -0.06455161 0.44743 205 205 205
0.1376348 -0.06206008 0.4380429 205 205 205
0.1399897 -0.061659 0.4362279 205 205 205
0.1479533 -0.06139419 0.4333392 205 205 205
0.1481488 -0.05893998 0.4262139 205 205 205
0.1493053 -0.05748202 0.4217272 205 205 205
0.1498591 -0.05674985 0.4194857 205 205 205
0.1517941 -0.05487497 0.4136368 205 205 205
0.1538976 -0.05439206 0.4117558 205 205 205
0.1543684 -0.05364745 0.409518 205 205 205
0.1616043 -0.04984597 0.3971033 205 205 205
0.163113 -0.04897818 0.3943349 205 205 205
0.1700761 -0.04829465 0.3910232 205 205 205
0.1714823 -0.04739177 0.388225 205 205 205
0.1776994 -0.04435595 0.3786533 205 205 205
0.1793192 -0.04023471 0.3669977 205 205 205
-0.05091944 -0.03737234 0.4453966 205 205 205
-0.04756288 -0.03923674 0.4487857 205 205 205
-0.03806074 -0.04389058 0.4567137 205 205 205
-0.03411067 -0.04514837 0.4580857 205 205 205
-0.01869052 -0.05178458 0.4688354 205 205 205
-0.001622672 -0.06249366 0.4912635 205 205 205
0.008471262 -0.05688819 0.4694329 205 205 205
0.01429083 -0.05688594 0.4664819 205 205 205
0.01571498 -0.05711309 0.4664432 205 205 205
0.0331247 -0.0638158 0.4778912 205 205 205
0.1292622 -0.06661537 0.4491892 205 205 205
0.1325293 -0.06556147 0.4451864 205 205 205
0.1461609 -0.06385425 0.4364999 205 205 205
0.1471592 -0.06346631 0.4351295 205 205 205
0.1474652 -0.06239831 0.4320041 205 205 205
0.1476572 -0.05991799 0.4248905 205 205 205
0.1591462 -0.05237053 0.4008263 205 205 205
0.1634106 -0.05052983 0.3947613 205 205 205
0.1653199 -0.04997829 0.3928297 205 205 205
0.1711096 -0.04938722 0.3900409 205 205 205
0.1734112 -0.04913237 0.3888979 205 205 205
0.174103 -0.04867105 0.3874938 205 205 205
0.1762926 -0.0370254 0.3552268 205 205 205
0.1757715 -0.03590039 0.3522549 205 205 205
0.1738866 -0.03092851 0.3390955 205 205 205
-0.04336146 -0.04330169 0.4537561 205 205 205
-0.03689897 -0.04553188 0.4564203 205 205 205
-0.0254718 -0.05043867 0.4641398 205 205 205
-0.01493528 -0.05493908 0.4714299 205 205 205
-0.0139976 -0.05675801 0.4762254 205 205 205
-0.009094705 -0.06129805 0.4868442 205 205 205
0.002187445 -0.05915355 0.4746802 205 205 205
0.01835216 -0.05924421 0.4668352 205 205 205
0.02551084 -0.06128553 0.4693538 205 205 205
0.02696747 -0.06214155 0.471166 205 205 205
0.02992723 -0.06385142 0.4747726 205 205 205
0.0331097 -0.06784459 0.4849688 205 205 205
0.1281911 -0.07212913 0.4607823 205 205 205
0.1288007 -0.07109819 0.4576529 205 205 205
0.1291081 -0.06972054 0.4536285 205 205 205
0.1383552 -0.06437967 0.4357713 205 205 205
0.1410217 -0.06430789 0.4348356 205 205 205
0.142679 -0.06461064 0.4352418 205 205 205
0.1436816 -0.06422458 0.4338818 205 205 205
0.1537207 -0.05582959 0.4077902 205 205 205
0.1553881 -0.05498451 0.4050468 205 205 205
0.1598051 -0.05317212 0.3990191 205 205 205
0.1632858 -0.05174977 0.3943382 205 205 205
0.1651963 -0.05119383 0.392408 205 205 205
0.1691158 -0.05118155 0.3915808 205 205 205
0.1702756 -0.05105996 0.3910174 205 205 205
0.1714335 -0.05093575 0.3904502 205 205 205
0.173291 -0.05034539 0.3884768 205 205 205
0.173369 -0.03244893 0.3400893 205 205 205
-0.03710679 -0.04684569 0.455974 205 205 205
-0.03177156 -0.04842385 0.4574549 205 205 205
-0.0186444 -0.05328317 0.4641326 205 205 205
-0.01614947 -0.05478858 0.4671136 205 205 205
-0.01340455 -0.05567264 0.4681858 205 205 205
-0.006586097 -0.05831691 0.4721998 205 205 205
-0.002106512 -0.05849447 0.4703856 205 205 205
0.0008361567 -0.05869958 0.4694659 205 205 205
0.01389495 -0.05961004 0.4655524 205 205 205
0.01672525 -0.06038721 0.466415 205 205 205
0.1311946 -0.07215448 0.4553864 205 205 205
0.1327991 -0.0689926 0.4460179 205 205 205
0.1364521 -0.06682166 0.4388779 205 205 205
0.1398559 -0.06603207 0.4357191 205 205 205
0.1461853 -0.06546859 0.4324411 205 205 205
0.1477169 -0.06288315 0.4248501 205 205 205
0.1485258 -0.06103383 0.4195103 205 205 205
0.1505055 -0.05910787 0.413682 205 205 205
0.156076 -0.05580131 0.4032375 205 205 205
0.1654985 -0.05274779 0.3928196 205 205 205
0.1682636 -0.05285669 0.3925472 205 205 205
0.1720187 -0.05168601 0.3886244 205 205 205
0.1734077 -0.05074982 0.3858258 205 205 205
0.1752224 -0.05014284 0.3838463 205 205 205
0.178463 -0.0477516 0.3768332 205 205 205
0.1796959 -0.04678339 0.3740273 205 205 205
0.1779348 -0.04381472 0.3663968 205 205 205
0.1750277 -0.03692211 0.3485407 205 205 205
0.1749815 -0.03610476 0.3463839 205 205 205
0.1743997 -0.03495914 0.343443 205 205 205
-0.0493099 -0.04245234 0.446361 205 205 205
-0.04590382 -0.04435083 0.4497136 205 205 205
-0.04340127 -0.04531915 0.4509925 205 205 205
-0.03714528 -0.04785902 0.4545832 205 205 205
-0.031979 -0.04974155 0.4570008 205 205 205
-0.01885166 -0.05462808 0.4636677 205 205 205
-0.007725084 -0.05752111 0.4660176 205 205 205
-0.006302294 -0.05779253 0.4660531 205 205 205
-0.00487889 -0.05806114 0.4660835 205 205 205
0.0008827383 -0.05878662 0.4652101 205 205 205
0.00372738 -0.05929146 0.465216 205 205 205
0.01223886 -0.06106383 0.4660589 205 205 205
0.01936079 -0.06285215 0.4677252 205 205 205
0.1362959 -0.06817126 0.4384001 205 205 205
0.1443745 -0.06650475 0.43158 205 205 205
0.1492963 -0.06191165 0.4176884 205 205 205
0.1512451 -0.05995968 0.4118655 205 205 205
0.1615096 -0.05508447 0.3962391 205 205 205
0.1681376 -0.05407511 0.3921139 205 205 205
0.1730464 -0.05276574 0.3876209 205 205 205
0.176427 -0.05038042 0.3806185 205 205 205
0.1790953 -0.04761502 0.3728046 205 205 205
0.1759488 -0.04196041 0.3584174 205 205 205
0.1745049 -0.03089414 0.3297152 205 205 205
-0.05084663 -0.04338041 0.4457273 205 205 205
-0.02482509 -0.05508272 0.4637905 205 205 205
-0.01905943 -0.0559709 0.4631974 205 205 205
-0.006342707 -0.05850541 0.4636905 205 205 205
0.01628524 -0.0637748 0.4673472 205 205 205
0.02644395 -0.07032086 0.4810224 205 205 205
0.1348128 -0.07457326 0.452147 205 205 205
0.1374883 -0.06948932 0.4374569 205 205 205
0.1529323 -0.05923617 0.4056004 205 205 205
0.158222 -0.0580988 0.401306 205 205 205
0.1641611 -0.05644291 0.3955565 205 205 205
0.1680102 -0.05529156 0.3916759 205 205 205
0.174761 -0.05336036 0.3852085 205 205 205
0.1781141 -0.04726357 0.3685771 205 205 205
0.1748606 -0.04155821 0.3542544 205 205 205
0.1739174 -0.03456299 0.3362834 205 205 205
0.17326 -0.03339756 0.3333794 205 205 205
-0.04993317 -0.04529618 0.4464017 205 205 205
-0.04362768 -0.0476006 0.4491529 205 205 205
-0.01644578 -0.05789539 0.4628656 205 205 205
-0.01503376 -0.05818306 0.46293 205 205 205
-0.01210914 -0.05842862 0.4621021 205 205 205
-0.007789657 -0.05893218 0.4612932 205 205 205
0.002018943 -0.06108804 0.4623733 205 205 205
0.01040772 -0.06354649 0.4651255 205 205 205
0.02178946 -0.06872467 0.4741589 205 205 205
0.1365928 -0.07158043 0.439193 205 205 205
0.1417404 -0.06961355 0.4324553 205 205 205
0.1482183 -0.06639095 0.422079 205 205 205
0.149914 -0.06405652 0.4153978 205 205 205
0.1504466 -0.06327426 0.4131735 205 205 205
0.157668 -0.06013567 0.4030773 205 205 205
0.163611 -0.05731427 0.394274 205 205 205
0.1671417 -0.05697507 0.3926224 205 205 205
0.1764544 -0.05393531 0.3827864 205 205 205
0.1756881 -0.04501223 0.3597891 205 205 205
0.1742504 -0.04230648 0.3530622 205 205 205
0.1735557 -0.03390811 0.331668 205 205 205
-0.04113844 -0.04955266 0.4490146 205 205 205
-0.03589918 -0.05116597 0.4505341 205 205 205
-0.03091911 -0.05337109 0.4538542 205 205 205
-0.02229614 -0.05805418 0.4620781 205 205 205
-0.0207647 -0.05803316 0.4612226 205 205 205
-0.01654333 -0.05891217 0.4614441 205 205 205
-0.01362265 -0.05915988 0.4606266 205 205 205
-0.01221657 -0.05944092 0.4606805 205 205 205
-0.00376711 -0.06106867 0.4609003 205 205 205
0.007437338 -0.06375169 0.4627993 205 205 205
0.00881739 -0.06432761 0.4637203 205 205 205
0.01579399 -0.06786081 0.4701287 205 205 205
0.02299619 -0.0775153 0.4933177 205 205 205
0.1408925 -0.07170898 0.4341918 205 205 205
0.1425876 -0.07053932 0.4306142 205 205 205
0.1439139 -0.07049234 0.4301319 205 205 205
0.152182 -0.06252185 0.4069061 205 205 205
0.1526545 -0.06172418 0.4046899 205 205 205
0.1575532 -0.06021179 0.3995561 205 205 205
0.1686167 -0.05842705 0.3924445 205 205 205
0.171319 -0.05532492 0.3838412 205 205 205
0.1758659 -0.05477923 0.3815321 205 205 205
0.1787792 -0.05399304 0.3789522 205 205 205
0.1794228 -0.05349374 0.3775495 205 205 205
0.1744394 -0.0386488 0.3405678 205 205 205
0.1730639 -0.03542322 0.3326356 205 205 205
0.1729225 -0.0345763 0.3305223 205 205 205
-0.05035026 -0.04784277 0.4454876 205 205 205
-0.0438532 -0.04985946 0.4472981 205 205 205
-0.04017536 -0.05147777 0.449636 205 205 205
-0.03218551 -0.05372573 0.4513898 205 205 205
-0.02742884 -0.05656262 0.4565246 205 205 205
-0.01242297 -0.06077259 0.4601955 205 205 205
-0.003894814 -0.06206995 0.4594737 205 205 205
-0.002415375 -0.06199725 0.458553 205 205 205
0.003029075 -0.06402124 0.4613995 205 205 205
0.004392349 -0.06460703 0.4623337 205 205 205
0.005813413 -0.06485336 0.4623232 205 205 205
0.008614739 -0.06567679 0.463227 205 205 205
0.01694994 -0.07118115 0.4742692 205 205 205
0.1397935 -0.07680747 0.4438788 205 205 205
0.1423988 -0.07336893 0.4340904 205 205 205
0.1456736 -0.06947193 0.422969 205 205 205
0.1525137 -0.06296515 0.4042276 205 205 205
0.1621635 -0.05985582 0.3939141 205 205 205
0.1746065 -0.05610894 0.3816711 205 205 205
0.1778065 -0.05653239 0.3821221 205 205 205
0.1745105 -0.04567765 0.3552091 205 205 205
0.1740311 -0.0444739 0.3522571 205 205 205
0.1744635 -0.0414011 0.344451 205 205 205
-0.04788686 -0.04980546 0.4453879 205 205 205
-0.04634986 -0.04983786 0.4446335 205 205 205
-0.04271644 -0.05147159 0.4469918 205 205 205
-0.03580741 -0.05279098 0.4467947 205 205 205
-0.0332733 -0.05374442 0.4479889 205 205 205
-0.02233559 -0.05974226 0.4582922 205 205 205
0.0001236287 -0.0641751 0.4590245 205 205 205
0.0151986 -0.07338088 0.4766189 205 205 205
0.1458621 -0.07114007 0.4233442 205 205 205
0.1496462 -0.06671052 0.4109012 205 205 205
0.1506631 -0.06509503 0.4064771 205 205 205
0.1548149 -0.06403512 0.402734 205 205 205
0.1643907 -0.0608497 0.3923674 205 205 205
0.1679193 -0.06049932 0.3907047 205 205 205
0.1776793 -0.05772623 0.3816711 205 205 205
0.1742302 -0.04072804 0.3397861 205 205 205
0.1750981 -0.0396971 0.337088 205 205 205
0.1744563 -0.03848482 0.3341946 205 205 205
0.1745636 -0.03623908 0.328635 205 205 205
-0.02604198 -0.05851058 0.4528517 205 205 205
-0.0235489 -0.05977236 0.4549082 205 205 205
0.005253633 -0.06857215 0.4641361 205 205 205
0.1444337 -0.07403804 0.4272856 205 205 205
0.1496494 -0.06678569 0.4073575 205 205 205
0.1513776 -0.06589153 0.4046462 205 205 205
0.1546724 -0.06527139 0.4022623 205 205 205
0.1555031 -0.06481358 0.4008987 205 205 205
0.1579408 -0.0634269 0.3968017 205 205 205
0.1607071 -0.06238806 0.3935316 205 205 205
0.1618917 -0.06228173 0.3929933 205 205 205
0.1690867 -0.05951378 0.3844452 205 205 205
0.1727578 -0.05825829 0.3805354 205 205 205
-0.0483047 -0.05234206 0.4444418 205 205 205
-0.02500761 -0.06044459 0.453391 205 205 205
-0.02375711 -0.06107904 0.4544154 205 205 205
-0.01995508 -0.0629757 0.457462 205 205 205
-0.004509367 -0.06604936 0.457986 205 205 205
-0.001622782 -0.06622616 0.4570817 205 205 205
0.004996004 -0.07027012 0.4645605 205 205 205
0.009072571 -0.07310872 0.4701097 205 205 205
0.01154908 -0.07852082 0.4831363 205 205 205
0.1505727 -0.09100281 0.4648809 205 205 205
0.1464328 -0.08264025 0.4447253 205 205 205
0.1484548 -0.06967369 0.4112897 205 205 205
0.1557484 -0.0664164 0.4012667 205 205 205
0.1617539 -0.06349161 0.3925261 205 205 205
0.1652971 -0.0631554 0.3908877 205 205 205
0.1719438 -0.05994105 0.3814655 205 205 205
0.1778892 -0.05447455 0.3667987 205 205 205
0.1736703 -0.04858863 0.3531685 205 205 205
0.1754139 -0.04210857 0.3370688 205 205 205
-0.05252345 -0.05255891 0.44341 205 205 205
-0.04677367 -0.05330997 0.4422841 205 205 205
-0.03794863 -0.05661289 0.446151 205 205 205
-0.02370079 -0.06170992 0.4520529 205 205 205
-0.01476721 -0.06613634 0.4590841 205 205 205
-0.009116983 -0.06725644 0.4592646 205 205 205
-0.003382225 -0.06798281 0.4584319 205 205 205
0.0007298241 -0.06945786 0.4603251 205 205 205
0.001913157 -0.07111631 0.4640611 205 205 205
0.007135797 -0.07635937 0.4752153 205 205 205
0.009451214 -0.0832484 0.4919688 205 205 205
0.1463523 -0.07460044 0.4204896 205 205 205
0.1491995 -0.07048386 0.4094459 205 205 205
0.1750066 -0.06158482 0.3814667 205 205 205
0.1782207 -0.06203225 0.3819004 205 205 205
0.1782517 -0.0559784 0.367147 205 205 205
0.174026 -0.04560652 0.3428331 205 205 205
-0.04201799 -0.05656711 0.4442976 205 205 205
-0.03393681 -0.05851544 0.4451273 205 205 205
-0.03018767 -0.06012567 0.4473369 205 205 205
-0.02746571 -0.06074094 0.4475482 205 205 205
-0.02501416 -0.06202446 0.4496015 205 205 205
-0.02127343 -0.06394174 0.4526491 205 205 205
-0.01616807 -0.06648207 0.4566506 205 205 205
-0.005159927 -0.06974509 0.4597668 205 205 205
0.004056329 -0.07653015 0.4728489 205 205 205
0.005096536 -0.07999625 0.4812277 205 205 205
0.006161895 -0.08382872 0.4905332 205 205 205
0.1455745 -0.07671594 0.4221901 205 205 205
0.1464502 -0.07468273 0.4169156 205 205 205
0.1618868 -0.06628297 0.3924067 205 205 205
0.173728 -0.06291231 0.3815793 205 205 205
0.1776222 -0.0628533 0.3806252 205 205 205
0.1724491 -0.04734315 0.3443368 205 205 205
0.1749759 -0.04237332 0.3320426 205 205 205
-0.05294472 -0.05507895 0.442436 205 205 205
-0.04452389 -0.05649951 0.4416436 205 205 205
-0.04106523 -0.05849536 0.4448801 205 205 205
-0.0397158 -0.05882559 0.4450255 205 205 205
-0.002672062 -0.07231533 0.461139 205 205 205
0.149257 -0.07337384 0.4093009 205 205 205
0.150149 -0.07291403 0.4079486 205 205 205
0.1526509 -0.07275607 0.4069296 205 205 205
0.1573531 -0.0695342 0.3979239 205 205 205
0.1657248 -0.06753021 0.3911045 205 205 205
0.167975 -0.06602649 0.3869686 205 205 205
0.1789703 -0.05900175 0.3678223 205 205 205
0.173841 -0.051303 0.3505276 205 205 205
0.1737995 -0.04769839 0.3420004 205 205 205
0.1732341 -0.046429 0.3391062 205 205 205
-0.05315578 -0.0563357 0.4419415 205 205 205
-0.04739943 -0.05707283 0.4408194 205 205 205
-0.04224832 -0.05875732 0.4423844 205 205 205
-0.04109093 -0.05942501 0.4434571 205 205 205
-0.0370502 -0.06040664 0.443877 205 205 205
-0.03435147 -0.06104761 0.4441333 205 205 205
-0.02268464 -0.06519159 0.4487644 205 205 205
-0.01529078 -0.06974775 0.4566022 205 205 205
-0.01277198 -0.07137901 0.4594892 205 205 205
-0.005899931 -0.07383353 0.4624399 205 205 205
-0.00317304 -0.07508916 0.46433 205 205 205
0.1592274 -0.07016981 0.3955362 205 205 205
0.167093 -0.06772961 0.3878628 205 205 205
0.1678348 -0.0672224 0.3864852 205 205 205
0.1734563 -0.06528 0.3806271 205 205 205
0.178495 -0.06507546 0.3790758 205 205 205
0.1765144 -0.05735391 0.3612495 205 205 205
-0.04647482 -0.05900049 0.4414089 205 205 205
-0.04245714 -0.06001316 0.4418833 205 205 205
-0.02944998 -0.06425746 0.4459339 205 205 205
-0.02289244 -0.06647339 0.4482511 205 205 205
-0.01308416 -0.07306239 0.459886 205 205 205
-0.01041746 -0.07434482 0.4618214 205 205 205
0.1529534 -0.09494316 0.4529939 205 205 205
0.1533249 -0.07351549 0.4015267 205 205 205
0.1695907 -0.06777357 0.3840547 205 205 205
0.1735508 -0.0655514 0.3779575 205 205 205
0.1778909 -0.06587591 0.3777949 205 205 205
0.1782266 -0.0609063 0.3661049 205 205 205
0.1736002 -0.05344801 0.3496546 205 205 205
0.1748615 -0.04723549 0.3350164 205 205 205
-0.05224226 -0.05919777 0.441124 205 205 205
-0.04034431 -0.06261785 0.4435118 205 205 205
-0.03781438 -0.06361958 0.4447084 205 205 205
-0.03662711 -0.06429119 0.4457614 205 205 205
-0.02844274 -0.06618784 0.4464464 205 205 205
-0.009553489 -0.07741491 0.4650199 205 205 205
-0.008102638 -0.07769396 0.4650469 205 205 205
0.1479649 -0.08710991 0.4316906 205 205 205
0.1473269 -0.07845765 0.4113086 205 205 205
0.1509378 -0.07657577 0.4059149 205 205 205
0.1523139 -0.07522541 0.4023717 205 205 205
0.1609337 -0.07199335 0.3926382 205 205 205
0.1652928 -0.07114711 0.3896262 205 205 205
0.1687203 -0.06948032 0.3849411 205 205 205
0.1698881 -0.06935012 0.3843738 205 205 205
0.1772863 -0.06666705 0.3765124 205 205 205
-0.03001845 -0.06714971 0.4458239 205 205 205
-0.02605599 -0.06842825 0.4470388 205 205 205
-0.01131383 -0.07884625 0.4653605 205 205 205
-0.006981616 -0.08699016 0.483047 205 205 205
0.1474625 -0.086381 0.4263684 205 205 205
0.1464104 -0.08351526 0.4199114 205 205 205
0.1466862 -0.08225037 0.4168648 205 205 205
0.1493517 -0.07917088 0.4089361 205 205 205
0.1550946 -0.07539244 0.3986349 205 205 205
0.1599878 -0.07370318 0.3934976 205 205 205
0.164792 -0.07325644 0.3913138 205 205 205
0.1659087 -0.0718334 0.3877527 205 205 205
0.166662 -0.07131634 0.3863804 205 205 205
0.1682694 -0.07158444 0.386631 205 205 205
0.172586 -0.06842458 0.3783638 205 205 205
0.1780807 -0.06861706 0.3776112 205 205 205
0.1779629 -0.06317531 0.3651611 205 205 205
0.1748028 -0.0576722 0.3532338 205 205 205
0.1738784 -0.05410673 0.3452916 205 205 205
0.1754843 -0.04816461 0.3314981 205 205 205
0.1763017 -0.04705147 0.3288314 205 205 205
-0.04596393 -0.06343874 0.4409575 205 205 205
-0.0160269 -0.0746199 0.4535416 205 205 205
-0.01181425 -0.08130547 0.4675731 205 205 205
-0.0101808 -0.08745499 0.4814942 205 205 205
0.1471233 -0.08265366 0.4141344 205 205 205
0.1502561 -0.07865486 0.404035 205 205 205
0.1537141 -0.07670464 0.3986402 205 205 205
0.1545559 -0.07621132 0.3972888 205 205 205
0.1566043 -0.07561882 0.3954111 205 205 205
0.1618341 -0.07429341 0.3910838 205 205 205
0.1642259 -0.07406449 0.3899874 205 205 205
0.1658393 -0.07434412 0.3902484 205 205 205
0.1688661 -0.07225315 0.3847513 205 205 205
0.1696 -0.07172542 0.3833757 205 205 205
0.1735886 -0.0694524 0.3772897 205 205 205
0.178406 -0.07018626 0.3779067 205 205 205
0.1806953 -0.06987327 0.3767029 205 205 205
0.1742592 -0.05554828 0.345618 205 205 205
0.1747607 -0.05499489 0.3442703 205 205 205
-0.04751794 -0.06434444 0.4402739 205 205 205
-0.04597704 -0.06433712 0.4395205 205 205 205
-0.04483113 -0.06502888 0.4405929 205 205 205
-0.04348612 -0.06536701 0.4407453 205 205 205
-0.03944485 -0.06636529 0.4411741 205 205 205
-0.02633468 -0.07060941 0.4450578 205 205 205
-0.02523935 -0.07164263 0.4469861 205 205 205
-0.02386134 -0.07194411 0.4470688 205 205 205
0.1525928 -0.0797222 0.4024853 205 205 205
0.1547854 -0.0778309 0.3976004 205 205 205
0.1564508 -0.07682914 0.3948947 205 205 205
0.1640759 -0.07526536 0.3894748 205 205 205
0.1716035 -0.0713032 0.3787455 205 205 205
0.1761907 -0.07072282 0.3764138 205 205 205
0.1782634 -0.07136389 0.3774036 205 205 205
0.1751436 -0.05643704 0.3445894 205 205 205
-0.04388823 -0.06697147 0.4411325 205 205 205
-0.03830589 -0.06794301 0.4407788 205 205 205
-0.03695557 -0.06826816 0.4409072 205 205 205
-0.03064892 -0.0709494 0.444233 205 205 205
-0.02654451 -0.07187526 0.4445215 205 205 205
-0.02029953 -0.07522372 0.4495071 205 205 205
-0.01762786 -0.07618105 0.45055 205 205 205
-0.01273155 -0.08590282 0.4710342 205 205 205
0.1495839 -0.08373795 0.409016 205 205 205
0.1651182 -0.07634464 0.3884037 205 205 205
0.1658866 -0.07581744 0.3870353 205 205 205
0.1700331 -0.07355446 0.380987 205 205 205
0.1711947 -0.07341769 0.3804141 205 205 205
0.1802033 -0.0731825 0.377872 205 205 205
0.181734 -0.07110284 0.3729099 205 205 205
0.1759527 -0.06114955 0.3520394 205 205 205
0.176535 -0.05771381 0.3443191 205 205 205
-0.05062478 -0.06613725 0.4388799 205 205 205
-0.04256199 -0.06819759 0.4398324 205 205 205
-0.02826994 -0.07320304 0.4448064 205 205 205
-0.02177704 -0.07583593 0.4479702 205 205 205
0.1493184 -0.08803673 0.4153571 205 205 205
0.149419 -0.08498927 0.4084709 205 205 205
0.151025 -0.0822673 0.401933 205 205 205
0.1633563 -0.07725104 0.3876238 205 205 205
0.1682843 -0.07445787 0.3802407 205 205 205
0.172463 -0.07349996 0.3771538 205 205 205
0.175216 -0.07361265 0.3767802 205 205 205
0.1768307 -0.05626554 0.3383029 205 205 205
0.1772934 -0.05569334 0.3369613 205 205 205
-0.04681032 -0.06842194 0.4388408 205 205 205
-0.01840012 -0.07989759 0.4521918 205 205 205
0.1510719 -0.08524478 0.4052323 205 205 205
0.1521107 -0.08340851 0.4008793 205 205 205
0.1529813 -0.08290382 0.3995336 205 205 205
0.1534635 -0.08198075 0.3973602 205 205 205
0.1563726 -0.08086181 0.39414 205 205 205
0.1663434 -0.07766238 0.3846254 205 205 205
0.1666659 -0.07671189 0.3824552 205 205 205
0.1682709 -0.07699323 0.3826948 205 205 205
0.1720586 -0.07562649 0.3788075 205 205 205
0.1794425 -0.07513344 0.3760532 205 205 205
0.1760415 -0.06565557 0.3561203 205 205 205
0.1762643 -0.05884748 0.3412886 205 205 205
0.1766466 -0.05632501 0.3357529 205 205 205
-0.0375874 -0.07200717 0.43929 205 205 205
-0.0248416 -0.07740592 0.4457938 205 205 205
-0.02345799 -0.07770745 0.4458705 205 205 205
0.1506347 -0.09093044 0.4145544 205 205 205
0.1749207 -0.07594702 0.3757455 205 205 205
0.1756002 -0.06340694 0.3484938 205 205 205
0.1756298 -0.06242737 0.3463801 205 205 205
-0.05570847 -0.06697146 0.4329168 205 205 205
-0.04319726 -0.0719228 0.4382046 205 205 205
0.1521541 -0.08627807 0.4006116 205 205 205
0.1588866 -0.08348408 0.3928139 205 205 205
0.1617242 -0.08231037 0.3895604 205 205 205
0.1703117 -0.07907981 0.3804999 205 205 205
0.1726497 -0.0787987 0.3793445 205 205 205
0.173366 -0.07823797 0.3779705 205 205 205
0.1811538 -0.0757473 0.3708509 205 205 205
0.1769696 -0.05976588 0.3376764 205 205 205
-0.05504679 -0.06927972 0.4343664 205 205 205
-0.04879227 -0.07178777 0.4370417 205 205 205
-0.04744826 -0.07213487 0.4372014 205 205 205
-0.04475689 -0.07282094 0.4375066 205 205 205
-0.03580697 -0.07627663 0.4411552 205 205 205
-0.0252675 -0.07993938 0.4446656 205 205 205
-0.02057718 -0.08386672 0.451329 205 205 205
-0.01877279 -0.08798736 0.4596555 205 205 205
0.1525407 -0.09288719 0.411538 205 205 205
0.1525701 -0.08972484 0.404702 205 205 205
0.1603442 -0.08500375 0.3925396 205 205 205
0.1619714 -0.08392956 0.3898263 205 205 205
0.1631484 -0.08242323 0.3863041 205 205 205
0.1646955 -0.08133265 0.3835884 205 205 205
0.1773793 -0.07838318 0.3742923 205 205 205
0.178994 -0.07864231 0.3744734 205 205 205
0.1768401 -0.06079697 0.3372072 205 205 205
-0.05636086 -0.06977178 0.4327279 205 205 205
-0.03585234 -0.07714123 0.439683 205 205 205
-0.02644072 -0.07972676 0.4412836 205 205 205
-0.02423044 -0.08189714 0.4450802 205 205 205
0.1545217 -0.09673978 0.4159233 205 205 205
0.153301 -0.0904445 0.4027883 205 205 205
0.1559496 -0.08887322 0.3987455 205 205 205
0.158516 -0.08728076 0.3946931 205 205 205
0.1593533 -0.08674538 0.3933404 205 205 205
0.1610004 -0.08566786 0.3906323 205 205 205
0.1657226 -0.08238348 0.38249 205 205 205
0.1744679 -0.07943169 0.3741606 205 205 205
0.1783758 -0.07938664 0.3731596 205 205 205
0.1795222 -0.07922539 0.3725572 205 205 205
0.1765509 -0.06985682 0.3535558 205 205 205
0.1767681 -0.06483912 0.3430094 205 205 205
-0.05392025 -0.07170814 0.4325404 205 205 205
-0.03725425 -0.07767204 0.4380921 205 205 205
-0.03453842 -0.07831815 0.4383213 205 205 205
-0.03197606 -0.07934305 0.4394388 205 205 205
-0.02924536 -0.07996861 0.4396307 205 205 205
0.1545787 -0.09663254 0.4123226 205 205 205
0.1587935 -0.08751854 0.3919705 205 205 205
0.1612421 -0.08588843 0.3879173 205 205 205
0.171741 -0.08188478 0.376943 205 205 205
0.1740655 -0.081591 0.3757766 205 205 205
0.1798384 -0.08080791 0.3727941 205 205 205
0.1800414 -0.07979649 0.3706401 205 205 205
0.17992 -0.07734911 0.3655734 205 205 205
0.1777758 -0.07321654 0.3574667 205 205 205
0.1773886 -0.07178439 0.3545789 205 205 205
0.1789361 -0.06087346 0.3316707 205 205 205
-0.05500823 -0.07181093 0.4300035 205 205 205
-0.04922598 -0.07509627 0.4344583 205 205 205
-0.04404852 -0.07685651 0.4359652 205 205 205
-0.02823736 -0.08191647 0.4400517 205 205 205
0.1566185 -0.09403241 0.4030378 205 205 205
0.157132 -0.09306023 0.4008697 205 205 205
0.1734581 -0.08232349 0.3744496 205 205 205
0.1770018 -0.06735671 0.3427835 205 205 205
-0.05077934 -0.07596666 0.4337268 205 205 205
-0.04291309 -0.07842232 0.4355325 205 205 205
-0.04156303 -0.07875797 0.4356672 205 205 205
-0.04021203 -0.07909088 0.4357973 205 205 205
-0.03360442 -0.08110986 0.4372807 205 205 205
-0.03103694 -0.0821391 0.4383846 205 205 205
-0.02736505 -0.08426918 0.4413646 205 205 205
-0.02453751 -0.08920953 0.4506459 205 205 205
0.1577747 -0.09845245 0.408702 205 205 205
0.1578408 -0.0937491 0.398937 205 205 205
0.1588902 -0.08892738 0.3886894 205 205 205
0.163328 -0.08802404 0.3856991 205 205 205
0.1676084 -0.08563659 0.3797154 205 205 205
0.1721428 -0.08362834 0.3744849 205 205 205
0.1756112 -0.08317412 0.3727246 205 205 205
0.1776772 -0.07336518 0.3521987 205 205 205
0.1777503 -0.07233804 0.3500898 205 205 205
0.178889 -0.06701558 0.3390168 205 205 205
0.1807109 -0.06354652 0.3315936 205 205 205
-0.05628904 -0.07309271 0.4269044 205 205 205
-0.04944498 -0.07714883 0.4324176 205 205 205
-0.04542991 -0.07818481 0.4328744 205 205 205
-0.03772 -0.08097606 0.4354645 205 205 205
-0.03619549 -0.08090352 0.4346785 205 205 205
0.1579224 -0.09684967 0.4021367 205 205 205
0.1639854 -0.09008864 0.386729 205 205 205
0.1651967 -0.08996432 0.3861699 205 205 205
0.1724308 -0.08521966 0.3747134 205 205 205
0.1777554 -0.0840096 0.3709808 205 205 205
0.1784354 -0.08341242 0.3696091 205 205 205
0.1791063 -0.08281344 0.3682373 205 205 205
0.1782392 -0.07073617 0.3440337 205 205 205
-0.0381082 -0.08260147 0.4357805 205 205 205
-0.02822754 -0.08798702 0.4428861 205 205 205
-0.0260399 -0.09505676 0.4566465 205 205 205
0.1626044 -0.09139748 0.3867108 205 205 205
0.1666035 -0.09000609 0.3828847 205 205 205
0.1677123 -0.08841017 0.3793826 205 205 205
0.1764467 -0.08532005 0.371023 205 205 205
0.1789495 -0.0839555 0.3676855 205 205 205
0.1802654 -0.08274452 0.3649455 205 205 205
0.1794384 -0.07622021 0.3520699 205 205 205
0.1790138 -0.07474285 0.3492132 205 205 205
0.1785664 -0.07326631 0.3463646 205 205 205
-0.05099518 -0.0788269 0.4302038 205 205 205
-0.04966256 -0.07917787 0.4303642 205 205 205
-0.03560505 -0.08447909 0.4354162 205 205 205
-0.02968745 -0.08851808 0.4412978 205 205 205
-0.02818059 -0.09284524 0.4495637 205 205 205
0.1600015 -0.09281805 0.3872308 205 205 205
0.1612194 -0.0927017 0.3866839 205 205 205
0.1702153 -0.088265 0.3755305 205 205 205
0.1800005 -0.07353026 0.3439031 205 205 205
0.1805264 -0.07291074 0.3425586 205 205 205
-0.04338702 -0.08250261 0.4314044 205 205 205
-0.03098525 -0.08862507 0.4388063 205 205 205
-0.02868602 -0.09495547 0.450738 205 205 205
-0.02780552 -0.09693597 0.4544096 205 205 205
0.1717336 -0.1178179 0.4309925 205 205 205
0.1651047 -0.09396813 0.3852279 205 205 205
0.1673814 -0.09073848 0.3782413 205 205 205
0.1735571 -0.08897493 0.3732156 205 205 205
0.1788226 -0.08517647 0.3644415 205 205 205
0.1803619 -0.07502479 0.3441246 205 205 205
0.1834458 -0.07232609 0.33814 205 205 205
-0.04010952 -0.08594137 0.4338764 205 205 205
-0.03637198 -0.08775068 0.4360105 205 205 205
0.1599556 -0.09860424 0.3927343 205 205 205
0.1641265 -0.09573202 0.3859907 205 205 205
0.1653461 -0.09560551 0.3854289 205 205 205
0.1713361 -0.08937585 0.3716807 205 205 205
0.1752642 -0.08936505 0.3706917 205 205 205
0.1775324 -0.08647229 0.3644815 205 205 205
0.1796266 -0.08355554 0.3582855 205 205 205
0.1802447 -0.08293409 0.356927 205 205 205
0.1817346 -0.07740676 0.3458197 205 205 205
0.1838439 -0.07487956 0.340429 205 205 205
-0.0464979 -0.08423482 0.4299352 205 205 205
-0.0428486 -0.08607673 0.4321284 205 205 205
-0.03795539 -0.08864936 0.4352916 205 205 205
-0.03401277 -0.0900417 0.4365019 205 205 205
-0.03279706 -0.0907803 0.4374925 205 205 205
-0.03089823 -0.107564 0.4701415 205 205 205
0.1757982 -0.08989709 0.3687566 205 205 205
0.1786795 -0.08635787 0.3611987 205 205 205
0.1824719 -0.08151965 0.3509492 205 205 205
0.1830452 -0.08088652 0.349594 205 205 205
-0.05802928 -0.08101624 0.4252027 205 205 205
-0.05694054 -0.08178478 0.4262691 205 205 205
-0.0538432 -0.08169722 0.4248456 205 205 205
-0.05230407 -0.08164629 0.4241256 205 205 205
-0.05120313 -0.08240595 0.4251745 205 205 205
-0.04876678 -0.08351347 0.4263731 205 205 205
-0.03936053 -0.08912423 0.4336727 205 205 205
0.1665943 -0.09678561 0.3815356 205 205 205
0.166956 -0.09572965 0.3794041 205 205 205
0.1680604 -0.09407352 0.3759269 205 205 205
0.1744789 -0.09119519 0.3687723 205 205 205
0.1772086 -0.08872101 0.3633462 205 205 205
0.1850993 -0.077225 0.3394817 205 205 205
-0.05405599 -0.08288009 0.4242477 205 205 205
-0.04327935 -0.088496 0.4309101 205 205 205
-0.03736296 -0.0922675 0.4359497 205 205 205
-0.03632088 -0.09344233 0.4378358 205 205 205
-0.03325272 -0.09739732 0.444363 205 205 205
0.175466 -0.09217099 0.3675976 205 205 205
0.1768393 -0.09092518 0.3648849 205 205 205
0.1835567 -0.08614029 0.3541603 205 205 205
0.1849435 -0.08046806 0.3430925 205 205 205
-0.05558753 -0.08370075 0.4234745 205 205 205
-0.05051991 -0.08553833 0.4250134 205 205 205
-0.04349519 -0.08970173 0.4302938 205 205 205
-0.03554515 -0.1135373 0.4732566 205 205 205
0.1741436 -0.09346494 0.3676043 205 205 205
0.1775405 -0.0903293 0.3608413 205 205 205
0.1786664 -0.09015708 0.3602392 205 205 205
0.1863343 -0.0828885 0.3447269 205 205 205
0.1863562 -0.08178208 0.3426484 205 205 205
-0.05184162 -0.08595034 0.4233643 205 205 205
-0.04581666 -0.08895122 0.4267532 205 205 205
-0.04371126 -0.09090488 0.4296726 205 205 205
0.1685722 -0.1031173 0.384386 205 205 205
0.1778447 -0.09190544 0.3610116 205 205 205
0.1842224 -0.08925368 0.3544961 205 205 205
0.1867185 -0.08329943 0.3428182 205 205 205
-0.03691486 -0.100938 0.4431124 205 205 205
0.168303 -0.1011778 0.3779682 205 205 205
0.1738029 -0.09572467 0.3664193 205 205 205
0.1749578 -0.09556313 0.3658271 205 205 205
0.177011 -0.0936572 0.3617758 205 205 205
0.1840581 -0.09035326 0.3539168 205 205 205
0.1851617 -0.09016185 0.3532936 205 205 205
0.186937 -0.08818726 0.3492184 205 205 205
0.1870783 -0.08482113 0.3429805 205 205 205
0.1886654 -0.08395064 0.3409987 205 205 205
-0.05336675 -0.087521 0.4210957 205 205 205
0.1727887 -0.1107392 0.3916421 205 205 205
0.1693945 -0.103769 0.3796616 205 205 205
0.1740823 -0.09732424 0.3665766 205 205 205
0.1799332 -0.09265944 0.3565308 205 205 205
0.1810497 -0.0924781 0.3559203 205 205 205
0.182164 -0.09229399 0.3553062 205 205 205
0.1871971 -0.09086638 0.3514536 205 205 205
-0.05248211 -0.08947156 0.4215118 205 205 205
-0.04474691 -0.09536815 0.4295398 205 205 205
0.1743594 -0.09892804 0.366726 205 205 205
0.1802436 -0.09423194 0.3566801 205 205 205
0.1876218 -0.09129091 0.3495089 205 205 205
-0.05556489 -0.09035248 0.4214354 205 205 205
-0.05269599 -0.09064008 0.420885 205 205 205
0.171028 -0.1053254 0.3764734 205 205 205
0.1709361 -0.1037271 0.3736016 205 205 205
0.1794255 -0.09598922 0.3574317 205 205 205
0.1851571 -0.09391739 0.3522598 205 205 205
0.1857636 -0.09324859 0.3509053 205 205 205
0.1891752 -0.09035117 0.3448551 205 205 205
-0.05902524 -0.08913144 0.4176708 205 205 205
0.1777164 -0.09954369 0.3616106 205 205 205
0.1832568 -0.09587256 0.3536375 205 205 205
0.1878701 -0.09278414 0.3469737 205 205 205
0.1884443 -0.09210481 0.3456208 205 205 205
0.1927509 -0.09125625 0.3430496 205 205 205
-0.05467085 -0.09304785 0.4203295 205 205 205
-0.05356715 -0.09384502 0.4213601 205 205 205
-0.04927133 -0.09746787 0.4263179 205 205 205
0.1753234 -0.1114023 0.3806757 205 205 205
0.1773103 -0.101801 0.3630848 205 205 205
0.181811 -0.09830706 0.3557318 205 205 205
0.1882094 -0.09433957 0.3470957 205 205 205
0.1931087 -0.09280252 0.3431649 205 205 205
-0.05776607 -0.0939214 0.420224 205 205 205
-0.04969677 -0.09909923 0.4265339 205 205 205
-0.04477738 -0.1053358 0.4359106 205 205 205
-0.04356068 -0.1061348 0.4369026 205 205 205
0.1767221 -0.1112783 0.3773005 205 205 205
0.1767908 -0.106856 0.3694849 205 205 205
0.1766212 -0.1052179 0.3666425 205 205 205
0.1862466 -0.09747213 0.3505489 205 205 205
0.1873538 -0.09727111 0.3499162 205 205 205
0.1901502 -0.09617108 0.3472836 205 205 205
0.1924154 -0.09339803 0.3418622 205 205 205
-0.05332511 -0.09787207 0.4228251 205 205 205
-0.04563367 -0.104397 0.4316224 205 205 205
0.1795207 -0.1142622 0.3790287 205 205 205
0.1825854 -0.1003143 0.3538849 205 205 205
0.1865691 -0.09904574 0.3506566 205 205 205
0.1904877 -0.09773692 0.3473865 205 205 205
-0.05843282 -0.09668892 0.4197878 205 205 205
-0.05488453 -0.09868209 0.4220101 205 205 205
-0.04862265 -0.104898 0.4306864 205 205 205
0.1862652 -0.1013137 0.3521081 205 205 205
-0.05349968 -0.1028399 0.4259751 205 205 205
0.1813993 -0.1043634 0.3560522 205 205 205
0.1827109 -0.1029938 0.3533632 205 205 205
0.1872068 -0.1022051 0.3508485 205 205 205
0.1911553 -0.1008807 0.3475688 205 205 205
0.1923856 -0.09827465 0.3428021 205 205 205
-0.05363667 -0.1071317 0.4306233 205 205 205
-0.05266852 -0.1084146 0.4324957 205 205 205
0.1889396 -0.124317 0.3854645 205 205 205
0.1817378 -0.1088351 0.3610161 205 205 205
0.1830116 -0.1045837 0.3534538 205 205 205
0.1863979 -0.1039933 0.3515683 205 205 205
0.1921538 -0.1005471 0.3442363 205 205 205
-0.05779525 -0.1036407 0.4232841 205 205 205
-0.05524748 -0.1079635 0.4297785 205 205 205
0.1896889 -0.1032602 0.3469582 205 205 205
0.1935874 -0.1018957 0.3436556 205 205 205
-0.06159414 -0.1027683 0.4203779 205 205 205
-0.0587048 -0.1061938 0.4251722 205 205 205
-0.05441317 -0.117254 0.442415 205 205 205
0.1853468 -0.1139197 0.3634236 205 205 205
0.1851097 -0.1122078 0.3606235 205 205 205
0.1863673 -0.1078842 0.3530647 205 205 205
0.188279 -0.1057624 0.3490192 205 205 205
0.1895075 -0.1043398 0.3463235 205 205 205
0.1922321 -0.1044089 0.3457285 205 205 205
0.1945021 -0.1027456 0.3423663 205 205 205
-0.05846627 -0.1096062 0.4280626 205 205 205
-0.056093 -0.1181201 0.4415355 205 205 205
0.1891745 -0.1179132 0.3664291 205 205 205
0.1895852 -0.1083625 0.3504928 205 205 205
0.1903319 -0.1064246 0.3470882 205 205 205
-0.05961273 -0.1094839 0.4254839 205 205 205
-0.05846522 -0.1103293 0.4264998 205 205 205
0.1939851 -0.1229568 0.3708111 205 205 205
0.1895286 -0.1082263 0.3477887 205 205 205
0.1906497 -0.1080125 0.3471414 205 205 205
-0.06384435 -0.1063283 0.418983 205 205 205
0.1944734 -0.1064581 0.3411366 205 205 205
-0.0632052 -0.1088082 0.4201565 205 205 205
-0.06190708 -0.1124043 0.4255948 205 205 205
0.1919899 -0.114719 0.3527193 205 205 205
0.1911466 -0.1124446 0.3492697 205 205 205
0.1942193 -0.1087735 0.3425216 205 205 205
-0.06120078 -0.1181698 0.4319875 205 205 205
0.1924481 -0.1150867 0.3506878 205 205 205
-0.06373927 -0.1143744 0.4239759 205 205 205
-0.06354457 -0.1171549 0.4283739 205 205 205
-0.06424353 -0.121861 0.4361557 205 205 205
0.2082894 -0.1377369 0.3799471 205 205 205
0.1923964 -0.1149221 0.3479654 205 205 205
0.1920201 -0.1131416 0.3452365 205 205 205
0.1949465 -0.1106822 0.3405408 205 205 205
-0.06401186 -0.1188272 0.428476 205 205 205
-0.06744643 -0.1168951 0.4238364 205 205 205
-0.06374589 -0.1204252 0.4228677 205 205 205
0.1956262 -0.1178063 0.3418954 205 205 205
0.1968402 -0.1217797 0.3452486 205 205 205
-0.06896073 -0.1259327 0.4276715 205 205 205
0.2000262 -0.1279397 0.3512947 205 205 205
0.198457 -0.1261053 0.3465176 205 205 205
0.1976868 -0.1223871 0.3411413 205 205 205
0.204103 -0.1348452 0.3530748 205 205 205
0.2237486 -0.1593472 0.3810401 205 205 205
0.1991122 -0.1277819 0.3416451 205 205 205
0.23903 -0.1777704 0.4008036 205 205 205
0.2097073 -0.1435056 0.3566754 205 205 205
0.2209195 -0.1585104 0.3672211 205 205 205
