ply
format ascii 1.0
comment Generated by Floating Hands
element vertex 1983
property double x
property double y
property double z
property uchar red
property uchar green
property uchar blue
end_header
0.1304983 0.04642044 0.4650943 0 0 0
0.1247157 0.0454586 0.4552903 0 0 0
0.1301404 0.04427594 0.4462481 0 0 0
0.125356 0.04185115 0.4726411 0 0 0
0.1221519 0.04325211 0.4423716 0 0 0
0.126445 0.04329653 0.4389669 0 0 0
0.1279494 0.04343307 0.4353432 0 0 0
0.1303885 0.0432283 0.4387516 0 0 0
0.137885 0.04242336 0.4531034 0 0 0
0.1238552 0.03917015 0.4677117 0 0 0
0.122166 0.03977824 0.4567751 0 0 0
0.1216361 0.04036827 0.4454941 0 0 0
0.124473 0.04049033 0.4415153 0 0 0
0.1269128 0.04091924 0.4323772 0 0 0
0.1360891 0.04034185 0.4398462 0 0 0
-0.007217778 0.05140179 0.4934752 0 0 0
-0.005329168 0.05127909 0.4876073 0 0 0
0.1221287 0.0388687 0.4473436 0 0 0
0.1240451 0.03895556 0.4446892 0 0 0
0.1280434 0.03958473 0.4319261 0 0 0
0.1401232 0.03867875 0.4436418 0 0 0
-0.004840536 0.05003706 0.4795851 0 0 0
0.001285518 0.04846241 0.4900137 0 0 0
0.1227479 0.03704657 0.4543471 0 0 0
0.1230218 0.03753219 0.4459459 0 0 0
0.1239768 0.0375809 0.4446176 0 0 0
0.1249234 0.037632 0.4432869 0 0 0
0.1265037 0.03806459 0.435477 0 0 0
0.1270962 0.03819149 0.433192 0 0 0
0.1516165 0.03581629 0.4638126 0 0 0
-0.007703769 0.04912278 0.4793119 0 0 0
-0.00618191 0.04892402 0.4774311 0 0 0
-0.0008762026 0.04787267 0.4788179 0 0 0
0.1265875 0.0340141 0.4780507 0 0 0
0.128799 0.03699422 0.4304423 0 0 0
0.1320309 0.03707511 0.4283036 0 0 0
0.1338635 0.03694272 0.4297826 0 0 0
0.135709 0.0368127 0.4312524 0 0 0
0.1372331 0.03675527 0.4317728 0 0 0
0.1397757 0.03648993 0.4351025 0 0 0
-0.009031347 0.04802181 0.4771444 0 0 0
-0.006086063 0.04760422 0.4743823 0 0 0
0.1251417 0.03321848 0.4679814 0 0 0
0.1290491 0.03559538 0.4313089 0 0 0
0.1299239 0.03567102 0.4299677 0 0 0
0.1380307 0.0355046 0.430327 0 0 0
0.1526179 0.03352059 0.4547183 0 0 0
-0.008914216 0.04671139 0.4740929 0 0 0
-0.006161748 0.04623039 0.4733197 0 0 0
1.6835E-05 0.04467459 0.4807632 0 0 0
0.002127016 0.04373772 0.4908893 0 0 0
0.1259499 0.03351265 0.4426598 0 0 0
0.1292975 0.03418942 0.4321698 0 0 0
0.1313673 0.03427288 0.4304278 0 0 0
0.1342697 0.03445409 0.4273207 0 0 0
0.1448272 0.03378654 0.4340977 0 0 0
0.153485 0.03218134 0.4532085 0 0 0
-0.009078978 0.04530022 0.4740209 0 0 0
-0.005160742 0.04447798 0.4753412 0 0 0
0.001962316 0.04225921 0.4908109 0 0 0
0.1249982 0.03136952 0.4532497 0 0 0
0.126816 0.03221754 0.4412307 0 0 0
0.1319424 0.0327818 0.4322247 0 0 0
0.1404343 0.03314098 0.4260464 0 0 0
-0.01191056 0.04442159 0.4737022 0 0 0
-0.009244459 0.04389003 0.4739432 0 0 0
-0.006663381 0.04332067 0.4751591 0 0 0
-0.004145229 0.04270925 0.4773516 0 0 0
-0.002950658 0.04235574 0.4794369 0 0 0
0.1260201 0.03036099 0.4476144 0 0 0
0.1301014 0.03126986 0.4348207 0 0 0
0.1321965 0.03136177 0.4330716 0 0 0
0.1327525 0.03154041 0.4307782 0 0 0
0.1336192 0.03163511 0.4294268 0 0 0
0.13566 0.03174511 0.4276574 0 0 0
0.1415518 0.03184458 0.4255116 0 0 0
0.1474793 0.0310443 0.4339206 0 0 0
0.1504935 0.03064902 0.4380983 0 0 0
-0.01822936 0.04379122 0.4800227 0 0 0
-0.00941065 0.04248077 0.4738598 0 0 0
-0.0006800256 0.04019935 0.4835072 0 0 0
0.1275636 0.02922351 0.4438807 0 0 0
0.1291343 0.02948117 0.4402474 0 0 0
0.130968 0.02965818 0.4375559 0 0 0
0.1327676 0.02984452 0.4348561 0 0 0
0.1347435 0.03032132 0.4289118 0 0 0
0.1355976 0.03042458 0.4275557 0 0 0
0.1361063 0.03062002 0.4252604 0 0 0
0.1452731 0.0302225 0.4282384 0 0 0
0.1460972 0.03034384 0.4268542 0 0 0
0.1550903 0.02880741 0.4425873 0 0 0
0.1637719 0.02706506 0.4605728 0 0 0
-0.02300066 0.04222061 0.4944924 0 0 0
-0.01458045 0.04230048 0.4702937 0 0 0
-0.01336592 0.04197889 0.4714179 0 0 0
-0.007260185 0.0403285 0.4779685 0 0 0
-0.00229206 0.03895003 0.484325 0 0 0
0.1321107 0.02471031 0.4777513 0 0 0
0.1294751 0.02600774 0.463991 0 0 0
0.1312093 0.02821185 0.4383928 0 0 0
0.132118 0.02830793 0.437043 0 0 0
0.1355339 0.0291049 0.4274488 0 0 0
0.1387348 0.02925243 0.4252392 0 0 0
0.1438715 0.02957421 0.421179 0 0 0
-0.01956941 0.04136915 0.4767163 0 0 0
-0.017511 0.04140291 0.4709159 0 0 0
-0.001646228 0.03674492 0.4922742 0 0 0
0.1295588 0.0261778 0.4461099 0 0 0
0.1295964 0.02656523 0.4419193 0 0 0
0.1323621 0.02685868 0.437873 0 0 0
0.142369 0.02865827 0.4173576 0 0 0
0.167574 0.02425069 0.4587327 0 0 0
-0.01491947 0.03951446 0.470103 0 0 0
-0.008762857 0.03787046 0.4756746 0 0 0
0.133234 0.022173 0.471908 0 0 0
0.1307774 0.02348623 0.459134 0 0 0
0.1304326 0.02489253 0.4446408 0 0 0
0.1328775 0.02571317 0.4354583 0 0 0
0.1337711 0.02582204 0.4341047 0 0 0
0.1410723 0.02700428 0.4209104 0 0 0
0.1426715 0.02726798 0.4181693 0 0 0
0.1487668 0.02701245 0.4200418 0 0 0
0.1661192 0.02353041 0.4516392 0 0 0
-0.02543779 0.03876901 0.4869198 0 0 0
-0.006584682 0.03566179 0.4797523 0 0 0
-0.004490584 0.03458962 0.4878989 0 0 0
0.1322962 0.02193692 0.4595458 0 0 0
0.1383349 0.02575764 0.4207273 0 0 0
0.1394966 0.02578251 0.4202956 0 0 0
0.1437635 0.02600989 0.4176014 0 0 0
-0.02252909 0.03781904 0.4741128 0 0 0
-0.0209347 0.03765681 0.4722901 0 0 0
-0.01159001 0.03571697 0.4732421 0 0 0
-0.005218074 0.03261914 0.4947406 0 0 0
0.1344203 0.02016326 0.4618393 0 0 0
0.1333674 0.02280367 0.4370882 0 0 0
0.1372981 0.02397972 0.4251896 0 0 0
0.1377921 0.02421986 0.4228952 0 0 0
0.1398866 0.02473334 0.4178758 0 0 0
0.1441188 0.02497352 0.415177 0 0 0
0.1482979 0.0248778 0.4156447 0 0 0
0.151356 0.02475397 0.4165371 0 0 0
0.1773527 0.01875833 0.4670704 0 0 0
-0.02418145 0.03663862 0.4748251 0 0 0
0.1342104 0.01973498 0.4523452 0 0 0
0.1354162 0.02158317 0.4351794 0 0 0
0.1373824 0.02303079 0.4218312 0 0 0
0.1410461 0.02384801 0.4140886 0 0 0
0.1436908 0.02380478 0.4141238 0 0 0
-0.02570373 0.03552496 0.4745379 0 0 0
-0.0224886 0.03521752 0.4709114 0 0 0
-0.01098897 0.03233625 0.4770864 0 0 0
0.1290821 0.01561105 0.478673 205 205 205
0.1299108 0.0158229 0.4763632 205 205 205
0.1373865 0.01655795 0.4667989 205 205 205
0.1350835 0.01987375 0.4382766 0 0 0
0.1359046 0.02048496 0.4327417 0 0 0
0.1366482 0.02110483 0.4272144 0 0 0
0.1376567 0.02161531 0.4226274 0 0 0
0.1394045 0.02227879 0.4166825 0 0 0
0.1459085 0.02260728 0.4130819 0 0 0
0.1493154 0.02274339 0.4116899 0 0 0
0.1508361 0.02267704 0.4121318 0 0 0
-0.03157299 0.03425168 0.4847291 0 0 0
-0.02253345 0.03389889 0.469798 0 0 0
-0.02107789 0.03368692 0.4689633 0 0 0
-0.01855146 0.0330462 0.4702455 0 0 0
-0.01365822 0.03162502 0.4747368 0 0 0
0.1292584 0.01398478 0.4794664 205 205 205
0.1300921 0.01420455 0.4771562 205 205 205
0.1353106 0.01425898 0.4745498 205 205 205
0.1377201 0.01545308 0.4633761 205 205 205
0.1365629 0.01840477 0.4386457 0 0 0
0.1375814 0.01942273 0.4298743 0 0 0
0.145847 0.0213317 0.4129422 0 0 0
0.1523041 0.02133095 0.4124258 0 0 0
-0.0303965 0.03346737 0.4757238 0 0 0
-0.02005596 0.03193951 0.4699703 0 0 0
-0.01872712 0.0316571 0.4701141 0 0 0
-0.01629644 0.03093599 0.4723669 0 0 0
-0.0130032 0.02952498 0.4796783 0 0 0
0.1294328 0.01235177 0.4802531 205 205 205
0.1327542 0.01266616 0.4761708 205 205 205
0.1377202 0.01705739 0.4380652 0 0 0
0.1379602 0.01744944 0.4348274 0 0 0
0.1403289 0.01934264 0.4191804 0 0 0
0.1446439 0.02001589 0.4132535 0 0 0
0.1484413 0.020022 0.4127896 0 0 0
0.1511057 0.01999657 0.4127593 0 0 0
-0.02982051 0.03244396 0.4706607 0 0 0
-0.02657836 0.03216053 0.4670692 0 0 0
-0.01546742 0.02900286 0.4753279 0 0 0
0.1290591 0.01097093 0.4791267 205 205 205
0.139011 0.01411858 0.4500197 205 205 205
0.1445792 0.01874207 0.4131042 0 0 0
0.1460941 0.0186549 0.4135667 0 0 0
0.1502686 0.01897195 0.410783 0 0 0
0.1525327 0.01907984 0.4098259 0 0 0
0.1583478 0.01849604 0.4137913 0 0 0
0.1615369 0.01792683 0.4178039 0 0 0
-0.03282427 0.0315848 0.4711313 0 0 0
-0.02066423 0.02899169 0.4716679 0 0 0
-0.01944968 0.02861869 0.4728003 0 0 0
-0.01822691 0.02824657 0.4739285 0 0 0
0.129776 0.009065365 0.4818064 205 205 205
0.1309014 0.00917531 0.4804469 205 205 205
0.1314578 0.009555212 0.4771834 205 205 205
0.1325585 0.0096708 0.4758204 205 205 205
0.1365763 0.01029435 0.4693958 205 205 205
0.1376299 0.01042353 0.4680205 205 205 205
0.1408469 0.01191103 0.4554787 205 205 205
0.1408556 0.01245663 0.451286 205 205 205
0.1401795 0.01327183 0.4452277 205 205 205
0.1411281 0.01495011 0.4322654 205 205 205
0.1423026 0.01596345 0.424432 205 205 205
0.1433133 0.01699422 0.4166165 0 0 0
0.1471724 0.01742237 0.4129502 0 0 0
0.1498186 0.0178321 0.409716 0 0 0
0.1516825 0.01807174 0.4078524 0 0 0
0.1528057 0.01812899 0.4073706 0 0 0
0.1547305 0.01792599 0.4086975 0 0 0
0.164287 0.01615961 0.4207323 0 0 0
0.1459436 0.03206962 0.3142671 0 0 0
-0.03668342 0.03032564 0.4764866 0 0 0
-0.03042019 0.03055972 0.4633027 0 0 0
-0.02750936 0.0301366 0.4616879 0 0 0
-0.01729076 0.02637577 0.4758905 0 0 0
-0.01604764 0.02600013 0.4770097 0 0 0
-0.01448162 0.02439146 0.4881438 0 0 0
0.1324587 0.0081749 0.4756366 205 205 205
0.1332646 0.008434919 0.4733231 205 205 205
0.1351232 0.008825636 0.4696406 205 205 205
0.1406478 0.009367234 0.4636987 205 205 205
0.1423854 0.01092056 0.4516001 205 205 205
0.1430598 0.01481972 0.4228949 205 205 205
0.1432438 0.01571023 0.416456 205 205 205
0.1478689 0.01632974 0.4114099 0 0 0
0.1486227 0.01651449 0.4100281 0 0 0
0.1520153 0.01667373 0.4086025 0 0 0
0.1531427 0.01673137 0.4081192 0 0 0
0.1605185 0.01604282 0.4124538 0 0 0
0.1420041 0.03237715 0.3060904 0 0 0
-0.03206807 0.0294138 0.463953 0 0 0
-0.02668094 0.02830851 0.4636787 0 0 0
-0.02262456 0.02630756 0.4731908 0 0 0
0.1284307 0.005919748 0.4827847 205 205 205
0.1339562 0.007218936 0.4708213 205 205 205
0.1385999 0.008188593 0.462073 205 205 205
0.1396187 0.008333727 0.4606944 205 205 205
0.1426226 0.008784506 0.4565446 205 205 205
0.1428761 0.01038942 0.4449193 205 205 205
0.1429863 0.01351279 0.4227265 205 205 205
0.1443303 0.01446505 0.4158385 205 205 205
0.1481735 0.01538837 0.4089515 205 205 205
0.1538054 0.01566551 0.4065623 0 0 0
0.1595252 0.01551346 0.4072756 0 0 0
0.1465327 0.02858569 0.3239665 0 0 0
0.1418018 0.03069413 0.3106801 0 0 0
0.1420423 0.03091973 0.3093921 0 0 0
-0.03703772 0.02853197 0.4681203 0 0 0
-0.03355982 0.02835687 0.4636095 0 0 0
-0.03208967 0.02814262 0.4628166 0 0 0
-0.03062592 0.02793239 0.4620176 0 0 0
-0.02801908 0.02733663 0.4623703 0 0 0
-0.02583812 0.02646404 0.4656587 0 0 0
-0.02374489 0.02549396 0.4699189 0 0 0
-0.02267469 0.0250075 0.4720442 0 0 0
0.1328208 0.004895714 0.4771476 205 205 205
0.134437 0.005450252 0.4725194 205 205 205
0.1370426 0.006157291 0.4665162 205 205 205
0.1371727 0.006738071 0.4623169 205 205 205
0.1381976 0.006884662 0.4609423 205 205 205
0.1434854 0.01145029 0.4276254 205 205 205
0.1438257 0.01285592 0.4179618 205 205 205
0.1442591 0.01318331 0.415668 205 205 205
0.1446767 0.01351251 0.4133757 205 205 205
0.1458244 0.01355481 0.412918 205 205 205
0.1484905 0.01398342 0.4096956 205 205 205
0.1492374 0.01417842 0.4083135 205 205 205
0.1503663 0.01423179 0.4078396 205 205 205
0.1548644 0.01446816 0.4059037 205 205 205
0.1555765 0.01467555 0.4045079 205 205 205
0.157103 0.01460001 0.4049115 205 205 205
0.1425008 0.02871472 0.3169943 0 0 0
0.1424724 0.03049422 0.3067006 0 0 0
-0.04059679 0.02742811 0.4714586 0 0 0
-0.02718938 0.0254896 0.4643479 0 0 0
-0.02616302 0.02499686 0.4664819 0 0 0
-0.02406307 0.02400851 0.4707404 0 0 0
-0.02298953 0.02351307 0.4728648 0 0 0
-0.02190021 0.02301675 0.4749859 0 0 0
-0.01749981 0.02091837 0.4844228 0 0 0
0.1332818 0.003096692 0.4788404 205 205 205
0.1407595 0.005450344 0.4598654 205 205 205
0.1417666 0.005608773 0.4584816 205 205 205
0.1447837 0.008428191 0.4385374 205 205 205
0.1437519 0.01156724 0.4177855 205 205 205
0.1461264 0.01213412 0.4136596 205 205 205
0.1469004 0.01232724 0.4122816 205 205 205
0.1484224 0.01271952 0.409522 205 205 205
0.1529512 0.01293912 0.4076123 205 205 205
0.1548009 0.01320947 0.4057303 205 205 205
0.1566296 0.01348824 0.4038384 205 205 205
0.1592738 0.01348348 0.4037297 205 205 205
0.1450195 0.02613024 0.326783 0 0 0
0.1409876 0.02881628 0.3108719 0 0 0
-0.02984198 0.02482459 0.4628555 0 0 0
-0.02883637 0.02432305 0.4649956 0 0 0
-0.02085367 0.02121474 0.4759432 0 0 0
-0.01961512 0.02081732 0.477069 0 0 0
0.1334579 0.00143658 0.4795783 205 205 205
0.137588 0.003535511 0.4637994 205 205 205
0.1386224 0.003690213 0.4624233 205 205 205
0.1396481 0.003847502 0.4610448 205 205 205
0.1416731 0.004169925 0.4582806 205 205 205
0.1426725 0.004335001 0.4568951 205 205 205
0.1458355 0.00596336 0.4452959 205 205 205
0.1457322 0.006602012 0.4411249 205 205 205
0.1455986 0.007242588 0.4369599 205 205 205
0.1456394 0.01051141 0.4157728 205 205 205
0.1460542 0.01085888 0.4134797 205 205 205
0.1506224 0.0115623 0.4083968 205 205 205
0.1540134 0.01173807 0.406946 205 205 205
0.1551403 0.01180127 0.4064543 205 205 205
0.1558577 0.01201725 0.4050579 205 205 205
0.1592118 0.01222689 0.4035513 205 205 205
0.181229 0.01279209 0.4004084 205 205 205
0.1410657 0.02632386 0.3197666 0 0 0
0.1404503 0.02806749 0.3098937 0 0 0
0.1414432 0.02840063 0.3081745 0 0 0
0.1419869 0.02973858 0.3009337 0 0 0
-0.03603511 0.02530022 0.4588062 0 0 0
-0.03149327 0.02366651 0.4634885 0 0 0
-0.03033691 0.02325963 0.4646495 0 0 0
-0.02799901 0.02244778 0.4669597 0 0 0
-0.02239814 0.02010028 0.4756203 0 0 0
-0.02103786 0.01980777 0.4757641 0 0 0
0.1352858 0.0003717978 0.4756778 205 205 205
0.1377928 0.001924202 0.4645306 205 205 205
0.1385243 0.002240347 0.4622154 205 205 205
0.1435703 0.003073066 0.4553016 205 205 205
0.1464285 0.004255715 0.4469492 205 205 205
0.1457037 0.006382234 0.4335297 205 205 205
0.1451605 0.00719895 0.4284562 205 205 205
0.1452961 0.007703934 0.4252329 205 205 205
0.145047 0.008367173 0.4210944 205 205 205
0.1482825 0.01019485 0.4091604 205 205 205
0.152817 0.01041631 0.4072502 205 205 205
0.1637734 0.01074367 0.404497 205 205 205
0.1395612 0.02584391 0.3170528 0 0 0
0.1391388 0.02661147 0.3127627 0 0 0
0.1391117 0.03022207 0.2932654 0 0 0
-0.03787065 0.024065 0.46039 0 0 0
-0.03067807 0.02178872 0.4654544 0 0 0
-0.0204754 0.01753326 0.4806461 205 205 205
0.1368617 -0.001295135 0.47597 205 205 205
0.1434762 0.00164472 0.4550905 205 205 205
0.1476207 0.002882544 0.4462736 205 205 205
0.1461415 0.005388177 0.4310227 205 205 205
0.1455737 0.006226443 0.4259571 205 205 205
0.1500929 0.009199963 0.4071181 205 205 205
0.1542783 0.009059168 0.4074767 205 205 205
0.1568469 0.009573978 0.4041887 205 205 205
0.1388292 0.02547703 0.3139123 0 0 0
0.1445767 0.02729593 0.3048572 0 0 0
0.1433704 0.02823657 0.2997956 0 0 0
-0.03935813 0.02303463 0.4600051 0 0 0
-0.03787895 0.02282546 0.4592334 0 0 0
-0.0365815 0.02251268 0.4594342 0 0 0
-0.03202419 0.02084005 0.4641117 0 0 0
-0.02881716 0.01936472 0.4695435 0 0 0
-0.02777009 0.01883385 0.4716749 0 0 0
-0.02576692 0.01765324 0.4769116 205 205 205
-0.02381657 0.0163481 0.4831208 205 205 205
0.1368042 -0.00361054 0.4808905 205 205 205
0.1373392 -0.003124307 0.4776274 205 205 205
0.138339 -0.002143278 0.4711069 205 205 205
0.1427086 -0.0001272502 0.4571926 205 205 205
0.1433807 0.0002177026 0.4548739 205 205 205
0.1456371 0.001102046 0.4488472 205 205 205
0.1481179 0.001842938 0.4437411 205 205 205
0.148889 0.007890243 0.4073999 205 205 205
0.1556576 0.008251838 0.4044943 205 205 205
0.156369 0.008482189 0.4030986 205 205 205
0.1630415 0.008939588 0.4000341 205 205 205
0.164582 0.008863566 0.4003956 205 205 205
0.1539875 0.01707107 0.3549393 0 0 0
0.142525 0.02164571 0.3297265 0 0 0
0.1393642 0.02338256 0.3202162 0 0 0
0.1387028 0.02393709 0.317204 0 0 0
0.1398458 0.02556623 0.3086435 0 0 0
0.1405978 0.02566211 0.3082106 0 0 0
0.1460194 0.02663716 0.3038192 0 0 0
0.1388136 0.02922797 0.2896706 0 0 0
-0.03676827 0.02117075 0.4592503 0 0 0
-0.03581374 0.02063486 0.4614031 0 0 0
0.1426104 -0.001561025 0.4569694 205 205 205
0.1471751 -0.0004475952 0.4490868 205 205 205
0.1481259 -0.0002512999 0.4476905 205 205 205
0.1487212 0.0001160783 0.4453694 205 205 205
0.1471733 0.004549317 0.4195728 205 205 205
0.1476106 0.004929595 0.4172771 205 205 205
0.1488273 0.006081289 0.4103993 205 205 205
0.155995 0.006832815 0.4051951 205 205 205
0.1563005 0.007233439 0.4029017 205 205 205
0.138263 0.02384301 0.3127751 0 0 0
0.1405635 0.02478312 0.3080707 0 0 0
-0.03973563 0.02034685 0.4596323 0 0 0
-0.03469346 0.01897485 0.4614038 0 0 0
-0.03239774 0.01812202 0.4637313 0 0 0
-0.03123729 0.01769658 0.4648893 0 0 0
0.1451511 -0.002249205 0.451647 205 205 205
0.149515 0.004473549 0.4120118 205 205 205
0.1555175 0.005747138 0.4040946 205 205 205
0.1562307 0.005985838 0.4027001 205 205 205
0.1591589 0.006374869 0.4002941 205 205 205
0.1378366 0.02203424 0.3173385 0 0 0
0.1376528 0.02244827 0.3151943 0 0 0
0.1392626 0.02329724 0.3109206 0 0 0
0.1402809 0.02364766 0.3092079 0 0 0
0.1432177 0.0247282 0.3040507 0 0 0
-0.03488117 0.01762656 0.4612073 0 0 0
0.1419953 -0.007290706 0.4732519 205 205 205
0.1422639 -0.005862754 0.4648694 205 205 205
0.1427309 -0.004601591 0.4574369 205 205 205
0.1500375 -0.00207775 0.4412002 205 205 205
0.148563 0.001825382 0.4195929 205 205 205
0.1486228 0.002399491 0.4163865 205 205 205
0.151324 0.004068569 0.4067444 205 205 205
0.1590901 0.005133098 0.4000882 205 205 205
0.1617351 0.005118847 0.3999492 205 205 205
0.1624139 0.005373945 0.3985426 205 205 205
0.1646204 0.005546128 0.3974924 205 205 205
0.168153 0.005214141 0.3990642 205 205 205
0.1373131 0.0212951 0.3163273 0 0 0
0.1392245 0.0224113 0.3107727 0 0 0
0.1402194 0.02345367 0.3056591 0 0 0
0.1477376 0.02381222 0.3045917 0 0 0
0.1484778 0.02392594 0.30413 0 0 0
-0.03993012 0.01778524 0.4582627 0 0 0
-0.03620476 0.01671569 0.4598376 205 205 205
-0.03506939 0.01627957 0.4610053 205 205 205
-0.03409205 0.01571835 0.4631471 205 205 205
-0.03177185 0.01484739 0.4654643 205 205 205
-0.02881994 0.01302639 0.472832 205 205 205
0.1429659 -0.008597833 0.4716115 205 205 205
0.1427844 -0.007685877 0.4664892 205 205 205
0.1442819 -0.006200824 0.457667 205 205 205
0.1492117 -0.005181574 0.4506881 205 205 205
0.1494794 -0.004609515 0.4474445 205 205 205
0.1492215 0.0001676927 0.4211961 205 205 205
0.1492899 0.0007540376 0.4179887 205 205 205
0.1497132 0.001162592 0.415694 205 205 205
0.152383 0.002874511 0.4060481 205 205 205
0.153843 0.003358032 0.4032724 205 205 205
0.1556775 0.003671679 0.4013877 205 205 205
0.1563803 0.003920299 0.399995 205 205 205
0.1590199 0.003892491 0.3998775 205 205 205
0.1616661 0.003874924 0.3997378 205 205 205
0.168087 0.003963934 0.3988515 205 205 205
0.1700901 0.003709907 0.4000614 205 205 205
0.1422208 0.01625988 0.3369325 0 0 0
0.1407618 0.01721008 0.3321466 0 0 0
0.1373733 0.02108203 0.312754 0 0 0
0.1379247 0.02160314 0.3101978 0 0 0
0.1386867 0.02169562 0.3097713 0 0 0
0.1401828 0.02258513 0.3055104 0 0 0
0.1485669 0.02232883 0.3073865 0 0 0
0.1487808 0.02260665 0.3060948 0 0 0
-0.03639352 0.01537439 0.4596313 205 205 205
-0.0123292 0.003960477 0.4990336 205 205 205
0.1478355 -0.007389834 0.4550892 205 205 205
0.1488209 -0.00717924 0.4536893 205 205 205
0.1499781 -0.005611617 0.4448832 205 205 205
0.1511084 -0.003431255 0.4328742 205 205 205
0.1512457 -0.002835547 0.4296519 205 205 205
0.1515858 0.0007723353 0.410408 205 205 205
0.1552975 0.001998836 0.4034592 205 205 205
0.1556041 0.002431422 0.4011724 205 205 205
0.1563077 0.002684229 0.3997804 205 205 205
0.1633818 0.002981133 0.3975932 205 205 205
0.1376909 0.01818053 0.3224573 0 0 0
0.140416 0.02127543 0.3074776 0 0 0
0.1414048 0.0216461 0.3057641 0 0 0
0.1446886 0.02161702 0.3061073 0 0 0
0.1459647 0.02155543 0.3064885 0 0 0
0.1472458 0.0214965 0.306863 0 0 0
-0.03658282 0.01403441 0.4594195 205 205 205
-0.03578982 0.01332465 0.4625379 205 205 205
-0.03263081 0.0117181 0.4679708 205 205 205
-0.03175952 0.01100052 0.4710796 205 205 205
0.1453813 -0.01231826 0.4743586 205 205 205
0.1451991 -0.01136424 0.4692392 205 205 205
0.1463389 -0.0103918 0.4636588 205 205 205
0.1518934 -0.000681935 0.4110859 205 205 205
0.1518745 -6.356394E-05 0.4078953 205 205 205
0.1526231 0.000183709 0.4065087 205 205 205
0.1562338 0.001449325 0.399561 205 205 205
0.1622055 0.001658274 0.3978962 205 205 205
0.1655184 0.001922672 0.3963149 205 205 205
0.1666189 0.002015498 0.39578 205 205 205
0.1382353 0.01663127 0.3253117 0 0 0
0.1369992 0.01903756 0.313718 0 0 0
0.1383376 0.01966522 0.310737 0 0 0
0.1398685 0.0198537 0.3098775 0 0 0
0.1439013 0.0206335 0.3063984 0 0 0
0.1482719 0.02026699 0.3083632 0 0 0
-0.03920101 0.01346273 0.4578356 205 205 205
-0.03598065 0.0119739 0.4623185 205 205 205
-0.03029119 0.008008218 0.478039 205 205 205
-0.02992993 0.006700922 0.4850554 205 205 205
-0.02586073 0.003709663 0.4974359 205 205 205
-0.02440406 0.00339514 0.4975805 205 205 205
0.1489665 -0.01101851 0.4582711 205 205 205
0.1514217 -0.008555132 0.4448182 205 205 205
0.1525586 -0.007707872 0.4401806 205 205 205
0.1531454 -0.005223842 0.4272877 205 205 205
0.15219 -0.002771884 0.4149525 205 205 205
0.1533331 -0.001450768 0.408079 205 205 205
0.1536824 -0.001007159 0.4057916 205 205 205
0.1590681 0.0006334507 0.3969331 205 205 205
0.1521324 0.008317084 0.3599423 205 205 205
0.1406832 0.01386615 0.3338024 0 0 0
0.1368275 0.01742253 0.3169715 0 0 0
0.1366562 0.01787559 0.3148334 0 0 0
0.1385634 0.01905711 0.3092992 0 0 0
0.1431103 0.01965194 0.3066833 0 0 0
0.1449052 0.01940111 0.307907 0 0 0
0.1484579 0.01966561 0.3069092 0 0 0
-0.03365948 0.0084059 0.4714244 205 205 205
-0.03123679 0.00587217 0.4826923 205 205 205
-0.0244787 0.002059045 0.4963492 205 205 205
-0.02302428 0.001747356 0.4964878 205 205 205
0.150729 -0.0103791 0.4468797 205 205 205
0.1547906 -0.008167125 0.4347985 205 205 205
0.1552953 -0.007725906 0.4324833 205 205 205
0.1547966 -0.002841287 0.4082493 205 205 205
0.1591453 -0.001250403 0.399875 205 205 205
0.1583167 0.004108413 0.3741788 205 205 205
0.1397087 0.01327455 0.3318873 0 0 0
0.1471959 0.01808182 0.3097854 0 0 0
-0.0367095 0.008988946 0.4638123 205 205 205
-0.03237325 0.005208519 0.4793467 205 205 205
-0.03203782 0.003848397 0.4863562 205 205 205
-0.03077818 0.001552357 0.4974435 205 205 205
-0.02918002 0.001379374 0.4966253 205 205 205
-0.02429686 0.001040041 0.4931538 205 205 205
-0.02285307 0.00073019 0.4932909 205 205 205
-0.01862965 -0.0003407539 0.4946513 205 205 205
-0.01468171 -0.001870927 0.4989116 205 205 205
0.1502057 -0.01737284 0.4748803 205 205 205
0.1509754 -0.01198108 0.4475315 205 205 205
0.1521567 -0.01110605 0.442895 205 205 205
0.1551463 -0.005617449 0.4152869 205 205 205
0.1613616 -0.001178948 0.3931639 205 205 205
0.1555497 0.004127949 0.3687313 205 205 205
0.1429156 0.01049336 0.339951 205 205 205
0.1370436 0.0158968 0.3153517 0 0 0
0.1456171 0.0169706 0.3105276 0 0 0
0.148976 0.01693023 0.3108124 0 0 0
0.1492162 0.01722838 0.3095178 0 0 0
0.145175 0.01899656 0.3016229 0 0 0
-0.03591378 0.007020704 0.4657096 205 205 205
-0.03524061 0.006106881 0.4697905 205 205 205
-0.02924548 5.321648E-05 0.4953857 205 205 205
-0.02160848 -0.001046221 0.4931619 205 205 205
-0.02016235 -0.00135142 0.493288 205 205 205
-0.01882895 -0.001814904 0.4943893 205 205 205
-0.01613724 -0.002738653 0.4965775 205 205 205
0.1516438 -0.01717953 0.4657425 205 205 205
0.1509858 -0.01508279 0.4555697 205 205 205
0.1512199 -0.01358939 0.4481766 205 205 205
0.1514721 -0.01294142 0.4449441 205 205 205
0.1535377 -0.01179836 0.4389074 205 205 205
0.1572135 -0.01011989 0.4300538 205 205 205
0.1588412 -0.003046179 0.3962347 205 205 205
0.1606214 -0.00268093 0.3943256 205 205 205
0.1612871 -0.002395654 0.3929279 205 205 205
0.1469599 0.007244577 0.349764 205 205 205
0.1366829 0.01471775 0.3164559 0 0 0
0.1365143 0.01519473 0.3143221 0 0 0
0.1368147 0.01547779 0.3130461 0 0 0
0.1378814 0.01585333 0.3113463 0 0 0
0.1386545 0.01594659 0.3109189 0 0 0
0.1484271 0.01542779 0.3132278 0 0 0
-0.04052248 0.007695456 0.4598331 205 205 205
-0.0393891 0.007223637 0.4610035 205 205 205
-0.03576963 0.004423763 0.4714915 205 205 205
-0.03522251 0.003333856 0.4765439 205 205 205
-0.03416863 0.0009797136 0.4876232 205 205 205
-0.03250297 -0.0009294649 0.4957724 205 205 205
-0.02931053 -0.001263751 0.4941417 205 205 205
-0.02312972 -0.002043155 0.4917856 205 205 205
0.1525695 -0.01841745 0.4640405 205 205 205
0.1523086 -0.01408955 0.4432667 205 205 205
0.1543439 -0.01291951 0.4372312 205 205 205
0.1577604 -0.01255589 0.4348107 205 205 205
0.1581194 -0.009159095 0.4187622 205 205 205
0.1573271 -0.0080648 0.4137778 205 205 205
0.1580733 -0.004553987 0.3973858 205 205 205
0.160501 -0.001519777 0.3832523 205 205 205
0.157095 0.0005908499 0.3740169 205 205 205
0.1405166 0.00950902 0.335227 205 205 205
0.1377038 0.01119723 0.3278676 205 205 205
0.1364524 0.01304833 0.319695 0 0 0
0.1367852 0.01333333 0.3184137 0 0 0
0.1366326 0.01381801 0.3162771 0 0 0
0.1386074 0.01506362 0.3107433 0 0 0
0.1399104 0.01574543 0.3077621 0 0 0
0.1429619 0.01536218 0.3094026 0 0 0
0.1465639 0.01479739 0.3118428 0 0 0
-0.03531771 0.0003395586 0.4842573 205 205 205
-0.03285898 -0.002567843 0.4964754 205 205 205
-0.02965679 -0.00289746 0.4948462 205 205 205
-0.02490262 -0.003359464 0.4923563 205 205 205
0.1538015 -0.02073224 0.4674174 205 205 205
0.1527911 -0.01834055 0.4563403 205 205 205
0.1523163 -0.01636447 0.4471276 205 205 205
0.1536984 -0.01475855 0.4392694 205 205 205
0.1590275 -0.01317319 0.4308067 205 205 205
0.157636 -0.009560462 0.4144123 205 205 205
0.1567595 -0.007748748 0.4062626 205 205 205
0.1575747 -0.005573044 0.396254 205 205 205
0.1582616 -0.005285416 0.3948631 205 205 205
0.1371879 0.01045916 0.3268127 205 205 205
0.1365242 0.01164579 0.3216523 205 205 205
0.1424053 0.01467619 0.3083864 0 0 0
0.1465181 0.01389828 0.3116602 0 0 0
-0.03953025 0.003269592 0.466527 205 205 205
-0.03291893 -0.00388219 0.4952212 205 205 205
-0.02641726 -0.004339684 0.4909613 205 205 205
0.152982 -0.01909796 0.4528089 205 205 205
0.1559313 -0.01512601 0.4338624 205 205 205
0.159696 -0.01495264 0.432327 205 205 205
0.1602477 -0.01375659 0.4268021 205 205 205
0.1571246 -0.009928286 0.4100718 205 205 205
0.1567964 -0.007084698 0.397392 205 205 205
0.1584351 -0.005998298 0.3923414 205 205 205
0.1590264 -0.003246403 0.3801553 205 205 205
0.1426974 0.006018359 0.3413339 205 205 205
0.1371309 0.009521591 0.3266191 205 205 205
0.1361149 0.01043653 0.3227455 205 205 205
0.1366798 0.0115208 0.3180428 205 205 205
0.137149 0.01261198 0.3133576 0 0 0
0.1382259 0.0130015 0.3116566 0 0 0
0.1488099 0.01250754 0.3135055 0 0 0
-0.04299364 0.003534295 0.4617873 205 205 205
-0.04185399 0.003044997 0.4629605 205 205 205
-0.0407058 0.002556344 0.46413 205 205 205
-0.03990767 0.001744705 0.4672363 205 205 205
-0.0392617 0.0007673627 0.4713119 205 205 205
-0.0382412 0.0001126121 0.4734437 205 205 205
-0.03754096 -0.0008722288 0.4775165 205 205 205
-0.03746727 -0.002523132 0.4854778 205 205 205
-0.02517888 -0.006111888 0.4908192 205 205 205
-0.0221687 -0.006558666 0.4901069 205 205 205
-0.0210858 -0.007390854 0.4931626 205 205 205
-0.01986389 -0.008048899 0.4952374 205 205 205
-0.01589433 -0.009668556 0.4994799 205 205 205
0.1542133 -0.01794708 0.4405138 205 205 205
0.1565738 -0.01692118 0.4353832 205 205 205
0.1599795 -0.0165284 0.4329409 205 205 205
0.1598098 -0.0141588 0.422426 205 205 205
0.1561055 -0.009324272 0.4016847 205 205 205
0.1601123 -0.006820885 0.3901853 205 205 205
0.1380584 0.007653628 0.3303033 205 205 205
0.1359473 0.01002245 0.3204106 205 205 205
0.1372704 0.01121359 0.3152968 205 205 205
0.1375802 0.01151387 0.3140204 205 205 205
0.1389533 0.01221202 0.3110409 0 0 0
0.1433307 0.01250565 0.3096889 0 0 0
0.1387474 0.01631059 0.294219 0 0 0
-0.03288738 -0.006310787 0.491726 205 205 205
-0.02812872 -0.00676009 0.4892711 205 205 205
-0.02393905 -0.007881045 0.4906654 205 205 205
-0.0174683 -0.01067523 0.4981006 205 205 205
0.1544559 -0.02584399 0.4692382 205 205 205
0.1548521 -0.02421523 0.4618297 205 205 205
0.1554202 -0.0218675 0.4512056 205 205 205
0.1551892 -0.01999569 0.4429372 205 205 205
0.1561206 -0.01972437 0.4415261 205 205 205
0.1570417 -0.009752293 0.397757 205 205 205
0.1584368 -0.009153635 0.3949774 205 205 205
0.1360956 0.00808124 0.3244977 205 205 205
0.1362346 0.009410781 0.3189361 205 205 205
0.1373737 0.009800535 0.3172338 205 205 205
0.1386129 0.01102145 0.3121259 205 205 205
0.1389019 0.01132899 0.3108511 205 205 205
0.139679 0.01142579 0.3104192 205 205 205
0.1412284 0.01162456 0.3095472 205 205 205
0.1432813 0.01162029 0.3094985 205 205 205
0.1494996 0.01080583 0.3126509 205 205 205
-0.04066728 -0.001323253 0.4686341 205 205 205
-0.03279477 -0.007417528 0.4894865 205 205 205
-0.02401496 -0.009155264 0.4893958 205 205 205
0.1564507 -0.02586623 0.4619156 205 205 205
0.1569366 -0.02083367 0.439813 205 205 205
0.1609225 -0.01992408 0.4350446 205 205 205
0.1588526 -0.0156067 0.4168851 205 205 205
0.1574739 -0.01194998 0.4015302 205 205 205
0.1590371 -0.01006499 0.3933221 205 205 205
0.1601702 -0.008691598 0.3874028 205 205 205
-0.04378108 -0.0006655577 0.4619502 205 205 205
-0.04204004 -0.002188278 0.46719 205 205 205
-0.04141137 -0.003212538 0.4712588 205 205 205
-0.03731731 -0.007870546 0.4886762 205 205 205
-0.0312679 -0.008832945 0.4874038 205 205 205
-0.02983421 -0.009155729 0.4875579 205 205 205
-0.02552767 -0.01010814 0.4879888 205 205 205
0.154547 -0.02905157 0.4695018 205 205 205
0.1563258 -0.0282909 0.465746 205 205 205
0.1573691 -0.02802198 0.4643214 205 205 205
0.1582978 -0.02313485 0.4431127 205 205 205
0.1588567 -0.02262016 0.4407941 205 205 205
0.162726 -0.02243939 0.4392189 205 205 205
0.1591521 -0.01713395 0.4174868 205 205 205
0.1600564 -0.01119117 0.3925384 205 205 205
0.1598665 -0.01042485 0.3893991 205 205 205
0.1585425 -0.008439474 0.3813982 205 205 205
0.1547466 -0.005870923 0.3713317 205 205 205
0.1392774 0.003600149 0.3344261 205 205 205
0.1374185 0.0050272 0.3288186 205 205 205
0.1377367 0.007774699 0.3176866 205 205 205
0.1480546 0.008222409 0.3153052 205 205 205
-0.03387423 -0.00907076 0.4838656 205 205 205
-0.02599779 -0.01192869 0.4896309 205 205 205
-0.02348191 -0.01312415 0.4928141 205 205 205
0.1543402 -0.03151075 0.4733277 205 205 205
0.1568874 -0.03023784 0.4672342 205 205 205
0.1585463 -0.02749008 0.4551834 205 205 205
0.1615363 -0.02488358 0.4435513 205 205 205
0.1628603 -0.02229518 0.4324837 205 205 205
0.1590581 -0.01766673 0.4140134 205 205 205
0.1589969 -0.01612633 0.4076692 205 205 205
0.1593414 -0.01558586 0.4053873 205 205 205
0.1603977 -0.01263174 0.393139 205 205 205
0.1485756 -0.003246264 0.356723 205 205 205
0.1369002 0.004310711 0.3277438 205 205 205
0.1370485 0.007637111 0.3145069 205 205 205
0.1458924 0.007312603 0.3151869 205 205 205
0.1461819 0.007642148 0.3138972 205 205 205
-0.04327499 -0.007415291 0.4784106 205 205 205
-0.03724793 -0.01020727 0.4851576 205 205 205
-0.03392518 -0.01031157 0.4825904 205 205 205
-0.02852984 -0.0119798 0.485151 205 205 205
-0.02751198 -0.01287009 0.488209 205 205 205
-0.02488765 -0.01388657 0.4904252 205 205 205
-0.02381441 -0.01478039 0.4934724 205 205 205
0.1559676 -0.03322244 0.4733865 205 205 205
0.1567634 -0.03172161 0.4668949 205 205 205
0.1605552 -0.01989841 0.4172623 205 205 205
0.1601495 -0.01888044 0.4131994 205 205 205
0.1600664 -0.01731282 0.4068615 205 205 205
0.1604709 -0.01463413 0.3960013 205 205 205
0.1603538 -0.01249707 0.3874647 205 205 205
0.1541491 -0.007886923 0.3699511 205 205 205
0.1391454 0.001666543 0.3339841 205 205 205
0.1367671 0.003917728 0.325383 205 205 205
0.1369905 0.006745506 0.314301 205 205 205
0.1419425 0.006770221 0.3138188 205 205 205
0.1450358 0.006297596 0.3154321 205 205 205
0.151099 0.005954274 0.316428 205 205 205
0.133024 0.01530556 0.2818195 0 0 0
-0.04476972 -0.005055979 0.463024 205 205 205
-0.03413198 -0.01173381 0.4822802 205 205 205
-0.03286631 -0.01225175 0.4834115 205 205 205
-0.03016431 -0.01309176 0.4846907 205 205 205
0.1656096 -0.02773128 0.4421881 205 205 205
0.1653625 -0.02669961 0.4380824 205 205 205
0.1616182 -0.02271301 0.422799 205 205 205
0.1608548 -0.02064576 0.4146661 205 205 205
0.1381338 0.001727344 0.3298844 205 205 205
0.1378882 0.005389416 0.3157852 205 205 205
0.1454807 0.005160238 0.3160523 205 205 205
0.1518492 0.005151154 0.3157342 205 205 205
0.1425538 0.01047769 0.29633 205 205 205
-0.0421212 -0.01223925 0.4849434 205 205 205
-0.03733856 -0.01268494 0.4825934 205 205 205
-0.03591792 -0.01301823 0.4827657 205 205 205
-0.03037114 -0.01452173 0.4843721 205 205 205
0.1579155 -0.03361903 0.46154 205 205 205
0.1643252 -0.03208232 0.4538534 205 205 205
0.1666498 -0.03171241 0.4518678 205 205 205
0.1658813 -0.02937658 0.4427456 205 205 205
0.1641945 -0.02654843 0.4318837 205 205 205
0.159924 -0.02064462 0.4094266 205 205 205
0.1582099 -0.0131012 0.3803146 205 205 205
0.1492371 -0.006909743 0.357703 205 205 205
0.1434999 -0.003223116 0.3443012 205 205 205
0.1403611 -0.0009810226 0.3361074 205 205 205
0.137095 0.00181947 0.3257992 205 205 205
0.1378276 0.004492299 0.3155707 205 205 205
0.1384622 0.005152673 0.3130239 205 205 205
0.1410301 0.004877175 0.3138345 205 205 205
0.1454221 0.00425 0.3158344 205 205 205
0.1517926 0.004231497 0.3155139 205 205 205
-0.04358199 -0.01313007 0.4834618 205 205 205
-0.03754802 -0.0141064 0.4822718 205 205 205
-0.03454718 -0.0145734 0.4816429 205 205 205
-0.03343529 -0.01529913 0.4837396 205 205 205
-0.0284116 -0.01760232 0.4891824 205 205 205
0.1624854 -0.03333418 0.4531474 205 205 205
0.1638361 -0.03327579 0.4526097 205 205 205
0.1663566 -0.03208984 0.4474045 205 205 205
0.1661509 -0.03102787 0.4432959 205 205 205
0.1608558 -0.02019285 0.4022874 205 205 205
0.1504892 -0.008707719 0.3600317 205 205 205
0.1447672 -0.004962738 0.3466387 205 205 205
0.1411913 -0.002441839 0.3375889 205 205 205
0.1379429 0.0004024244 0.327284 205 205 205
0.1372167 0.002359474 0.3200266 205 205 205
0.1380385 0.002449452 0.3195981 205 205 205
0.1382438 0.003355896 0.3161978 205 205 205
0.1401715 0.003883064 0.314055 205 205 205
0.1414616 0.003743513 0.3144543 205 205 205
0.1484967 0.002849362 0.3171807 205 205 205
0.1522872 0.004022923 0.3126951 205 205 205
-0.04499493 -0.01039813 0.4671293 205 205 205
-0.03934789 -0.0153883 0.4827331 205 205 205
-0.03491363 -0.01619259 0.4822823 205 205 205
-0.02964223 -0.0181094 0.4858002 205 205 205
-0.02771214 -0.02019785 0.4928603 205 205 205
0.1593721 -0.03886857 0.4694841 205 205 205
0.1590522 -0.03755751 0.4644403 205 205 205
0.1606489 -0.03457409 0.4524302 205 205 205
0.1617524 -0.02527132 0.4163717 205 205 205
0.1606527 -0.02060407 0.3988367 205 205 205
0.1605241 -0.01976817 0.3956987 205 205 205
0.1601982 -0.01809403 0.3894402 205 205 205
0.1460315 -0.006723969 0.3489666 205 205 205
0.1383317 -0.0007823691 0.3279068 205 205 205
0.1378048 4.331427E-05 0.3249143 205 205 205
0.1397939 0.002647922 0.3151095 205 205 205
0.1426958 0.002705529 0.3146242 205 205 205
0.1471172 0.002059724 0.3165896 205 205 205
0.1484361 0.001930581 0.3169532 205 205 205
0.1532402 0.00168038 0.317521 205 205 205
0.1415243 0.008798206 0.2928418 205 205 205
-0.0425598 -0.0143757 0.4750982 205 205 205
-0.04028877 -0.01565979 0.4783623 205 205 205
-0.03780231 -0.01674045 0.4806468 205 205 205
-0.03272709 -0.01889095 0.4851645 205 205 205
-0.03158432 -0.01963451 0.4872499 205 205 205
-0.02846812 -0.02250137 0.4963878 205 205 205
0.1598889 -0.03657302 0.4543953 205 205 205
0.1615108 -0.03569328 0.4506464 205 205 205
0.165423 -0.03164687 0.4344195 205 205 205
0.1628492 -0.02733499 0.4186867 205 205 205
0.1614892 -0.02319153 0.4034161 205 205 205
0.1611291 -0.02064708 0.3940011 205 205 205
0.1607743 -0.01894701 0.3877538 205 205 205
0.1596907 -0.01759171 0.3829113 205 205 205
0.1432948 -0.005656452 0.3413867 205 205 205
0.1381158 -0.0005479421 0.3233992 205 205 205
0.1380197 4.041277E-05 0.3212697 205 205 205
0.144432 0.001418874 0.3156142 205 205 205
0.1462422 0.001035865 0.3168202 205 205 205
0.1470553 0.00114551 0.3163595 205 205 205
0.1505133 0.0009992314 0.3166053 205 205 205
0.151844 0.000874562 0.3169498 205 205 205
-0.0442339 -0.01366253 0.467648 205 205 205
-0.04342261 -0.01461131 0.4707272 205 205 205
-0.03691972 -0.01890493 0.4824081 205 205 205
-0.03565143 -0.01944834 0.4835389 205 205 205
-0.03324101 -0.02074332 0.486753 205 205 205
0.1598164 -0.03910555 0.4581482 205 205 205
0.1607617 -0.03769673 0.4526055 205 205 205
0.161387 -0.03711937 0.4502846 205 205 205
0.1631007 -0.0373209 0.4506422 205 205 205
0.1657932 -0.0371943 0.4495555 205 205 205
0.1646236 -0.03164655 0.429114 205 205 205
0.161918 -0.02641564 0.4102724 205 205 205
0.1620176 -0.02323773 0.3985602 205 205 205
0.1604706 -0.01927667 0.3843383 205 205 205
0.1546707 -0.01448604 0.3678186 205 205 205
0.138782 -0.000784384 0.3206038 205 205 205
0.1386631 -0.0001867766 0.3184811 205 205 205
0.1448662 0.0002635436 0.3162135 205 205 205
0.1534386 0.001178355 0.3123394 205 205 205
-0.042615 -0.01674142 0.4725071 205 205 205
-0.04036036 -0.01804684 0.4757623 205 205 205
-0.03489827 -0.02184643 0.4862459 205 205 205
-0.03066244 -0.02555248 0.4974664 205 205 205
0.1607066 -0.04024117 0.4563478 205 205 205
0.1646952 -0.03895069 0.4506229 205 205 205
0.1649795 -0.03239338 0.4264629 205 205 205
0.1646328 -0.03126365 0.4224062 205 205 205
0.1638522 -0.02987094 0.417481 205 205 205
0.1632813 -0.02612689 0.4039873 205 205 205
0.1567954 -0.01689186 0.371824 205 205 205
0.1506989 -0.01265434 0.3576063 205 205 205
0.1458374 -0.009200513 0.3460054 205 205 205
0.1390692 -0.001349763 0.3190886 205 205 205
0.139893 -0.001254625 0.3186527 205 205 205
0.1428416 -0.001212474 0.3181634 205 205 205
0.1560306 -0.0009716272 0.3161557 205 205 205
0.1493719 0.002624549 0.3043403 205 205 205
-0.04383961 -0.01735798 0.4700552 205 205 205
-0.04057049 -0.01943984 0.4754178 205 205 205
-0.03734334 -0.02174123 0.4817114 205 205 205
-0.03427715 -0.02448756 0.489902 205 205 205
0.1616718 -0.04474303 0.466896 205 205 205
0.1622271 -0.04077073 0.4522205 205 205 205
0.1665108 -0.03971162 0.4473768 205 205 205
0.1664882 -0.0376976 0.4400826 205 205 205
0.1632528 -0.02826561 0.4068005 205 205 205
0.1632428 -0.0249898 0.3951263 205 205 205
0.1618068 -0.0217998 0.3840609 205 205 205
0.1528421 -0.01503413 0.361605 205 205 205
0.1403013 -0.002423353 0.319253 205 205 205
0.1515488 -0.00289289 0.3196473 205 205 205
0.1542397 -0.00316079 0.3203181 205 205 205
0.1561128 -0.003543851 0.3214588 205 205 205
0.1575584 -0.002654171 0.3183395 205 205 205
0.154115 -0.0005117906 0.3113773 205 205 205
-0.04504723 -0.01795781 0.4675993 205 205 205
-0.04340097 -0.01993107 0.473738 205 205 205
-0.0384787 -0.02216182 0.4783012 205 205 205
-0.03479932 -0.02637939 0.4914623 205 205 205
0.1682755 -0.04248768 0.4514244 205 205 205
0.1656055 -0.03472168 0.4243336 205 205 205
0.1639737 -0.03006879 0.4082023 205 205 205
0.1638179 -0.02827608 0.4019213 205 205 205
0.1625876 -0.02351347 0.3854621 205 205 205
0.1492656 -0.01336235 0.3522913 205 205 205
0.1420732 -0.007863814 0.3343375 205 205 205
0.1403493 -0.00395839 0.3211281 205 205 205
0.142366 -0.003399877 0.3189603 205 205 205
0.1449971 -0.003716616 0.3197248 205 205 205
0.1463204 -0.003870874 0.3200971 205 205 205
0.148982 -0.004171107 0.3208218 205 205 205
0.1538518 -0.004479536 0.3213722 205 205 205
0.1565661 -0.004746516 0.3220197 205 205 205
0.1579305 -0.004875622 0.3223332 205 205 205
0.1587729 -0.004745623 0.3218292 205 205 205
-0.04544757 -0.01953579 0.4682091 205 205 205
-0.0356974 -0.02636657 0.4861235 205 205 205
-0.02683795 -0.03096859 0.496747 205 205 205
0.1642241 -0.04876809 0.4691368 205 205 205
0.1667775 -0.03985648 0.4370234 205 205 205
0.1639256 -0.03315194 0.4141546 205 205 205
0.1643168 -0.03251953 0.4118738 205 205 205
0.1643224 -0.0282478 0.3970554 205 205 205
0.164434 -0.02669531 0.3916794 205 205 205
0.162928 -0.02496998 0.3859975 205 205 205
0.1409973 -0.007035897 0.328101 205 205 205
0.1404647 -0.006137772 0.3251258 205 205 205
0.1415889 -0.005046735 0.3212752 205 205 205
0.142426 -0.004947263 0.3208293 205 205 205
0.1524334 -0.005279487 0.3207829 205 205 205
0.1625176 -0.006465515 0.3237757 205 205 205
0.1558594 -0.002710684 0.3120059 205 205 205
-0.04741137 -0.01910747 0.4626763 205 205 205
-0.03421572 -0.03031275 0.4937468 205 205 205
0.1655141 -0.05021127 0.4681759 205 205 205
0.1655051 -0.04903512 0.4640595 205 205 205
0.1658281 -0.04813671 0.4608384 205 205 205
0.1672718 -0.04270549 0.4415937 205 205 205
0.1674302 -0.04179419 0.438401 205 205 205
0.1649419 -0.03251914 0.4069696 205 205 205
0.1652861 -0.03187419 0.4046977 205 205 205
0.1535755 -0.01818674 0.3602311 205 205 205
0.1413832 -0.008252728 0.3286845 205 205 205
0.1416216 -0.006607535 0.3231415 205 205 205
0.1506836 -0.006452348 0.3214839 205 205 205
0.1555849 -0.006767656 0.3219957 205 205 205
0.1574676 -0.00717068 0.3231246 205 205 205
0.1622275 -0.006766703 0.3213835 205 205 205
0.1555188 -0.002965917 0.3096578 205 205 205
-0.03966362 -0.02487666 0.4722453 205 205 205
-0.03753145 -0.02646919 0.4764158 205 205 205
-0.02714127 -0.03367481 0.4950073 205 205 205
-0.02415679 -0.03432178 0.4952449 205 205 205
0.1670092 -0.04834487 0.4557745 205 205 205
0.1683907 -0.04827689 0.4552157 205 205 205
0.1644567 -0.03815248 0.4214893 205 205 205
0.1648314 -0.03378663 0.4066153 205 205 205
0.1513236 -0.0172286 0.3534953 205 205 205
0.1422289 -0.009751722 0.3301055 205 205 205
0.1411674 -0.007907303 0.3241648 205 205 205
0.1432382 -0.007335267 0.3219857 205 205 205
0.1475852 -0.007457132 0.3218122 205 205 205
0.1489241 -0.007617604 0.3221693 205 205 205
0.1528019 -0.007421349 0.3210788 205 205 205
0.155514 -0.007713564 0.3217303 205 205 205
0.1592907 -0.00852982 0.3239733 205 205 205
0.1606703 -0.008664548 0.3242711 205 205 205
0.1629112 -0.008658601 0.3240423 205 205 205
0.1626942 -0.007987374 0.3219168 205 205 205
-0.0466682 -0.02236205 0.463118 205 205 205
-0.04470057 -0.02396524 0.4673246 205 205 205
-0.0426685 -0.02557302 0.4715194 205 205 205
-0.03480695 -0.03347076 0.4939244 205 205 205
0.1703887 -0.05022904 0.4560035 205 205 205
0.1661429 -0.04277357 0.4318151 205 205 205
0.1647988 -0.0378791 0.4156791 205 205 205
0.1674171 -0.03419827 0.4028974 205 205 205
0.1458503 -0.01359943 0.3387197 205 205 205
0.1424145 -0.009018411 0.3242916 205 205 205
0.1537475 -0.008906426 0.3224442 205 205 205
0.1605982 -0.009626742 0.323997 205 205 205
-0.04371788 -0.02590117 0.4680963 205 205 205
-0.03902924 -0.02844145 0.4735809 205 205 205
-0.03735865 -0.03078531 0.4806066 205 205 205
-0.03624241 -0.03160252 0.4826798 205 205 205
-0.03161658 -0.03487879 0.4909366 205 205 205
-0.03013793 -0.03521086 0.4910724 205 205 205
0.1690059 -0.05421711 0.4643448 205 205 205
0.1696885 -0.05356881 0.4620106 205 205 205
0.1699819 -0.05262782 0.458796 205 205 205
0.1698754 -0.05139478 0.4547054 205 205 205
0.1688032 -0.04834478 0.4447918 205 205 205
0.1682103 -0.04681847 0.4398504 205 205 205
0.1664077 -0.04442335 0.4322979 205 205 205
0.1650605 -0.04041827 0.4193229 205 205 205
0.1654783 -0.0378473 0.4107538 205 205 205
0.1673989 -0.03641354 0.4056626 205 205 205
0.1680496 -0.03506655 0.4011278 205 205 205
0.1530247 -0.01979966 0.3540964 205 205 205
0.1431912 -0.00985068 0.3235725 205 205 205
0.1519708 -0.01009158 0.3231424 205 205 205
0.158623 -0.01017083 0.3226163 205 205 205
0.1599995 -0.0103128 0.322914 205 205 205
-0.04205468 -0.02914127 0.4728514 205 205 205
-0.04082429 -0.02972366 0.4739815 205 205 205
-0.03035646 -0.03666047 0.4906681 205 205 205
-0.02617395 -0.03814261 0.4929612 205 205 205
0.1701132 -0.05313888 0.4551617 205 205 205
0.1694361 -0.0503438 0.4461319 205 205 205
0.1684661 -0.04850461 0.4403186 205 205 205
0.165684 -0.04327833 0.423831 205 205 205
0.1685272 -0.03494837 0.3962427 205 205 205
0.1686089 -0.0332863 0.3908854 205 205 205
0.1437932 -0.01308513 0.3305079 205 205 205
0.1428051 -0.01184018 0.326706 205 205 205
0.1476052 -0.01160529 0.3252413 205 205 205
0.1493263 -0.01138306 0.3243001 205 205 205
0.1506791 -0.01155199 0.3246466 205 205 205
0.1515387 -0.01143553 0.3241667 205 205 205
0.1513933 -0.01075301 0.3220482 205 205 205
0.1522425 -0.01063356 0.3215661 205 205 205
0.1539357 -0.0103888 0.3205934 205 205 205
0.1580269 -0.01084426 0.3215308 205 205 205
0.1594003 -0.01099011 0.3218296 205 205 205
0.1616296 -0.01099521 0.3216061 205 205 205
0.1644027 -0.01126658 0.322159 205 205 205
-0.04226851 -0.03051989 0.4724627 205 205 205
-0.0410383 -0.03110662 0.4735914 205 205 205
-0.03997176 -0.03193722 0.47567 205 205 205
-0.03795519 -0.03384769 0.4807723 205 205 205
-0.03601635 -0.03601327 0.4868181 205 205 205
-0.03516485 -0.03734901 0.4907929 205 205 205
-0.03190922 -0.03752396 0.4891658 205 205 205
0.167711 -0.04833382 0.4349848 205 205 205
0.1664618 -0.04325039 0.4188708 205 205 205
0.1675918 -0.03923758 0.4057759 205 205 205
0.168782 -0.03913735 0.4052218 205 205 205
0.1695412 -0.03874051 0.4038094 205 205 205
0.1704463 -0.03665908 0.3970204 205 205 205
0.1702731 -0.03567005 0.3939154 205 205 205
0.1605484 -0.02686824 0.3677931 205 205 205
0.1455657 -0.01520385 0.3335719 205 205 205
0.1445324 -0.01326093 0.327641 205 205 205
0.1466626 -0.01265754 0.3254271 205 205 205
0.148388 -0.01243864 0.3244919 205 205 205
0.1497392 -0.01261335 0.3248423 205 205 205
0.1519588 -0.01266796 0.3247042 205 205 205
0.1535221 -0.0117347 0.3216154 205 205 205
0.1593252 -0.01194095 0.3215469 205 205 205
0.1652362 -0.01095026 0.3179135 205 205 205
-0.04866764 -0.02712909 0.4604743 205 205 205
-0.04750807 -0.02771996 0.461623 205 205 205
-0.04266327 -0.03214318 0.4730207 205 205 205
-0.04035985 -0.03357466 0.476225 205 205 205
-0.03910505 -0.03416581 0.4773448 205 205 205
-0.03721603 -0.03634964 0.4833889 205 205 205
-0.03050979 -0.03904295 0.4879296 205 205 205
0.1693571 -0.0521946 0.4421046 205 205 205
0.1673146 -0.04842274 0.4305368 205 205 205
0.1675894 -0.04348172 0.414784 205 205 205
0.1640735 -0.03034795 0.3741863 205 205 205
0.1477978 -0.01764533 0.3374591 205 205 205
0.1459104 -0.01577879 0.3319821 205 205 205
0.1542945 -0.01255029 0.3208424 205 205 205
0.1570243 -0.01286935 0.3214662 205 205 205
0.1669413 -0.01460517 0.3255538 205 205 205
0.1675893 -0.013741 0.3228948 205 205 205
-0.04674702 -0.02989587 0.4633283 205 205 205
-0.04040263 -0.0347134 0.4748684 205 205 205
-0.03499009 -0.03921593 0.4861391 205 205 205
-0.02696391 -0.04276897 0.4926601 205 205 205
0.1691519 -0.06075621 0.4643409 205 205 205
0.1702148 -0.06038198 0.4628911 205 205 205
0.1711882 -0.05870966 0.4573592 205 205 205
0.169606 -0.05390129 0.442549 205 205 205
0.1671834 -0.04977924 0.430124 205 205 205
0.1678769 -0.04508337 0.4152484 205 205 205
0.1678671 -0.04407982 0.4121153 205 205 205
0.1682517 -0.04337753 0.4098445 205 205 205
0.1686202 -0.04267374 0.407576 205 205 205
0.1713561 -0.04175806 0.4041862 205 205 205
0.1680447 -0.03418484 0.3813971 205 205 205
0.1481577 -0.01823154 0.3358523 205 205 205
0.1470647 -0.01553794 0.3278013 205 205 205
0.1513019 -0.01427019 0.3233126 205 205 205
0.1560931 -0.0139444 0.3216766 205 205 205
0.1616049 -0.01456972 0.3228572 205 205 205
0.1635255 -0.01500702 0.3239319 205 205 205
-0.03953827 -0.03695415 0.476527 205 205 205
-0.03860819 -0.03806809 0.4795432 205 205 205
-0.0274498 -0.04475425 0.4941385 205 205 205
0.1679288 -0.0626161 0.4653302 205 205 205
0.1696985 -0.06155296 0.4615578 205 205 205
0.1698527 -0.05561356 0.4429858 205 205 205
0.1681017 -0.04871812 0.421984 205 205 205
0.1677438 -0.04536901 0.4117171 205 205 205
0.1681298 -0.04465892 0.4094487 205 205 205
0.1722987 -0.04188892 0.4001181 205 205 205
0.152434 -0.01467442 0.3212411 205 205 205
0.1551581 -0.0150168 0.3218803 205 205 205
0.1639767 -0.01626384 0.3244286 205 205 205
0.1698154 -0.01756957 0.3275737 205 205 205
-0.04560485 -0.03266992 0.4617752 205 205 205
-0.04083531 -0.03748189 0.4740446 205 205 205
-0.0327904 -0.04327759 0.4874739 205 205 205
-0.03131282 -0.04361244 0.4876072 205 205 205
0.1688504 -0.06372276 0.4634207 205 205 205
0.1710317 -0.05928572 0.4492029 205 205 205
0.1687033 -0.0516894 0.4264375 205 205 205
0.1691802 -0.05097641 0.424152 205 205 205
0.1688281 -0.04964039 0.4201497 205 205 205
0.1754192 -0.04352383 0.4002625 205 205 205
0.1737047 -0.0405223 0.3915545 205 205 205
0.1577043 -0.02732253 0.3548569 205 205 205
0.1487998 -0.01865479 0.3305094 205 205 205
0.1495213 -0.01710662 0.3257944 205 205 205
0.1521318 -0.01675544 0.3243535 205 205 205
0.1538631 -0.0165113 0.3233779 205 205 205
0.163026 -0.01737301 0.3246497 205 205 205
0.164426 -0.01752667 0.3249194 205 205 205
0.1706157 -0.01840339 0.3267142 205 205 205
-0.04855581 -0.03330491 0.460988 205 205 205
-0.04381931 -0.03573408 0.4655222 205 205 205
-0.04014476 -0.03999864 0.4766362 205 205 205
-0.03196883 -0.04585697 0.4900251 205 205 205
0.1682972 -0.06354937 0.4580066 205 205 205
0.168348 -0.05509882 0.4323124 205 205 205
0.1680753 -0.05375103 0.4282968 205 205 205
0.1687149 -0.04784331 0.4103493 205 205 205
0.1703046 -0.04701209 0.4075225 205 205 205
0.1734895 -0.04637368 0.4049664 205 205 205
0.1758848 -0.04614323 0.4038084 205 205 205
0.1757451 -0.04509112 0.4007033 205 205 205
0.171547 -0.03945301 0.3847481 205 205 205
0.1501812 -0.02126691 0.3348048 205 205 205
0.1491241 -0.01920038 0.3289051 205 205 205
0.1495274 -0.01878112 0.3276079 205 205 205
0.1494361 -0.01805454 0.3254929 205 205 205
0.1524149 -0.01727664 0.3227549 205 205 205
0.1532767 -0.01715369 0.3222677 205 205 205
0.1624171 -0.0180386 0.3235468 205 205 205
0.1638138 -0.01819611 0.3238175 205 205 205
0.1699904 -0.01909188 0.325615 205 205 205
0.1708671 -0.01893601 0.325065 205 205 205
-0.04876894 -0.03463595 0.4605785 205 205 205
-0.04720133 -0.03472637 0.459827 205 205 205
-0.0423318 -0.03936413 0.4711355 205 205 205
-0.0383156 -0.04342226 0.4812661 205 205 205
-0.0347115 -0.04580335 0.4864558 205 205 205
0.1677791 -0.06468789 0.4566648 205 205 205
0.1703596 -0.06182412 0.4474235 205 205 205
0.1694271 -0.05982451 0.4416514 205 205 205
0.1689922 -0.05710073 0.4336006 205 205 205
0.168604 -0.05017811 0.4130548 205 205 205
0.1685881 -0.0491266 0.4099365 205 205 205
0.1718154 -0.04849718 0.4073934 205 205 205
0.1778463 -0.04792266 0.4044922 205 205 205
0.1785983 -0.0474853 0.4030626 205 205 205
0.1621229 -0.03257921 0.3624761 205 205 205
0.1533954 -0.02516529 0.3424053 205 205 205
0.1559305 -0.01845531 0.322589 205 205 205
0.156794 -0.01832502 0.3220891 205 205 205
0.1665383 -0.01947225 0.3240245 205 205 205
-0.04481058 -0.03923135 0.4675212 205 205 205
-0.04166399 -0.04189027 0.4737142 205 205 205
-0.03609649 -0.04633981 0.4839678 205 205 205
0.1672603 -0.06581683 0.4553198 205 205 205
0.1690359 -0.06606898 0.4556246 205 205 205
0.1707198 -0.06494446 0.4518709 205 205 205
0.1690823 -0.05984759 0.4371716 205 205 205
0.1685902 -0.0570913 0.429146 205 205 205
0.1749551 -0.0443775 0.3906334 205 205 205
0.1518849 -0.02448881 0.3374626 205 205 205
0.1514989 -0.0200247 0.3247342 205 205 205
0.1523718 -0.01990414 0.3242493 205 205 205
0.1532429 -0.01978158 0.3237614 205 205 205
0.1631171 -0.01981565 0.3224007 205 205 205
0.1645153 -0.01997715 0.3226642 205 205 205
0.1659183 -0.02013547 0.3229207 205 205 205
0.1692804 -0.02074724 0.3241954 205 205 205
-0.04276647 -0.04210089 0.4702732 205 205 205
-0.03730248 -0.04658136 0.4805288 205 205 205
-0.03631923 -0.04775842 0.4835166 205 205 205
-0.0350038 -0.04837912 0.484606 205 205 205
-0.03278719 -0.05046071 0.4896162 205 205 205
0.1692509 -0.0678476 0.4560164 205 205 205
0.1700628 -0.06466652 0.4464927 205 205 205
0.1699029 -0.0632756 0.4424628 205 205 205
0.1682984 -0.05490775 0.4184453 205 205 205
0.1691668 -0.05341198 0.4139101 205 205 205
0.1695767 -0.05266162 0.4116456 205 205 205
0.171193 -0.05180433 0.4088167 205 205 205
0.1714067 -0.04226527 0.3813561 205 205 205
0.1596885 -0.03241856 0.3554446 205 205 205
0.1506289 -0.02184162 0.3270115 205 205 205
0.1535232 -0.02028784 0.322152 205 205 205
0.158865 -0.02025994 0.3212547 205 205 205
0.1630318 -0.02077312 0.3220837 205 205 205
-0.04421298 -0.04284084 0.4687186 205 205 205
-0.04102263 -0.04555023 0.4748855 205 205 205
-0.03622528 -0.04861056 0.4811675 205 205 205
-0.03507243 -0.04951685 0.4832011 205 205 205
0.1701374 -0.06500916 0.4428568 205 205 205
0.1685661 -0.0612023 0.4322479 205 205 205
0.1681035 -0.0573022 0.4211297 205 205 205
0.1690141 -0.05579386 0.4165922 205 205 205
0.1763705 -0.05296127 0.4069181 205 205 205
0.1775866 -0.05284153 0.4063288 205 205 205
0.1795657 -0.05226833 0.4043045 205 205 205
0.1722052 -0.0440948 0.3826169 205 205 205
0.157313 -0.03110825 0.3488067 205 205 205
0.1530943 -0.02668139 0.3371326 205 205 205
0.1520589 -0.02451776 0.3312491 205 205 205
0.151813 -0.02223673 0.324914 205 205 205
0.153067 -0.02167226 0.3231315 205 205 205
0.1543002 -0.02110161 0.3213448 205 205 205
0.1555127 -0.02052486 0.319554 205 205 205
0.1596408 -0.02106811 0.3204269 205 205 205
0.167693 -0.02253631 0.3233082 205 205 205
-0.04647559 -0.04238285 0.4641534 205 205 205
-0.0417878 -0.04517703 0.4695557 205 205 205
-0.03870357 -0.04819149 0.4766346 205 205 205
-0.03514037 -0.05064514 0.4817929 205 205 205
-0.03397588 -0.05155914 0.4838197 205 205 205
-0.03217455 -0.05454624 0.4916467 205 205 205
0.1693537 -0.07391355 0.4640057 205 205 205
0.1712762 -0.06883889 0.4489914 205 205 205
0.1703697 -0.06674807 0.443243 205 205 205
0.1678803 -0.05971633 0.4238067 205 205 205
0.1786752 -0.05098739 0.3968675 205 205 205
0.1586121 -0.03313037 0.350918 205 205 205
0.1534715 -0.02800065 0.3376134 205 205 205
0.1519649 -0.02548834 0.3309197 205 205 205
0.1523838 -0.02504517 0.3296186 205 205 205
0.1533464 -0.0221676 0.3215177 205 205 205
0.1559367 -0.02178001 0.3200338 205 205 205
0.1661941 -0.02333995 0.3227352 205 205 205
0.167067 -0.02318797 0.3221981 205 205 205
0.1684793 -0.02334963 0.3224371 205 205 205
-0.04305679 -0.04562279 0.4670563 205 205 205
-0.03892503 -0.04958067 0.4761744 205 205 205
-0.03780605 -0.05050128 0.4782099 205 205 205
0.1703686 -0.05974914 0.4190994 205 205 205
0.1724987 -0.05809515 0.4139939 205 205 205
0.1729048 -0.05731634 0.4117304 205 205 205
0.1732946 -0.05653593 0.4094692 205 205 205
0.1740967 -0.05608856 0.4080499 205 205 205
0.1589742 -0.03451207 0.3513771 205 205 205
0.1518697 -0.02645748 0.3305866 205 205 205
0.152612 -0.02478503 0.3258819 205 205 205
0.1525082 -0.02400798 0.3237806 205 205 205
0.15687 -0.02336537 0.3213035 205 205 205
0.1675161 -0.02447075 0.3226468 205 205 205
-0.05026122 -0.04286277 0.4589476 205 205 205
-0.0494917 -0.04406788 0.4619521 205 205 205
-0.04532568 -0.04512969 0.4625014 205 205 205
-0.03914694 -0.05096781 0.4757088 205 205 205
-0.03411892 -0.05380153 0.4809875 205 205 205
-0.03190501 -0.055956 0.4859606 205 205 205
0.1717208 -0.07237787 0.4497278 205 205 205
0.168956 -0.06116462 0.4192096 205 205 205
0.1759759 -0.05679846 0.4056009 205 205 205
0.1793268 -0.05415225 0.3976579 205 205 205
0.1638945 -0.04003226 0.3621955 205 205 205
0.1522536 -0.02775746 0.3310616 205 205 205
0.1526775 -0.0273058 0.3297613 205 205 205
0.1542865 -0.02548752 0.3245672 205 205 205
0.1651391 -0.02541561 0.3226027 205 205 205
0.1693824 -0.02592625 0.3233221 205 205 205
-0.04712755 -0.04640037 0.4628083 205 205 205
-0.04573365 -0.04675321 0.4629865 205 205 205
-0.0426243 -0.0495487 0.4691271 205 205 205
-0.0415555 -0.05048251 0.4711674 205 205 205
-0.01047988 -0.06492965 0.4952344 205 205 205
0.1728361 -0.0777791 0.459859 205 205 205
0.168637 -0.06473619 0.4249769 205 205 205
0.1691362 -0.06395281 0.4227093 205 205 205
0.1696191 -0.06316759 0.4204437 205 205 205
0.1734717 -0.06058586 0.412507 205 205 205
0.1798035 -0.0568925 0.4011186 205 205 205
0.1796494 -0.05574282 0.3980422 205 205 205
0.1566872 -0.02524889 0.3206435 205 205 205
0.1617177 -0.0256836 0.3209661 205 205 205
0.1650472 -0.02637621 0.322264 205 205 205
0.1698311 -0.02722322 0.3237552 205 205 205
0.1737835 -0.02820334 0.3257354 205 205 205
-0.04511999 -0.04932149 0.4655114 205 205 205
-0.04069246 -0.05279216 0.4727306 205 205 205
-0.03959208 -0.05373557 0.4747611 205 205 205
-0.03395144 -0.05540187 0.4762614 205 205 205
-0.03279677 -0.05634277 0.4782709 205 205 205
-0.02565701 -0.06230762 0.4911865 205 205 205
-0.01969079 -0.06391001 0.4924771 205 205 205
-0.01521296 -0.06516302 0.4936256 205 205 205
-0.009168491 -0.06669321 0.494768 205 205 205
0.1714017 -0.07523872 0.4487168 205 205 205
0.1708952 -0.07340673 0.4438525 205 205 205
0.1693801 -0.06939177 0.4333024 205 205 205
0.1698766 -0.06483558 0.4208206 205 205 205
0.1741561 -0.06142413 0.410626 205 205 205
0.1773622 -0.05956954 0.4049402 205 205 205
0.1793551 -0.05897347 0.4029197 205 205 205
0.1787737 -0.05746988 0.3990175 205 205 205
0.1553561 -0.0267901 0.3221033 205 205 205
0.1598785 -0.02691759 0.3216619 205 205 205
0.1612729 -0.0271098 0.3219323 205 205 205
0.1654843 -0.02766728 0.3227018 205 205 205
0.1688521 -0.02835363 0.3239558 205 205 205
0.1742361 -0.02951844 0.3261533 205 205 205
-0.04324636 -0.05256448 0.4691225 205 205 205
-0.03562818 -0.05645029 0.4756444 205 205 205
-0.03417392 -0.05678859 0.4757766 205 205 205
-0.02537428 -0.0625059 0.486914 205 205 205
-0.0180665 -0.06473048 0.4892135 205 205 205
-0.01218895 -0.06659552 0.4913369 205 205 205
0.1705782 -0.07331622 0.4393517 205 205 205
0.1731901 -0.06317692 0.4115787 205 205 205
0.1744388 -0.06306419 0.4109967 205 205 205
0.1748316 -0.06225014 0.408742 205 205 205
0.1755686 -0.06061772 0.4042403 205 205 205
0.1772251 -0.0608439 0.4044806 205 205 205
0.156252 -0.03618134 0.3436769 205 205 205
0.1538305 -0.03122707 0.3311474 205 205 205
0.1541878 -0.02995152 0.3277439 205 205 205
0.154993 -0.0290142 0.3251491 205 205 205
0.1557637 -0.02807244 0.3225575 205 205 205
0.1575193 -0.02780432 0.3215509 205 205 205
0.1603003 -0.02820364 0.3221062 205 205 205
-0.05250379 -0.04777167 0.4569305 205 205 205
-0.05036499 -0.0493842 0.4601134 205 205 205
-0.04555959 -0.0520094 0.4645683 205 205 205
-0.03969853 -0.05588306 0.4719179 205 205 205
-0.03585144 -0.0578342 0.4751545 205 205 205
-0.02683959 -0.06297722 0.4844286 205 205 205
-0.02547271 -0.06361897 0.4854669 205 205 205
-0.02247194 -0.06426454 0.4856474 205 205 205
-0.01958103 -0.06521691 0.4867478 205 205 205
-0.01667178 -0.06616063 0.4878278 205 205 205
0.1709516 -0.07122564 0.4294674 205 205 205
0.1708662 -0.06737642 0.4192913 205 205 205
0.1717796 -0.06574947 0.4147768 205 205 205
0.1759284 -0.06341641 0.4076862 205 205 205
0.1588955 -0.04011083 0.3503188 205 205 205
0.154728 -0.03370902 0.3345119 205 205 205
0.1554805 -0.03113006 0.3276946 205 205 205
0.1566721 -0.02970412 0.3237989 205 205 205
0.1579326 -0.02909064 0.3219953 205 205 205
0.1607202 -0.02949539 0.3225442 205 205 205
0.1654637 -0.03041848 0.3240951 205 205 205
0.1668822 -0.03060583 0.3243363 205 205 205
0.1683054 -0.03078992 0.3245703 205 205 205
0.1726023 -0.03132222 0.3252299 205 205 205
-0.04455721 -0.05400858 0.4651907 205 205 205
-0.03736586 -0.05856234 0.4735863 205 205 205
-0.03005482 -0.06373288 0.4837081 205 205 205
-0.02883416 -0.06470032 0.4856931 205 205 205
-0.02719895 -0.06471372 0.4848577 205 205 205
-0.02595745 -0.06567951 0.4868335 205 205 205
-0.02432431 -0.06568614 0.4859873 205 205 205
-0.02281936 -0.06600885 0.4860748 205 205 205
-0.01818975 -0.06663606 0.4853655 205 205 205
0.1715523 -0.07870556 0.4448719 205 205 205
0.1706359 -0.06987087 0.4219055 205 205 205
0.17416 -0.06683119 0.4131352 205 205 205
0.1786643 -0.0603882 0.3954081 205 205 205
0.1597118 -0.04186414 0.3515561 205 205 205
0.1565296 -0.03774819 0.3416106 205 205 205
0.1560661 -0.03657166 0.3386804 205 205 205
0.1611382 -0.03079285 0.3229761 205 205 205
0.1625426 -0.03099315 0.3232369 205 205 205
0.1639517 -0.03119025 0.3234909 205 205 205
0.1687397 -0.03210427 0.3249848 205 205 205
0.169635 -0.03194594 0.3244364 205 205 205
0.1730465 -0.03264438 0.3256347 205 205 205
-0.05336608 -0.05099801 0.4578468 205 205 205
-0.05100922 -0.05233413 0.4600924 205 205 205
-0.04459174 -0.05504205 0.4637716 205 205 205
-0.04354716 -0.05601312 0.4658002 205 205 205
-0.04123422 -0.05764603 0.4689136 205 205 205
-0.03870395 -0.05896488 0.4710769 205 205 205
-0.03399754 -0.06254256 0.4781589 205 205 205
-0.02618593 -0.06710698 0.486314 205 205 205
-0.014394 -0.0706269 0.489724 205 205 205
-0.01179792 -0.07288746 0.4945165 205 205 205
0.1700985 -0.07748278 0.4378151 205 205 205
0.1707744 -0.07274714 0.4253546 205 205 205
0.170971 -0.07037095 0.4191538 205 205 205
0.1748516 -0.06765507 0.4112312 205 205 205
0.1772415 -0.06501376 0.403898 205 205 205
0.1788034 -0.06404091 0.4010587 205 205 205
0.1782303 -0.06247735 0.3971783 205 205 205
0.1559513 -0.03674078 0.3361909 205 205 205
0.1643745 -0.03249869 0.32391 205 205 205
0.1724049 -0.03328384 0.3244997 205 205 205
-0.04724066 -0.05504636 0.4610806 205 205 205
-0.0437689 -0.05735792 0.4653065 205 205 205
-0.03437685 -0.06425644 0.4785811 205 205 205
-0.03304956 -0.06491769 0.479638 205 205 205
-0.0306524 -0.06688404 0.4836089 205 205 205
-0.02026047 -0.06949522 0.4851891 205 205 205
-0.01724359 -0.07012199 0.4853256 205 205 205
-0.01462191 -0.07206731 0.4891921 205 205 205
0.1721061 -0.07158248 0.4180787 205 205 205
0.1771673 -0.06749701 0.4064858 205 205 205
0.1779699 -0.06700896 0.4050652 205 205 205
0.1774897 -0.0621459 0.3928417 205 205 205
0.1727786 -0.05732039 0.3816515 205 205 205
0.1581917 -0.04120846 0.3440728 205 205 205
0.157271 -0.03964937 0.3403394 205 205 205
0.1567543 -0.03676514 0.3332018 205 205 205
0.1593811 -0.0346767 0.3274692 205 205 205
0.1597835 -0.03418417 0.3261651 205 205 205
0.1653169 -0.03416397 0.3251003 205 205 205
0.1733874 -0.03495765 0.3256597 205 205 205
-0.05242237 -0.05399137 0.4570732 205 205 205
-0.0474613 -0.05637272 0.4605881 205 205 205
-0.04484609 -0.05739744 0.4618552 205 205 205
-0.04168044 -0.06035741 0.4679115 205 205 205
-0.03915133 -0.06169307 0.4700681 205 205 205
-0.02965974 -0.06928961 0.4850582 205 205 205
-0.02801797 -0.06929477 0.484226 205 205 205
-0.02374866 -0.07093979 0.4863721 205 205 205
-0.02211494 -0.07093053 0.485518 205 205 205
-0.01505061 -0.07417789 0.4905275 205 205 205
0.1710534 -0.08293618 0.4432746 205 205 205
0.170575 -0.07421331 0.4212432 205 205 205
0.1749681 -0.07182653 0.4141563 205 205 205
0.1758191 -0.07134227 0.4127357 205 205 205
0.176236 -0.07048834 0.4104869 205 205 205
0.1782598 -0.06865021 0.4053997 205 205 205
0.1612173 -0.04647428 0.3535946 205 205 205
0.1585484 -0.04259542 0.3444853 205 205 205
0.1571653 -0.03980947 0.3378385 205 205 205
0.1580646 -0.03797847 0.3331119 205 205 205
0.1585059 -0.03748611 0.3318045 205 205 205
0.1593625 -0.03649779 0.3291918 205 205 205
0.1606886 -0.03586236 0.3273679 205 205 205
0.1634098 -0.03543086 0.3257939 205 205 205
0.1714717 -0.036272 0.326404 205 205 205
0.1729172 -0.03645979 0.3266109 205 205 205
-0.04768228 -0.05769691 0.4600903 205 205 205
-0.04172717 -0.06138692 0.4664727 205 205 205
-0.03320448 -0.06705371 0.476726 205 205 205
-0.03096876 -0.06937855 0.4816164 205 205 205
-0.02549254 -0.07203839 0.485747 205 205 205
-0.02094817 -0.07300913 0.4859907 205 205 205
-0.01965611 -0.07400171 0.4879305 205 205 205
0.1703689 -0.08237789 0.4379213 205 205 205
0.1694303 -0.08003911 0.4322781 205 205 205
0.1703028 -0.07675806 0.4238217 205 205 205
0.1789113 -0.06942802 0.4034858 205 205 205
0.1767618 -0.06423483 0.3910818 205 205 205
0.159317 -0.04521228 0.3478228 205 205 205
0.1575047 -0.03945848 0.3340367 205 205 205
0.1579072 -0.03810389 0.3306322 205 205 205
0.1606729 -0.03769426 0.3290839 205 205 205
-0.05168557 -0.0572945 0.4571969 205 205 205
-0.04910374 -0.0583386 0.4584862 205 205 205
-0.03943039 -0.06408392 0.4681085 205 205 205
-0.03428644 -0.0667726 0.4723539 205 205 205
-0.03312993 -0.06777473 0.474335 205 205 205
-0.03195725 -0.06877747 0.4763121 205 205 205
-0.024209 -0.07378776 0.4852895 205 205 205
-0.02269387 -0.07411195 0.4853704 205 205 205
-0.01736119 -0.0777771 0.4921757 205 205 205
0.1700349 -0.08215746 0.4334297 205 205 205
0.1733385 -0.07578512 0.416806 205 205 205
0.1755145 -0.07393924 0.4117252 205 205 205
0.1771922 -0.07294799 0.4088873 205 205 205
0.1783985 -0.07157432 0.4052265 205 205 205
0.1605134 -0.04822863 0.3519615 205 205 205
0.1573937 -0.04044565 0.3336499 205 205 205
0.1601414 -0.03917373 0.330008 205 205 205
0.1699656 -0.03892062 0.327516 205 205 205
-0.05329641 -0.05823874 0.4565037 205 205 205
-0.05169848 -0.05828287 0.4557691 205 205 205
-0.05072077 -0.05929217 0.4578003 205 205 205
-0.04730355 -0.06167447 0.4620249 205 205 205
-0.04607887 -0.06235909 0.4631169 205 205 205
-0.03965494 -0.06543643 0.4675865 205 205 205
-0.0333566 -0.06915168 0.473803 205 205 205
-0.02979269 -0.07218476 0.4797128 205 205 205
-0.02057128 -0.07824133 0.4905565 205 205 205
0.1719348 -0.08705374 0.4410445 205 205 205
0.1706362 -0.08428798 0.4345703 205 205 205
0.1702304 -0.08104408 0.4266984 205 205 205
0.1716947 -0.07969896 0.4230307 205 205 205
0.1727019 -0.07796533 0.4185331 205 205 205
0.1735903 -0.07747541 0.4171169 205 205 205
0.1774348 -0.07335466 0.4061393 205 205 205
0.1781764 -0.0715892 0.4016701 205 205 205
0.1789641 -0.07108097 0.4002542 205 205 205
0.1731418 -0.06278785 0.3814336 205 205 205
0.1572896 -0.04405072 0.3395686 205 205 205
0.1572999 -0.04230473 0.3353582 205 205 205
0.1600915 -0.0410281 0.3317135 205 205 205
0.1623808 -0.04023671 0.3293577 205 205 205
0.1674989 -0.03985555 0.3274537 205 205 205
0.1703843 -0.04026911 0.3278936 205 205 205
0.1718339 -0.04047081 0.3281029 205 205 205
-0.05094274 -0.06060478 0.4572889 205 205 205
-0.04954683 -0.06096738 0.4574679 205 205 205
-0.04733324 -0.06267346 0.4605829 205 205 205
-0.04630281 -0.06369199 0.4625971 205 205 205
-0.04204148 -0.06475234 0.4630661 205 205 205
-0.04079383 -0.06543463 0.4641384 205 205 205
-0.03358368 -0.0705263 0.4732655 205 205 205
-0.02756741 -0.07562235 0.4830787 205 205 205
-0.02376364 -0.0786846 0.488915 205 205 205
-0.02234567 -0.07935841 0.4899212 205 205 205
0.1712384 -0.08354075 0.4286698 205 205 205
0.1738985 -0.07790831 0.4143496 205 205 205
0.1584929 -0.04794806 0.3457886 205 205 205
0.1581331 -0.04316483 0.3344484 205 205 205
0.1590441 -0.04214773 0.3318379 205 205 205
0.1642063 -0.04181211 0.3299934 205 205 205
0.1655487 -0.04114236 0.3281442 205 205 205
0.1688296 -0.04104674 0.3272832 205 205 205
0.1750207 -0.04132251 0.3267708 205 205 205
0.1759387 -0.04114977 0.326198 205 205 205
-0.04226495 -0.0660848 0.4625398 205 205 205
-0.02903413 -0.07600532 0.4805688 205 205 205
-0.02448693 -0.08151945 0.4920613 205 205 205
0.1763157 -0.07769702 0.409579 205 205 205
0.1580269 -0.04504362 0.3361441 205 205 205
0.1580177 -0.04415403 0.3340475 205 205 205
0.1594191 -0.0435066 0.3322266 205 205 205
0.1608502 -0.04374581 0.3324911 205 205 205
0.1627288 -0.04346244 0.3314378 205 205 205
0.165532 -0.04302053 0.3298342 205 205 205
0.1673907 -0.04271468 0.3287496 205 205 205
0.1716131 -0.04244714 0.3273061 205 205 205
-0.05491661 -0.06112229 0.4529314 205 205 205
-0.04675177 -0.06635087 0.4615415 205 205 205
-0.04248888 -0.06741492 0.4620082 205 205 205
-0.03889069 -0.06982709 0.4661255 205 205 205
-0.03777882 -0.07085985 0.468106 205 205 205
-0.03519214 -0.07223534 0.4702058 205 205 205
-0.03257114 -0.07360625 0.4722875 205 205 205
0.1739241 -0.08218549 0.4171775 205 205 205
0.1757352 -0.07859589 0.4082332 205 205 205
0.171595 -0.0642617 0.3754058 205 205 205
0.1592423 -0.04987933 0.3444302 205 205 205
0.1579015 -0.0469353 0.3378341 205 205 205
0.1579092 -0.04603858 0.3357364 205 205 205
0.1588477 -0.04500728 0.3331274 205 205 205
0.1612265 -0.04511276 0.33287 205 205 205
0.1621705 -0.04497134 0.3323431 205 205 205
0.169651 -0.04375843 0.3280152 205 205 205
0.1747986 -0.04329984 0.3259646 205 205 205
-0.05237373 -0.06315234 0.4527871 205 205 205
-0.04271316 -0.06874269 0.4614713 205 205 205
-0.03162254 -0.07601438 0.47369 205 205 205
0.1813532 -0.09995436 0.453426 205 205 205
0.1738271 -0.08220163 0.413576 205 205 205
0.1809116 -0.07713591 0.4000283 205 205 205
0.1799124 -0.07504553 0.3953893 205 205 205
0.1609077 -0.05336189 0.3493031 205 205 205
0.1600533 -0.05168085 0.3455943 205 205 205
0.1587458 -0.04780407 0.3369032 205 205 205
0.1596994 -0.04676295 0.33429 205 205 205
0.1606511 -0.04662517 0.3337677 205 205 205
0.1676782 -0.04506057 0.3287075 205 205 205
0.1686086 -0.04490292 0.3281589 205 205 205
0.1705805 -0.04550156 0.3291354 205 205 205
0.1729728 -0.04555069 0.3287746 205 205 205
0.1753699 -0.04558833 0.3283932 205 205 205
-0.05514167 -0.0633685 0.4509677 205 205 205
-0.05141868 -0.06515041 0.4533573 205 205 205
-0.03823294 -0.07356034 0.4670067 205 205 205
-0.03694456 -0.0742569 0.4680552 205 205 205
-0.03580593 -0.07530556 0.4700214 205 205 205
0.1748302 -0.09031641 0.4285885 205 205 205
0.1745845 -0.08861338 0.424687 205 205 205
0.1766793 -0.08234663 0.4096144 205 205 205
0.1766796 -0.0810331 0.4065713 205 205 205
0.1782757 -0.07378601 0.3894498 205 205 205
0.1608613 -0.05349478 0.3467486 205 205 205
0.1629245 -0.0477195 0.3330774 205 205 205
0.174852 -0.04713647 0.3293049 205 205 205
0.1781976 -0.04699147 0.3283236 205 205 205
-0.05580262 -0.06533646 0.4522649 205 205 205
-0.04704164 -0.06962479 0.4580839 205 205 205
-0.04083659 -0.07314928 0.4634233 205 205 205
-0.03717255 -0.07560766 0.4674958 205 205 205
-0.03222954 -0.07911778 0.4734805 205 205 205
-0.0300924 -0.08627109 0.4894511 205 205 205
0.1776146 -0.0962051 0.437709 205 205 205
0.1747281 -0.0859995 0.4149421 205 205 205
0.1769245 -0.08138388 0.4038095 205 205 205
0.178124 -0.07500318 0.3889348 205 205 205
0.1681906 -0.06402457 0.3662098 205 205 205
0.1607334 -0.05453174 0.3463098 205 205 205
0.1594314 -0.0515069 0.3397312 205 205 205
0.1651438 -0.04787698 0.3302771 205 205 205
0.1670227 -0.04757023 0.329192 205 205 205
0.1708678 -0.04786586 0.3290634 205 205 205
0.1737949 -0.04830441 0.3294534 205 205 205
0.1752652 -0.04851841 0.3296376 205 205 205
0.1771442 -0.04816915 0.3284824 205 205 205
-0.0522815 -0.06843207 0.4541109 205 205 205
-0.05088417 -0.06879847 0.4542876 205 205 205
-0.04968699 -0.06951202 0.4553742 205 205 205
-0.04585327 -0.07129463 0.4576936 205 205 205
-0.03868864 -0.07625116 0.4658861 205 205 205
-0.03246054 -0.08048963 0.4729052 205 205 205
0.1801763 -0.1004392 0.4428934 205 205 205
0.1749695 -0.08770871 0.4152021 205 205 205
0.17549 -0.08544785 0.4099307 205 205 205
0.1763548 -0.08358489 0.4054863 205 205 205
0.1767626 -0.08265106 0.4032677 205 205 205
0.1788681 -0.07701893 0.3900132 205 205 205
0.1755453 -0.07287595 0.3814363 205 205 205
0.1654705 -0.0618133 0.3588215 205 205 205
0.1616114 -0.05543331 0.3453373 205 205 205
0.161754 -0.05170873 0.3369385 205 205 205
0.166979 -0.04949342 0.3308498 205 205 205
0.1679244 -0.0493374 0.330302 205 205 205
0.1693817 -0.04957017 0.3305146 205 205 205
0.1756763 -0.0499056 0.3299635 205 205 205
0.1766206 -0.04973105 0.3293857 205 205 205
-0.05508022 -0.06863648 0.4522842 205 205 205
-0.04970951 -0.07045964 0.4539107 205 205 205
-0.04002423 -0.07652181 0.4633538 205 205 205
-0.03236809 -0.08513493 0.4797768 205 205 205
-0.03170005 -0.08768536 0.4853897 205 205 205
0.181947 -0.1039017 0.4464028 205 205 205
0.1752591 -0.09385432 0.4254345 205 205 205
0.1761848 -0.08620402 0.4079654 205 205 205
0.1799174 -0.08310913 0.4001044 205 205 205
0.1762981 -0.07486682 0.382516 205 205 205
0.1710946 -0.06908028 0.3708068 205 205 205
0.1621117 -0.05311099 0.3372842 205 205 205
0.1625989 -0.0525698 0.3359737 205 205 205
0.1654595 -0.0511857 0.3322775 205 205 205
0.1678032 -0.0503265 0.3298741 205 205 205
0.1692603 -0.05056239 0.3300853 205 205 205
-0.05669491 -0.06955058 0.4515434 205 205 205
-0.05294038 -0.0713773 0.4539211 205 205 205
-0.0416939 -0.07750282 0.4626487 205 205 205
-0.03264795 -0.09096117 0.4893693 205 205 205
0.177674 -0.09943744 0.4336548 205 205 205
0.1750811 -0.09519809 0.424848 205 205 205
0.1760171 -0.08748505 0.4074061 205 205 205
0.1785079 -0.08450373 0.4001621 205 205 205
0.1801173 -0.08341047 0.3973451 205 205 205
0.1798989 -0.08067874 0.3913419 205 205 205
0.1644111 -0.06222634 0.3541726 205 205 205
0.1619671 -0.05506271 0.3389341 205 205 205
0.167171 -0.05091508 0.3286801 205 205 205
0.171546 -0.0516234 0.3292944 205 205 205
0.1730136 -0.05185254 0.3294849 205 205 205
0.1749031 -0.05150993 0.3283434 205 205 205
0.1773203 -0.05155193 0.3279358 205 205 205
0.1782608 -0.05137186 0.3273521 205 205 205
-0.05647576 -0.07012584 0.4491721 205 205 205
-0.053923 -0.07122779 0.4504537 205 205 205
-0.04318301 -0.07811098 0.4610213 205 205 205
-0.04048039 -0.07918258 0.462208 205 205 205
-0.03954415 -0.08063789 0.4650791 205 205 205
-0.03509955 -0.08536614 0.4737862 205 205 205
-0.03371768 -0.09016958 0.4840687 205 205 205
0.1758153 -0.09013162 0.409867 205 205 205
0.162831 -0.05497507 0.3358697 205 205 205
0.1666667 -0.05341794 0.3316284 205 205 205
0.168066 -0.05270136 0.3297682 205 205 205
0.1786773 -0.05276423 0.3276551 205 205 205
-0.05575411 -0.07249667 0.4506168 205 205 205
-0.04447822 -0.07833871 0.4584771 205 205 205
-0.04341144 -0.07943296 0.4604427 205 205 205
-0.03960485 -0.08160312 0.4635809 205 205 205
0.1798837 -0.1033331 0.4342704 205 205 205
0.1802966 -0.08770683 0.4000381 205 205 205
0.1827057 -0.08603012 0.3958045 205 205 205
0.1634227 -0.06161216 0.3474382 205 205 205
0.1627021 -0.05597538 0.3354233 205 205 205
0.1670422 -0.05481609 0.3319492 205 205 205
0.17035 -0.05376957 0.3289754 205 205 205
0.1785528 -0.05376136 0.3272099 205 205 205
-0.05458722 -0.07415271 0.4502348 205 205 205
-0.05060802 -0.07562579 0.4516649 205 205 205
-0.04940795 -0.07635807 0.4527375 205 205 205
-0.04575549 -0.07854968 0.4559311 205 205 205
-0.04093802 -0.08183333 0.4610411 205 205 205
-0.03983489 -0.08293482 0.4629914 205 205 205
0.1784837 -0.09147432 0.4052964 205 205 205
0.179306 -0.08952296 0.4008794 205 205 205
0.1821882 -0.08825944 0.397446 205 205 205
0.1668635 -0.05483202 0.3294323 205 205 205
0.1687622 -0.05451246 0.3283313 205 205 205
0.1765354 -0.0551183 0.3279284 205 205 205
0.1780174 -0.05534305 0.328088 205 205 205
-0.04720839 -0.07911771 0.4542906 205 205 205
-0.04598262 -0.07985141 0.455349 205 205 205
-0.04350505 -0.0813159 0.4574534 205 205 205
-0.04225327 -0.08204662 0.4584992 205 205 205
-0.0378266 -0.09445359 0.4838036 205 205 205
0.1793376 -0.09963985 0.419212 205 205 205
0.1787038 -0.09035879 0.3995097 205 205 205
0.1721278 -0.07404594 0.3663461 205 205 205
0.1653664 -0.05850563 0.3349768 205 205 205
0.1653537 -0.05752338 0.3329033 205 205 205
0.1710436 -0.05557653 0.3275206 205 205 205
0.1725107 -0.05581797 0.3277056 205 205 205
0.177355 -0.05593227 0.3268935 205 205 205
0.1788379 -0.05615703 0.3270466 205 205 205
-0.05782181 -0.07595662 0.4487151 205 205 205
-0.04497606 -0.08188748 0.4558141 205 205 205
-0.03951377 -0.08747566 0.4655521 205 205 205
0.1806575 -0.1040961 0.4248613 205 205 205
0.1789859 -0.09345715 0.4027252 205 205 205
0.1797878 -0.09147231 0.3983237 205 205 205
0.1828643 -0.08775963 0.3897222 205 205 205
0.1808908 -0.08463831 0.3836217 205 205 205
0.1649717 -0.06543665 0.3470262 205 205 205
0.1662142 -0.0603442 0.3360446 205 205 205
0.1667034 -0.05977197 0.334733 205 205 205
0.1685716 -0.05747017 0.329493 205 205 205
0.1694527 -0.05631188 0.3268772 205 205 205
0.172805 -0.05621893 0.3259387 205 205 205
0.1768098 -0.0575166 0.3277592 205 205 205
-0.05709919 -0.07835689 0.4501234 205 205 205
-0.05569902 -0.07873499 0.4503072 205 205 205
-0.04746794 -0.08132477 0.4522109 205 205 205
-0.04069916 -0.08730099 0.4620972 205 205 205
-0.04050036 -0.09846389 0.4860361 205 205 205
0.1788108 -0.0947222 0.4021375 205 205 205
0.1820344 -0.09099866 0.3935303 205 205 205
0.179165 -0.08312098 0.3777759 205 205 205
0.173398 -0.07656963 0.3655081 205 205 205
0.1689221 -0.07130749 0.3556178 205 205 205
0.1655154 -0.06391815 0.3410462 205 205 205
0.1675469 -0.06061769 0.3337168 205 205 205
0.1703502 -0.05812736 0.3279203 205 205 205
0.1731993 -0.05761626 0.3262257 205 205 205
0.1746718 -0.05785732 0.3263955 205 205 205
-0.05592639 -0.08001448 0.4497172 205 205 205
-0.05312212 -0.08076343 0.4500693 205 205 205
-0.0450572 -0.08371419 0.452814 205 205 205
-0.04276029 -0.08558534 0.4558006 205 205 205
0.1857368 -0.1110213 0.4309959 205 205 205
0.1798991 -0.09872796 0.4069227 205 205 205
0.1799146 -0.09728726 0.4039248 205 205 205
0.1799067 -0.09584579 0.4009328 205 205 205
0.181863 -0.09223467 0.3929501 205 205 205
0.1842011 -0.09048005 0.388738 205 205 205
0.1673478 -0.06564444 0.341547 205 205 205
0.1674113 -0.06363134 0.3373886 205 205 205
0.1688587 -0.06087318 0.331384 205 205 205
0.1722034 -0.05978515 0.3283877 205 205 205
-0.05733202 -0.08053128 0.4480415 205 205 205
-0.05173803 -0.08202776 0.4487423 205 205 205
-0.04106191 -0.09345465 0.4682161 205 205 205
0.1867664 -0.1137173 0.4327429 205 205 205
0.1809346 -0.1027754 0.4116989 205 205 205
0.1796995 -0.09565233 0.3973549 205 205 205
0.1804511 -0.09361665 0.3929816 205 205 205
0.1812463 -0.0930325 0.3915822 205 205 205
0.182927 -0.09331666 0.3917448 205 205 205
0.1676285 -0.06811552 0.343907 205 205 205
0.1687588 -0.06491563 0.3371115 205 205 205
0.1692258 -0.06229343 0.3316645 205 205 205
0.170198 -0.06212936 0.3311048 205 205 205
0.1740654 -0.06144917 0.328834 205 205 205
-0.05196495 -0.08330051 0.4481425 205 205 205
-0.04896021 -0.08364271 0.4475641 205 205 205
-0.04551284 -0.08628907 0.451606 205 205 205
-0.0435818 -0.08897322 0.4563825 205 205 205
-0.04280192 -0.1023356 0.4839342 205 205 205
0.1812674 -0.1001255 0.4028869 205 205 205
0.1697807 -0.07234655 0.3493212 205 205 205
0.1685087 -0.06899767 0.3428534 205 205 205
0.1685611 -0.06797502 0.3407734 205 205 205
0.1681092 -0.0665191 0.33794 205 205 205
0.170595 -0.06457995 0.3334379 205 205 205
0.1763768 -0.06251267 0.3279406 205 205 205
-0.05380506 -0.08459023 0.4482663 205 205 205
-0.05219211 -0.08457073 0.4475377 205 205 205
0.1815138 -0.1018382 0.4030601 205 205 205
0.1806408 -0.0994737 0.3985114 205 205 205
0.183813 -0.09561998 0.3899374 205 205 205
0.1845926 -0.09502039 0.3885348 205 205 205
0.1773369 -0.08293432 0.3660433 205 205 205
0.1699677 -0.06721444 0.3363298 205 205 205
0.1704667 -0.0666163 0.3350151 205 205 205
0.1709569 -0.06601687 0.333701 205 205 205
0.1719431 -0.06584968 0.3331339 205 205 205
0.1748297 -0.0642942 0.3293562 205 205 205
0.1763203 -0.06454661 0.3295134 205 205 205
-0.05779081 -0.08394342 0.4453391 205 205 205
-0.05661806 -0.08471464 0.446413 205 205 205
-0.05403326 -0.08586065 0.4476551 205 205 205
-0.04981636 -0.08697011 0.4481418 205 205 205
-0.04421377 -0.09555564 0.4633453 205 205 205
0.1826144 -0.1044507 0.4047949 205 205 205
0.1808578 -0.09968466 0.3957176 205 205 205
0.1819552 -0.09655508 0.3891867 205 205 205
0.1856444 -0.09608036 0.3873081 205 205 205
0.1768926 -0.08257613 0.3626022 205 205 205
0.1772236 -0.06641274 0.3304951 205 205 205
0.1812104 -0.06672101 0.3301781 205 205 205
0.1821872 -0.0665295 0.3295762 205 205 205
-0.05684616 -0.08597779 0.4457993 205 205 205
-0.05024674 -0.08864021 0.4484182 205 205 205
-0.04839522 -0.09138056 0.4531908 205 205 205
-0.04665036 -0.09453285 0.4588466 205 205 205
-0.04490733 -0.1017246 0.4726864 205 205 205
0.1815459 -0.1018269 0.3966648 205 205 205
0.1818686 -0.09927591 0.3915319 205 205 205
0.1859235 -0.09774629 0.3874764 205 205 205
0.1830747 -0.09099313 0.3748643 205 205 205
0.1804899 -0.08725917 0.3681468 205 205 205
0.1732407 -0.07802743 0.3517563 205 205 205
0.1731514 -0.06812439 0.3323202 205 205 205
0.175121 -0.06777492 0.3311667 205 205 205
0.1806167 -0.06835507 0.331008 205 205 205
0.1815994 -0.06816491 0.3304075 205 205 205
-0.04946193 -0.09108653 0.4497311 205 205 205
-0.04757684 -0.09384809 0.4544882 205 205 205
-0.0470733 -0.09625104 0.4590961 205 205 205
0.1865152 -0.09834904 0.3854679 205 205 205
0.1872763 -0.0977307 0.3840662 205 205 205
0.1840777 -0.09199498 0.3736598 205 205 205
0.1754659 -0.08134048 0.3550049 205 205 205
0.1745282 -0.0704568 0.3340386 205 205 205
0.1754912 -0.06921863 0.331403 205 205 205
-0.05310361 -0.0896254 0.4450678 205 205 205
0.1837795 -0.1070597 0.4000769 205 205 205
0.183319 -0.1050787 0.396345 205 205 205
0.1839947 -0.1014159 0.3890547 205 205 205
0.1855648 -0.1001818 0.3862573 205 205 205
0.186336 -0.09956159 0.384858 205 205 205
0.1822442 -0.09027709 0.3679077 205 205 205
0.1763941 -0.08226234 0.3538681 205 205 205
0.1738236 -0.0752904 0.3410372 205 205 205
0.1743804 -0.07360388 0.3376474 205 205 205
0.1753943 -0.07236088 0.3350053 205 205 205
0.1773987 -0.07200366 0.3338328 205 205 205
-0.05940338 -0.0873688 0.4400218 205 205 205
-0.05312044 -0.09047379 0.4435499 205 205 205
-0.0511387 -0.09285408 0.4474193 205 205 205
0.182748 -0.09079375 0.3659562 205 205 205
0.1762265 -0.07643213 0.3400868 205 205 205
0.1767522 -0.07580514 0.3387595 205 205 205
-0.05847635 -0.08939664 0.440462 205 205 205
-0.05116442 -0.0937058 0.4458914 205 205 205
-0.04966332 -0.1080843 0.4732619 205 205 205
0.1859749 -0.1092676 0.3975208 205 205 205
0.1774518 -0.08100336 0.3459175 205 205 205
0.1780133 -0.08037252 0.3445816 205 205 205
0.1785657 -0.07974021 0.3432462 205 205 205
0.1801691 -0.07783466 0.3392428 205 205 205
0.182224 -0.07746087 0.338033 205 205 205
0.1827291 -0.07681896 0.3366969 205 205 205
-0.05985722 -0.08984157 0.4387644 205 205 205
-0.05201057 -0.09621775 0.4479028 205 205 205
0.186673 -0.09722241 0.3715318 205 205 205
0.1795321 -0.08654776 0.3532464 205 205 205
0.1797491 -0.08435663 0.3490707 205 205 205
0.1804568 -0.08152441 0.3435729 205 205 205
0.1810022 -0.08088357 0.3422345 205 205 205
0.1861852 -0.07882255 0.3370979 205 205 205
0.188266 -0.07952741 0.3379108 205 205 205
0.1892944 -0.07932322 0.3372796 205 205 205
-0.05615762 -0.09263226 0.4395398 205 205 205
0.1886034 -0.1119179 0.3956927 205 205 205
0.1871918 -0.1089366 0.3904786 205 205 205
0.1866415 -0.1068947 0.386799 205 205 205
0.1869735 -0.1057892 0.3846435 205 205 205
0.1880519 -0.104042 0.3810954 205 205 205
0.1895494 -0.1027546 0.3783029 205 205 205
0.1883896 -0.1002463 0.3739154 205 205 205
0.1826371 -0.08709735 0.3508511 205 205 205
0.1876082 -0.08234677 0.3407777 205 205 205
-0.06007881 -0.09188662 0.4366089 205 205 205
-0.0535083 -0.1008699 0.4509971 205 205 205
0.1881541 -0.104124 0.3783195 205 205 205
0.1874912 -0.09936437 0.369677 205 205 205
0.1856474 -0.09367391 0.3596242 205 205 205
0.1845509 -0.08892479 0.3511294 205 205 205
0.1895392 -0.0841197 0.3410249 205 205 205
-0.05705832 -0.09594627 0.4400034 205 205 205
-0.05653603 -0.09802344 0.4436856 205 205 205
-0.05533791 -0.09882925 0.4447291 205 205 205
-0.05372502 -0.1055265 0.4566385 205 205 205
0.1870805 -0.1016457 0.3711849 205 205 205
0.1862484 -0.09301054 0.3555674 205 205 205
0.1869729 -0.09122501 0.3521145 205 205 205
0.1887852 -0.08810775 0.3459573 205 205 205
0.1920053 -0.08636019 0.3419629 205 205 205
0.1883135 -0.1042337 0.3727878 205 205 205
0.1885554 -0.1031001 0.3706623 205 205 205
0.1895236 -0.09742083 0.3600906 205 205 205
0.189299 -0.09467383 0.3551623 205 205 205
0.1912796 -0.08924304 0.3448183 205 205 205
-0.0596139 -0.09636211 0.4357149 205 205 205
-0.05546742 -0.1073018 0.4542196 205 205 205
0.1894504 -0.1096013 0.3793844 205 205 205
0.1898363 -0.09396381 0.35111 205 205 205
0.1909373 -0.09376251 0.3504668 205 205 205
0.1921819 -0.09010898 0.3435901 205 205 205
0.1927293 -0.08827748 0.3401671 205 205 205
-0.05733627 -0.1051965 0.4479552 205 205 205
0.1924359 -0.1002313 0.3590205 205 205 205
-0.06028809 -0.1022327 0.4406559 205 205 205
-0.0567873 -0.111642 0.4563062 205 205 205
0.1974069 -0.1207475 0.391401 205 205 205
0.193559 -0.1152067 0.3825922 205 205 205
0.1913139 -0.1099724 0.3739036 205 205 205
0.1913247 -0.1071679 0.3689296 205 205 205
0.1934048 -0.09367973 0.3445361 205 205 205
0.1939764 -0.09182219 0.3411131 205 205 205
-0.06310194 -0.102246 0.4387453 205 205 205
-0.06001224 -0.1056202 0.4436209 205 205 205
0.1974274 -0.119162 0.3856587 205 205 205
0.1939608 -0.1140803 0.3776456 205 205 205
0.1947136 -0.103729 0.3592706 205 205 205
0.1947361 -0.09737195 0.3481257 205 205 205
0.1943098 -0.09454145 0.3432819 205 205 205
-0.06213359 -0.1073595 0.4444843 205 205 205
0.1951725 -0.1041641 0.3572569 205 205 205
0.1950744 -0.09894702 0.3482179 205 205 205
0.1946156 -0.09728032 0.3454437 205 205 205
0.1946579 -0.09609756 0.34338 205 205 205
0.1952114 -0.09539676 0.3420208 205 205 205
-0.06240083 -0.1152232 0.4553792 205 205 205
0.1931235 -0.1102434 0.3656646 205 205 205
0.1944999 -0.1088544 0.3629005 205 205 205
0.1971414 -0.1060551 0.3573736 205 205 205
0.1957398 -0.1033962 0.3531601 205 205 205
0.1954764 -0.09933505 0.346234 205 205 205
0.1960876 -0.09743789 0.3428092 205 205 205
-0.06547122 -0.1090559 0.4427072 205 205 205
0.1958422 -0.1143709 0.3693247 205 205 205
0.1955788 -0.1126786 0.3664975 205 205 205
0.1971458 -0.1100745 0.361623 205 205 205
0.1963919 -0.1002007 0.3449491 205 205 205
-0.06562689 -0.1165331 0.4526892 205 205 205
0.2059914 -0.1277446 0.3865946 205 205 205
0.1980478 -0.1151234 0.3673 205 205 205
0.1987832 -0.1102902 0.3589032 205 205 205
0.1959828 -0.1049026 0.3505157 205 205 205
0.1967314 -0.1017755 0.3450198 205 205 205
-0.06782205 -0.1183098 0.4534808 205 205 205
0.201286 -0.1197985 0.3716065 205 205 205
0.197645 -0.1026341 0.3437203 205 205 205
0.2133438 -0.1336072 0.388665 205 205 205
0.2087244 -0.1273221 0.3794237 205 205 205
0.2000627 -0.1128386 0.357596 205 205 205
0.1979238 -0.105436 0.3458303 205 205 205
0.2067568 -0.1222848 0.3688128 205 205 205
0.2193142 -0.1379679 0.3884265 205 205 205
0.2043518 -0.1183242 0.3576477 205 205 205
0.2000291 -0.109986 0.3452626 205 205 205
0.201922 -0.1131206 0.3473296 205 205 205
0.2157019 -0.1324869 0.3720472 205 205 205
0.2057709 -0.1196084 0.3541668 205 205 205
0.2282486 -0.1466974 0.3884132 205 205 205
0.2167333 -0.1334422 0.3705516 205 205 205
0.2062103 -0.119977 0.3520822 205 205 205
0.2293478 -0.1477128 0.386813 205 205 205
0.2273453 -0.1455687 0.3811454 205 205 205
0.2253057 -0.1433864 0.3755184 205 205 205
