0, 0, 0
0.491265, -0.2931727, -0.8531553
0.4502161, -0.2827312, -0.8754938
0.4777327, -0.2755124, -0.8479654
0.4383801, -0.2599438, -0.8323994
0.4059504, -0.2582426, -0.8208647
0.3893059, -0.2541778, -0.8127328
0.4759375, -0.2823513, -0.8547242
0.428967, -0.2453115, -0.8798686
0.3970434, -0.228891, -0.899141
0.3735269, -0.2282675, -0.8935053
0.3629991, -0.2322264, -0.8821939
0.4751086, -0.2888736, -0.8575713
0.426768, -0.2649355, -0.8892596
0.3854664, -0.2576881, -0.8901119
0.3829546, -0.2649482, -0.863309
0.3958379, -0.2683129, -0.8522909
0.4733726, -0.2977491, -0.8613315
0.4227389, -0.2844552, -0.8926978
0.3884192, -0.277266, -0.9030918
0.3810734, -0.2799921, -0.8818251
0.3918265, -0.2819451, -0.8660831
0.4721975, -0.3067789, -0.8619829
0.4232877, -0.3053234, -0.89149
0.4009433, -0.3029315, -0.9025913
0.3894733, -0.3041281, -0.888703
0.3921504, -0.2998165, -0.874449
0, 0, 0
0.3322966, -0.289273, -0.6818875
0.3062686, -0.2683382, -0.7179005
0.3394287, -0.274025, -0.7008992
0.3382688, -0.259886, -0.7442932
0.320379, -0.2592878, -0.773252
0.316557, -0.2539415, -0.7916446
0.330387, -0.2776231, -0.6989567
0.3126327, -0.2319403, -0.7395462
0.3097347, -0.2217326, -0.7783477
0.3154458, -0.2282469, -0.8010892
0.3225683, -0.2376928, -0.8112963
0.3249462, -0.2823831, -0.6981736
0.2956054, -0.2452434, -0.7376421
0.2889532, -0.2350561, -0.7826337
0.3003423, -0.244313, -0.8050522
0.3123476, -0.2539719, -0.8119006
0.3175618, -0.2888623, -0.6977608
0.2866206, -0.2635348, -0.7387593
0.2851407, -0.2627767, -0.7802953
0.2997, -0.271957, -0.7955715
0.314891, -0.2808248, -0.8006788
0.3129229, -0.2967056, -0.6980972
0.2792298, -0.2820845, -0.7398775
0.2778162, -0.2795932, -0.767992
0.2878012, -0.2856111, -0.7823172
0.3007289, -0.2887609, -0.7880684
