0, 0, 0
0, 0, 0
0, 0, 0
0, 0, 0
0, 0, 0
0, 0, 0
0, 0, 0
0, 0, 0
0, 0, 0
0, 0, 0
0, 0, 0
0, 0, 0
0, 0, 0
0, 0, 0
0, 0, 0
0, 0, 0
0, 0, 0
0, 0, 0
0, 0, 0
0, 0, 0
0, 0, 0
0, 0, 0
0, 0, 0
0, 0, 0
0, 0, 0
0, 0, 0
0, 0, 0
0, 0, 0
0.2760797, -0.1000173, -0.9640447
0.2607378, -0.06042894, -0.9882737
0.2883942, -0.09029853, -0.9865761
0.3051679, -0.07071715, -1.023272
0.3103647, -0.05593851, -1.051893
0.3150715, -0.04892942, -1.068808
0.2790353, -0.08741385, -0.9814354
0.281568, -0.03369508, -1.014983
0.2773339, -0.004670183, -1.041531
0.2684777, -0.004574718, -1.063995
0.2629953, -0.01458053, -1.07527
0.27193, -0.08755288, -0.9774278
0.2620482, -0.03108915, -1.004788
0.251196, 0.003755261, -1.034483
0.2424685, 0.007768694, -1.059344
0.2391148, -0.000567426, -1.07371
0.2621112, -0.087577, -0.9726754
0.2427552, -0.03468234, -0.9992493
0.2316031, -0.0004568211, -1.018816
0.2230301, 0.006733302, -1.039039
0.2176855, 0.003823807, -1.05638
0.2537201, -0.09026854, -0.9702339
0.2256898, -0.04502747, -0.9915923
0.2148751, -0.02022055, -0.9983907
0.2039755, -0.01528807, -1.012717
0.2005735, -0.01719762, -1.02669
