0, 0, 0
0, 0, 0
0, 0, 0
0, 0, 0
0, 0, 0
0, 0, 0
0, 0, 0
0, 0, 0
0, 0, 0
0, 0, 0
0, 0, 0
0, 0, 0
0, 0, 0
0, 0, 0
0, 0, 0
0, 0, 0
0, 0, 0
0, 0, 0
0, 0, 0
0, 0, 0
0, 0, 0
0, 0, 0
0, 0, 0
0, 0, 0
0, 0, 0
0, 0, 0
0, 0, 0
0, 0, 0
0.8753301, -0.5575088, -0.7099439
0.8617297, -0.5960854, -0.7384477
0.8742709, -0.5599377, -0.7342396
0.8855006, -0.5821542, -0.7725421
0.8945348, -0.6084452, -0.7905627
0.8983408, -0.6134122, -0.809683
0.8721517, -0.5669502, -0.7279336
0.8453952, -0.5969355, -0.777817
0.8565567, -0.619718, -0.8079004
0.8777934, -0.6256291, -0.8177401
0.8934219, -0.6221763, -0.8166578
0.8731386, -0.5717785, -0.7227762
0.8469226, -0.6121196, -0.7622724
0.8527207, -0.6426882, -0.7973437
0.8723393, -0.6505687, -0.8136163
0.8880466, -0.6486356, -0.8193094
0.8747854, -0.5786666, -0.7161598
0.8562205, -0.6244924, -0.7493811
0.8600066, -0.6538658, -0.7790171
0.8752771, -0.6615033, -0.7945423
0.8908699, -0.6615604, -0.8040183
0.8789967, -0.5838864, -0.7099804
0.8676127, -0.633588, -0.7349456
0.8680803, -0.6560649, -0.7532389
0.8782559, -0.6667867, -0.764791
0.888288, -0.6680616, -0.7750919
