0, 0, 0
0, 0, 0
0, 0, 0
0, 0, 0
0, 0, 0
0, 0, 0
0, 0, 0
0, 0, 0
0, 0, 0
0, 0, 0
0, 0, 0
0, 0, 0
0, 0, 0
0, 0, 0
0, 0, 0
0, 0, 0
0, 0, 0
0, 0, 0
0, 0, 0
0, 0, 0
0, 0, 0
0, 0, 0
0, 0, 0
0, 0, 0
0, 0, 0
0, 0, 0
0, 0, 0
0, 0, 0
0.1622313, -0.3823657, -0.620568
0.1205619, -0.3752053, -0.6441
0.1594931, -0.3685447, -0.6416349
0.1497375, -0.3552653, -0.6827664
0.1324501, -0.35797, -0.7105635
0.1244382, -0.3574496, -0.7277456
0.1523706, -0.3743055, -0.6365584
0.107608, -0.3434788, -0.6700332
0.08260582, -0.3426431, -0.7015412
0.07973676, -0.3532214, -0.7232183
0.08506719, -0.3631302, -0.734197
0.1489205, -0.3801056, -0.6329876
0.09720191, -0.3597364, -0.659826
0.07117777, -0.3638398, -0.6974221
0.07713307, -0.3760178, -0.7206249
0.09038682, -0.3833781, -0.728322
0.1440054, -0.3880972, -0.6287457
0.09302862, -0.3790424, -0.6553871
0.07252774, -0.3852518, -0.6886151
0.08530688, -0.3940917, -0.7054831
0.1028118, -0.3986703, -0.7101687
0.1419853, -0.3966742, -0.626347
0.09233189, -0.3989921, -0.650929
0.07982719, -0.4038431, -0.6733579
0.08869581, -0.4101064, -0.6883548
0.1016788, -0.4095502, -0.6952188
