0, 0, 0
0, 0, 0
0, 0, 0
0, 0, 0
0, 0, 0
0, 0, 0
0, 0, 0
0, 0, 0
0, 0, 0
0, 0, 0
0, 0, 0
0, 0, 0
0, 0, 0
0, 0, 0
0, 0, 0
0, 0, 0
0, 0, 0
0, 0, 0
0, 0, 0
0, 0, 0
0, 0, 0
0, 0, 0
0, 0, 0
0, 0, 0
0, 0, 0
0, 0, 0
0, 0, 0
0, 0, 0
0.2388804, -0.1359677, -0.7673358
0.2227784, -0.09635629, -0.7874175
0.2533689, -0.1207317, -0.7810588
0.2691419, -0.09283795, -0.8134592
0.2746004, -0.07486268, -0.8411093
0.2802496, -0.06541871, -0.8564411
0.2429668, -0.1206288, -0.7789701
0.24331, -0.06032225, -0.7996835
0.2416257, -0.02921601, -0.8257796
0.2410091, -0.02276015, -0.8492418
0.2417176, -0.0271316, -0.8643498
0.2356037, -0.1228409, -0.7780589
0.2219544, -0.06461551, -0.7973107
0.2145256, -0.03173856, -0.8290801
0.2163575, -0.03159299, -0.8558067
0.2211022, -0.04032429, -0.8694652
0.2255606, -0.125511, -0.7774736
0.204445, -0.07410232, -0.8009315
0.195526, -0.04653448, -0.8289139
0.1993721, -0.04883858, -0.851476
0.206421, -0.05840304, -0.8656087
0.217788, -0.1301066, -0.7787979
0.1894264, -0.08842441, -0.8042591
0.1821827, -0.07261019, -0.824077
0.1854131, -0.07568642, -0.8420439
0.1947267, -0.08137962, -0.8517417
