0, 0, 0
0, 0, 0
0, 0, 0
0, 0, 0
0, 0, 0
0, 0, 0
0, 0, 0
0, 0, 0
0, 0, 0
0, 0, 0
0, 0, 0
0, 0, 0
0, 0, 0
0, 0, 0
0, 0, 0
0, 0, 0
0, 0, 0
0, 0, 0
0, 0, 0
0, 0, 0
0, 0, 0
0, 0, 0
0, 0, 0
0, 0, 0
0, 0, 0
0, 0, 0
0, 0, 0
0, 0, 0
0.1038006, -0.5531231, -0.6567519
0.06638579, -0.561388, -0.6862947
0.09995151, -0.5441894, -0.6793389
0.08841603, -0.5496797, -0.7230814
0.0733516, -0.5670502, -0.7479834
0.06757871, -0.5704741, -0.7662972
0.09445378, -0.5505522, -0.6741678
0.04902384, -0.5374481, -0.717558
0.02716769, -0.5452268, -0.750173
0.03003225, -0.5577284, -0.7707839
0.03913482, -0.5663905, -0.7802068
0.09259363, -0.5565625, -0.6706476
0.04165782, -0.5551689, -0.707216
0.01921083, -0.5645397, -0.7438281
0.03517697, -0.5757426, -0.7629918
0.05151712, -0.5792486, -0.766122
0.08993368, -0.5650275, -0.6664506
0.04184209, -0.5745494, -0.7010663
0.02308637, -0.5854579, -0.7319977
0.04032797, -0.5915919, -0.7458254
0.05894704, -0.591806, -0.7474478
0.09023187, -0.5735989, -0.6633236
0.0468373, -0.5932456, -0.6936523
0.03491178, -0.6020684, -0.7145759
0.04609782, -0.6072539, -0.7283489
0.05933283, -0.6035107, -0.7338145
