0, 0, 0
0, 0, 0
0, 0, 0
0, 0, 0
0, 0, 0
0, 0, 0
0, 0, 0
0, 0, 0
0, 0, 0
0, 0, 0
0, 0, 0
0, 0, 0
0, 0, 0
0, 0, 0
0, 0, 0
0, 0, 0
0, 0, 0
0, 0, 0
0, 0, 0
0, 0, 0
0, 0, 0
0, 0, 0
0, 0, 0
0, 0, 0
0, 0, 0
0, 0, 0
0, 0, 0
0, 0, 0
0.5330855, -0.2663971, -0.9573557
0.5116522, -0.2546887, -1.000566
0.5431359, -0.2509117, -0.9782509
0.550329, -0.2330722, -1.02011
0.5469735, -0.2285408, -1.052433
0.5508731, -0.2201205, -1.06967
0.534038, -0.2564353, -0.9771861
0.516922, -0.2210844, -1.026979
0.5074264, -0.2104107, -1.064246
0.5147077, -0.2183315, -1.085768
0.5256175, -0.2288807, -1.091444
0.5288675, -0.2620798, -0.9761217
0.5000405, -0.2359781, -1.025877
0.4818566, -0.2260554, -1.067499
0.4862891, -0.2315892, -1.093195
0.4980945, -0.2393022, -1.102689
0.5219951, -0.269851, -0.9753843
0.4926803, -0.2554272, -1.02602
0.4825442, -0.2552166, -1.063909
0.4955938, -0.2641483, -1.080599
0.5116649, -0.2719772, -1.085483
0.5185154, -0.278302, -0.9750553
0.4899589, -0.2758428, -1.022804
0.4878341, -0.2789574, -1.048168
0.5011257, -0.2860893, -1.058913
0.5156963, -0.2871909, -1.060222
