0, 0, 0
0.8649776, -0.3744383, -0.9337591
0.844079, -0.371969, -0.9775766
0.8466291, -0.3591709, -0.9412066
0.8070558, -0.3489254, -0.9615062
0.7805963, -0.3541107, -0.9816933
0.7635924, -0.3508283, -0.9903944
0.8512145, -0.3665452, -0.9463297
0.8247364, -0.3396578, -0.9978749
0.7940257, -0.3403836, -1.025102
0.7710757, -0.3469167, -1.02991
0.7570741, -0.3528571, -1.027788
0.8536117, -0.3732336, -0.9481861
0.8319184, -0.3590352, -1.004454
0.7947381, -0.3597884, -1.032312
0.7688236, -0.365374, -1.028898
0.7559252, -0.3690677, -1.01877
0.8562654, -0.3824129, -0.9509765
0.8328578, -0.3788986, -1.005556
0.8019616, -0.3793965, -1.031699
0.7801953, -0.3824245, -1.025026
0.7690173, -0.3839777, -1.010175
0.8570607, -0.3915049, -0.9511086
0.8336424, -0.3987143, -1.002472
0.81235, -0.3982373, -1.021007
0.7942672, -0.4004297, -1.017474
0.7841374, -0.3974936, -1.007267
0, 0, 0
0.5612006, -0.376884, -0.8043259
0.5446914, -0.374353, -0.8508032
0.5707679, -0.3628119, -0.8245372
0.5833331, -0.3520754, -0.8671634
0.585052, -0.356139, -0.9002206
0.5898789, -0.3530166, -0.9186975
0.5629117, -0.3696096, -0.8242953
0.5477515, -0.3433041, -0.8801554
0.5491194, -0.3428183, -0.9207487
0.5608557, -0.3507915, -0.9405163
0.5713888, -0.3581629, -0.9489471
0.5589265, -0.3759544, -0.8234317
0.5352134, -0.3612332, -0.8790755
0.5362512, -0.3630408, -0.9259479
0.5515002, -0.3706363, -0.9461532
0.5647187, -0.3764443, -0.9544443
0.5537761, -0.3847049, -0.8228751
0.5312707, -0.3809664, -0.8781551
0.5310588, -0.3839028, -0.919763
0.5447146, -0.3895457, -0.9374037
0.5587104, -0.3945318, -0.9475556
0.5519766, -0.3936113, -0.8219688
0.5305987, -0.4009681, -0.8738693
0.5306562, -0.404002, -0.9023054
0.5400783, -0.4097936, -0.9170056
0.5515964, -0.4113538, -0.9254203
