0, 0, 0
0.1683493, -0.5562526, -0.8217512
0.1330007, -0.5611945, -0.8527362
0.1485756, -0.5457006, -0.8190571
0.1049771, -0.5459603, -0.8093989
0.07316662, -0.5549341, -0.8000923
0.05568045, -0.5579689, -0.7939004
0.1510086, -0.5521904, -0.8262309
0.09895574, -0.5358848, -0.8620929
0.07068263, -0.5362095, -0.8929617
0.04949515, -0.5470093, -0.8980405
0.03758244, -0.5564842, -0.8947886
0.1537064, -0.5581596, -0.8293996
0.1078763, -0.5533047, -0.8734851
0.07387799, -0.5633894, -0.9004721
0.05201484, -0.5778902, -0.8946034
0.04366326, -0.5856035, -0.882069
0.156796, -0.5665553, -0.8337644
0.1138831, -0.5728921, -0.8759397
0.08262759, -0.5854799, -0.8947679
0.06574872, -0.5964254, -0.8836435
0.05770895, -0.6027735, -0.8683723
0.1598226, -0.5751048, -0.8348505
0.1223608, -0.5916544, -0.8725269
0.1009092, -0.602904, -0.8805505
0.08738927, -0.6116756, -0.8715827
0.07904514, -0.613175, -0.8598343
0, 0, 0
0.1320057, -0.5071824, -0.5652385
0.09338743, -0.5158137, -0.5946014
0.1277088, -0.4995841, -0.5891238
0.1146825, -0.5057523, -0.6324314
0.09777275, -0.5230669, -0.6562034
0.09093539, -0.5275273, -0.673806
0.1220011, -0.5054426, -0.5833701
0.07665802, -0.4930801, -0.6270133
0.0496894, -0.5028217, -0.6580639
0.0425904, -0.5141646, -0.6784505
0.04207167, -0.5231225, -0.6907496
0.1198481, -0.5111562, -0.5793778
0.06838113, -0.5099849, -0.615169
0.03851583, -0.524285, -0.6494948
0.03263734, -0.5369235, -0.6717537
0.03410035, -0.5456863, -0.6857806
0.1168286, -0.5192275, -0.5745217
0.06857503, -0.5290083, -0.6078842
0.04683433, -0.5454223, -0.6400907
0.04585611, -0.5567269, -0.6601362
0.04866077, -0.5655679, -0.6753846
0.116771, -0.5275838, -0.5708497
0.07289323, -0.5470889, -0.5999444
0.0592536, -0.5588464, -0.6234604
0.05646476, -0.5690817, -0.6383856
0.05755734, -0.5745988, -0.6514841
