0, 0, 0
0.6357054, -0.4243773, -0.7322296
0.5979164, -0.4312351, -0.7607443
0.616053, -0.4119222, -0.7318952
0.5721276, -0.4076797, -0.7246966
0.539533, -0.4166462, -0.7201474
0.5210233, -0.4182621, -0.7163188
0.6178539, -0.4197555, -0.7376593
0.5668811, -0.4046494, -0.7737022
0.5283408, -0.4163865, -0.7746837
0.5111762, -0.426661, -0.7609996
0.5036436, -0.4333239, -0.7495559
0.6197605, -0.4264728, -0.7395632
0.5737839, -0.4245346, -0.7796256
0.52984, -0.4393588, -0.7780126
0.5124023, -0.4467659, -0.7593368
0.5068197, -0.4493297, -0.7437943
0.6217785, -0.4357908, -0.7420977
0.5776654, -0.4443468, -0.7773577
0.5393714, -0.4587253, -0.7757745
0.5258388, -0.4622478, -0.7575238
0.541611, -0.4656587, -0.7498503
0.644285, -0.4476773, -0.7383652
0.6070374, -0.4652983, -0.7743747
0.5801384, -0.4734661, -0.7749253
0.5653958, -0.4776627, -0.7650363
0.5558072, -0.4763755, -0.754437
0, 0, 0
0.2883913, -0.1904211, -0.7887241
0.2692003, -0.1551687, -0.8144768
0.3010658, -0.1749119, -0.8028731
0.3122553, -0.1513732, -0.8398132
0.3088, -0.138139, -0.870466
0.3108357, -0.129912, -0.8875109
0.2909147, -0.1758498, -0.8015183
0.2859533, -0.1182025, -0.8286835
0.2828334, -0.09585714, -0.8624519
0.2840135, -0.0952736, -0.8867777
0.2868307, -0.1021224, -0.900541
0.2840592, -0.1788456, -0.8011421
0.265349, -0.1251298, -0.8276481
0.258189, -0.09754985, -0.86444
0.2630497, -0.09985383, -0.8906422
0.2700013, -0.1086268, -0.9032215
0.2747028, -0.1826982, -0.8012844
0.2496548, -0.1370207, -0.8317099
0.2408664, -0.1133441, -0.8631083
0.2477079, -0.1174533, -0.8846786
0.2572828, -0.1272162, -0.8970238
0.2677718, -0.188442, -0.8027788
0.2366714, -0.1528439, -0.8346947
0.2287739, -0.1371139, -0.8557818
0.2322345, -0.1391199, -0.8738924
0.2419603, -0.1433713, -0.8838787
