0, 0, 0
0.834205, -0.3198392, -0.9565825
0.8172578, -0.3094149, -1.000232
0.8172372, -0.3029023, -0.9621963
0.7789741, -0.2876026, -0.9832944
0.7502785, -0.2849728, -1.001664
0.7332439, -0.2795397, -1.00846
0.8219339, -0.3095074, -0.9681911
0.8004055, -0.2732969, -1.016267
0.7720037, -0.267939, -1.045179
0.7493094, -0.2726644, -1.052485
0.735043, -0.2780685, -1.053077
0.8242591, -0.3158992, -0.9709648
0.807505, -0.2916637, -1.025521
0.7729302, -0.2866283, -1.055984
0.746727, -0.2916731, -1.055773
0.732461, -0.2963708, -1.048334
0.8268347, -0.3245907, -0.9750805
0.8079425, -0.31129, -1.029835
0.7792468, -0.3072517, -1.058071
0.7567835, -0.3105424, -1.054405
0.7430667, -0.3139997, -1.042465
0.8273524, -0.3335562, -0.9767024
0.8080874, -0.3318707, -1.029568
0.7884806, -0.3305, -1.048459
0.7701647, -0.333243, -1.047263
0.7584729, -0.3317117, -1.03865
0, 0, 0
0.5616681, -0.3298318, -0.8343186
0.5458671, -0.3196865, -0.8797286
0.5725108, -0.3139848, -0.8522207
0.5863101, -0.2984353, -0.8929254
0.5880615, -0.2980172, -0.9262641
0.5931991, -0.2929632, -0.9441912
0.5641528, -0.3201189, -0.8529214
0.5516135, -0.2852408, -0.9045146
0.5542216, -0.2799678, -0.9446675
0.5661227, -0.2865623, -0.9648494
0.5767936, -0.2940109, -0.9731959
0.5596855, -0.3262013, -0.8529362
0.5379099, -0.3021693, -0.9058138
0.5416341, -0.2984865, -0.9522284
0.5586389, -0.3054371, -0.9714366
0.5728338, -0.3116827, -0.9776787
0.5538701, -0.334517, -0.8535907
0.5324252, -0.3213844, -0.9076791
0.5339252, -0.318707, -0.9485288
0.5507734, -0.3240546, -0.9632831
0.5677147, -0.3295433, -0.9676449
0.5513801, -0.3432928, -0.8539365
0.5300247, -0.3415795, -0.9064201
0.5306242, -0.3401941, -0.9347146
0.5427806, -0.3447698, -0.9480655
0.5568799, -0.3453055, -0.9516943
