0, 0, 0
0, 0, 0
0, 0, 0
0, 0, 0
0, 0, 0
0, 0, 0
0, 0, 0
0, 0, 0
0, 0, 0
0, 0, 0
0, 0, 0
0, 0, 0
0, 0, 0
0, 0, 0
0, 0, 0
0, 0, 0
0, 0, 0
0, 0, 0
0, 0, 0
0, 0, 0
0, 0, 0
0, 0, 0
0, 0, 0
0, 0, 0
0, 0, 0
0, 0, 0
0, 0, 0
0, 0, 0
0.510956, -0.2606142, -0.9900046
0.5039281, -0.2614828, -1.039708
0.5273643, -0.2491943, -1.010932
0.5473881, -0.2363441, -1.049372
0.5518075, -0.2386228, -1.081563
0.5579718, -0.2364841, -1.099639
0.518266, -0.2553169, -1.01132
0.5170338, -0.2353077, -1.071079
0.5177399, -0.2384509, -1.109889
0.5320461, -0.2541018, -1.121484
0.5434545, -0.2650261, -1.119973
0.5127909, -0.2610164, -1.010347
0.500921, -0.251101, -1.070583
0.4998011, -0.2605601, -1.112982
0.5193571, -0.2769328, -1.122394
0.5337287, -0.2848451, -1.118146
0.5057612, -0.2690066, -1.009586
0.4940785, -0.2703068, -1.06759
0.4990699, -0.2834897, -1.101784
0.5196391, -0.2934428, -1.099594
0.534243, -0.2963352, -1.088409
0.502283, -0.2773431, -1.008105
0.490885, -0.2893618, -1.060154
0.5007757, -0.300096, -1.07903
0.518177, -0.3044199, -1.074204
0.5285161, -0.2992033, -1.064858
