0, 0, 0
0, 0, 0
0, 0, 0
0, 0, 0
0, 0, 0
0, 0, 0
0, 0, 0
0, 0, 0
0, 0, 0
0, 0, 0
0, 0, 0
0, 0, 0
0, 0, 0
0, 0, 0
0, 0, 0
0, 0, 0
0, 0, 0
0, 0, 0
0, 0, 0
0, 0, 0
0, 0, 0
0, 0, 0
0, 0, 0
0, 0, 0
0, 0, 0
0, 0, 0
0, 0, 0
0, 0, 0
0.2203746, -0.321477, -0.690609
0.1900255, -0.3134967, -0.7277719
0.2250116, -0.3053362, -0.7146328
0.2207625, -0.2804623, -0.7521743
0.2042026, -0.2739245, -0.7797629
0.1976331, -0.2683019, -0.7967094
0.2166841, -0.3120093, -0.7110845
0.1870169, -0.2812116, -0.7561929
0.172888, -0.2786911, -0.7917523
0.1808404, -0.292129, -0.8102609
0.1898763, -0.3026201, -0.8172397
0.2121571, -0.3182422, -0.7082565
0.1732528, -0.2976277, -0.7504357
0.1574598, -0.301845, -0.7900573
0.1757974, -0.3161568, -0.8047573
0.1910112, -0.3234116, -0.8056113
0.206005, -0.3267198, -0.7052108
0.1692801, -0.3174662, -0.7473999
0.1666287, -0.3275827, -0.7819216
0.1887787, -0.3322004, -0.777583
0.202546, -0.3308979, -0.7650598
0.2031984, -0.3353, -0.7038037
0.1684505, -0.3375372, -0.7440918
0.174215, -0.3441973, -0.7657805
0.192555, -0.3446604, -0.7607132
0.2013572, -0.3380511, -0.750608
