0, 0, 0
0.9418607, -0.5710291, -0.8395774
0.9131458, -0.5915621, -0.8740882
0.9183668, -0.5660568, -0.8459156
0.87558, -0.5788187, -0.8551489
0.8525504, -0.6019028, -0.8649255
0.8348872, -0.6087854, -0.8693101
0.9241575, -0.5730349, -0.8497093
0.8804252, -0.5757108, -0.896263
0.8461791, -0.5929645, -0.907267
0.8279341, -0.6053959, -0.8971668
0.8210725, -0.6112599, -0.8843037
0.9282098, -0.5789807, -0.8500756
0.8925173, -0.5934041, -0.8985338
0.8522038, -0.6126923, -0.9115037
0.8313599, -0.6221514, -0.897642
0.823295, -0.6246138, -0.8831111
0.933183, -0.5873954, -0.8505687
0.9000317, -0.6109239, -0.8935149
0.8644096, -0.6280061, -0.9063024
0.8458222, -0.6337903, -0.8940245
0.8357353, -0.6348325, -0.8787741
0.9370987, -0.5952755, -0.8481538
0.9079324, -0.6272706, -0.8853963
0.8828642, -0.6382022, -0.895954
0.8670465, -0.6439272, -0.8883351
0.8566096, -0.6424081, -0.8784218
0, 0, 0
0.666531, -0.5983548, -0.5683402
0.6597195, -0.6352594, -0.6015732
0.6714107, -0.5992231, -0.5933603
0.6889336, -0.6167968, -0.631754
0.7008255, -0.6399275, -0.6513544
0.7075207, -0.6423721, -0.6701677
0.6678265, -0.6067253, -0.5877691
0.6530079, -0.6338235, -0.6437326
0.6649879, -0.6569351, -0.6736935
0.6860788, -0.6654767, -0.6818756
0.7018578, -0.6645954, -0.6794268
0.66738, -0.6118793, -0.5825853
0.6506776, -0.6497754, -0.6290836
0.6627424, -0.6788788, -0.6635936
0.6854262, -0.6866188, -0.6753496
0.7020614, -0.6850315, -0.6772197
0.6671876, -0.6191887, -0.5758961
0.6566674, -0.6628368, -0.6149669
0.667381, -0.6904934, -0.6445307
0.6860597, -0.6973065, -0.6562305
0.7034825, -0.6970576, -0.6615989
0.6697481, -0.6247958, -0.5691672
0.6644841, -0.6727892, -0.5987092
0.6706095, -0.6935338, -0.6174613
0.6842806, -0.7024392, -0.6264775
0.696773, -0.7023688, -0.6336957
