0, 0, 0
0.7258688, -0.2644147, -1.030955
0.7021739, -0.2477161, -1.070119
0.7059839, -0.2503922, -1.029991
0.6642151, -0.2376027, -1.031442
0.6327314, -0.2382139, -1.042195
0.614994, -0.2386698, -1.04786
0.7103104, -0.2542982, -1.038542
0.6761813, -0.2138688, -1.07525
0.6432343, -0.2101293, -1.093436
0.6252448, -0.2257906, -1.090658
0.6218488, -0.2386596, -1.08145
0.7135988, -0.2591099, -1.043387
0.6865914, -0.2263146, -1.090513
0.6560553, -0.2145784, -1.123489
0.6311778, -0.2217697, -1.129889
0.619171, -0.2314411, -1.12256
0.7175131, -0.2657241, -1.050165
0.6911476, -0.2439378, -1.099972
0.6645081, -0.2375787, -1.129034
0.643087, -0.2458908, -1.130024
0.6297758, -0.255353, -1.121155
0.7198846, -0.2736201, -1.054094
0.6957461, -0.2645765, -1.103131
0.6744424, -0.2669418, -1.118724
0.6579931, -0.2750448, -1.115871
0.6481381, -0.2780682, -1.105471
0, 0, 0
0.5213342, -0.2543544, -0.9250498
0.5068517, -0.2342594, -0.9671662
0.5333466, -0.2398781, -0.9406164
0.5468369, -0.2303912, -0.9825038
0.5376806, -0.2336709, -1.015802
0.5361125, -0.2331639, -1.034773
0.5243025, -0.2431331, -0.9416304
0.5188443, -0.1983325, -0.9872338
0.5204716, -0.1933946, -1.027742
0.5303748, -0.2024036, -1.048044
0.5398595, -0.2126496, -1.055168
0.5189993, -0.2477864, -0.9424959
0.5017077, -0.211815, -0.9897299
0.5027958, -0.2059021, -1.035444
0.5181462, -0.215937, -1.054961
0.5318142, -0.2254488, -1.057978
0.5119331, -0.2541793, -0.944275
0.4933179, -0.2299059, -0.993156
0.4993713, -0.2295129, -1.034578
0.5149872, -0.2376013, -1.049489
0.5304304, -0.2459367, -1.054559
0.5075457, -0.2620495, -0.9457273
0.4883304, -0.2493387, -0.9950227
0.4997681, -0.2507761, -1.023409
0.5110639, -0.2565966, -1.036703
0.5234639, -0.2597792, -1.043115
