0, 0, 0
0, 0, 0
0, 0, 0
0, 0, 0
0, 0, 0
0, 0, 0
0, 0, 0
0, 0, 0
0, 0, 0
0, 0, 0
0, 0, 0
0, 0, 0
0, 0, 0
0, 0, 0
0, 0, 0
0, 0, 0
0, 0, 0
0, 0, 0
0, 0, 0
0, 0, 0
0, 0, 0
0, 0, 0
0, 0, 0
0, 0, 0
0, 0, 0
0, 0, 0
0, 0, 0
0, 0, 0
0.5226175, -0.2576357, -0.9856308
0.5216604, -0.2626638, -1.034758
0.5395082, -0.2439128, -1.005388
0.5592803, -0.2232378, -1.038799
0.5642793, -0.2261986, -1.070361
0.5689783, -0.2287587, -1.088227
0.531706, -0.2519704, -1.006348
0.5339302, -0.2368287, -1.066426
0.5508993, -0.2490644, -1.09756
0.570141, -0.2629412, -1.093113
0.5796689, -0.2689742, -1.081933
0.5269924, -0.2587003, -1.005356
0.5219218, -0.2548689, -1.064196
0.5466773, -0.2735291, -1.093086
0.5674328, -0.2786766, -1.075154
0.569795, -0.2739514, -1.058796
0.5211042, -0.2679853, -1.004539
0.5185222, -0.2740158, -1.058917
0.5437197, -0.2903732, -1.079206
0.5526936, -0.2848235, -1.058787
0.5471722, -0.2750535, -1.043553
0.5188749, -0.2766823, -1.002767
0.5174157, -0.2932763, -1.05306
0.5365795, -0.3013113, -1.063768
0.5462656, -0.2957833, -1.048262
0.5445743, -0.2855115, -1.037491
